# Blender v2.78 (sub 0) OBJ File: 'vtrack.blend'
# www.blender.org
o Cube.004
v 0.999999 0.602383 -0.922711
v 1.000000 -0.688642 0.604789
v 0.926987 -0.620982 0.566375
v 0.926986 0.575780 -0.849596
v 0.891845 -0.347025 0.598104
v -0.891845 -0.347025 0.598105
v -0.891845 0.726254 -0.707723
v 0.891844 0.726254 -0.707723
v -1.000000 0.602382 -0.922710
v -0.926987 0.575780 -0.849595
v -1.000000 -0.688643 0.604789
v -0.926986 -0.620983 0.566376
v 1.000000 -0.842241 0.619994
v -1.000000 -0.842241 0.619994
v 1.000000 -0.885240 0.677475
v -1.000000 -0.885240 0.677476
v -1.000000 -0.394856 0.450851
v 1.000000 -0.394856 0.450851
v 1.000000 -0.394856 0.684867
v -1.000000 -0.394856 0.684867
v -1.000000 -0.885240 0.677476
v 1.000000 -0.885240 0.677475
v 1.000000 -0.885240 0.870620
v -1.000000 -0.885240 0.870620
v 1.000000 -0.308965 0.450851
v -1.000000 -0.308966 0.450851
v -1.000000 -0.223075 0.450851
v 1.000000 -0.223075 0.450851
v -1.000000 -0.308966 0.255874
v 1.000000 -0.308965 0.255874
v -1.000000 -0.394856 0.309545
v 1.000000 -0.394856 0.309545
v -1.000000 -0.148664 0.172893
v 1.000000 -0.148664 0.172893
v 1.000000 -0.148664 0.406909
v -1.000000 -0.148664 0.406909
v 1.000000 -0.062773 0.172893
v -1.000000 -0.062773 0.172893
v -1.000000 0.023117 0.172893
v 1.000000 0.023118 0.172893
v -1.000000 -0.062773 -0.022084
v 1.000000 -0.062773 -0.022084
v -1.000000 -0.148664 0.031587
v 1.000000 -0.148664 0.031586
v -1.000000 0.085938 -0.099544
v 1.000000 0.085938 -0.099545
v 1.000000 0.085938 0.134471
v -1.000000 0.085938 0.134472
v 1.000000 0.171829 -0.099545
v -1.000000 0.171829 -0.099544
v -1.000000 0.257719 -0.099544
v 1.000000 0.257720 -0.099545
v -1.000000 0.171829 -0.294521
v 1.000000 0.171829 -0.294522
v -1.000000 0.085938 -0.240851
v 1.000000 0.085938 -0.240851
v -1.000000 0.298114 -0.364513
v 1.000000 0.298114 -0.364513
v 1.000000 0.298114 -0.130497
v -1.000000 0.298114 -0.130497
v 1.000000 0.384005 -0.364513
v -1.000000 0.384005 -0.364513
v -1.000000 0.469895 -0.364513
v 1.000000 0.469896 -0.364513
v -1.000000 0.384005 -0.559490
v 1.000000 0.384005 -0.559490
v -1.000000 0.298114 -0.505819
v 1.000000 0.298114 -0.505819
v -1.000000 0.507106 -0.635795
v 1.000000 0.507106 -0.635795
v 1.000000 0.507106 -0.401779
v -1.000000 0.507106 -0.401779
v 1.000000 0.592997 -0.635795
v -1.000000 0.592997 -0.635795
v -1.000000 0.678888 -0.635795
v 1.000000 0.678888 -0.635795
v -1.000000 0.592997 -0.830771
v 1.000000 0.592997 -0.830772
v -1.000000 0.507106 -0.777101
v 1.000000 0.507106 -0.777101
v 0.999999 2.072383 -2.692711
v 1.000000 0.781358 -1.165211
v 0.926987 0.849018 -1.203624
v 0.926986 2.045780 -2.619596
v 0.891845 1.122975 -1.171896
v -0.891845 1.122975 -1.171895
v -0.891845 2.196254 -2.477723
v 0.891844 2.196254 -2.477723
v -1.000000 2.072382 -2.692710
v -0.926987 2.045780 -2.619595
v -1.000000 0.781357 -1.165211
v -0.926986 0.849017 -1.203624
v 1.000000 0.627759 -1.150006
v -1.000000 0.627759 -1.150006
v 1.000000 0.584760 -1.092525
v -1.000000 0.584760 -1.092524
v -1.000000 1.075144 -1.319149
v 1.000000 1.075144 -1.319149
v 1.000000 1.075144 -1.085133
v -1.000000 1.075144 -1.085133
v -1.000000 0.584760 -1.092524
v 1.000000 0.584760 -1.092525
v 1.000000 0.584760 -0.899380
v -1.000000 0.584760 -0.899380
v 1.000000 1.161035 -1.319149
v -1.000000 1.161034 -1.319149
v -1.000000 1.246925 -1.319149
v 1.000000 1.246925 -1.319149
v -1.000000 1.161034 -1.514126
v 1.000000 1.161035 -1.514126
v -1.000000 1.075144 -1.460455
v 1.000000 1.075144 -1.460455
v -1.000000 1.321336 -1.597107
v 1.000000 1.321336 -1.597107
v 1.000000 1.321336 -1.363091
v -1.000000 1.321336 -1.363091
v 1.000000 1.407227 -1.597107
v -1.000000 1.407227 -1.597107
v -1.000000 1.493117 -1.597107
v 1.000000 1.493118 -1.597107
v -1.000000 1.407227 -1.792084
v 1.000000 1.407227 -1.792084
v -1.000000 1.321336 -1.738413
v 1.000000 1.321336 -1.738413
v -1.000000 1.555938 -1.869544
v 1.000000 1.555938 -1.869545
v 1.000000 1.555938 -1.635529
v -1.000000 1.555938 -1.635528
v 1.000000 1.641829 -1.869545
v -1.000000 1.641829 -1.869544
v -1.000000 1.727719 -1.869544
v 1.000000 1.727720 -1.869545
v -1.000000 1.641829 -2.064521
v 1.000000 1.641829 -2.064522
v -1.000000 1.555938 -2.010850
v 1.000000 1.555938 -2.010851
v -1.000000 1.768114 -2.134513
v 1.000000 1.768114 -2.134513
v 1.000000 1.768114 -1.900497
v -1.000000 1.768114 -1.900497
v 1.000000 1.854005 -2.134513
v -1.000000 1.854005 -2.134513
v -1.000000 1.939896 -2.134513
v 1.000000 1.939896 -2.134513
v -1.000000 1.854005 -2.329490
v 1.000000 1.854005 -2.329490
v -1.000000 1.768114 -2.275819
v 1.000000 1.768114 -2.275819
v -1.000000 1.977106 -2.405795
v 1.000000 1.977107 -2.405795
v 1.000000 1.977107 -2.171779
v -1.000000 1.977106 -2.171778
v 1.000000 2.062997 -2.405795
v -1.000000 2.062997 -2.405795
v -1.000000 2.148888 -2.405795
v 1.000000 2.148888 -2.405795
v -1.000000 2.062997 -2.600771
v 1.000000 2.062997 -2.600772
v -1.000000 1.977106 -2.547101
v 1.000000 1.977107 -2.547101
v 0.999999 3.542383 -4.462711
v 1.000000 2.251358 -2.935211
v 0.926987 2.319018 -2.973624
v 0.926986 3.515780 -4.389596
v 0.891845 2.592975 -2.941895
v -0.891845 2.592975 -2.941895
v -0.891845 3.666254 -4.247723
v 0.891844 3.666254 -4.247723
v -1.000000 3.542382 -4.462710
v -0.926987 3.515780 -4.389595
v -1.000000 2.251357 -2.935211
v -0.926986 2.319017 -2.973624
v 1.000000 2.097759 -2.920006
v -1.000000 2.097759 -2.920006
v 1.000000 2.054760 -2.862525
v -1.000000 2.054760 -2.862525
v -1.000000 2.545144 -3.089149
v 1.000000 2.545144 -3.089149
v 1.000000 2.545144 -2.855133
v -1.000000 2.545144 -2.855133
v -1.000000 2.054760 -2.862525
v 1.000000 2.054760 -2.862525
v 1.000000 2.054760 -2.669380
v -1.000000 2.054760 -2.669379
v 1.000000 2.631035 -3.089149
v -1.000000 2.631034 -3.089149
v -1.000000 2.716925 -3.089149
v 1.000000 2.716926 -3.089149
v -1.000000 2.631034 -3.284126
v 1.000000 2.631035 -3.284126
v -1.000000 2.545144 -3.230455
v 1.000000 2.545144 -3.230455
v -1.000000 2.791336 -3.367107
v 1.000000 2.791336 -3.367107
v 1.000000 2.791336 -3.133091
v -1.000000 2.791336 -3.133091
v 1.000000 2.877227 -3.367107
v -1.000000 2.877227 -3.367107
v -1.000000 2.963117 -3.367107
v 1.000000 2.963118 -3.367107
v -1.000000 2.877227 -3.562084
v 1.000000 2.877227 -3.562084
v -1.000000 2.791336 -3.508413
v 1.000000 2.791336 -3.508414
v -1.000000 3.025938 -3.639544
v 1.000000 3.025938 -3.639545
v 1.000000 3.025938 -3.405529
v -1.000000 3.025938 -3.405528
v 1.000000 3.111829 -3.639545
v -1.000000 3.111829 -3.639544
v -1.000000 3.197719 -3.639544
v 1.000000 3.197720 -3.639545
v -1.000000 3.111829 -3.834521
v 1.000000 3.111829 -3.834522
v -1.000000 3.025938 -3.780850
v 1.000000 3.025938 -3.780851
v -1.000000 3.238114 -3.904513
v 1.000000 3.238114 -3.904513
v 1.000000 3.238114 -3.670497
v -1.000000 3.238114 -3.670497
v 1.000000 3.324005 -3.904513
v -1.000000 3.324005 -3.904513
v -1.000000 3.409895 -3.904513
v 1.000000 3.409896 -3.904513
v -1.000000 3.324005 -4.099490
v 1.000000 3.324005 -4.099490
v -1.000000 3.238114 -4.045819
v 1.000000 3.238114 -4.045819
v -1.000000 3.447106 -4.175795
v 1.000000 3.447107 -4.175795
v 1.000000 3.447107 -3.941779
v -1.000000 3.447106 -3.941778
v 1.000000 3.532997 -4.175795
v -1.000000 3.532997 -4.175795
v -1.000000 3.618888 -4.175795
v 1.000000 3.618888 -4.175795
v -1.000000 3.532997 -4.370771
v 1.000000 3.532997 -4.370772
v -1.000000 3.447106 -4.317101
v 1.000000 3.447107 -4.317101
v 0.999999 5.012383 -6.232711
v 1.000000 3.721357 -4.705211
v 0.926987 3.789018 -4.743625
v 0.926986 4.985780 -6.159595
v 0.891845 4.062975 -4.711895
v -0.891845 4.062975 -4.711895
v -0.891845 5.136253 -6.017723
v 0.891844 5.136254 -6.017723
v -1.000000 5.012382 -6.232710
v -0.926987 4.985780 -6.159595
v -1.000000 3.721357 -4.705211
v -0.926986 3.789017 -4.743624
v 1.000000 3.567759 -4.690006
v -1.000000 3.567759 -4.690006
v 1.000000 3.524760 -4.632524
v -1.000000 3.524760 -4.632524
v -1.000000 4.015143 -4.859149
v 1.000000 4.015144 -4.859149
v 1.000000 4.015144 -4.625133
v -1.000000 4.015143 -4.625133
v -1.000000 3.524760 -4.632524
v 1.000000 3.524760 -4.632524
v 1.000000 3.524760 -4.439380
v -1.000000 3.524760 -4.439380
v 1.000000 4.101035 -4.859149
v -1.000000 4.101034 -4.859149
v -1.000000 4.186925 -4.859149
v 1.000000 4.186925 -4.859149
v -1.000000 4.101034 -5.054126
v 1.000000 4.101035 -5.054126
v -1.000000 4.015143 -5.000455
v 1.000000 4.015144 -5.000455
v -1.000000 4.261335 -5.137107
v 1.000000 4.261336 -5.137107
v 1.000000 4.261336 -4.903091
v -1.000000 4.261335 -4.903091
v 1.000000 4.347227 -5.137107
v -1.000000 4.347226 -5.137107
v -1.000000 4.433117 -5.137107
v 1.000000 4.433117 -5.137107
v -1.000000 4.347226 -5.332084
v 1.000000 4.347227 -5.332084
v -1.000000 4.261335 -5.278413
v 1.000000 4.261336 -5.278413
v -1.000000 4.495938 -5.409544
v 1.000000 4.495938 -5.409544
v 1.000000 4.495938 -5.175529
v -1.000000 4.495938 -5.175528
v 1.000000 4.581829 -5.409544
v -1.000000 4.581829 -5.409544
v -1.000000 4.667719 -5.409544
v 1.000000 4.667719 -5.409544
v -1.000000 4.581829 -5.604521
v 1.000000 4.581829 -5.604522
v -1.000000 4.495938 -5.550850
v 1.000000 4.495938 -5.550851
v -1.000000 4.708114 -5.674513
v 1.000000 4.708114 -5.674513
v 1.000000 4.708114 -5.440497
v -1.000000 4.708114 -5.440496
v 1.000000 4.794005 -5.674513
v -1.000000 4.794004 -5.674513
v -1.000000 4.879895 -5.674513
v 1.000000 4.879896 -5.674513
v -1.000000 4.794004 -5.869490
v 1.000000 4.794005 -5.869490
v -1.000000 4.708114 -5.815819
v 1.000000 4.708114 -5.815819
v -1.000000 4.917106 -5.945795
v 1.000000 4.917106 -5.945795
v 1.000000 4.917106 -5.711779
v -1.000000 4.917106 -5.711779
v 1.000000 5.002997 -5.945795
v -1.000000 5.002997 -5.945795
v -1.000000 5.088888 -5.945795
v 1.000000 5.088888 -5.945795
v -1.000000 5.002997 -6.140771
v 1.000000 5.002997 -6.140772
v -1.000000 4.917106 -6.087101
v 1.000000 4.917106 -6.087101
v 0.999999 6.482383 -8.002710
v 1.000000 5.191358 -6.475211
v 0.926987 5.259018 -6.513624
v 0.926986 6.455781 -7.929596
v 0.891845 5.532975 -6.481895
v -0.891845 5.532975 -6.481895
v -0.891845 6.606254 -7.787723
v 0.891844 6.606255 -7.787723
v -1.000000 6.482382 -8.002710
v -0.926987 6.455780 -7.929595
v -1.000000 5.191357 -6.475211
v -0.926986 5.259017 -6.513624
v 1.000000 5.037759 -6.460006
v -1.000000 5.037759 -6.460006
v 1.000000 4.994761 -6.402525
v -1.000000 4.994760 -6.402524
v -1.000000 5.485144 -6.629149
v 1.000000 5.485144 -6.629149
v 1.000000 5.485144 -6.395133
v -1.000000 5.485144 -6.395133
v -1.000000 4.994760 -6.402524
v 1.000000 4.994761 -6.402525
v 1.000000 4.994761 -6.209380
v -1.000000 4.994760 -6.209380
v 1.000000 5.571035 -6.629149
v -1.000000 5.571034 -6.629149
v -1.000000 5.656925 -6.629149
v 1.000000 5.656926 -6.629149
v -1.000000 5.571034 -6.824126
v 1.000000 5.571035 -6.824126
v -1.000000 5.485144 -6.770455
v 1.000000 5.485144 -6.770455
v -1.000000 5.731336 -6.907107
v 1.000000 5.731336 -6.907107
v 1.000000 5.731336 -6.673091
v -1.000000 5.731336 -6.673091
v 1.000000 5.817227 -6.907107
v -1.000000 5.817226 -6.907107
v -1.000000 5.903117 -6.907107
v 1.000000 5.903118 -6.907107
v -1.000000 5.817226 -7.102084
v 1.000000 5.817227 -7.102084
v -1.000000 5.731336 -7.048413
v 1.000000 5.731336 -7.048413
v -1.000000 5.965938 -7.179544
v 1.000000 5.965938 -7.179544
v 1.000000 5.965938 -6.945529
v -1.000000 5.965938 -6.945528
v 1.000000 6.051829 -7.179544
v -1.000000 6.051829 -7.179544
v -1.000000 6.137720 -7.179544
v 1.000000 6.137720 -7.179544
v -1.000000 6.051829 -7.374521
v 1.000000 6.051829 -7.374522
v -1.000000 5.965938 -7.320850
v 1.000000 5.965938 -7.320851
v -1.000000 6.178114 -7.444513
v 1.000000 6.178114 -7.444513
v 1.000000 6.178114 -7.210497
v -1.000000 6.178114 -7.210496
v 1.000000 6.264005 -7.444513
v -1.000000 6.264005 -7.444513
v -1.000000 6.349895 -7.444513
v 1.000000 6.349896 -7.444513
v -1.000000 6.264005 -7.639490
v 1.000000 6.264005 -7.639490
v -1.000000 6.178114 -7.585819
v 1.000000 6.178114 -7.585819
v -1.000000 6.387106 -7.715795
v 1.000000 6.387106 -7.715795
v 1.000000 6.387106 -7.481779
v -1.000000 6.387106 -7.481779
v 1.000000 6.472997 -7.715795
v -1.000000 6.472997 -7.715795
v -1.000000 6.558888 -7.715795
v 1.000000 6.558888 -7.715795
v -1.000000 6.472997 -7.910771
v 1.000000 6.472997 -7.910772
v -1.000000 6.387106 -7.857100
v 1.000000 6.387106 -7.857101
vt 0.9998 0.0047
vt 0.0379 0.0217
vt 0.0042 0.0039
vt 0.8875 0.4733
vt 0.1044 0.0478
vt 0.8910 0.0465
vt 0.0001 0.5162
vt 0.0378 0.4983
vt 0.9638 0.4990
vt 0.9631 0.0222
vt 0.9999 0.5162
vt 0.1017 0.4736
vt 0.0003 0.5995
vt 1.0004 0.5815
vt 1.0001 0.5995
vt -0.0006 0.5815
vt 1.0001 0.5681
vt 0.0025 0.6571
vt 0.9973 0.6119
vt 0.9973 0.6571
vt -0.0008 0.5681
vt 1.0001 0.5418
vt 1.0001 0.5681
vt 0.3403 0.6484
vt 0.6540 0.6416
vt 0.6540 0.6484
vt 0.3403 0.6551
vt 0.6540 0.6551
vt 0.9973 0.7040
vt 0.0025 0.7522
vt 0.0025 0.7040
vt 0.9973 0.6881
vt 0.0025 0.6571
vt 0.9973 0.6119
vt 0.9973 0.6571
vt 0.3403 0.6484
vt 0.6540 0.6416
vt 0.6540 0.6484
vt 0.3403 0.6551
vt 0.6540 0.6551
vt 0.6408 0.7040
vt -0.3540 0.7522
vt -0.3540 0.7040
vt 0.9973 0.6881
vt 0.9973 0.6571
vt 0.0025 0.6119
vt 0.9973 0.6119
vt 0.3403 0.6484
vt 0.6540 0.6416
vt 0.6540 0.6484
vt 0.3403 0.6551
vt 0.6540 0.6551
vt 1.4004 0.7040
vt 0.4056 0.7522
vt 0.4056 0.7040
vt 0.9973 0.6881
vt 0.0025 0.6571
vt 0.0025 0.6571
vt 0.9973 0.6119
vt 0.9973 0.6571
vt 0.3403 0.6484
vt 0.6540 0.6416
vt 0.6540 0.6484
vt 0.3403 0.6551
vt 0.6540 0.6551
vt 0.9384 0.7040
vt -0.0564 0.7522
vt -0.0564 0.7040
vt 0.9973 0.6881
vt 0.0025 0.6571
vt 0.9973 0.6119
vt 0.9973 0.6571
vt 0.3403 0.6484
vt 0.6540 0.6416
vt 0.6540 0.6484
vt 0.3403 0.6551
vt 0.6540 0.6551
vt 1.2950 0.7040
vt 0.3002 0.7522
vt 0.3002 0.7040
vt 0.9973 0.6881
vt 0.9998 0.0047
vt 0.0379 0.0217
vt 0.0042 0.0039
vt 0.8875 0.4733
vt 0.1044 0.0478
vt 0.8910 0.0465
vt 0.0378 0.4983
vt 0.0001 0.5162
vt 0.9638 0.4990
vt 0.9631 0.0222
vt 0.9999 0.5162
vt 0.1017 0.4736
vt 0.0003 0.5995
vt 1.0004 0.5815
vt 1.0001 0.5995
vt -0.0006 0.5815
vt 1.0001 0.5681
vt 0.0025 0.6571
vt 0.9973 0.6119
vt 0.9973 0.6571
vt -0.0008 0.5681
vt 1.0001 0.5418
vt 1.0001 0.5681
vt 0.3403 0.6484
vt 0.6540 0.6416
vt 0.6540 0.6484
vt 0.3403 0.6551
vt 0.6540 0.6551
vt 0.9973 0.7040
vt 0.0025 0.7522
vt 0.0025 0.7040
vt 0.9973 0.6881
vt 0.0025 0.6571
vt 0.9973 0.6119
vt 0.9973 0.6571
vt 0.3403 0.6484
vt 0.6540 0.6416
vt 0.6540 0.6484
vt 0.3403 0.6551
vt 0.6540 0.6551
vt 0.6408 0.7040
vt -0.3540 0.7522
vt -0.3540 0.7040
vt 0.9973 0.6881
vt 0.9973 0.6571
vt 0.0025 0.6119
vt 0.9973 0.6119
vt 0.3403 0.6484
vt 0.6540 0.6416
vt 0.6540 0.6484
vt 0.3403 0.6551
vt 0.6540 0.6551
vt 0.4056 0.7040
vt 1.4004 0.7522
vt 0.4056 0.7522
vt 0.9973 0.6881
vt 0.0025 0.6571
vt 0.0025 0.6571
vt 0.9973 0.6119
vt 0.9973 0.6571
vt 0.3403 0.6484
vt 0.6540 0.6416
vt 0.6540 0.6484
vt 0.3403 0.6551
vt 0.6540 0.6551
vt 0.9384 0.7040
vt -0.0564 0.7522
vt -0.0564 0.7040
vt 0.9973 0.6881
vt 0.0025 0.6571
vt 0.9973 0.6119
vt 0.9973 0.6571
vt 0.3403 0.6484
vt 0.6540 0.6416
vt 0.6540 0.6484
vt 0.3403 0.6551
vt 0.6540 0.6551
vt 1.2950 0.7040
vt 0.3002 0.7522
vt 0.3002 0.7040
vt 0.9973 0.6881
vt 0.9998 0.0047
vt 0.0379 0.0217
vt 0.0042 0.0039
vt 0.8875 0.4733
vt 0.1044 0.0478
vt 0.8910 0.0465
vt 0.0378 0.4983
vt 0.0001 0.5162
vt 0.9638 0.4990
vt 0.9631 0.0222
vt 0.9999 0.5162
vt 0.1017 0.4736
vt 1.0001 0.5995
vt -0.0006 0.5815
vt 1.0004 0.5815
vt 1.0001 0.5681
vt 0.0025 0.6571
vt 0.9973 0.6119
vt 0.9973 0.6571
vt -0.0008 0.5681
vt 1.0001 0.5418
vt 1.0001 0.5681
vt 0.3403 0.6484
vt 0.6540 0.6416
vt 0.6540 0.6484
vt 0.3403 0.6551
vt 0.6540 0.6551
vt 0.9973 0.7040
vt 0.0025 0.7522
vt 0.0025 0.7040
vt 0.9973 0.6881
vt 0.0025 0.6571
vt 0.9973 0.6119
vt 0.9973 0.6571
vt 0.3403 0.6484
vt 0.6540 0.6416
vt 0.6540 0.6484
vt 0.3403 0.6551
vt 0.6540 0.6551
vt 0.6408 0.7040
vt -0.3540 0.7522
vt -0.3540 0.7040
vt 0.9973 0.6881
vt 0.9973 0.6571
vt 0.0025 0.6119
vt 0.9973 0.6119
vt 0.3403 0.6484
vt 0.6540 0.6416
vt 0.6540 0.6484
vt 0.3403 0.6551
vt 0.6540 0.6551
vt 0.4056 0.7040
vt 1.4004 0.7522
vt 0.4056 0.7522
vt 0.9973 0.6881
vt 0.0025 0.6571
vt 0.0025 0.6571
vt 0.9973 0.6119
vt 0.9973 0.6571
vt 0.3403 0.6484
vt 0.6540 0.6416
vt 0.6540 0.6484
vt 0.3403 0.6551
vt 0.6540 0.6551
vt 0.9384 0.7040
vt -0.0564 0.7522
vt -0.0564 0.7040
vt 0.9973 0.6881
vt 0.0025 0.6571
vt 0.9973 0.6119
vt 0.9973 0.6571
vt 0.3403 0.6484
vt 0.6540 0.6416
vt 0.6540 0.6484
vt 0.3403 0.6551
vt 0.6540 0.6551
vt 1.2950 0.7040
vt 0.3002 0.7522
vt 0.3002 0.7040
vt 0.9973 0.6881
vt 0.9998 0.0047
vt 0.0379 0.0217
vt 0.0042 0.0039
vt 0.8875 0.4733
vt 0.1044 0.0478
vt 0.8910 0.0465
vt 0.0378 0.4983
vt 0.0001 0.5162
vt 0.9638 0.4990
vt 0.9631 0.0222
vt 0.9999 0.5162
vt 0.1017 0.4736
vt 0.0003 0.5995
vt 1.0004 0.5815
vt 1.0001 0.5995
vt -0.0006 0.5815
vt 1.0001 0.5681
vt 0.0025 0.6571
vt 0.9973 0.6119
vt 0.9973 0.6571
vt -0.0008 0.5681
vt 1.0001 0.5418
vt 1.0001 0.5681
vt 0.3403 0.6484
vt 0.6540 0.6416
vt 0.6540 0.6484
vt 0.3403 0.6551
vt 0.6540 0.6551
vt 0.9973 0.7040
vt 0.0025 0.7522
vt 0.0025 0.7040
vt 0.9973 0.6881
vt 0.0025 0.6571
vt 0.9973 0.6119
vt 0.9973 0.6571
vt 0.3403 0.6484
vt 0.6540 0.6416
vt 0.6540 0.6484
vt 0.3403 0.6551
vt 0.6540 0.6551
vt 0.6408 0.7040
vt -0.3540 0.7522
vt -0.3540 0.7040
vt 0.9973 0.6881
vt 0.0025 0.6571
vt 0.9973 0.6119
vt 0.9973 0.6571
vt 0.3403 0.6484
vt 0.6540 0.6416
vt 0.6540 0.6484
vt 0.3403 0.6551
vt 0.6540 0.6551
vt 1.4004 0.7040
vt 0.4056 0.7522
vt 0.4056 0.7040
vt 0.9973 0.6881
vt 0.9973 0.6571
vt 0.0025 0.6119
vt 0.9973 0.6119
vt 0.3403 0.6484
vt 0.6540 0.6416
vt 0.6540 0.6484
vt 0.3403 0.6551
vt 0.6540 0.6551
vt 0.9384 0.7040
vt -0.0564 0.7522
vt -0.0564 0.7040
vt 0.9973 0.6881
vt 0.0025 0.6571
vt 0.0025 0.6571
vt 0.9973 0.6119
vt 0.9973 0.6571
vt 0.3403 0.6484
vt 0.6540 0.6416
vt 0.6540 0.6484
vt 0.3403 0.6551
vt 0.6540 0.6551
vt 1.2950 0.7040
vt 0.3002 0.7522
vt 0.3002 0.7040
vt 0.9973 0.6881
vt 0.9998 0.0047
vt 0.0379 0.0217
vt 0.0042 0.0039
vt 0.8875 0.4733
vt 0.1044 0.0478
vt 0.8910 0.0465
vt 0.0001 0.5162
vt 0.0378 0.4983
vt 0.9638 0.4990
vt 0.9631 0.0222
vt 0.9999 0.5162
vt 0.1017 0.4736
vt 0.0003 0.5995
vt 1.0004 0.5815
vt 1.0001 0.5995
vt -0.0006 0.5815
vt 1.0001 0.5681
vt 0.0025 0.6571
vt 0.9973 0.6119
vt 0.9973 0.6571
vt -0.0008 0.5681
vt 1.0001 0.5418
vt 1.0001 0.5681
vt 0.3403 0.6484
vt 0.6540 0.6416
vt 0.6540 0.6484
vt 0.3403 0.6551
vt 0.6540 0.6551
vt 0.9973 0.7040
vt 0.0025 0.7522
vt 0.0025 0.7040
vt 0.9973 0.6881
vt 0.0025 0.6571
vt 0.9973 0.6119
vt 0.9973 0.6571
vt 0.3403 0.6484
vt 0.6540 0.6416
vt 0.6540 0.6484
vt 0.3403 0.6551
vt 0.6540 0.6551
vt 0.6408 0.7040
vt -0.3540 0.7522
vt -0.3540 0.7040
vt 0.9973 0.6881
vt 0.0025 0.6571
vt 0.9973 0.6119
vt 0.9973 0.6571
vt 0.3403 0.6484
vt 0.6540 0.6416
vt 0.6540 0.6484
vt 0.3403 0.6551
vt 0.6540 0.6551
vt 1.4004 0.7040
vt 0.4056 0.7522
vt 0.4056 0.7040
vt 0.9973 0.6881
vt 0.9973 0.6571
vt 0.0025 0.6119
vt 0.9973 0.6119
vt 0.3403 0.6484
vt 0.6540 0.6416
vt 0.6540 0.6484
vt 0.3403 0.6551
vt 0.6540 0.6551
vt 0.9384 0.7040
vt -0.0564 0.7522
vt -0.0564 0.7040
vt 0.9973 0.6881
vt 0.0025 0.6571
vt 0.0025 0.6571
vt 0.9973 0.6119
vt 0.9973 0.6571
vt 0.3403 0.6484
vt 0.6540 0.6416
vt 0.6540 0.6484
vt 0.3403 0.6551
vt 0.6540 0.6551
vt 1.2950 0.7040
vt 0.3002 0.7522
vt 0.3002 0.7040
vt 0.9973 0.6881
vt -0.0008 0.5681
vt 0.0025 0.6119
vt -0.0008 0.5418
vt 0.3403 0.6416
vt 0.9973 0.7522
vt 0.0025 0.6881
vt 0.0025 0.6119
vt 0.3403 0.6416
vt 0.6408 0.7522
vt 0.0025 0.6881
vt 0.3403 0.6416
vt 1.4004 0.7522
vt 0.0025 0.6881
vt 0.0025 0.6119
vt 0.3403 0.6416
vt 0.9384 0.7522
vt 0.0025 0.6881
vt 0.0025 0.6119
vt 0.3403 0.6416
vt 1.2950 0.7522
vt 0.0025 0.6881
vt -0.0008 0.5681
vt 0.0025 0.6119
vt -0.0008 0.5418
vt 0.3403 0.6416
vt 0.9973 0.7522
vt 0.0025 0.6881
vt 0.0025 0.6119
vt 0.3403 0.6416
vt 0.6408 0.7522
vt 0.0025 0.6881
vt 0.3403 0.6416
vt 1.4004 0.7040
vt 0.0025 0.6881
vt 0.0025 0.6119
vt 0.3403 0.6416
vt 0.9384 0.7522
vt 0.0025 0.6881
vt 0.0025 0.6119
vt 0.3403 0.6416
vt 1.2950 0.7522
vt 0.0025 0.6881
vt 0.0003 0.5995
vt -0.0008 0.5681
vt 0.0025 0.6119
vt -0.0008 0.5418
vt 0.3403 0.6416
vt 0.9973 0.7522
vt 0.0025 0.6881
vt 0.0025 0.6119
vt 0.3403 0.6416
vt 0.6408 0.7522
vt 0.0025 0.6881
vt 0.3403 0.6416
vt 1.4004 0.7040
vt 0.0025 0.6881
vt 0.0025 0.6119
vt 0.3403 0.6416
vt 0.9384 0.7522
vt 0.0025 0.6881
vt 0.0025 0.6119
vt 0.3403 0.6416
vt 1.2950 0.7522
vt 0.0025 0.6881
vt -0.0008 0.5681
vt 0.0025 0.6119
vt -0.0008 0.5418
vt 0.3403 0.6416
vt 0.9973 0.7522
vt 0.0025 0.6881
vt 0.0025 0.6119
vt 0.3403 0.6416
vt 0.6408 0.7522
vt 0.0025 0.6881
vt 0.0025 0.6119
vt 0.3403 0.6416
vt 1.4004 0.7522
vt 0.0025 0.6881
vt 0.3403 0.6416
vt 0.9384 0.7522
vt 0.0025 0.6881
vt 0.0025 0.6119
vt 0.3403 0.6416
vt 1.2950 0.7522
vt 0.0025 0.6881
vt -0.0008 0.5681
vt 0.0025 0.6119
vt -0.0008 0.5418
vt 0.3403 0.6416
vt 0.9973 0.7522
vt 0.0025 0.6881
vt 0.0025 0.6119
vt 0.3403 0.6416
vt 0.6408 0.7522
vt 0.0025 0.6881
vt 0.0025 0.6119
vt 0.3403 0.6416
vt 1.4004 0.7522
vt 0.0025 0.6881
vt 0.3403 0.6416
vt 0.9384 0.7522
vt 0.0025 0.6881
vt 0.0025 0.6119
vt 0.3403 0.6416
vt 1.2950 0.7522
vt 0.0025 0.6881
vn -0.3455 -0.7167 -0.6058
vn -0.0000 -0.7725 -0.6350
vn -0.0000 -0.9397 -0.3419
vn -0.0000 -0.4937 -0.8696
vn 0.3455 -0.7167 -0.6058
vn -0.0000 0.1150 -0.9934
vn 0.9861 -0.1284 -0.1058
vn 0.9884 -0.1163 -0.0981
vn 0.9885 -0.1155 -0.0976
vn -0.9861 -0.1284 -0.1058
vn -0.9884 -0.1163 -0.0981
vn -0.9858 -0.1297 -0.1066
vn 0.0000 -0.6860 0.7276
vn 0.0000 -0.0985 -0.9951
vn -0.0000 -0.8007 -0.5990
vn -0.0000 -0.8008 -0.5990
vn 0.0000 -1.0000 0.0000
vn 0.0000 0.0000 -1.0000
vn -0.0000 0.1151 -0.9934
vn 0.9858 -0.1297 -0.1066
vn -0.9885 -0.1155 -0.0976
s 1
f 2/1/1 4/2/1 1/3/1
f 6/4/2 8/5/2 5/6/2
f 9/7/3 4/2/3 10/8/3
f 2/1/4 12/9/4 3/10/4
f 11/11/5 10/8/5 12/9/5
f 12/9/6 5/6/6 3/10/6
f 10/8/7 6/4/8 12/9/9
f 4/2/10 5/6/11 8/5/12
f 4/2/13 7/12/13 10/8/13
f 2/13/14 14/14/14 11/15/14
f 13/16/15 16/17/16 14/14/16
f 18/18/17 20/19/17 17/20/17
f 22/21/17 24/22/17 21/23/17
f 26/24/18 28/25/18 25/26/18
f 17/27/18 25/26/18 18/28/18
f 26/29/17 30/30/17 25/31/17
f 31/32/17 18/18/17 17/20/17
f 34/33/17 36/34/17 33/35/17
f 38/36/18 40/37/18 37/38/18
f 33/39/18 37/38/18 34/40/18
f 38/41/17 42/42/17 37/43/17
f 43/44/17 34/33/17 33/35/17
f 45/45/17 47/46/17 48/47/17
f 50/48/18 52/49/18 49/50/18
f 45/51/18 49/50/18 46/52/18
f 50/53/17 54/54/17 49/55/17
f 55/56/17 46/57/17 45/45/17
f 58/58/17 60/59/17 57/60/17
f 62/61/18 64/62/18 61/63/18
f 57/64/18 61/63/18 58/65/18
f 62/66/17 66/67/17 61/68/17
f 67/69/17 58/58/17 57/60/17
f 70/70/17 72/71/17 69/72/17
f 74/73/18 76/74/18 73/75/18
f 69/76/18 73/75/18 70/77/18
f 74/78/17 78/79/17 73/80/17
f 79/81/17 70/70/17 69/72/17
f 82/82/1 84/83/1 81/84/1
f 86/85/2 88/86/2 85/87/2
f 81/84/3 90/88/3 89/89/3
f 82/82/4 92/90/4 83/91/4
f 89/89/5 92/90/5 91/92/5
f 92/90/6 85/87/6 83/91/6
f 90/88/7 86/85/8 92/90/9
f 84/83/10 85/87/11 88/86/12
f 90/88/13 88/86/13 87/93/13
f 82/94/14 94/95/14 91/96/14
f 93/97/15 96/98/16 94/95/16
f 98/99/17 100/100/17 97/101/17
f 102/102/17 104/103/17 101/104/17
f 106/105/18 108/106/18 105/107/18
f 97/108/18 105/107/18 98/109/18
f 106/110/17 110/111/17 105/112/17
f 111/113/17 98/99/17 97/101/17
f 114/114/17 116/115/17 113/116/17
f 118/117/18 120/118/18 117/119/18
f 113/120/18 117/119/18 114/121/18
f 118/122/17 122/123/17 117/124/17
f 123/125/17 114/114/17 113/116/17
f 125/126/17 127/127/17 128/128/17
f 130/129/18 132/130/18 129/131/18
f 125/132/18 129/131/18 126/133/18
f 129/134/17 133/135/17 134/136/17
f 135/137/17 126/138/17 125/126/17
f 138/139/17 140/140/17 137/141/17
f 142/142/18 144/143/18 141/144/18
f 137/145/18 141/144/18 138/146/18
f 142/147/17 146/148/17 141/149/17
f 147/150/17 138/139/17 137/141/17
f 150/151/17 152/152/17 149/153/17
f 154/154/18 156/155/18 153/156/18
f 149/157/18 153/156/18 150/158/18
f 154/159/17 158/160/17 153/161/17
f 159/162/17 150/151/17 149/153/17
f 162/163/1 164/164/1 161/165/1
f 166/166/2 168/167/2 165/168/2
f 161/165/3 170/169/3 169/170/3
f 162/163/4 172/171/4 163/172/4
f 171/173/5 170/169/5 172/171/5
f 172/171/6 165/168/6 163/172/6
f 170/169/7 166/166/8 172/171/9
f 164/164/10 165/168/11 168/167/12
f 164/164/13 167/174/13 170/169/13
f 171/175/14 173/176/14 174/177/14
f 173/176/15 176/178/15 174/177/15
f 178/179/17 180/180/17 177/181/17
f 182/182/17 184/183/17 181/184/17
f 186/185/18 188/186/18 185/187/18
f 177/188/18 185/187/18 178/189/18
f 186/190/17 190/191/17 185/192/17
f 191/193/17 178/179/17 177/181/17
f 194/194/17 196/195/17 193/196/17
f 198/197/18 200/198/18 197/199/18
f 193/200/18 197/199/18 194/201/18
f 198/202/17 202/203/17 197/204/17
f 203/205/17 194/194/17 193/196/17
f 205/206/17 207/207/17 208/208/17
f 210/209/18 212/210/18 209/211/18
f 205/212/18 209/211/18 206/213/18
f 209/214/17 213/215/17 214/216/17
f 215/217/17 206/218/17 205/206/17
f 218/219/17 220/220/17 217/221/17
f 222/222/18 224/223/18 221/224/18
f 217/225/18 221/224/18 218/226/18
f 222/227/17 226/228/17 221/229/17
f 227/230/17 218/219/17 217/221/17
f 230/231/17 232/232/17 229/233/17
f 234/234/18 236/235/18 233/236/18
f 229/237/18 233/236/18 230/238/18
f 234/239/17 238/240/17 233/241/17
f 239/242/17 230/231/17 229/233/17
f 242/243/1 244/244/1 241/245/1
f 246/246/2 248/247/2 245/248/2
f 241/245/3 250/249/3 249/250/3
f 242/243/4 252/251/4 243/252/4
f 251/253/5 250/249/5 252/251/5
f 252/251/6 245/248/19 243/252/19
f 250/249/7 246/246/8 252/251/9
f 244/244/10 245/248/11 248/247/12
f 244/244/13 247/254/13 250/249/13
f 242/255/14 254/256/14 251/257/14
f 253/258/16 256/259/15 254/256/15
f 258/260/17 260/261/17 257/262/17
f 262/263/17 264/264/17 261/265/17
f 266/266/18 268/267/18 265/268/18
f 257/269/18 265/268/18 258/270/18
f 266/271/17 270/272/17 265/273/17
f 271/274/17 258/260/17 257/262/17
f 274/275/17 276/276/17 273/277/17
f 278/278/18 280/279/18 277/280/18
f 273/281/18 277/280/18 274/282/18
f 278/283/17 282/284/17 277/285/17
f 283/286/17 274/275/17 273/277/17
f 286/287/17 288/288/17 285/289/17
f 290/290/18 292/291/18 289/292/18
f 285/293/18 289/292/18 286/294/18
f 290/295/17 294/296/17 289/297/17
f 295/298/17 286/287/17 285/289/17
f 297/299/17 299/300/17 300/301/17
f 302/302/18 304/303/18 301/304/18
f 297/305/18 301/304/18 298/306/18
f 302/307/17 306/308/17 301/309/17
f 307/310/17 298/311/17 297/299/17
f 310/312/17 312/313/17 309/314/17
f 314/315/18 316/316/18 313/317/18
f 309/318/18 313/317/18 310/319/18
f 314/320/17 318/321/17 313/322/17
f 319/323/17 310/312/17 309/314/17
f 322/324/1 324/325/1 321/326/1
f 326/327/2 328/328/2 325/329/2
f 329/330/3 324/325/3 330/331/3
f 322/324/4 332/332/4 323/333/4
f 329/330/5 332/332/5 331/334/5
f 332/332/6 325/329/6 323/333/6
f 330/331/7 326/327/8 332/332/9
f 324/325/10 325/329/11 328/328/12
f 324/325/13 327/335/13 330/331/13
f 322/336/14 334/337/14 331/338/14
f 333/339/16 336/340/16 334/337/16
f 338/341/17 340/342/17 337/343/17
f 342/344/17 344/345/17 341/346/17
f 346/347/18 348/348/18 345/349/18
f 337/350/18 345/349/18 338/351/18
f 346/352/17 350/353/17 345/354/17
f 351/355/17 338/341/17 337/343/17
f 354/356/17 356/357/17 353/358/17
f 358/359/18 360/360/18 357/361/18
f 353/362/18 357/361/18 354/363/18
f 358/364/17 362/365/17 357/366/17
f 363/367/17 354/356/17 353/358/17
f 366/368/17 368/369/17 365/370/17
f 370/371/18 372/372/18 369/373/18
f 365/374/18 369/373/18 366/375/18
f 370/376/17 374/377/17 369/378/17
f 375/379/17 366/368/17 365/370/17
f 377/380/17 379/381/17 380/382/17
f 382/383/18 384/384/18 381/385/18
f 377/386/18 381/385/18 378/387/18
f 382/388/17 386/389/17 381/390/17
f 387/391/17 378/392/17 377/380/17
f 390/393/17 392/394/17 389/395/17
f 394/396/18 396/397/18 393/398/18
f 389/399/18 393/398/18 390/400/18
f 394/401/17 398/402/17 393/403/17
f 399/404/17 390/393/17 389/395/17
f 2/1/1 3/10/1 4/2/1
f 6/4/2 7/12/2 8/5/2
f 9/7/3 1/3/3 4/2/3
f 2/1/4 11/11/4 12/9/4
f 11/11/5 9/7/5 10/8/5
f 12/9/6 6/4/6 5/6/6
f 10/8/7 7/12/20 6/4/8
f 4/2/10 3/10/21 5/6/11
f 4/2/13 8/5/13 7/12/13
f 2/13/14 13/16/14 14/14/14
f 13/16/15 15/405/15 16/17/16
f 18/18/17 19/406/17 20/19/17
f 22/21/17 23/407/17 24/22/17
f 26/24/18 27/408/18 28/25/18
f 17/27/18 26/24/18 25/26/18
f 26/29/17 29/409/17 30/30/17
f 31/32/17 32/410/17 18/18/17
f 34/33/17 35/411/17 36/34/17
f 38/36/18 39/412/18 40/37/18
f 33/39/18 38/36/18 37/38/18
f 38/41/17 41/413/17 42/42/17
f 43/44/17 44/414/17 34/33/17
f 45/45/17 46/57/17 47/46/17
f 50/48/18 51/415/18 52/49/18
f 45/51/18 50/48/18 49/50/18
f 50/53/17 53/416/17 54/54/17
f 55/56/17 56/417/17 46/57/17
f 58/58/17 59/418/17 60/59/17
f 62/61/18 63/419/18 64/62/18
f 57/64/18 62/61/18 61/63/18
f 62/66/17 65/420/17 66/67/17
f 67/69/17 68/421/17 58/58/17
f 70/70/17 71/422/17 72/71/17
f 74/73/18 75/423/18 76/74/18
f 69/76/18 74/73/18 73/75/18
f 74/78/17 77/424/17 78/79/17
f 79/81/17 80/425/17 70/70/17
f 82/82/1 83/91/1 84/83/1
f 86/85/2 87/93/2 88/86/2
f 81/84/3 84/83/3 90/88/3
f 82/82/4 91/92/4 92/90/4
f 89/89/5 90/88/5 92/90/5
f 92/90/6 86/85/6 85/87/6
f 90/88/7 87/93/20 86/85/8
f 84/83/10 83/91/21 85/87/11
f 90/88/13 84/83/13 88/86/13
f 82/94/14 93/97/14 94/95/14
f 93/97/15 95/426/15 96/98/16
f 98/99/17 99/427/17 100/100/17
f 102/102/17 103/428/17 104/103/17
f 106/105/18 107/429/18 108/106/18
f 97/108/18 106/105/18 105/107/18
f 106/110/17 109/430/17 110/111/17
f 111/113/17 112/431/17 98/99/17
f 114/114/17 115/432/17 116/115/17
f 118/117/18 119/433/18 120/118/18
f 113/120/18 118/117/18 117/119/18
f 118/122/17 121/434/17 122/123/17
f 123/125/17 124/435/17 114/114/17
f 125/126/17 126/138/17 127/127/17
f 130/129/18 131/436/18 132/130/18
f 125/132/18 130/129/18 129/131/18
f 129/134/17 130/437/17 133/135/17
f 135/137/17 136/438/17 126/138/17
f 138/139/17 139/439/17 140/140/17
f 142/142/18 143/440/18 144/143/18
f 137/145/18 142/142/18 141/144/18
f 142/147/17 145/441/17 146/148/17
f 147/150/17 148/442/17 138/139/17
f 150/151/17 151/443/17 152/152/17
f 154/154/18 155/444/18 156/155/18
f 149/157/18 154/154/18 153/156/18
f 154/159/17 157/445/17 158/160/17
f 159/162/17 160/446/17 150/151/17
f 162/163/1 163/172/1 164/164/1
f 166/166/2 167/174/2 168/167/2
f 161/165/3 164/164/3 170/169/3
f 162/163/4 171/173/4 172/171/4
f 171/173/5 169/170/5 170/169/5
f 172/171/6 166/166/6 165/168/6
f 170/169/7 167/174/20 166/166/8
f 164/164/10 163/172/21 165/168/11
f 164/164/13 168/167/13 167/174/13
f 171/175/14 162/447/14 173/176/14
f 173/176/15 175/448/15 176/178/15
f 178/179/17 179/449/17 180/180/17
f 182/182/17 183/450/17 184/183/17
f 186/185/18 187/451/18 188/186/18
f 177/188/18 186/185/18 185/187/18
f 186/190/17 189/452/17 190/191/17
f 191/193/17 192/453/17 178/179/17
f 194/194/17 195/454/17 196/195/17
f 198/197/18 199/455/18 200/198/18
f 193/200/18 198/197/18 197/199/18
f 198/202/17 201/456/17 202/203/17
f 203/205/17 204/457/17 194/194/17
f 205/206/17 206/218/17 207/207/17
f 210/209/18 211/458/18 212/210/18
f 205/212/18 210/209/18 209/211/18
f 209/214/17 210/459/17 213/215/17
f 215/217/17 216/460/17 206/218/17
f 218/219/17 219/461/17 220/220/17
f 222/222/18 223/462/18 224/223/18
f 217/225/18 222/222/18 221/224/18
f 222/227/17 225/463/17 226/228/17
f 227/230/17 228/464/17 218/219/17
f 230/231/17 231/465/17 232/232/17
f 234/234/18 235/466/18 236/235/18
f 229/237/18 234/234/18 233/236/18
f 234/239/17 237/467/17 238/240/17
f 239/242/17 240/468/17 230/231/17
f 242/243/1 243/252/1 244/244/1
f 246/246/2 247/254/2 248/247/2
f 241/245/3 244/244/3 250/249/3
f 242/243/4 251/253/4 252/251/4
f 251/253/5 249/250/5 250/249/5
f 252/251/6 246/246/6 245/248/19
f 250/249/7 247/254/20 246/246/8
f 244/244/10 243/252/21 245/248/11
f 244/244/13 248/247/13 247/254/13
f 242/255/14 253/258/14 254/256/14
f 253/258/16 255/469/16 256/259/15
f 258/260/17 259/470/17 260/261/17
f 262/263/17 263/471/17 264/264/17
f 266/266/18 267/472/18 268/267/18
f 257/269/18 266/266/18 265/268/18
f 266/271/17 269/473/17 270/272/17
f 271/274/17 272/474/17 258/260/17
f 274/275/17 275/475/17 276/276/17
f 278/278/18 279/476/18 280/279/18
f 273/281/18 278/278/18 277/280/18
f 278/283/17 281/477/17 282/284/17
f 283/286/17 284/478/17 274/275/17
f 286/287/17 287/479/17 288/288/17
f 290/290/18 291/480/18 292/291/18
f 285/293/18 290/290/18 289/292/18
f 290/295/17 293/481/17 294/296/17
f 295/298/17 296/482/17 286/287/17
f 297/299/17 298/311/17 299/300/17
f 302/302/18 303/483/18 304/303/18
f 297/305/18 302/302/18 301/304/18
f 302/307/17 305/484/17 306/308/17
f 307/310/17 308/485/17 298/311/17
f 310/312/17 311/486/17 312/313/17
f 314/315/18 315/487/18 316/316/18
f 309/318/18 314/315/18 313/317/18
f 314/320/17 317/488/17 318/321/17
f 319/323/17 320/489/17 310/312/17
f 322/324/1 323/333/1 324/325/1
f 326/327/2 327/335/2 328/328/2
f 329/330/3 321/326/3 324/325/3
f 322/324/4 331/334/4 332/332/4
f 329/330/5 330/331/5 332/332/5
f 332/332/6 326/327/6 325/329/6
f 330/331/7 327/335/20 326/327/8
f 324/325/10 323/333/21 325/329/11
f 324/325/13 328/328/13 327/335/13
f 322/336/14 333/339/14 334/337/14
f 333/339/16 335/490/16 336/340/16
f 338/341/17 339/491/17 340/342/17
f 342/344/17 343/492/17 344/345/17
f 346/347/18 347/493/18 348/348/18
f 337/350/18 346/347/18 345/349/18
f 346/352/17 349/494/17 350/353/17
f 351/355/17 352/495/17 338/341/17
f 354/356/17 355/496/17 356/357/17
f 358/359/18 359/497/18 360/360/18
f 353/362/18 358/359/18 357/361/18
f 358/364/17 361/498/17 362/365/17
f 363/367/17 364/499/17 354/356/17
f 366/368/17 367/500/17 368/369/17
f 370/371/18 371/501/18 372/372/18
f 365/374/18 370/371/18 369/373/18
f 370/376/17 373/502/17 374/377/17
f 375/379/17 376/503/17 366/368/17
f 377/380/17 378/392/17 379/381/17
f 382/383/18 383/504/18 384/384/18
f 377/386/18 382/383/18 381/385/18
f 382/388/17 385/505/17 386/389/17
f 387/391/17 388/506/17 378/392/17
f 390/393/17 391/507/17 392/394/17
f 394/396/18 395/508/18 396/397/18
f 389/399/18 394/396/18 393/398/18
f 394/401/17 397/509/17 398/402/17
f 399/404/17 400/510/17 390/393/17
