# Blender v2.78 (sub 0) OBJ File: 'energyfence.blend'
# www.blender.org
o energyfence_Cube.001
v 9.280773 -0.496960 -0.001010
v 9.456282 -0.496960 -0.001010
v 9.456282 -0.496960 0.998990
v 9.280773 -0.496960 0.998990
v 9.280773 -0.078891 -0.001010
v 9.456282 -0.078891 -0.001010
v 9.456282 -0.078891 0.998990
v 9.280773 -0.078891 0.998990
v 9.324651 -0.058127 -0.001010
v 9.368527 -0.052379 -0.001010
v 9.412405 -0.058127 -0.001010
v 9.412405 -0.058127 0.998990
v 9.368527 -0.052379 0.998990
v 9.324650 -0.058127 0.998990
v 9.324650 -0.514931 -0.001010
v 9.368527 -0.520847 -0.001010
v 9.412405 -0.514931 -0.001010
v 9.412405 -0.514931 0.998990
v 9.368527 -0.520847 0.998990
v 9.324650 -0.514931 0.998990
v 9.280773 -0.496960 -0.001010
v 9.456282 -0.496960 -0.001010
v 9.456282 -0.496960 0.998990
v 9.280773 -0.496960 0.998990
v 9.280773 -0.078891 -0.001010
v 9.456282 -0.078891 -0.001010
v 9.456282 -0.078891 0.998990
v 9.280773 -0.078891 0.998990
v 9.581699 -0.526956 0.532687
v 9.403353 -0.392638 0.532687
v 9.525243 -0.535886 0.532687
v 9.360113 -0.417191 0.532687
v 9.581699 -0.526956 0.474478
v 9.403353 -0.392638 0.474478
v 9.525243 -0.535886 0.474478
v 9.360113 -0.417191 0.474478
v 9.616797 -0.617284 0.532687
v 9.558589 -0.617457 0.532687
v 9.616797 -0.617284 0.474478
v 9.558589 -0.617457 0.474478
v 9.616797 -0.779787 0.532687
v 9.558589 -0.779959 0.532687
v 9.616797 -0.779787 0.474478
v 9.558589 -0.779959 0.474478
v 9.280773 -0.496960 0.998990
v 9.456282 -0.496960 0.998991
v 9.456282 -0.496960 1.998991
v 9.280773 -0.496960 1.998990
v 9.280773 -0.078891 0.998990
v 9.456282 -0.078891 0.998991
v 9.456282 -0.078891 1.998991
v 9.280773 -0.078891 1.998991
v 9.324650 -0.058127 0.998990
v 9.368527 -0.052379 0.998990
v 9.412405 -0.058127 0.998991
v 9.412404 -0.058127 1.998991
v 9.368527 -0.052379 1.998991
v 9.324650 -0.058127 1.998991
v 9.324650 -0.514931 0.998990
v 9.368527 -0.520847 0.998990
v 9.412405 -0.514931 0.998991
v 9.412404 -0.514931 1.998991
v 9.368527 -0.520847 1.998991
v 9.324650 -0.514931 1.998991
v 9.280773 -0.496960 0.998990
v 9.456282 -0.496960 0.998991
v 9.456282 -0.496960 1.998991
v 9.280773 -0.496960 1.998990
v 9.280773 -0.078891 0.998990
v 9.456282 -0.078891 0.998991
v 9.456282 -0.078891 1.998991
v 9.280773 -0.078891 1.998991
v 9.581699 -0.526956 1.532687
v 9.403353 -0.392638 1.532687
v 9.525242 -0.535886 1.532687
v 9.360113 -0.417191 1.532687
v 9.581699 -0.526956 1.474478
v 9.403353 -0.392638 1.474478
v 9.525242 -0.535886 1.474478
v 9.360113 -0.417191 1.474478
v 9.616797 -0.617284 1.532687
v 9.558589 -0.617457 1.532687
v 9.616797 -0.617284 1.474478
v 9.558589 -0.617457 1.474478
v 9.616797 -0.779787 1.532687
v 9.558589 -0.779959 1.532687
v 9.616797 -0.779787 1.474478
v 9.558589 -0.779959 1.474478
v 9.280773 -0.496960 1.998991
v 9.456282 -0.496960 1.998991
v 9.456282 -0.496960 2.998991
v 9.280773 -0.496960 2.998991
v 9.280773 -0.078891 1.998991
v 9.456282 -0.078891 1.998991
v 9.456282 -0.078891 2.998991
v 9.280773 -0.078891 2.998991
v 9.324650 -0.058127 1.998991
v 9.368527 -0.052379 1.998991
v 9.412405 -0.058127 1.998991
v 9.412404 -0.058127 2.998991
v 9.368527 -0.052379 2.998991
v 9.324650 -0.058127 2.998991
v 9.324650 -0.514931 1.998991
v 9.368527 -0.520847 1.998991
v 9.412404 -0.514931 1.998991
v 9.412404 -0.514931 2.998991
v 9.368527 -0.520847 2.998991
v 9.324650 -0.514931 2.998991
v 9.280773 -0.496960 1.998991
v 9.456282 -0.496960 1.998991
v 9.456282 -0.496960 2.998991
v 9.280773 -0.496960 2.998991
v 9.280773 -0.078891 1.998991
v 9.456282 -0.078891 1.998991
v 9.456282 -0.078891 2.998991
v 9.280773 -0.078891 2.998991
v 9.581699 -0.526956 2.532688
v 9.403353 -0.392638 2.532688
v 9.525242 -0.535886 2.532688
v 9.360113 -0.417191 2.532688
v 9.581699 -0.526956 2.474479
v 9.403353 -0.392638 2.474479
v 9.525242 -0.535886 2.474479
v 9.360113 -0.417191 2.474479
v 9.616797 -0.617284 2.532688
v 9.558589 -0.617457 2.532688
v 9.616797 -0.617284 2.474479
v 9.558589 -0.617457 2.474479
v 9.616797 -0.779787 2.532688
v 9.558589 -0.779959 2.532688
v 9.616797 -0.779787 2.474479
v 9.558589 -0.779959 2.474479
v 9.280773 -0.496960 2.998991
v 9.456282 -0.496960 2.998991
v 9.456282 -0.496960 3.998991
v 9.280773 -0.496960 3.998991
v 9.280773 -0.078891 2.998991
v 9.456282 -0.078891 2.998992
v 9.456282 -0.078891 3.998992
v 9.280773 -0.078891 3.998991
v 9.324650 -0.058127 2.998991
v 9.368527 -0.052379 2.998991
v 9.412404 -0.058127 2.998992
v 9.412404 -0.058127 3.998991
v 9.368527 -0.052379 3.998991
v 9.324650 -0.058127 3.998991
v 9.324650 -0.514931 2.998991
v 9.368527 -0.520847 2.998991
v 9.412404 -0.514931 2.998991
v 9.412404 -0.514931 3.998991
v 9.368527 -0.520847 3.998991
v 9.324650 -0.514931 3.998991
v 9.280773 -0.496960 2.998991
v 9.456282 -0.496960 2.998991
v 9.456282 -0.496960 3.998991
v 9.280773 -0.496960 3.998991
v 9.280773 -0.078891 2.998991
v 9.456282 -0.078891 2.998992
v 9.456282 -0.078891 3.998992
v 9.280773 -0.078891 3.998991
v 9.581699 -0.526956 3.532688
v 9.403353 -0.392638 3.532688
v 9.525242 -0.535886 3.532688
v 9.360113 -0.417191 3.532688
v 9.581699 -0.526956 3.474479
v 9.403353 -0.392638 3.474479
v 9.525242 -0.535886 3.474479
v 9.360113 -0.417191 3.474479
v 9.616797 -0.617284 3.532688
v 9.558589 -0.617457 3.532688
v 9.616797 -0.617284 3.474479
v 9.558589 -0.617457 3.474479
v 9.616797 -0.779787 3.532688
v 9.558589 -0.779959 3.532688
v 9.616797 -0.779787 3.474479
v 9.558589 -0.779959 3.474479
v 9.280773 -0.496960 3.998992
v 9.456282 -0.496960 3.998992
v 9.456282 -0.496960 4.998992
v 9.280773 -0.496960 4.998992
v 9.280773 -0.078891 3.998992
v 9.456282 -0.078891 3.998992
v 9.456282 -0.078891 4.998992
v 9.280773 -0.078891 4.998992
v 9.324650 -0.058127 3.998992
v 9.368527 -0.052379 3.998992
v 9.412404 -0.058127 3.998992
v 9.412404 -0.058127 4.998992
v 9.368527 -0.052379 4.998992
v 9.324650 -0.058127 4.998992
v 9.324650 -0.514931 3.998992
v 9.368527 -0.520847 3.998992
v 9.412404 -0.514931 3.998992
v 9.412404 -0.514931 4.998992
v 9.368527 -0.520847 4.998992
v 9.324650 -0.514931 4.998992
v 9.280773 -0.496960 3.998992
v 9.456282 -0.496960 3.998992
v 9.456282 -0.496960 4.998992
v 9.280773 -0.496960 4.998992
v 9.280773 -0.078891 3.998992
v 9.456282 -0.078891 3.998992
v 9.456282 -0.078891 4.998992
v 9.280773 -0.078891 4.998992
v 9.581699 -0.526956 4.532689
v 9.403353 -0.392638 4.532689
v 9.525242 -0.535886 4.532689
v 9.360113 -0.417191 4.532689
v 9.581699 -0.526956 4.474479
v 9.403353 -0.392638 4.474479
v 9.525242 -0.535886 4.474479
v 9.360113 -0.417191 4.474479
v 9.616797 -0.617284 4.532689
v 9.558589 -0.617457 4.532689
v 9.616797 -0.617284 4.474479
v 9.558589 -0.617457 4.474479
v 9.616797 -0.779787 4.532689
v 9.558589 -0.779959 4.532689
v 9.616797 -0.779787 4.474479
v 9.558589 -0.779959 4.474479
v 9.280773 -0.496960 4.998992
v 9.456282 -0.496960 4.998992
v 9.456282 -0.496960 5.998992
v 9.280772 -0.496960 5.998992
v 9.280773 -0.078891 4.998992
v 9.456282 -0.078891 4.998993
v 9.456282 -0.078891 5.998992
v 9.280772 -0.078891 5.998992
v 9.324650 -0.058127 4.998992
v 9.368527 -0.052379 4.998992
v 9.412404 -0.058127 4.998992
v 9.412404 -0.058127 5.998992
v 9.368527 -0.052379 5.998992
v 9.324650 -0.058127 5.998992
v 9.324650 -0.514931 4.998992
v 9.368527 -0.520847 4.998992
v 9.412404 -0.514931 4.998992
v 9.412404 -0.514931 5.998992
v 9.368527 -0.520847 5.998992
v 9.324650 -0.514931 5.998992
v 9.280773 -0.496960 4.998992
v 9.456282 -0.496960 4.998992
v 9.456282 -0.496960 5.998992
v 9.280772 -0.496960 5.998992
v 9.280773 -0.078891 4.998992
v 9.456282 -0.078891 4.998993
v 9.456282 -0.078891 5.998992
v 9.280772 -0.078891 5.998992
v 9.581699 -0.526956 5.532689
v 9.403352 -0.392638 5.532689
v 9.525242 -0.535886 5.532689
v 9.360113 -0.417191 5.532689
v 9.581699 -0.526956 5.474480
v 9.403352 -0.392638 5.474480
v 9.525242 -0.535886 5.474480
v 9.360113 -0.417191 5.474480
v 9.616797 -0.617284 5.532689
v 9.558589 -0.617457 5.532689
v 9.616797 -0.617284 5.474480
v 9.558589 -0.617457 5.474480
v 9.616797 -0.779787 5.532689
v 9.558589 -0.779959 5.532689
v 9.616797 -0.779787 5.474480
v 9.558589 -0.779959 5.474480
v 9.280772 -0.496960 5.998993
v 9.456282 -0.496960 5.998993
v 9.456282 -0.496960 6.998993
v 9.280772 -0.496960 6.998993
v 9.280773 -0.078891 5.998993
v 9.456282 -0.078891 5.998993
v 9.456282 -0.078891 6.998993
v 9.280772 -0.078891 6.998993
v 9.324650 -0.058127 5.998993
v 9.368527 -0.052379 5.998993
v 9.412404 -0.058127 5.998993
v 9.412404 -0.058127 6.998993
v 9.368526 -0.052379 6.998993
v 9.324650 -0.058127 6.998993
v 9.324650 -0.514931 5.998993
v 9.368527 -0.520847 5.998993
v 9.412404 -0.514931 5.998993
v 9.412404 -0.514931 6.998993
v 9.368526 -0.520847 6.998993
v 9.324650 -0.514931 6.998993
v 9.280772 -0.496960 5.998993
v 9.456282 -0.496960 5.998993
v 9.456282 -0.496960 6.998993
v 9.280772 -0.496960 6.998993
v 9.280773 -0.078891 5.998993
v 9.456282 -0.078891 5.998993
v 9.456282 -0.078891 6.998993
v 9.280772 -0.078891 6.998993
v 9.581699 -0.526956 6.532690
v 9.403352 -0.392638 6.532690
v 9.525242 -0.535886 6.532690
v 9.360113 -0.417191 6.532690
v 9.581699 -0.526956 6.474481
v 9.403352 -0.392638 6.474481
v 9.525242 -0.535886 6.474481
v 9.360113 -0.417191 6.474481
v 9.616797 -0.617284 6.532690
v 9.558589 -0.617457 6.532690
v 9.616797 -0.617284 6.474481
v 9.558589 -0.617457 6.474481
v 9.616797 -0.779787 6.532690
v 9.558589 -0.779959 6.532690
v 9.616797 -0.779787 6.474481
v 9.558589 -0.779959 6.474481
v 9.280772 -0.496960 6.998993
v 9.456282 -0.496960 6.998993
v 9.456282 -0.496960 7.998993
v 9.280772 -0.496960 7.998993
v 9.280772 -0.078891 6.998993
v 9.456282 -0.078891 6.998994
v 9.456282 -0.078891 7.998993
v 9.280772 -0.078891 7.998993
v 9.324650 -0.058127 6.998993
v 9.368527 -0.052379 6.998993
v 9.412404 -0.058127 6.998993
v 9.412404 -0.058127 7.998993
v 9.368526 -0.052379 7.998993
v 9.324650 -0.058127 7.998993
v 9.324650 -0.514931 6.998993
v 9.368526 -0.520847 6.998993
v 9.412404 -0.514931 6.998993
v 9.412404 -0.514931 7.998993
v 9.368526 -0.520847 7.998993
v 9.324650 -0.514931 7.998993
v 9.280772 -0.496960 6.998993
v 9.456282 -0.496960 6.998993
v 9.456282 -0.496960 7.998993
v 9.280772 -0.496960 7.998993
v 9.280772 -0.078891 6.998993
v 9.456282 -0.078891 6.998994
v 9.456282 -0.078891 7.998993
v 9.280772 -0.078891 7.998993
v 9.581699 -0.526956 7.532690
v 9.403352 -0.392638 7.532690
v 9.525242 -0.535886 7.532690
v 9.360112 -0.417191 7.532690
v 9.581699 -0.526956 7.474481
v 9.403352 -0.392638 7.474481
v 9.525242 -0.535886 7.474481
v 9.360112 -0.417191 7.474481
v 9.616797 -0.617284 7.532690
v 9.558589 -0.617457 7.532690
v 9.616797 -0.617284 7.474481
v 9.558589 -0.617457 7.474481
v 9.616797 -0.779787 7.532690
v 9.558589 -0.779959 7.532690
v 9.616797 -0.779787 7.474481
v 9.558589 -0.779959 7.474481
v 9.280772 -0.496960 7.998994
v 9.456282 -0.496960 7.998994
v 9.456281 -0.496960 8.998994
v 9.280772 -0.496960 8.998994
v 9.280772 -0.078891 7.998994
v 9.456282 -0.078891 7.998994
v 9.456281 -0.078891 8.998994
v 9.280772 -0.078891 8.998994
v 9.324650 -0.058127 7.998994
v 9.368526 -0.052379 7.998994
v 9.412404 -0.058127 7.998994
v 9.412404 -0.058127 8.998994
v 9.368526 -0.052379 8.998994
v 9.324650 -0.058127 8.998994
v 9.324650 -0.514931 7.998994
v 9.368526 -0.520847 7.998994
v 9.412404 -0.514931 7.998994
v 9.412404 -0.514931 8.998994
v 9.368526 -0.520847 8.998994
v 9.324650 -0.514931 8.998994
v 9.280772 -0.496960 7.998994
v 9.456282 -0.496960 7.998994
v 9.456281 -0.496960 8.998994
v 9.280772 -0.496960 8.998994
v 9.280772 -0.078891 7.998994
v 9.456282 -0.078891 7.998994
v 9.456281 -0.078891 8.998994
v 9.280772 -0.078891 8.998994
v 9.581699 -0.526956 8.532691
v 9.403352 -0.392638 8.532691
v 9.525242 -0.535886 8.532691
v 9.360112 -0.417191 8.532691
v 9.581699 -0.526956 8.474482
v 9.403352 -0.392638 8.474482
v 9.525242 -0.535886 8.474482
v 9.360112 -0.417191 8.474482
v 9.616797 -0.617284 8.532691
v 9.558588 -0.617457 8.532691
v 9.616797 -0.617284 8.474482
v 9.558588 -0.617457 8.474482
v 9.616797 -0.779787 8.532691
v 9.558588 -0.779959 8.532691
v 9.616797 -0.779787 8.474482
v 9.558588 -0.779959 8.474482
v 9.280772 -0.496960 8.998994
v 9.456281 -0.496960 8.998994
v 9.456281 -0.496960 9.998994
v 9.280772 -0.496960 9.998994
v 9.280772 -0.078891 8.998994
v 9.456282 -0.078891 8.998994
v 9.456281 -0.078891 9.998994
v 9.280772 -0.078891 9.998994
v 9.324650 -0.058127 8.998994
v 9.368526 -0.052379 8.998994
v 9.412404 -0.058127 8.998994
v 9.412404 -0.058127 9.998994
v 9.368526 -0.052379 9.998994
v 9.324650 -0.058127 9.998994
v 9.324650 -0.514931 8.998994
v 9.368526 -0.520847 8.998994
v 9.412404 -0.514931 8.998994
v 9.412404 -0.514931 9.998994
v 9.368526 -0.520847 9.998994
v 9.324650 -0.514931 9.998994
v 9.280772 -0.496960 8.998994
v 9.456281 -0.496960 8.998994
v 9.456281 -0.496960 9.998994
v 9.280772 -0.496960 9.998994
v 9.280772 -0.078891 8.998994
v 9.456282 -0.078891 8.998994
v 9.456281 -0.078891 9.998994
v 9.280772 -0.078891 9.998994
v 9.581698 -0.526956 9.532691
v 9.403352 -0.392638 9.532691
v 9.525242 -0.535886 9.532691
v 9.360112 -0.417191 9.532691
v 9.581698 -0.526956 9.474482
v 9.403352 -0.392638 9.474482
v 9.525242 -0.535886 9.474482
v 9.360112 -0.417191 9.474482
v 9.616796 -0.617284 9.532691
v 9.558588 -0.617457 9.532691
v 9.616796 -0.617284 9.474482
v 9.558588 -0.617457 9.474482
v 9.616796 -0.779787 9.532691
v 9.558588 -0.779959 9.532691
v 9.616796 -0.779787 9.474482
v 9.558588 -0.779959 9.474482
vt 0.6541 0.8796
vt 0.0053 0.9081
vt 0.6541 0.9081
vt 0.0053 0.9081
vt 0.6541 0.8796
vt 0.6541 0.9081
vt 0.0053 0.9935
vt 0.6541 0.9650
vt 0.6541 0.9935
vt 0.0053 0.9650
vt 0.6541 0.9366
vt 0.0053 0.9366
vt 0.6541 0.9650
vt 0.0053 0.9935
vt 0.6541 0.9935
vt 0.6541 0.9366
vt 0.0053 0.9650
vt 0.0053 0.9366
vt 0.8830 0.9820
vt 0.7848 0.8839
vt 0.8830 0.8839
vt 0.0036 0.1820
vt 0.9983 0.8421
vt 0.0036 0.8421
vt 0.9753 0.0592
vt 0.6169 0.1429
vt 0.6169 0.0591
vt 0.9753 0.0592
vt 0.6170 0.1429
vt 0.6170 0.0591
vt 0.6170 0.0591
vt 0.9753 0.1436
vt 0.6169 0.1429
vt 0.6169 0.0591
vt 0.9753 0.1436
vt 0.6169 0.1429
vt 0.3610 0.0593
vt 0.3610 0.0593
vt 0.3610 0.1429
vt 0.3610 0.0593
vt 0.3610 0.0593
vt 0.3610 0.1429
vt 0.0224 0.0588
vt 0.3610 0.1429
vt 0.0224 0.0588
vt 0.0224 0.1430
vt 0.0224 0.0588
vt 0.0224 0.0588
vt 0.6541 0.8796
vt 0.0053 0.9081
vt 0.6541 0.9081
vt 0.0053 0.9081
vt 0.6541 0.8796
vt 0.6541 0.9081
vt 0.0053 0.9935
vt 0.6541 0.9650
vt 0.6541 0.9935
vt 0.0053 0.9650
vt 0.6541 0.9366
vt 0.0053 0.9366
vt 0.6541 0.9650
vt 0.0053 0.9935
vt 0.6541 0.9935
vt 0.6541 0.9366
vt 0.0053 0.9650
vt 0.0053 0.9366
vt 0.8830 0.9820
vt 0.7848 0.8839
vt 0.8830 0.8839
vt 0.0036 0.1820
vt 0.9983 0.8421
vt 0.0036 0.8421
vt 0.9753 0.0592
vt 0.6169 0.1429
vt 0.6169 0.0591
vt 0.9753 0.0592
vt 0.6170 0.1429
vt 0.6170 0.0591
vt 0.6170 0.0591
vt 0.9753 0.1436
vt 0.6169 0.1429
vt 0.9753 0.0592
vt 0.6169 0.1429
vt 0.6169 0.0591
vt 0.3610 0.0593
vt 0.3610 0.0593
vt 0.3610 0.1429
vt 0.3610 0.0593
vt 0.3610 0.0593
vt 0.3610 0.1429
vt 0.0224 0.0588
vt 0.3610 0.1429
vt 0.0224 0.0588
vt 0.0224 0.1430
vt 0.0224 0.0588
vt 0.0224 0.0588
vt 0.6541 0.8796
vt 0.0053 0.9081
vt 0.6541 0.9081
vt 0.0053 0.9081
vt 0.6541 0.8796
vt 0.6541 0.9081
vt 0.0053 0.9935
vt 0.6541 0.9650
vt 0.6541 0.9935
vt 0.0053 0.9650
vt 0.6541 0.9366
vt 0.0053 0.9366
vt 0.6541 0.9650
vt 0.0053 0.9935
vt 0.6541 0.9935
vt 0.6541 0.9366
vt 0.0053 0.9650
vt 0.0053 0.9366
vt 0.8830 0.9820
vt 0.7848 0.8839
vt 0.8830 0.8839
vt 0.0036 0.1820
vt 0.9983 0.8421
vt 0.0036 0.8421
vt 0.9753 0.0592
vt 0.6169 0.1429
vt 0.6169 0.0591
vt 0.9753 0.0592
vt 0.6170 0.1429
vt 0.6170 0.0591
vt 0.6170 0.0591
vt 0.9753 0.1436
vt 0.6169 0.1429
vt 0.9753 0.0592
vt 0.6169 0.1429
vt 0.6169 0.0591
vt 0.3610 0.0593
vt 0.3610 0.0593
vt 0.3610 0.1429
vt 0.3610 0.0593
vt 0.3610 0.0593
vt 0.3610 0.1429
vt 0.0224 0.0588
vt 0.3610 0.1429
vt 0.0224 0.0588
vt 0.0224 0.1430
vt 0.0224 0.0588
vt 0.0224 0.0588
vt 0.6541 0.8796
vt 0.0053 0.9081
vt 0.6541 0.9081
vt 0.0053 0.9081
vt 0.6541 0.8796
vt 0.6541 0.9081
vt 0.0053 0.9935
vt 0.6541 0.9650
vt 0.6541 0.9935
vt 0.0053 0.9650
vt 0.6541 0.9366
vt 0.0053 0.9366
vt 0.6541 0.9650
vt 0.0053 0.9935
vt 0.6541 0.9935
vt 0.6541 0.9366
vt 0.0053 0.9650
vt 0.0053 0.9366
vt 0.8830 0.9820
vt 0.7848 0.8839
vt 0.8830 0.8839
vt 0.0036 0.1820
vt 0.9983 0.8421
vt 0.0036 0.8421
vt 0.9753 0.0592
vt 0.6169 0.1429
vt 0.6169 0.0591
vt 0.9753 0.0592
vt 0.6170 0.1429
vt 0.6170 0.0591
vt 0.6170 0.0591
vt 0.9753 0.1436
vt 0.6169 0.1429
vt 0.9753 0.0592
vt 0.6169 0.1429
vt 0.6169 0.0591
vt 0.3610 0.0593
vt 0.3610 0.0593
vt 0.3610 0.1429
vt 0.3610 0.0593
vt 0.3610 0.0593
vt 0.3610 0.1429
vt 0.0224 0.0588
vt 0.3610 0.1429
vt 0.0224 0.0588
vt 0.0224 0.1430
vt 0.0224 0.0588
vt 0.0224 0.0588
vt 0.6541 0.8796
vt 0.0053 0.9081
vt 0.6541 0.9081
vt 0.0053 0.9081
vt 0.6541 0.8796
vt 0.6541 0.9081
vt 0.0053 0.9935
vt 0.6541 0.9650
vt 0.6541 0.9935
vt 0.0053 0.9650
vt 0.6541 0.9366
vt 0.0053 0.9366
vt 0.6541 0.9650
vt 0.0053 0.9935
vt 0.6541 0.9935
vt 0.6541 0.9366
vt 0.0053 0.9650
vt 0.0053 0.9366
vt 0.8830 0.9820
vt 0.7848 0.8839
vt 0.8830 0.8839
vt 0.0036 0.1820
vt 0.9983 0.8421
vt 0.0036 0.8421
vt 0.9753 0.0592
vt 0.6169 0.1429
vt 0.6169 0.0591
vt 0.9753 0.0592
vt 0.6170 0.1429
vt 0.6170 0.0591
vt 0.6170 0.0591
vt 0.9753 0.1436
vt 0.6169 0.1429
vt 0.9753 0.0592
vt 0.6169 0.1429
vt 0.6169 0.0591
vt 0.3610 0.0593
vt 0.3610 0.0593
vt 0.3610 0.1429
vt 0.3610 0.0593
vt 0.3610 0.0593
vt 0.3610 0.1429
vt 0.0224 0.0588
vt 0.3610 0.1429
vt 0.0224 0.0588
vt 0.0224 0.1430
vt 0.0224 0.0588
vt 0.0224 0.0588
vt 0.6541 0.8796
vt 0.0053 0.9081
vt 0.6541 0.9081
vt 0.0053 0.9081
vt 0.6541 0.8796
vt 0.6541 0.9081
vt 0.0053 0.9935
vt 0.6541 0.9650
vt 0.6541 0.9935
vt 0.0053 0.9650
vt 0.6541 0.9366
vt 0.0053 0.9366
vt 0.6541 0.9650
vt 0.0053 0.9935
vt 0.6541 0.9935
vt 0.6541 0.9366
vt 0.0053 0.9650
vt 0.0053 0.9366
vt 0.8830 0.9820
vt 0.7848 0.8839
vt 0.8830 0.8839
vt 0.0036 0.1820
vt 0.9983 0.8421
vt 0.0036 0.8421
vt 0.9753 0.0592
vt 0.6169 0.1429
vt 0.6169 0.0591
vt 0.9753 0.0592
vt 0.6170 0.1429
vt 0.6170 0.0591
vt 0.6170 0.0591
vt 0.9753 0.1436
vt 0.6169 0.1429
vt 0.9753 0.0592
vt 0.6169 0.1429
vt 0.6169 0.0591
vt 0.3610 0.0593
vt 0.3610 0.0593
vt 0.3610 0.1429
vt 0.3610 0.0593
vt 0.3610 0.0593
vt 0.3610 0.1429
vt 0.0224 0.0588
vt 0.3610 0.1429
vt 0.0224 0.0588
vt 0.0224 0.1430
vt 0.0224 0.0588
vt 0.0224 0.0588
vt 0.6541 0.8796
vt 0.0053 0.9081
vt 0.6541 0.9081
vt 0.0053 0.9081
vt 0.6541 0.8796
vt 0.6541 0.9081
vt 0.6541 0.9935
vt 0.0053 0.9650
vt 0.6541 0.9650
vt 0.0053 0.9366
vt 0.6541 0.9366
vt 0.6541 0.9650
vt 0.0053 0.9935
vt 0.6541 0.9935
vt 0.6541 0.9366
vt 0.0053 0.9650
vt 0.0053 0.9366
vt 0.8830 0.9820
vt 0.7848 0.8839
vt 0.8830 0.8839
vt 0.0036 0.1820
vt 0.9983 0.8421
vt 0.0036 0.8421
vt 0.9753 0.0592
vt 0.6169 0.1429
vt 0.6169 0.0591
vt 0.9753 0.0592
vt 0.6170 0.1429
vt 0.6170 0.0591
vt 0.6170 0.0591
vt 0.9753 0.1436
vt 0.6169 0.1429
vt 0.9753 0.0592
vt 0.6169 0.1429
vt 0.6169 0.0591
vt 0.3610 0.0593
vt 0.3610 0.0593
vt 0.3610 0.1429
vt 0.3610 0.0593
vt 0.3610 0.0593
vt 0.3610 0.1429
vt 0.0224 0.0588
vt 0.3610 0.1429
vt 0.0224 0.0588
vt 0.0224 0.1430
vt 0.0224 0.0588
vt 0.0224 0.0588
vt 0.6541 0.8796
vt 0.0053 0.9081
vt 0.6541 0.9081
vt 0.0053 0.9081
vt 0.6541 0.8796
vt 0.6541 0.9081
vt 0.0053 0.9935
vt 0.6541 0.9650
vt 0.6541 0.9935
vt 0.0053 0.9650
vt 0.6541 0.9366
vt 0.0053 0.9366
vt 0.6541 0.9650
vt 0.0053 0.9935
vt 0.6541 0.9935
vt 0.6541 0.9366
vt 0.0053 0.9650
vt 0.0053 0.9366
vt 0.8830 0.9820
vt 0.7848 0.8839
vt 0.8830 0.8839
vt 0.0036 0.1820
vt 0.9983 0.8421
vt 0.0036 0.8421
vt 0.9753 0.0592
vt 0.6169 0.1429
vt 0.6169 0.0591
vt 0.9753 0.0592
vt 0.6170 0.1429
vt 0.6170 0.0591
vt 0.6170 0.0591
vt 0.9753 0.1436
vt 0.6169 0.1429
vt 0.9753 0.0592
vt 0.6169 0.1429
vt 0.6169 0.0591
vt 0.3610 0.0593
vt 0.3610 0.0593
vt 0.3610 0.1429
vt 0.3610 0.0593
vt 0.3610 0.0593
vt 0.3610 0.1429
vt 0.0224 0.0588
vt 0.3610 0.1429
vt 0.0224 0.0588
vt 0.0224 0.1430
vt 0.0224 0.0588
vt 0.0224 0.0588
vt 0.6541 0.8796
vt 0.0053 0.9081
vt 0.6541 0.9081
vt 0.0053 0.9081
vt 0.6541 0.8796
vt 0.6541 0.9081
vt 0.0053 0.9935
vt 0.6541 0.9650
vt 0.6541 0.9935
vt 0.0053 0.9650
vt 0.6541 0.9366
vt 0.0053 0.9366
vt 0.6541 0.9650
vt 0.0053 0.9935
vt 0.6541 0.9935
vt 0.6541 0.9366
vt 0.0053 0.9650
vt 0.0053 0.9366
vt 0.8830 0.9820
vt 0.7848 0.8839
vt 0.8830 0.8839
vt 0.0036 0.1820
vt 0.9983 0.8421
vt 0.0036 0.8421
vt 0.9753 0.0592
vt 0.6169 0.1429
vt 0.6169 0.0591
vt 0.9753 0.0592
vt 0.6170 0.1429
vt 0.6170 0.0591
vt 0.6170 0.0591
vt 0.9753 0.1436
vt 0.6169 0.1429
vt 0.9753 0.0592
vt 0.6169 0.1429
vt 0.6169 0.0591
vt 0.3610 0.0593
vt 0.3610 0.0593
vt 0.3610 0.1429
vt 0.3610 0.0593
vt 0.3610 0.0593
vt 0.3610 0.1429
vt 0.0224 0.0588
vt 0.3610 0.1429
vt 0.0224 0.0588
vt 0.0224 0.1430
vt 0.0224 0.0588
vt 0.0224 0.0588
vt 0.6541 0.8796
vt 0.0053 0.9081
vt 0.6541 0.9081
vt 0.0053 0.9081
vt 0.6541 0.8796
vt 0.6541 0.9081
vt 0.0053 0.9935
vt 0.6541 0.9650
vt 0.6541 0.9935
vt 0.0053 0.9650
vt 0.6541 0.9366
vt 0.0053 0.9366
vt 0.6541 0.9650
vt 0.0053 0.9935
vt 0.6541 0.9935
vt 0.6541 0.9366
vt 0.0053 0.9650
vt 0.0053 0.9366
vt 0.8830 0.9820
vt 0.7848 0.8839
vt 0.8830 0.8839
vt 0.0036 0.1820
vt 0.9983 0.8421
vt 0.0036 0.8421
vt 0.9753 0.0592
vt 0.6169 0.1429
vt 0.6169 0.0591
vt 0.9753 0.0592
vt 0.6170 0.1429
vt 0.6170 0.0591
vt 0.6170 0.0591
vt 0.9753 0.1436
vt 0.6169 0.1429
vt 0.9753 0.0592
vt 0.6169 0.1429
vt 0.6169 0.0591
vt 0.3610 0.0593
vt 0.3610 0.0593
vt 0.3610 0.1429
vt 0.3610 0.0593
vt 0.3610 0.0593
vt 0.3610 0.1429
vt 0.0224 0.0588
vt 0.3610 0.1429
vt 0.0224 0.0588
vt 0.0224 0.1430
vt 0.0224 0.0588
vt 0.0224 0.0588
vt 0.0053 0.8796
vt 0.0053 0.8796
vt 0.7848 0.9820
vt 0.9983 0.1820
vt 0.9753 0.1436
vt 0.9753 0.1436
vt 0.9753 0.0592
vt 0.9753 0.0592
vt 0.3610 0.1429
vt 0.0224 0.1430
vt 0.0224 0.1430
vt 0.0224 0.1430
vt 0.0053 0.8796
vt 0.0053 0.8796
vt 0.7848 0.9820
vt 0.9983 0.1820
vt 0.9753 0.1436
vt 0.9753 0.1436
vt 0.9753 0.0592
vt 0.9753 0.1436
vt 0.3610 0.1429
vt 0.0224 0.1430
vt 0.0224 0.1430
vt 0.0224 0.1430
vt 0.0053 0.8796
vt 0.0053 0.8796
vt 0.7848 0.9820
vt 0.9983 0.1820
vt 0.9753 0.1436
vt 0.9753 0.1436
vt 0.9753 0.0592
vt 0.9753 0.1436
vt 0.3610 0.1429
vt 0.0224 0.1430
vt 0.0224 0.1430
vt 0.0224 0.1430
vt 0.0053 0.8796
vt 0.0053 0.8796
vt 0.7848 0.9820
vt 0.9983 0.1820
vt 0.9753 0.1436
vt 0.9753 0.1436
vt 0.9753 0.0592
vt 0.9753 0.1436
vt 0.3610 0.1429
vt 0.0224 0.1430
vt 0.0224 0.1430
vt 0.0224 0.1430
vt 0.0053 0.8796
vt 0.0053 0.8796
vt 0.7848 0.9820
vt 0.9983 0.1820
vt 0.9753 0.1436
vt 0.9753 0.1436
vt 0.9753 0.0592
vt 0.9753 0.1436
vt 0.3610 0.1429
vt 0.0224 0.1430
vt 0.0224 0.1430
vt 0.0224 0.1430
vt 0.0053 0.8796
vt 0.0053 0.8796
vt 0.7848 0.9820
vt 0.9983 0.1820
vt 0.9753 0.1436
vt 0.9753 0.1436
vt 0.9753 0.0592
vt 0.9753 0.1436
vt 0.3610 0.1429
vt 0.0224 0.1430
vt 0.0224 0.1430
vt 0.0224 0.1430
vt 0.0053 0.8796
vt 0.0053 0.8796
vt 0.0053 0.9935
vt 0.7848 0.9820
vt 0.9983 0.1820
vt 0.9753 0.1436
vt 0.9753 0.1436
vt 0.9753 0.0592
vt 0.9753 0.1436
vt 0.3610 0.1429
vt 0.0224 0.1430
vt 0.0224 0.1430
vt 0.0224 0.1430
vt 0.0053 0.8796
vt 0.0053 0.8796
vt 0.7848 0.9820
vt 0.9983 0.1820
vt 0.9753 0.1436
vt 0.9753 0.1436
vt 0.9753 0.0592
vt 0.9753 0.1436
vt 0.3610 0.1429
vt 0.0224 0.1430
vt 0.0224 0.1430
vt 0.0224 0.1430
vt 0.0053 0.8796
vt 0.0053 0.8796
vt 0.7848 0.9820
vt 0.9983 0.1820
vt 0.9753 0.1436
vt 0.9753 0.1436
vt 0.9753 0.0592
vt 0.9753 0.1436
vt 0.3610 0.1429
vt 0.0224 0.1430
vt 0.0224 0.1430
vt 0.0224 0.1430
vt 0.0053 0.8796
vt 0.0053 0.8796
vt 0.7848 0.9820
vt 0.9983 0.1820
vt 0.9753 0.1436
vt 0.9753 0.1436
vt 0.9753 0.0592
vt 0.9753 0.1436
vt 0.3610 0.1429
vt 0.0224 0.1430
vt 0.0224 0.1430
vt 0.0224 0.1430
vn 0.3790 -0.9254 0.0000
vn 0.2584 -0.9660 0.0000
vn 0.2822 0.9593 0.0000
vn 0.4277 0.9039 0.0000
vn -0.4277 0.9039 0.0000
vn -0.2822 0.9593 0.0000
vn 0.0000 1.0000 0.0000
vn -0.2584 -0.9660 0.0000
vn -0.3790 -0.9254 0.0000
vn 0.0000 -1.0000 0.0000
vn 1.0000 0.0000 0.0000
vn -1.0000 0.0000 0.0000
vn 0.0000 0.0000 1.0000
vn -0.5837 -0.8120 0.0000
vn 0.0000 0.0000 -1.0000
vn 0.6016 0.7988 0.0000
vn 0.9321 0.3622 0.0000
vn -0.9256 -0.3784 0.0000
s 1
f 2/1/1 18/2/2 17/3/2
f 12/4/3 6/5/4 11/6/3
f 8/7/5 9/8/6 5/9/5
f 14/10/6 10/11/7 9/8/6
f 13/12/7 11/6/3 10/11/7
f 15/13/8 4/14/9 1/15/9
f 16/16/10 20/17/8 15/13/8
f 17/3/2 19/18/10 16/16/10
s off
f 26/19/11 23/20/11 22/21/11
f 21/22/12 28/23/12 25/24/12
f 30/25/13 31/26/13 29/27/13
f 32/28/14 35/29/14 31/30/14
f 35/31/15 34/32/15 33/33/15
f 33/34/16 30/35/16 29/36/16
f 29/36/17 39/37/17 33/34/17
f 35/29/18 38/38/18 31/30/18
f 29/27/13 38/39/13 37/40/13
f 33/33/15 40/41/15 35/31/15
f 37/42/11 43/43/11 39/37/11
f 40/44/12 42/45/12 38/38/12
f 40/41/15 43/46/15 44/47/15
f 38/39/13 41/48/13 37/40/13
s 1
f 46/49/1 62/50/2 61/51/2
f 56/52/3 50/53/4 55/54/3
f 52/55/5 53/56/6 49/57/5
f 58/58/6 54/59/7 53/56/6
f 57/60/7 55/54/3 54/59/7
f 59/61/8 48/62/9 45/63/9
f 60/64/10 64/65/8 59/61/8
f 61/51/2 63/66/10 60/64/10
s off
f 70/67/11 67/68/11 66/69/11
f 65/70/12 72/71/12 69/72/12
f 74/73/13 75/74/13 73/75/13
f 76/76/14 79/77/14 75/78/14
f 79/79/15 78/80/15 77/81/15
f 78/82/16 73/83/16 77/84/16
f 73/83/17 83/85/17 77/84/17
f 79/77/18 82/86/18 75/78/18
f 73/75/13 82/87/13 81/88/13
f 77/81/15 84/89/15 79/79/15
f 81/90/11 87/91/11 83/85/11
f 84/92/12 86/93/12 82/86/12
f 84/89/15 87/94/15 88/95/15
f 82/87/13 85/96/13 81/88/13
s 1
f 90/97/1 106/98/2 105/99/2
f 100/100/3 94/101/4 99/102/3
f 96/103/5 97/104/6 93/105/5
f 102/106/6 98/107/7 97/104/6
f 101/108/7 99/102/3 98/107/7
f 103/109/8 92/110/9 89/111/9
f 104/112/10 108/113/8 103/109/8
f 105/99/2 107/114/10 104/112/10
s off
f 114/115/11 111/116/11 110/117/11
f 109/118/12 116/119/12 113/120/12
f 118/121/13 119/122/13 117/123/13
f 120/124/14 123/125/14 119/126/14
f 123/127/15 122/128/15 121/129/15
f 122/130/16 117/131/16 121/132/16
f 117/131/17 127/133/17 121/132/17
f 123/125/18 126/134/18 119/126/18
f 117/123/13 126/135/13 125/136/13
f 121/129/15 128/137/15 123/127/15
f 125/138/11 131/139/11 127/133/11
f 128/140/12 130/141/12 126/134/12
f 128/137/15 131/142/15 132/143/15
f 126/135/13 129/144/13 125/136/13
s 1
f 134/145/1 150/146/2 149/147/2
f 144/148/3 138/149/4 143/150/3
f 140/151/5 141/152/6 137/153/5
f 146/154/6 142/155/7 141/152/6
f 145/156/7 143/150/3 142/155/7
f 147/157/8 136/158/9 133/159/9
f 148/160/10 152/161/8 147/157/8
f 149/147/2 151/162/10 148/160/10
s off
f 158/163/11 155/164/11 154/165/11
f 153/166/12 160/167/12 157/168/12
f 162/169/13 163/170/13 161/171/13
f 164/172/14 167/173/14 163/174/14
f 167/175/15 166/176/15 165/177/15
f 166/178/16 161/179/16 165/180/16
f 161/179/17 171/181/17 165/180/17
f 167/173/18 170/182/18 163/174/18
f 161/171/13 170/183/13 169/184/13
f 165/177/15 172/185/15 167/175/15
f 169/186/11 175/187/11 171/181/11
f 172/188/12 174/189/12 170/182/12
f 172/185/15 175/190/15 176/191/15
f 170/183/13 173/192/13 169/184/13
s 1
f 178/193/1 194/194/2 193/195/2
f 188/196/3 182/197/4 187/198/3
f 184/199/5 185/200/6 181/201/5
f 190/202/6 186/203/7 185/200/6
f 189/204/7 187/198/3 186/203/7
f 191/205/8 180/206/9 177/207/9
f 192/208/10 196/209/8 191/205/8
f 193/195/2 195/210/10 192/208/10
s off
f 202/211/11 199/212/11 198/213/11
f 197/214/12 204/215/12 201/216/12
f 206/217/13 207/218/13 205/219/13
f 208/220/14 211/221/14 207/222/14
f 211/223/15 210/224/15 209/225/15
f 210/226/16 205/227/16 209/228/16
f 205/227/17 215/229/17 209/228/17
f 211/221/18 214/230/18 207/222/18
f 205/219/13 214/231/13 213/232/13
f 209/225/15 216/233/15 211/223/15
f 213/234/11 219/235/11 215/229/11
f 216/236/12 218/237/12 214/230/12
f 216/233/15 219/238/15 220/239/15
f 214/231/13 217/240/13 213/232/13
s 1
f 222/241/1 238/242/2 237/243/2
f 232/244/3 226/245/4 231/246/3
f 228/247/5 229/248/6 225/249/5
f 234/250/6 230/251/7 229/248/6
f 233/252/7 231/246/3 230/251/7
f 235/253/8 224/254/9 221/255/9
f 236/256/10 240/257/8 235/253/8
f 237/243/2 239/258/10 236/256/10
s off
f 246/259/11 243/260/11 242/261/11
f 241/262/12 248/263/12 245/264/12
f 250/265/13 251/266/13 249/267/13
f 252/268/14 255/269/14 251/270/14
f 255/271/15 254/272/15 253/273/15
f 254/274/16 249/275/16 253/276/16
f 249/275/17 259/277/17 253/276/17
f 255/269/18 258/278/18 251/270/18
f 249/267/13 258/279/13 257/280/13
f 253/273/15 260/281/15 255/271/15
f 257/282/11 263/283/11 259/277/11
f 260/284/12 262/285/12 258/278/12
f 260/281/15 263/286/15 264/287/15
f 258/279/13 261/288/13 257/280/13
s 1
f 266/289/1 282/290/2 281/291/2
f 276/292/3 270/293/4 275/294/3
f 269/295/5 278/296/6 273/297/6
f 273/297/6 277/298/7 274/299/7
f 277/298/7 275/294/3 274/299/7
f 279/300/8 268/301/9 265/302/9
f 280/303/10 284/304/8 279/300/8
f 280/303/10 282/290/2 283/305/10
s off
f 290/306/11 287/307/11 286/308/11
f 285/309/12 292/310/12 289/311/12
f 294/312/13 295/313/13 293/314/13
f 296/315/14 299/316/14 295/317/14
f 299/318/15 298/319/15 297/320/15
f 298/321/16 293/322/16 297/323/16
f 293/322/17 303/324/17 297/323/17
f 299/316/18 302/325/18 295/317/18
f 293/314/13 302/326/13 301/327/13
f 297/320/15 304/328/15 299/318/15
f 301/329/11 307/330/11 303/324/11
f 304/331/12 306/332/12 302/325/12
f 304/328/15 307/333/15 308/334/15
f 302/326/13 305/335/13 301/327/13
s 1
f 310/336/1 326/337/2 325/338/2
f 320/339/3 314/340/4 319/341/3
f 316/342/5 317/343/6 313/344/5
f 322/345/6 318/346/7 317/343/6
f 321/347/7 319/341/3 318/346/7
f 323/348/8 312/349/9 309/350/9
f 324/351/10 328/352/8 323/348/8
f 325/338/2 327/353/10 324/351/10
s off
f 334/354/11 331/355/11 330/356/11
f 329/357/12 336/358/12 333/359/12
f 338/360/13 339/361/13 337/362/13
f 340/363/14 343/364/14 339/365/14
f 343/366/15 342/367/15 341/368/15
f 342/369/16 337/370/16 341/371/16
f 337/370/17 347/372/17 341/371/17
f 343/364/18 346/373/18 339/365/18
f 337/362/13 346/374/13 345/375/13
f 341/368/15 348/376/15 343/366/15
f 345/377/11 351/378/11 347/372/11
f 348/379/12 350/380/12 346/373/12
f 348/376/15 351/381/15 352/382/15
f 346/374/13 349/383/13 345/375/13
s 1
f 354/384/1 370/385/2 369/386/2
f 364/387/3 358/388/4 363/389/3
f 360/390/5 361/391/6 357/392/5
f 366/393/6 362/394/7 361/391/6
f 365/395/7 363/389/3 362/394/7
f 367/396/8 356/397/9 353/398/9
f 368/399/10 372/400/8 367/396/8
f 369/386/2 371/401/10 368/399/10
s off
f 378/402/11 375/403/11 374/404/11
f 373/405/12 380/406/12 377/407/12
f 382/408/13 383/409/13 381/410/13
f 384/411/14 387/412/14 383/413/14
f 387/414/15 386/415/15 385/416/15
f 386/417/16 381/418/16 385/419/16
f 381/418/17 391/420/17 385/419/17
f 387/412/18 390/421/18 383/413/18
f 381/410/13 390/422/13 389/423/13
f 385/416/15 392/424/15 387/414/15
f 389/425/11 395/426/11 391/420/11
f 392/427/12 394/428/12 390/421/12
f 392/424/15 395/429/15 396/430/15
f 390/422/13 393/431/13 389/423/13
s 1
f 398/432/1 414/433/2 413/434/2
f 408/435/3 402/436/4 407/437/3
f 404/438/5 405/439/6 401/440/5
f 410/441/6 406/442/7 405/439/6
f 409/443/7 407/437/3 406/442/7
f 411/444/8 400/445/9 397/446/9
f 412/447/10 416/448/8 411/444/8
f 413/434/2 415/449/10 412/447/10
s off
f 422/450/11 419/451/11 418/452/11
f 417/453/12 424/454/12 421/455/12
f 426/456/13 427/457/13 425/458/13
f 428/459/14 431/460/14 427/461/14
f 431/462/15 430/463/15 429/464/15
f 430/465/16 425/466/16 429/467/16
f 425/466/17 435/468/17 429/467/17
f 431/460/18 434/469/18 427/461/18
f 425/458/13 434/470/13 433/471/13
f 429/464/15 436/472/15 431/462/15
f 433/473/11 439/474/11 435/468/11
f 436/475/12 438/476/12 434/469/12
f 436/472/15 439/477/15 440/478/15
f 434/470/13 437/479/13 433/471/13
s 1
f 2/1/1 3/480/1 18/2/2
f 12/4/3 7/481/4 6/5/4
f 8/7/5 14/10/6 9/8/6
f 14/10/6 13/12/7 10/11/7
f 13/12/7 12/4/3 11/6/3
f 15/13/8 20/17/8 4/14/9
f 16/16/10 19/18/10 20/17/8
f 17/3/2 18/2/2 19/18/10
s off
f 26/19/11 27/482/11 23/20/11
f 21/22/12 24/483/12 28/23/12
f 30/25/13 32/484/13 31/26/13
f 32/28/14 36/485/14 35/29/14
f 35/31/15 36/486/15 34/32/15
f 33/34/16 34/487/16 30/35/16
f 29/36/17 37/42/17 39/37/17
f 35/29/18 40/44/18 38/38/18
f 29/27/13 31/26/13 38/39/13
f 33/33/15 39/488/15 40/41/15
f 37/42/11 41/489/11 43/43/11
f 40/44/12 44/490/12 42/45/12
f 40/41/15 39/488/15 43/46/15
f 38/39/13 42/491/13 41/48/13
s 1
f 46/49/1 47/492/1 62/50/2
f 56/52/3 51/493/4 50/53/4
f 52/55/5 58/58/6 53/56/6
f 58/58/6 57/60/7 54/59/7
f 57/60/7 56/52/3 55/54/3
f 59/61/8 64/65/8 48/62/9
f 60/64/10 63/66/10 64/65/8
f 61/51/2 62/50/2 63/66/10
s off
f 70/67/11 71/494/11 67/68/11
f 65/70/12 68/495/12 72/71/12
f 74/73/13 76/496/13 75/74/13
f 76/76/14 80/497/14 79/77/14
f 79/79/15 80/498/15 78/80/15
f 78/82/16 74/499/16 73/83/16
f 73/83/17 81/90/17 83/85/17
f 79/77/18 84/92/18 82/86/18
f 73/75/13 75/74/13 82/87/13
f 77/81/15 83/500/15 84/89/15
f 81/90/11 85/501/11 87/91/11
f 84/92/12 88/502/12 86/93/12
f 84/89/15 83/500/15 87/94/15
f 82/87/13 86/503/13 85/96/13
s 1
f 90/97/1 91/504/1 106/98/2
f 100/100/3 95/505/4 94/101/4
f 96/103/5 102/106/6 97/104/6
f 102/106/6 101/108/7 98/107/7
f 101/108/7 100/100/3 99/102/3
f 103/109/8 108/113/8 92/110/9
f 104/112/10 107/114/10 108/113/8
f 105/99/2 106/98/2 107/114/10
s off
f 114/115/11 115/506/11 111/116/11
f 109/118/12 112/507/12 116/119/12
f 118/121/13 120/508/13 119/122/13
f 120/124/14 124/509/14 123/125/14
f 123/127/15 124/510/15 122/128/15
f 122/130/16 118/511/16 117/131/16
f 117/131/17 125/138/17 127/133/17
f 123/125/18 128/140/18 126/134/18
f 117/123/13 119/122/13 126/135/13
f 121/129/15 127/512/15 128/137/15
f 125/138/11 129/513/11 131/139/11
f 128/140/12 132/514/12 130/141/12
f 128/137/15 127/512/15 131/142/15
f 126/135/13 130/515/13 129/144/13
s 1
f 134/145/1 135/516/1 150/146/2
f 144/148/3 139/517/4 138/149/4
f 140/151/5 146/154/6 141/152/6
f 146/154/6 145/156/7 142/155/7
f 145/156/7 144/148/3 143/150/3
f 147/157/8 152/161/8 136/158/9
f 148/160/10 151/162/10 152/161/8
f 149/147/2 150/146/2 151/162/10
s off
f 158/163/11 159/518/11 155/164/11
f 153/166/12 156/519/12 160/167/12
f 162/169/13 164/520/13 163/170/13
f 164/172/14 168/521/14 167/173/14
f 167/175/15 168/522/15 166/176/15
f 166/178/16 162/523/16 161/179/16
f 161/179/17 169/186/17 171/181/17
f 167/173/18 172/188/18 170/182/18
f 161/171/13 163/170/13 170/183/13
f 165/177/15 171/524/15 172/185/15
f 169/186/11 173/525/11 175/187/11
f 172/188/12 176/526/12 174/189/12
f 172/185/15 171/524/15 175/190/15
f 170/183/13 174/527/13 173/192/13
s 1
f 178/193/1 179/528/1 194/194/2
f 188/196/3 183/529/4 182/197/4
f 184/199/5 190/202/6 185/200/6
f 190/202/6 189/204/7 186/203/7
f 189/204/7 188/196/3 187/198/3
f 191/205/8 196/209/8 180/206/9
f 192/208/10 195/210/10 196/209/8
f 193/195/2 194/194/2 195/210/10
s off
f 202/211/11 203/530/11 199/212/11
f 197/214/12 200/531/12 204/215/12
f 206/217/13 208/532/13 207/218/13
f 208/220/14 212/533/14 211/221/14
f 211/223/15 212/534/15 210/224/15
f 210/226/16 206/535/16 205/227/16
f 205/227/17 213/234/17 215/229/17
f 211/221/18 216/236/18 214/230/18
f 205/219/13 207/218/13 214/231/13
f 209/225/15 215/536/15 216/233/15
f 213/234/11 217/537/11 219/235/11
f 216/236/12 220/538/12 218/237/12
f 216/233/15 215/536/15 219/238/15
f 214/231/13 218/539/13 217/240/13
s 1
f 222/241/1 223/540/1 238/242/2
f 232/244/3 227/541/4 226/245/4
f 228/247/5 234/250/6 229/248/6
f 234/250/6 233/252/7 230/251/7
f 233/252/7 232/244/3 231/246/3
f 235/253/8 240/257/8 224/254/9
f 236/256/10 239/258/10 240/257/8
f 237/243/2 238/242/2 239/258/10
s off
f 246/259/11 247/542/11 243/260/11
f 241/262/12 244/543/12 248/263/12
f 250/265/13 252/544/13 251/266/13
f 252/268/14 256/545/14 255/269/14
f 255/271/15 256/546/15 254/272/15
f 254/274/16 250/547/16 249/275/16
f 249/275/17 257/282/17 259/277/17
f 255/269/18 260/284/18 258/278/18
f 249/267/13 251/266/13 258/279/13
f 253/273/15 259/548/15 260/281/15
f 257/282/11 261/549/11 263/283/11
f 260/284/12 264/550/12 262/285/12
f 260/281/15 259/548/15 263/286/15
f 258/279/13 262/551/13 261/288/13
s 1
f 266/289/1 267/552/1 282/290/2
f 276/292/3 271/553/4 270/293/4
f 269/295/5 272/554/5 278/296/6
f 273/297/6 278/296/6 277/298/7
f 277/298/7 276/292/3 275/294/3
f 279/300/8 284/304/8 268/301/9
f 280/303/10 283/305/10 284/304/8
f 280/303/10 281/291/2 282/290/2
s off
f 290/306/11 291/555/11 287/307/11
f 285/309/12 288/556/12 292/310/12
f 294/312/13 296/557/13 295/313/13
f 296/315/14 300/558/14 299/316/14
f 299/318/15 300/559/15 298/319/15
f 298/321/16 294/560/16 293/322/16
f 293/322/17 301/329/17 303/324/17
f 299/316/18 304/331/18 302/325/18
f 293/314/13 295/313/13 302/326/13
f 297/320/15 303/561/15 304/328/15
f 301/329/11 305/562/11 307/330/11
f 304/331/12 308/563/12 306/332/12
f 304/328/15 303/561/15 307/333/15
f 302/326/13 306/564/13 305/335/13
s 1
f 310/336/1 311/565/1 326/337/2
f 320/339/3 315/566/4 314/340/4
f 316/342/5 322/345/6 317/343/6
f 322/345/6 321/347/7 318/346/7
f 321/347/7 320/339/3 319/341/3
f 323/348/8 328/352/8 312/349/9
f 324/351/10 327/353/10 328/352/8
f 325/338/2 326/337/2 327/353/10
s off
f 334/354/11 335/567/11 331/355/11
f 329/357/12 332/568/12 336/358/12
f 338/360/13 340/569/13 339/361/13
f 340/363/14 344/570/14 343/364/14
f 343/366/15 344/571/15 342/367/15
f 342/369/16 338/572/16 337/370/16
f 337/370/17 345/377/17 347/372/17
f 343/364/18 348/379/18 346/373/18
f 337/362/13 339/361/13 346/374/13
f 341/368/15 347/573/15 348/376/15
f 345/377/11 349/574/11 351/378/11
f 348/379/12 352/575/12 350/380/12
f 348/376/15 347/573/15 351/381/15
f 346/374/13 350/576/13 349/383/13
s 1
f 354/384/1 355/577/1 370/385/2
f 364/387/3 359/578/4 358/388/4
f 360/390/5 366/393/6 361/391/6
f 366/393/6 365/395/7 362/394/7
f 365/395/7 364/387/3 363/389/3
f 367/396/8 372/400/8 356/397/9
f 368/399/10 371/401/10 372/400/8
f 369/386/2 370/385/2 371/401/10
s off
f 378/402/11 379/579/11 375/403/11
f 373/405/12 376/580/12 380/406/12
f 382/408/13 384/581/13 383/409/13
f 384/411/14 388/582/14 387/412/14
f 387/414/15 388/583/15 386/415/15
f 386/417/16 382/584/16 381/418/16
f 381/418/17 389/425/17 391/420/17
f 387/412/18 392/427/18 390/421/18
f 381/410/13 383/409/13 390/422/13
f 385/416/15 391/585/15 392/424/15
f 389/425/11 393/586/11 395/426/11
f 392/427/12 396/587/12 394/428/12
f 392/424/15 391/585/15 395/429/15
f 390/422/13 394/588/13 393/431/13
s 1
f 398/432/1 399/589/1 414/433/2
f 408/435/3 403/590/4 402/436/4
f 404/438/5 410/441/6 405/439/6
f 410/441/6 409/443/7 406/442/7
f 409/443/7 408/435/3 407/437/3
f 411/444/8 416/448/8 400/445/9
f 412/447/10 415/449/10 416/448/8
f 413/434/2 414/433/2 415/449/10
s off
f 422/450/11 423/591/11 419/451/11
f 417/453/12 420/592/12 424/454/12
f 426/456/13 428/593/13 427/457/13
f 428/459/14 432/594/14 431/460/14
f 431/462/15 432/595/15 430/463/15
f 430/465/16 426/596/16 425/466/16
f 425/466/17 433/473/17 435/468/17
f 431/460/18 436/475/18 434/469/18
f 425/458/13 427/457/13 434/470/13
f 429/464/15 435/597/15 436/472/15
f 433/473/11 437/598/11 439/474/11
f 436/475/12 440/599/12 438/476/12
f 436/472/15 435/597/15 439/477/15
f 434/470/13 438/600/13 437/479/13
