# Blender v2.78 (sub 0) OBJ File: 'vtrack.blend'
# www.blender.org
o grass.007_wall_house_stair_Cube.019
v -99.230713 -77.702042 -2.129931
v -92.352074 -64.813080 0.695127
v -92.614555 -66.357162 0.697542
v -92.847191 -67.725555 0.699683
v -93.093727 -69.175858 0.701950
v -93.383820 -70.882248 0.704621
v -93.486328 -71.505173 -2.014928
v -93.831963 -73.538376 -2.011746
v -94.124855 -75.261353 -2.009054
v -94.411674 -76.948532 -2.006415
v -94.676422 -78.505905 -2.003978
v -94.237228 -61.974133 4.033748
v -94.570839 -63.866161 4.036483
v -93.327126 -56.812572 4.026292
v -93.938942 -60.282429 4.031305
v -93.633026 -58.547501 4.028798
v -94.576263 -64.430267 0.662435
v -94.848236 -65.972717 0.664663
v -95.089256 -67.339661 0.666641
v -95.344704 -68.788422 0.668730
v -95.645264 -70.492996 0.671195
v -95.681335 -71.127350 -2.047405
v -96.039452 -73.158386 -2.044471
v -96.342934 -74.879532 -2.041985
v -96.640106 -76.564926 -2.039550
v -96.914413 -78.120636 -2.037303
v -96.525826 -61.560730 3.942624
v -96.879013 -63.449196 3.944534
v -95.562294 -56.408875 3.937418
v -96.210014 -59.872204 3.940917
v -95.886154 -58.140537 3.939167
v -96.813065 -64.026184 0.573306
v -97.101006 -65.565735 0.574861
v -97.356178 -66.930115 0.576240
v -97.626625 -68.376144 0.577702
v -97.944832 -70.077515 0.579422
v -97.925247 -70.721893 -2.136986
v -98.304390 -72.749130 -2.134936
v -98.625687 -74.467026 -2.133201
v -98.940300 -76.149246 -2.131500
v -98.794662 -61.122295 3.801867
v -99.173958 -63.005695 3.802125
v -97.759895 -55.984268 3.801168
v -98.455513 -59.438301 3.801637
v -98.107712 -57.711285 3.801401
v -99.049988 -63.593880 0.434466
v -99.359200 -65.129288 0.434677
v -99.633232 -66.490005 0.434862
v -99.923676 -67.932159 0.435058
v -100.265404 -69.628967 0.435292
v -100.201538 -70.281891 -2.278397
v -101.291626 -75.694672 -2.277658
v -101.603508 -77.243301 -2.277447
v -108.945244 -75.553299 -2.977417
v -111.451958 -74.857941 -3.268654
v -113.988571 -74.079727 -3.573660
v -116.555916 -73.206375 -3.882215
v -119.151665 -72.225235 -4.183684
v -101.036522 -60.652817 3.620353
v -101.447517 -62.529552 3.618024
v -99.915314 -55.532963 3.626703
v -100.669044 -58.974777 3.622433
v -100.292183 -57.253868 3.624568
v -101.279114 -63.127018 0.253932
v -101.614166 -64.656998 0.252034
v -101.911095 -66.012894 0.250353
v -102.225800 -67.449951 0.248571
v -102.596069 -69.140762 0.246474
v -102.499420 -69.800522 -2.464585
v -100.608704 -72.303665 -2.278121
v -102.940613 -71.815155 -2.467083
v -100.953751 -74.016968 -2.277886
v -103.314484 -73.522385 -2.469200
v -103.680588 -75.194168 -2.471274
v -104.018524 -76.737305 -2.473187
v -103.247070 -60.146927 3.407283
v -103.694786 -62.015236 3.401407
v -102.025635 -55.050079 3.423307
v -102.846748 -58.476429 3.412534
v -102.436195 -56.763248 3.417923
v -103.495575 -62.619713 0.040250
v -103.860580 -64.142822 0.035461
v -104.184059 -65.492630 0.031217
v -104.526886 -66.923218 0.026719
v -104.930252 -68.606445 0.021427
v -104.812263 -69.271057 -2.687604
v -105.292885 -71.276627 -2.693910
v -105.700172 -72.976196 -2.699254
v -106.098999 -74.640457 -2.704487
v -106.467140 -76.176682 -2.709317
v -105.423630 -59.599636 3.171830
v -105.912933 -61.457458 3.161457
v -104.088760 -54.531364 3.200122
v -104.986122 -57.938503 3.181102
v -104.537445 -56.234932 3.190612
v -105.696579 -62.066200 -0.197869
v -106.095474 -63.580765 -0.206324
v -106.449005 -64.923004 -0.213817
v -106.823677 -66.345581 -0.221758
v -107.264511 -68.019348 -0.231101
v -107.136650 -68.686401 -2.939086
v -107.661911 -70.680740 -2.950217
v -108.107033 -72.370773 -2.959652
v -108.542908 -74.025696 -2.968890
v -107.564232 -59.006054 2.923109
v -108.100075 -60.850964 2.907337
v -106.102425 -53.973034 2.966134
v -107.085129 -57.356476 2.937212
v -106.593781 -55.664757 2.951673
v -107.880440 -61.460548 -0.451621
v -108.317276 -62.964581 -0.464478
v -108.704399 -64.297485 -0.475874
v -109.114700 -65.710159 -0.487950
v -109.597458 -67.372299 -0.502159
v -109.471382 -68.038788 -3.210359
v -110.046600 -70.019257 -3.227290
v -110.534042 -71.697540 -3.241638
v -111.011360 -73.340958 -3.255686
v -109.667160 -58.361149 2.670213
v -110.254776 -60.190163 2.648223
v -108.064102 -53.371490 2.730207
v -109.141754 -56.725780 2.689877
v -108.602928 -55.048637 2.710043
v -110.046059 -60.796307 -0.712056
v -110.525101 -62.287376 -0.729983
v -110.949646 -63.608803 -0.745871
v -111.399590 -65.009308 -0.762711
v -111.928986 -66.657120 -0.782522
v -111.816635 -67.319336 -3.492378
v -112.447426 -69.282745 -3.515984
v -112.981972 -70.946564 -3.535989
v -113.505417 -72.575821 -3.555579
v -111.731781 -57.659069 2.422033
v -112.376648 -59.468590 2.393165
v -109.972519 -52.722588 2.500787
v -111.155182 -56.041134 2.447847
v -110.563858 -54.381859 2.474318
v -112.192810 -60.066193 -0.970097
v -112.718536 -61.541370 -0.993630
v -113.184433 -62.848721 -1.014488
v -113.678223 -64.234299 -1.036592
v -114.259209 -65.864548 -1.062601
v -114.172348 -66.518036 -3.775511
v -114.864601 -68.460510 -3.806502
v -115.451233 -70.106598 -3.832762
v -116.025673 -71.718491 -3.858478
v -113.759010 -56.893120 2.186545
v -114.466537 -58.678940 2.150404
v -111.828850 -52.021282 2.285144
v -113.126396 -55.296368 2.218861
v -112.477631 -53.658829 2.252002
v -114.320129 -59.262302 -1.217191
v -114.896927 -60.718163 -1.246656
v -115.408096 -62.008389 -1.272767
v -115.949852 -63.375824 -1.300441
v -116.587288 -64.984726 -1.333003
v -116.536530 -65.624481 -4.050098
v -117.296036 -67.541519 -4.088895
v -117.939659 -69.166046 -4.121773
v -118.569908 -70.756851 -4.153967
v -115.749817 -56.056225 1.970499
v -116.525024 -57.813557 1.927013
v -113.634995 -51.262119 2.089120
v -115.056679 -54.484951 2.009377
v -114.345833 -52.873531 2.049248
v -116.426575 -58.376667 -1.445765
v -117.058548 -59.809303 -1.481214
v -117.618622 -61.078938 -1.512629
v -118.212219 -62.424561 -1.545924
v -118.910637 -64.007782 -1.585098
v -118.904953 -64.628525 -4.307069
v -119.737114 -66.514984 -4.353748
v -120.442314 -68.113586 -4.393302
v -121.132866 -69.679001 -4.432036
v -121.770287 -71.123962 -4.467788
v -117.703758 -55.141590 1.779611
v -118.551178 -56.865067 1.729084
v -115.391937 -50.439831 1.917450
v -116.946060 -53.600582 1.824788
v -116.168999 -52.020203 1.871118
v -118.509094 -57.401699 -1.649185
v -119.199936 -58.806736 -1.690377
v -119.812180 -60.051918 -1.726880
v -120.461067 -61.371620 -1.765570
v -121.224533 -62.924351 -1.811090
v -121.271141 -63.520527 -4.538154
v -122.180824 -65.370636 -4.592392
v -122.951714 -66.938461 -4.638355
v -119.618950 -54.142796 1.618739
v -117.099701 -49.549400 1.773958
v -118.793266 -52.637302 1.669612
v -120.563019 -56.330406 -1.821670
v -121.315857 -57.703060 -1.868055
v -122.690140 -60.208832 -1.952727
v -121.492157 -53.054092 1.491893
v -120.542404 -55.826553 1.561843
v -122.494583 -54.691868 1.429670
v -118.757454 -48.586132 1.661640
v -120.595856 -51.589714 1.547526
v -119.676659 -50.087925 1.604584
v -117.946480 -51.093349 1.721784
v -121.983032 -58.919544 -1.909160
v -120.363899 -47.545578 1.582590
v -122.350449 -50.453003 1.461242
v -121.357170 -48.999290 1.521916
vt 33.0771 -16.7093
vt 30.7860 -18.9561
vt 33.3936 -18.5063
vt 31.0567 -20.5500
vt 33.6740 -20.0988
vt 31.3434 -22.2395
vt 33.9712 -21.7866
vt 31.6809 -24.2271
vt 34.3209 -23.7724
vt 34.8501 -24.4049
vt 32.6681 -27.2426
vt 35.2709 -26.7946
vt 33.0122 -29.2696
vt 35.6275 -28.8196
vt 33.3491 -31.2544
vt 35.9767 -30.8026
vt 33.6601 -33.0864
vt 36.2990 -32.6329
vt 34.7614 -13.6235
vt 32.4950 -16.2839
vt 35.1676 -15.7976
vt 34.3981 -11.6795
vt 32.1115 -14.1063
vt 34.0256 -9.6858
vt 31.7686 -12.1592
vt 35.6991 -16.2324
vt 36.0343 -18.0266
vt 36.3314 -19.6166
vt 36.6463 -21.3017
vt 37.0168 -23.2844
vt 37.5073 -23.9242
vt 37.9531 -26.3102
vt 38.3309 -28.3320
vt 38.7008 -30.3119
vt 39.0423 -32.1394
vt 33.6531 -7.6921
vt 31.4170 -10.1624
vt 37.3995 -13.1076
vt 37.8363 -15.2769
vt 37.0089 -11.1680
vt 36.6084 -9.1788
vt 38.3325 -15.7188
vt 38.6929 -17.5090
vt 39.0124 -19.0954
vt 39.3510 -20.7769
vt 39.7494 -22.7552
vt 40.2147 -23.4002
vt 40.6941 -25.7810
vt 41.1003 -27.7985
vt 41.4981 -29.7740
vt 41.8654 -31.5976
vt 36.2078 -7.1896
vt 40.0172 -12.5521
vt 40.4913 -14.7149
vt 39.5932 -10.6182
vt 39.1585 -8.6351
vt 40.9678 -15.1613
vt 41.3591 -16.9462
vt 41.7059 -18.5280
vt 42.0734 -20.2045
vt 42.5058 -22.1771
vt 42.9598 -22.8249
vt 43.4802 -25.1988
vt 43.9212 -27.2105
vt 44.3531 -29.1804
vt 44.7517 -30.9987
vt 38.7237 -6.6519
vt 42.6087 -11.9512
vt 43.1263 -14.1057
vt 42.1459 -10.0249
vt 41.6712 -8.0494
vt 43.5989 -14.5534
vt 44.0261 -16.3314
vt 44.4047 -17.9072
vt 44.8059 -19.5774
vt 45.2781 -21.5425
vt 45.7345 -22.1904
vt 46.3027 -24.5554
vt 46.7843 -26.5596
vt 47.2558 -28.5222
vt 47.6911 -30.3339
vt 41.1966 -6.0741
vt 45.1697 -11.2997
vt 45.7368 -13.4436
vt 44.6627 -9.3830
vt 44.1427 -7.4174
vt 46.2214 -13.8887
vt 46.6894 -15.6580
vt 47.1043 -17.2261
vt 47.5439 -18.8882
vt 48.0613 -20.8438
vt 48.5340 -21.4882
vt 49.1566 -23.8419
vt 49.6843 -25.8366
vt 50.2010 -27.7900
vt 50.6781 -29.5932
vt 43.6228 -5.4519
vt 47.6965 -10.5925
vt 48.3192 -12.7229
vt 47.1398 -8.6878
vt 46.5689 -6.7347
vt 48.8320 -13.1605
vt 49.3460 -14.9188
vt 49.8015 -16.4772
vt 50.2843 -18.1290
vt 50.8524 -20.0726
vt 51.3557 -20.7093
vt 52.0395 -23.0487
vt 52.6191 -25.0313
vt 53.1866 -26.9730
vt 53.7106 -28.7654
vt 45.9981 -4.7818
vt 50.1852 -9.8242
vt 50.8700 -11.9376
vt 49.5731 -7.9348
vt 48.9454 -5.9975
vt 51.4277 -12.3619
vt 51.9930 -14.1063
vt 52.4939 -15.6523
vt 53.0249 -17.2912
vt 53.6498 -19.2196
vt 54.1982 -19.8433
vt 54.9504 -22.1646
vt 55.5879 -24.1319
vt 56.2122 -26.0587
vt 56.7886 -27.8374
vt 48.3177 -4.0604
vt 52.6331 -8.9888
vt 53.3866 -11.0808
vt 51.9594 -7.1186
vt 51.2687 -5.2009
vt 54.0057 -11.4847
vt 54.6278 -13.2116
vt 55.1791 -14.7423
vt 55.7636 -16.3648
vt 56.4513 -18.2741
vt 57.0594 -18.8785
vt 57.8873 -21.1769
vt 58.5891 -23.1250
vt 59.2764 -25.0330
vt 59.9110 -26.7946
vt 50.5782 -3.2837
vt 55.0388 -8.0791
vt 55.8676 -10.1448
vt 54.2979 -6.2326
vt 53.5382 -4.3394
vt 56.5629 -10.5203
vt 57.2472 -12.2256
vt 57.8538 -13.7371
vt 58.4968 -15.3393
vt 59.2534 -17.2250
vt 59.9342 -17.8028
vt 60.8452 -20.0729
vt 61.6175 -21.9970
vt 62.3738 -23.8817
vt 63.0721 -25.6217
vt 52.7787 -2.4467
vt 57.4013 -7.0876
vt 58.3115 -9.1210
vt 56.5877 -5.2700
vt 55.7535 -3.4066
vt 59.0952 -9.4600
vt 59.8468 -11.1387
vt 60.5130 -12.6268
vt 61.2193 -14.2043
vt 62.0505 -16.0609
vt 62.8149 -16.6047
vt 63.8156 -18.8400
vt 64.6640 -20.7348
vt 65.4951 -22.5907
vt 66.2623 -24.3044
vt 54.9195 -1.5437
vt 59.7180 -6.0070
vt 60.7149 -8.0017
vt 58.8269 -4.2241
vt 57.9133 -2.3964
vt 61.5967 -8.2954
vt 62.4199 -9.9423
vt 63.1497 -11.4022
vt 63.9234 -12.9499
vt 64.8339 -14.7714
vt 65.6907 -15.2732
vt 66.7872 -17.4664
vt 67.7167 -19.3257
vt 57.0001 -0.5692
vt 61.9846 -4.8305
vt 63.0726 -6.7793
vt 61.0121 -3.0887
vt 60.0152 -1.3030
vt 64.0593 -7.0190
vt 64.9579 -8.6282
vt 65.7544 -10.0547
vt 66.5989 -11.5671
vt 59.0186 0.4819
vt 64.1953 -3.5521
vt 65.3776 -5.4475
vt 63.1387 -1.8580
vt 62.0555 -0.1214
vt 60.9728 1.6145
vt 64.0300 1.1534
vt 65.2010 -0.5272
vt 62.8595 2.8332
vt 30.4807 -17.1574
vt 32.2620 -24.8507
vt 31.0653 -8.1655
vn 0.0262 -0.0061 -0.9996
vn 0.0140 -0.0039 -0.9999
vn 0.0141 -0.0039 -0.9999
vn 0.0141 -0.0040 -0.9999
vn 0.0263 -0.0061 -0.9996
vn 0.0142 -0.0040 -0.9999
vn 0.0489 -0.0102 -0.9987
vn 0.0383 -0.0082 -0.9992
vn 0.0490 -0.0102 -0.9987
vn 0.0489 -0.0102 -0.9988
vn 0.0491 -0.0102 -0.9987
vn 0.0685 -0.0139 -0.9976
vn 0.0686 -0.0139 -0.9975
vn 0.0686 -0.0140 -0.9975
vn 0.0845 -0.0173 -0.9963
vn 0.0846 -0.0173 -0.9963
vn 0.0969 -0.0201 -0.9951
vn 0.0970 -0.0201 -0.9951
vn 0.1056 -0.0223 -0.9942
vn 0.1106 -0.0236 -0.9936
vn 0.1105 -0.0236 -0.9936
vn 0.1117 -0.0239 -0.9935
vn 0.1092 -0.0231 -0.9938
vn 0.1092 -0.0230 -0.9938
vn 0.1034 -0.0208 -0.9944
vn 0.1034 -0.0209 -0.9944
vn 0.0950 -0.0173 -0.9953
vn 0.0966 -0.0180 -0.9952
vn 0.0998 -0.0194 -0.9948
vn 0.0845 -0.0123 -0.9963
vn 0.0845 -0.0123 -0.9964
vn 0.0864 -0.0133 -0.9962
vn 0.0902 -0.0151 -0.9958
vn 0.0724 -0.0060 -0.9974
vn 0.0725 -0.0060 -0.9974
vn 0.0788 -0.0095 -0.9968
vn 0.0787 -0.0095 -0.9968
vn 0.0661 -0.0025 -0.9978
vn 0.0617 0.0002 -0.9981
vn 0.0594 0.0015 -0.9982
vn 0.0595 0.0015 -0.9982
vn 0.0528 0.0056 -0.9986
s 1
f 17/1/1 3/2/2 18/3/1
f 18/3/1 4/4/3 19/5/1
f 19/5/1 5/6/4 20/7/1
f 20/7/1 6/8/3 21/9/1
f 22/10/5 8/11/4 23/12/5
f 23/12/5 9/13/6 24/14/5
f 24/14/5 10/15/6 25/16/5
f 25/16/5 11/17/6 26/18/5
f 27/19/7 13/20/8 28/21/9
f 30/22/10 12/23/8 27/19/7
f 31/24/10 15/25/8 30/22/10
f 32/26/9 18/3/1 33/27/9
f 33/27/9 19/5/1 34/28/9
f 34/28/9 20/7/1 35/29/9
f 35/29/9 21/9/1 36/30/9
f 37/31/9 23/12/5 38/32/11
f 38/32/11 24/14/5 39/33/11
f 39/33/11 25/16/5 40/34/11
f 40/34/11 26/18/5 1/35/11
f 29/36/10 16/37/8 31/24/10
f 41/38/12 28/21/9 42/39/12
f 44/40/12 27/19/7 41/38/12
f 45/41/12 30/22/10 44/40/12
f 46/42/12 33/27/9 47/43/12
f 47/43/12 34/28/9 48/44/12
f 48/44/12 35/29/9 49/45/12
f 49/45/12 36/30/9 50/46/13
f 51/47/13 38/32/11 70/48/13
f 70/48/13 39/33/11 72/49/14
f 72/49/14 40/34/11 52/50/14
f 52/50/14 1/35/11 53/51/14
f 43/52/12 31/24/10 45/41/12
f 59/53/15 42/39/12 60/54/15
f 62/55/15 41/38/12 59/53/15
f 63/56/15 44/40/12 62/55/15
f 64/57/16 47/43/12 65/58/16
f 65/58/16 48/44/12 66/59/16
f 66/59/16 49/45/12 67/60/16
f 67/60/16 50/46/13 68/61/16
f 69/62/16 70/48/13 71/63/16
f 71/63/16 72/49/14 73/64/16
f 73/64/16 52/50/14 74/65/16
f 74/65/16 53/51/14 75/66/16
f 61/67/15 45/41/12 63/56/15
f 76/68/17 60/54/15 77/69/17
f 79/70/17 59/53/15 76/68/17
f 80/71/17 62/55/15 79/70/17
f 81/72/17 65/58/16 82/73/17
f 82/73/17 66/59/16 83/74/17
f 83/74/17 67/60/16 84/75/17
f 84/75/17 68/61/16 85/76/17
f 86/77/18 71/63/16 87/78/18
f 87/78/18 73/64/16 88/79/18
f 88/79/18 74/65/16 89/80/18
f 89/80/18 75/66/16 90/81/18
f 78/82/17 63/56/15 80/71/17
f 91/83/19 77/69/17 92/84/19
f 94/85/19 76/68/17 91/83/19
f 95/86/19 79/70/17 94/85/19
f 96/87/19 82/73/17 97/88/19
f 97/88/19 83/74/17 98/89/19
f 98/89/19 84/75/17 99/90/19
f 99/90/19 85/76/17 100/91/19
f 101/92/19 87/78/18 102/93/19
f 102/93/19 88/79/18 103/94/19
f 103/94/19 89/80/18 104/95/19
f 104/95/19 90/81/18 54/96/19
f 93/97/19 80/71/17 95/86/19
f 105/98/20 92/84/19 106/99/20
f 108/100/20 91/83/19 105/98/20
f 109/101/20 94/85/19 108/100/20
f 110/102/20 97/88/19 111/103/20
f 111/103/20 98/89/19 112/104/20
f 112/104/20 99/90/19 113/105/20
f 113/105/20 100/91/19 114/106/20
f 115/107/20 102/93/19 116/108/20
f 116/108/20 103/94/19 117/109/20
f 117/109/20 104/95/19 118/110/20
f 118/110/20 54/96/19 55/111/21
f 107/112/20 95/86/19 109/101/20
f 119/113/22 106/99/20 120/114/22
f 122/115/22 105/98/20 119/113/22
f 123/116/22 108/100/20 122/115/22
f 124/117/22 111/103/20 125/118/22
f 125/118/22 112/104/20 126/119/22
f 126/119/22 113/105/20 127/120/22
f 127/120/22 114/106/20 128/121/22
f 129/122/22 116/108/20 130/123/22
f 130/123/22 117/109/20 131/124/22
f 131/124/22 118/110/20 132/125/22
f 132/125/22 55/111/21 56/126/22
f 121/127/22 109/101/20 123/116/22
f 133/128/23 120/114/22 134/129/23
f 136/130/23 119/113/22 133/128/23
f 137/131/23 122/115/22 136/130/23
f 138/132/23 125/118/22 139/133/23
f 139/133/23 126/119/22 140/134/23
f 140/134/23 127/120/22 141/135/23
f 141/135/23 128/121/22 142/136/23
f 143/137/24 130/123/22 144/138/24
f 144/138/24 131/124/22 145/139/24
f 145/139/24 132/125/22 146/140/24
f 146/140/24 56/126/22 57/141/24
f 135/142/23 123/116/22 137/131/23
f 147/143/25 134/129/23 148/144/26
f 150/145/26 133/128/23 147/143/25
f 151/146/26 136/130/23 150/145/26
f 152/147/25 139/133/23 153/148/25
f 153/148/25 140/134/23 154/149/25
f 154/149/25 141/135/23 155/150/25
f 155/150/25 142/136/23 156/151/25
f 157/152/25 144/138/24 158/153/25
f 158/153/25 145/139/24 159/154/25
f 159/154/25 146/140/24 160/155/25
f 160/155/25 57/141/24 58/156/25
f 149/157/26 137/131/23 151/146/26
f 161/158/27 148/144/26 162/159/27
f 164/160/27 147/143/25 161/158/27
f 165/161/27 150/145/26 164/160/27
f 166/162/27 153/148/25 167/163/27
f 167/163/27 154/149/25 168/164/27
f 168/164/27 155/150/25 169/165/27
f 169/165/27 156/151/25 170/166/27
f 171/167/27 158/153/25 172/168/27
f 172/168/27 159/154/25 173/169/28
f 173/169/28 160/155/25 174/170/29
f 174/170/29 58/156/25 175/171/29
f 163/172/27 151/146/26 165/161/27
f 176/173/30 162/159/27 177/174/30
f 179/175/30 161/158/27 176/173/30
f 180/176/30 164/160/27 179/175/30
f 181/177/30 167/163/27 182/178/31
f 182/178/31 168/164/27 183/179/31
f 183/179/31 169/165/27 184/180/32
f 184/180/32 170/166/27 185/181/33
f 186/182/33 172/168/27 187/183/33
f 187/183/33 173/169/28 188/184/33
f 178/185/30 165/161/27 180/176/30
f 189/186/34 177/174/30 196/187/34
f 191/188/34 176/173/30 189/186/34
f 201/189/35 179/175/30 191/188/34
f 192/190/36 182/178/31 193/191/37
f 193/191/37 183/179/31 202/192/37
f 202/192/37 184/180/32 194/193/37
f 190/194/35 180/176/30 201/189/35
f 195/195/38 196/187/34 197/196/38
f 199/197/39 189/186/34 195/195/38
f 200/198/40 191/188/34 199/197/39
f 198/199/41 201/189/35 200/198/40
f 205/200/42 199/197/39 204/201/42
f 203/202/42 200/198/40 205/200/42
f 17/1/1 2/203/2 3/2/2
f 18/3/1 3/2/2 4/4/3
f 19/5/1 4/4/3 5/6/4
f 20/7/1 5/6/4 6/8/3
f 22/10/5 7/204/4 8/11/4
f 23/12/5 8/11/4 9/13/6
f 24/14/5 9/13/6 10/15/6
f 25/16/5 10/15/6 11/17/6
f 27/19/7 12/23/8 13/20/8
f 30/22/10 15/25/8 12/23/8
f 31/24/10 16/37/8 15/25/8
f 32/26/9 17/1/1 18/3/1
f 33/27/9 18/3/1 19/5/1
f 34/28/9 19/5/1 20/7/1
f 35/29/9 20/7/1 21/9/1
f 37/31/9 22/10/5 23/12/5
f 38/32/11 23/12/5 24/14/5
f 39/33/11 24/14/5 25/16/5
f 40/34/11 25/16/5 26/18/5
f 29/36/10 14/205/8 16/37/8
f 41/38/12 27/19/7 28/21/9
f 44/40/12 30/22/10 27/19/7
f 45/41/12 31/24/10 30/22/10
f 46/42/12 32/26/9 33/27/9
f 47/43/12 33/27/9 34/28/9
f 48/44/12 34/28/9 35/29/9
f 49/45/12 35/29/9 36/30/9
f 51/47/13 37/31/9 38/32/11
f 70/48/13 38/32/11 39/33/11
f 72/49/14 39/33/11 40/34/11
f 52/50/14 40/34/11 1/35/11
f 43/52/12 29/36/10 31/24/10
f 59/53/15 41/38/12 42/39/12
f 62/55/15 44/40/12 41/38/12
f 63/56/15 45/41/12 44/40/12
f 64/57/16 46/42/12 47/43/12
f 65/58/16 47/43/12 48/44/12
f 66/59/16 48/44/12 49/45/12
f 67/60/16 49/45/12 50/46/13
f 69/62/16 51/47/13 70/48/13
f 71/63/16 70/48/13 72/49/14
f 73/64/16 72/49/14 52/50/14
f 74/65/16 52/50/14 53/51/14
f 61/67/15 43/52/12 45/41/12
f 76/68/17 59/53/15 60/54/15
f 79/70/17 62/55/15 59/53/15
f 80/71/17 63/56/15 62/55/15
f 81/72/17 64/57/16 65/58/16
f 82/73/17 65/58/16 66/59/16
f 83/74/17 66/59/16 67/60/16
f 84/75/17 67/60/16 68/61/16
f 86/77/18 69/62/16 71/63/16
f 87/78/18 71/63/16 73/64/16
f 88/79/18 73/64/16 74/65/16
f 89/80/18 74/65/16 75/66/16
f 78/82/17 61/67/15 63/56/15
f 91/83/19 76/68/17 77/69/17
f 94/85/19 79/70/17 76/68/17
f 95/86/19 80/71/17 79/70/17
f 96/87/19 81/72/17 82/73/17
f 97/88/19 82/73/17 83/74/17
f 98/89/19 83/74/17 84/75/17
f 99/90/19 84/75/17 85/76/17
f 101/92/19 86/77/18 87/78/18
f 102/93/19 87/78/18 88/79/18
f 103/94/19 88/79/18 89/80/18
f 104/95/19 89/80/18 90/81/18
f 93/97/19 78/82/17 80/71/17
f 105/98/20 91/83/19 92/84/19
f 108/100/20 94/85/19 91/83/19
f 109/101/20 95/86/19 94/85/19
f 110/102/20 96/87/19 97/88/19
f 111/103/20 97/88/19 98/89/19
f 112/104/20 98/89/19 99/90/19
f 113/105/20 99/90/19 100/91/19
f 115/107/20 101/92/19 102/93/19
f 116/108/20 102/93/19 103/94/19
f 117/109/20 103/94/19 104/95/19
f 118/110/20 104/95/19 54/96/19
f 107/112/20 93/97/19 95/86/19
f 119/113/22 105/98/20 106/99/20
f 122/115/22 108/100/20 105/98/20
f 123/116/22 109/101/20 108/100/20
f 124/117/22 110/102/20 111/103/20
f 125/118/22 111/103/20 112/104/20
f 126/119/22 112/104/20 113/105/20
f 127/120/22 113/105/20 114/106/20
f 129/122/22 115/107/20 116/108/20
f 130/123/22 116/108/20 117/109/20
f 131/124/22 117/109/20 118/110/20
f 132/125/22 118/110/20 55/111/21
f 121/127/22 107/112/20 109/101/20
f 133/128/23 119/113/22 120/114/22
f 136/130/23 122/115/22 119/113/22
f 137/131/23 123/116/22 122/115/22
f 138/132/23 124/117/22 125/118/22
f 139/133/23 125/118/22 126/119/22
f 140/134/23 126/119/22 127/120/22
f 141/135/23 127/120/22 128/121/22
f 143/137/24 129/122/22 130/123/22
f 144/138/24 130/123/22 131/124/22
f 145/139/24 131/124/22 132/125/22
f 146/140/24 132/125/22 56/126/22
f 135/142/23 121/127/22 123/116/22
f 147/143/25 133/128/23 134/129/23
f 150/145/26 136/130/23 133/128/23
f 151/146/26 137/131/23 136/130/23
f 152/147/25 138/132/23 139/133/23
f 153/148/25 139/133/23 140/134/23
f 154/149/25 140/134/23 141/135/23
f 155/150/25 141/135/23 142/136/23
f 157/152/25 143/137/24 144/138/24
f 158/153/25 144/138/24 145/139/24
f 159/154/25 145/139/24 146/140/24
f 160/155/25 146/140/24 57/141/24
f 149/157/26 135/142/23 137/131/23
f 161/158/27 147/143/25 148/144/26
f 164/160/27 150/145/26 147/143/25
f 165/161/27 151/146/26 150/145/26
f 166/162/27 152/147/25 153/148/25
f 167/163/27 153/148/25 154/149/25
f 168/164/27 154/149/25 155/150/25
f 169/165/27 155/150/25 156/151/25
f 171/167/27 157/152/25 158/153/25
f 172/168/27 158/153/25 159/154/25
f 173/169/28 159/154/25 160/155/25
f 174/170/29 160/155/25 58/156/25
f 163/172/27 149/157/26 151/146/26
f 176/173/30 161/158/27 162/159/27
f 179/175/30 164/160/27 161/158/27
f 180/176/30 165/161/27 164/160/27
f 181/177/30 166/162/27 167/163/27
f 182/178/31 167/163/27 168/164/27
f 183/179/31 168/164/27 169/165/27
f 184/180/32 169/165/27 170/166/27
f 186/182/33 171/167/27 172/168/27
f 187/183/33 172/168/27 173/169/28
f 178/185/30 163/172/27 165/161/27
f 189/186/34 176/173/30 177/174/30
f 191/188/34 179/175/30 176/173/30
f 201/189/35 180/176/30 179/175/30
f 192/190/36 181/177/30 182/178/31
f 193/191/37 182/178/31 183/179/31
f 202/192/37 183/179/31 184/180/32
f 190/194/35 178/185/30 180/176/30
f 195/195/38 189/186/34 196/187/34
f 199/197/39 191/188/34 189/186/34
f 200/198/40 201/189/35 191/188/34
f 198/199/41 190/194/35 201/189/35
f 205/200/42 200/198/40 199/197/39
f 203/202/42 198/199/41 200/198/40
