# Blender v2.78 (sub 0) OBJ File: 'vtrack.blend'
# www.blender.org
o grass.009_wall_house_stair_Cube.021
v -155.850433 17.270311 -4.419607
v -149.689590 16.143822 -4.423189
v -143.427246 14.370125 -4.425704
v -134.206116 10.395460 -4.424005
v -158.104843 1.069411 1.678183
v -160.455429 1.342720 1.679622
v -160.267975 3.254766 1.679532
v -157.839630 2.972227 1.678046
v -158.828369 -4.121596 1.678555
v -160.966797 -3.873460 1.679863
v -158.341980 -0.631948 1.678305
v -160.623032 -0.366888 1.679702
v -158.585175 -2.376773 1.678432
v -160.794907 -2.120173 1.679785
v -160.220734 3.757242 -1.696597
v -160.067917 5.316008 -1.696670
v -159.927917 6.744040 -1.696737
v -157.357666 6.444660 -1.698310
v -159.784393 8.208126 -1.696805
v -157.154602 7.901682 -1.698415
v -159.615509 9.930750 -1.696884
v -156.915649 9.615992 -1.698537
v -159.555954 10.554884 -4.417431
v -156.830719 10.237114 -4.419099
v -159.354736 12.607420 -4.417528
v -156.546021 12.279743 -4.419246
v -159.184219 14.346771 -4.417610
v -156.304764 14.010704 -4.419373
v -159.017242 16.050005 -4.417689
v -156.068512 15.705711 -4.419495
v -158.863113 17.622185 -4.417761
v -155.744766 0.694421 1.676758
v -155.397293 2.583948 1.676573
v -156.692703 -4.460329 1.677267
v -156.055450 -0.995053 1.676926
v -156.374084 -2.727693 1.677096
v -157.771957 3.472281 -1.698094
v -157.555756 5.023523 -1.698206
v -154.765121 6.032114 -1.699872
v -154.499054 7.478956 -1.700017
v -154.186005 9.181292 -1.700184
v -154.074142 9.798063 -4.420764
v -153.701141 11.826429 -4.420964
v -153.385040 13.545296 -4.421133
v -153.075516 15.228470 -4.421299
v -152.789795 16.782137 -4.421453
v -153.381241 0.209178 1.675434
v -152.947296 2.080738 1.675200
v -154.565109 -4.896556 1.676071
v -153.769257 -1.464232 1.675644
v -154.167175 -3.180395 1.675858
v -155.307922 3.080490 -1.699581
v -155.024643 4.620895 -1.699733
v -152.157089 5.496067 -1.701334
v -151.824814 6.929153 -1.701513
v -151.433838 8.615299 -1.701725
v -151.293594 9.226171 -4.422319
v -150.827744 11.235249 -4.422572
v -150.432983 12.937771 -4.422785
v -150.046417 14.604940 -4.422993
v -151.022461 -0.393841 1.674312
v -150.498367 1.454508 1.674034
v -152.452209 -5.436249 1.675064
v -151.491058 -2.046495 1.674560
v -151.971634 -3.741373 1.674812
v -152.834976 2.572510 -1.700972
v -152.481201 4.098270 -1.701162
v -149.543365 4.827385 -1.702575
v -149.142059 6.242695 -1.702786
v -148.669891 7.907930 -1.703035
v -148.499939 8.511150 -4.423644
v -147.937332 10.495312 -4.423940
v -147.460587 12.176716 -4.424191
v -146.993744 13.823206 -4.424437
v -146.562805 15.343014 -4.424663
v -148.678680 -1.120399 1.673530
v -148.061707 0.699051 1.673223
v -150.361832 -6.083975 1.674365
v -149.230331 -2.747219 1.673804
v -149.796082 -4.415597 1.674087
v -150.362061 1.940094 -1.702144
v -149.934799 3.446928 -1.702370
v -146.936676 4.019032 -1.703442
v -146.464249 5.412216 -1.703676
v -145.908386 7.051414 -1.703954
v -145.707703 7.645075 -4.424570
v -145.045395 9.598211 -4.424901
v -144.484146 11.253332 -4.425179
v -143.934570 12.874079 -4.425452
v -146.361908 -1.973812 1.673234
v -145.650497 -0.189171 1.672916
v -148.302704 -6.842424 1.674100
v -146.998001 -3.569505 1.673519
v -147.650360 -5.205965 1.673810
v -147.900452 1.176878 -1.702963
v -147.397461 2.660152 -1.703215
v -144.352417 3.067028 -1.703770
v -143.807678 4.433559 -1.704013
v -143.166748 6.041395 -1.704300
v -142.934662 6.623484 -4.424921
v -142.170975 8.539253 -4.425261
v -141.523804 10.162708 -4.425551
v -140.890076 11.752451 -4.425835
v -140.305130 13.219875 -4.426095
v -144.085449 -2.954254 1.673593
v -143.279495 -1.210263 1.673289
v -146.284103 -7.711977 1.674417
v -144.806061 -4.513603 1.673862
v -145.545074 -6.112790 1.674140
v -145.463715 0.279252 -1.703273
v -144.883759 1.734152 -1.703533
v -141.808029 1.971375 -1.703371
v -141.190903 3.306780 -1.703600
v -140.464813 4.877996 -1.703875
v -140.201157 5.446505 -4.424492
v -139.335999 7.318642 -4.424817
v -138.602844 8.905121 -4.425092
v -137.884918 10.458647 -4.425362
v -137.222229 11.892653 -4.425609
v -141.862854 -4.058388 1.674777
v -140.963959 -2.360446 1.674524
v -144.315155 -8.690481 1.675469
v -142.666595 -5.576561 1.675005
v -143.490875 -7.133522 1.675237
v -143.066986 -0.752907 -1.702898
v -142.409973 0.668856 -1.703144
v -139.321732 0.736617 -1.702044
v -138.633423 2.036758 -1.702238
v -137.823547 3.566488 -1.702467
v -137.528687 4.119528 -4.423069
v -136.563721 5.942226 -4.423340
v -135.746002 7.486818 -4.423572
v -134.945251 8.999325 -4.423796
v -139.707123 -5.279284 1.676970
v -138.718475 -3.631982 1.676806
v -142.404251 -9.773234 1.677415
v -140.591110 -6.752182 1.677114
v -141.497681 -8.262709 1.677267
v -140.725922 -1.915730 -1.701647
v -139.993103 -0.531511 -1.701854
v -136.911209 -0.628055 -1.699595
v -136.154175 0.633315 -1.699722
v -135.263458 2.117422 -1.699868
v -134.938263 2.653347 -4.420439
v -133.876984 4.421692 -4.420613
v -132.977600 5.920210 -4.420763
v -132.096924 7.387615 -4.420909
v -131.283997 8.742113 -4.421044
v -136.555939 -5.013483 1.680312
v -140.558380 -10.953199 1.680415
v -138.589478 -8.031289 1.680366
v -138.455597 -3.201299 -1.699340
v -137.649597 -1.858361 -1.699473
v -134.592194 -2.109153 -1.695839
v -131.296265 2.774055 -4.416439
v -130.319626 4.223402 -4.416464
v -129.363281 5.642647 -4.416489
v -128.480499 6.952694 -4.416512
v -120.956276 1.035465 -4.391907
v -118.772629 -1.020668 -4.379746
v -116.752182 -3.069238 -4.365579
v -113.177376 -7.034844 -4.331509
v -135.638885 -8.027784 1.685055
v -137.629532 -6.606727 1.680340
v -134.486481 -6.490576 1.685209
v -138.782730 -12.221385 1.684628
v -136.669296 -9.402243 1.684914
v -137.726013 -10.811814 1.684772
v -139.573944 -9.492244 1.680390
v -136.269257 -4.597952 -1.695796
v -135.394012 -3.299085 -1.695818
v -132.377289 -3.689686 -1.690602
v -133.770096 -0.889179 -1.695861
v -131.494843 -2.512620 -1.690483
v -132.802856 0.546227 -1.695885
v -130.456604 -1.127699 -1.690342
v -132.448761 1.063746 -4.416409
v -130.075470 -0.629421 -4.410803
v -128.838379 1.020737 -4.410637
v -127.790047 2.419104 -4.410493
v -126.763496 3.788435 -4.410355
v -125.815926 5.052408 -4.410226
v -133.740967 -9.527557 1.691251
v -132.516953 -8.046740 1.691637
v -137.080200 -13.567321 1.690197
v -134.835419 -10.851595 1.690906
v -135.957794 -12.209458 1.690550
v -134.177444 -6.090950 -1.690846
v -133.237961 -4.837766 -1.690720
v -130.275238 -5.350189 -1.683749
v -129.337982 -4.216302 -1.683451
v -128.235229 -2.882186 -1.683105
v -127.829239 -2.403474 -4.403485
v -126.515274 -0.813852 -4.403071
v -125.401810 0.533219 -4.402719
v -124.311455 1.852318 -4.402375
v -123.305000 3.069923 -4.402056
v -131.938293 -11.090120 1.699062
v -130.650558 -9.664366 1.699721
v -135.451340 -14.979671 1.697264
v -133.089691 -12.364925 1.698473
v -134.270523 -13.672298 1.697870
v -132.187286 -7.663369 -1.684352
v -131.189423 -6.456156 -1.684037
v -128.290604 -7.070005 -1.675157
v -127.304565 -5.978278 -1.674652
v -126.144394 -4.693772 -1.674058
v -125.716019 -4.234410 -4.394344
v -124.333664 -2.703892 -4.393636
v -123.162224 -1.406911 -4.393034
v -122.015114 -0.136864 -4.392449
v -130.230286 -12.699234 1.708595
v -128.887131 -11.325562 1.709560
v -133.894501 -16.446701 1.705960
v -131.431244 -13.927471 1.707734
v -132.662872 -15.187086 1.706849
v -130.302185 -9.297171 -1.676187
v -129.252365 -8.134847 -1.675649
v -126.423950 -8.828232 -1.664749
v -125.395470 -7.776386 -1.664008
v -124.185371 -6.538802 -1.663138
v -123.737221 -6.098038 -4.383314
v -122.295364 -4.623430 -4.382279
v -121.073517 -3.373827 -4.381399
v -119.877045 -2.150171 -4.380539
v -128.613693 -14.338910 1.719953
v -127.223572 -13.012781 1.721244
v -132.406036 -17.956676 1.716426
v -129.856628 -15.524637 1.718798
v -131.131317 -16.740656 1.717612
v -128.522095 -10.974040 -1.666256
v -127.427094 -9.854174 -1.665469
v -124.672462 -10.604485 -1.652453
v -123.608025 -9.589045 -1.651462
v -122.355621 -8.394295 -1.650299
v -121.890343 -7.970879 -4.370356
v -120.398079 -6.547310 -4.368968
v -119.133514 -5.340956 -4.367792
v -117.895210 -4.159652 -4.366641
v -127.083038 -15.993770 1.733210
v -125.654404 -14.709221 1.734834
v -130.980438 -19.498095 1.728781
v -128.360413 -17.142315 1.731757
v -129.670425 -18.320206 1.730268
v -126.843964 -12.676032 -1.654469
v -125.710693 -11.594927 -1.653415
v -123.030655 -12.379374 -1.638239
v -121.936729 -11.395775 -1.636995
v -120.649628 -10.238485 -1.635533
v -120.169861 -9.830709 -4.355463
v -118.636269 -8.451778 -4.353720
v -117.336662 -7.283251 -4.352243
v -116.064049 -6.138987 -4.350797
v -114.889359 -5.082767 -4.349463
v -125.631691 -17.648914 1.748445
v -124.172981 -16.398636 1.750381
v -129.611160 -21.059757 1.743158
v -126.935966 -18.766823 1.746712
v -128.273560 -19.913290 1.744936
v -125.262314 -14.385958 -1.640775
v -124.097649 -13.338751 -1.639452
v -121.491829 -14.134186 -1.622091
v -120.374863 -13.176825 -1.620606
v -119.060661 -12.050407 -1.618862
v -118.569069 -11.656130 -4.338670
v -117.003181 -10.313983 -4.336590
v -115.676208 -9.176627 -4.334826
v -114.376801 -8.062891 -4.333099
v -124.254143 -19.288597 1.765825
v -122.774132 -18.063610 1.768028
v -128.291718 -22.630438 1.759822
v -125.577469 -20.383888 1.763859
v -126.934601 -21.507164 1.761842
v -123.770485 -16.087242 -1.625116
v -122.581291 -15.067970 -1.623538
v -120.051430 -15.848507 -1.603929
v -118.918152 -14.910513 -1.602242
v -117.584763 -13.806884 -1.600260
v -117.084061 -13.423430 -4.319952
v -115.495293 -12.108435 -4.317591
v -114.148949 -10.994087 -4.315588
v -112.830559 -9.902882 -4.313626
v -122.940544 -20.898930 1.785439
v -121.447983 -19.689268 1.787821
v -127.012367 -24.198969 1.778941
v -124.275093 -21.980522 1.783309
v -125.643730 -23.089745 1.781127
v -122.363365 -17.762053 -1.607366
v -121.156807 -16.763401 -1.605571
v -118.699524 -17.505640 -1.583765
v -117.556633 -16.579380 -1.581941
v -116.211922 -15.489556 -1.579795
v -115.704826 -15.113935 -4.299395
v -114.102592 -13.815388 -4.296839
v -112.744827 -12.714979 -4.294670
v -121.677238 -22.469753 1.807269
v -125.760666 -25.755413 1.800591
v -121.031052 -19.395250 -1.587484
v -119.814255 -18.409090 -1.585542
v -116.274979 -18.172935 -1.559818
v -114.926437 -17.087860 -1.557611
v -114.415474 -16.717031 -4.277148
v -112.808670 -15.424144 -4.274521
v -120.451927 -23.993816 1.831317
v -120.180412 -21.265358 1.809719
v -118.958755 -22.784893 1.833686
v -124.525383 -27.291832 1.824851
v -121.787010 -25.074745 1.829199
v -123.015579 -23.546631 1.805081
v -123.156197 -26.183289 1.827026
v -124.388130 -24.651024 1.802835
v -119.759300 -20.976540 -1.565517
v -118.539040 -19.994677 -1.563521
v -117.421120 -19.095161 -1.561692
v -116.202858 -20.610506 -1.537804
v -115.059509 -19.684814 -1.535988
v -113.714264 -18.595659 -1.533854
v -119.254501 -25.464949 1.857587
v -117.772781 -24.242016 1.859698
v -123.296730 -28.801182 1.851828
v -120.579346 -26.558403 1.855700
v -121.938034 -27.679794 1.853764
v -118.535324 -22.498962 -1.541502
v -117.318047 -21.513409 -1.539571
v -115.034302 -22.046345 -1.512186
v -113.899727 -21.109924 -1.510570
v -118.076469 -26.877296 1.886055
v -116.614136 -25.631256 1.887688
v -122.065826 -30.276573 1.881598
v -119.383987 -27.991413 1.884595
v -120.724907 -29.133993 1.883097
v -117.348892 -23.956680 -1.515484
v -116.140945 -22.959703 -1.513763
v -116.910042 -28.220459 1.916838
v -115.475807 -26.942173 1.917722
v -120.822731 -31.707705 1.914424
v -118.192429 -29.363407 1.916047
v -119.507576 -30.535557 1.915236
v -116.191628 -25.344280 -1.487528
v -114.999474 -24.328466 -1.486197
v -115.748367 -29.486679 1.949924
v -119.558685 -33.085503 1.950430
v -116.997208 -30.666199 1.950089
v -118.277939 -31.875851 1.950261
v -118.268333 -34.407375 1.989291
v -115.792442 -31.900555 1.986368
v -117.030388 -33.153965 1.987830
v -116.946381 -35.668129 2.030852
v -115.759712 -34.366058 2.027773
vt 106.6368 59.2452
vt 109.1469 61.7811
vt 106.3291 61.4537
vt 106.9120 57.2704
vt 109.3644 59.5619
vt 107.1942 55.2452
vt 109.5589 57.5776
vt 107.7455 63.2383
vt 110.4427 65.4042
vt 107.4915 65.0611
vt 110.2782 67.0822
vt 107.2588 66.7311
vt 110.1096 68.8026
vt 107.0202 68.4431
vt 109.9112 70.8268
vt 106.7395 70.4576
vt 107.8605 72.2599
vt 110.8554 75.0725
vt 107.5226 74.6843
vt 110.6531 77.1370
vt 107.2363 76.7388
vt 110.4549 79.1585
vt 106.9560 78.7506
vt 110.2720 81.0245
vt 106.6972 80.6077
vt 107.4765 53.2201
vt 109.7583 55.5426
vt 103.8982 58.8104
vt 103.4950 61.0036
vt 104.2588 56.8494
vt 104.6285 54.8384
vt 104.8508 62.7785
vt 104.5181 64.5886
vt 104.2132 66.2469
vt 103.9006 67.9470
vt 103.5328 69.9474
vt 104.5894 71.7394
vt 104.1468 74.1470
vt 103.7717 76.1872
vt 103.4044 78.1850
vt 103.0653 80.0291
vt 104.9982 52.8273
vt 101.1555 58.2477
vt 100.6520 60.4200
vt 101.6058 56.3053
vt 102.0676 54.3134
vt 101.9456 62.1821
vt 101.5300 63.9750
vt 101.1492 65.6175
vt 100.7588 67.3015
vt 100.2995 69.2829
vt 101.2899 71.0613
vt 100.7371 73.4460
vt 100.2686 75.4668
vt 99.8099 77.4456
vt 99.3865 79.2722
vt 102.5293 52.3214
vt 98.4183 57.5481
vt 97.8101 59.6935
vt 98.9620 55.6298
vt 99.5197 53.6626
vt 99.0403 61.4394
vt 98.5384 63.2101
vt 98.0785 64.8323
vt 97.6070 66.4954
vt 97.0523 68.4522
vt 97.9747 70.2131
vt 97.3070 72.5683
vt 96.7413 74.5640
vt 96.1873 76.5184
vt 95.6759 78.3223
vt 100.0774 51.6953
vt 95.6982 56.7051
vt 94.9822 58.8170
vt 96.3384 54.8168
vt 96.9949 52.8803
vt 96.1481 60.5429
vt 95.5572 62.2859
vt 95.0158 63.8827
vt 94.4608 65.5199
vt 93.8077 67.4461
vt 94.6609 69.1855
vt 93.8750 71.5039
vt 93.2089 73.4685
vt 92.5567 75.3923
vt 91.9547 77.1681
vt 97.6514 50.9437
vt 93.0093 55.7146
vt 92.1837 57.7861
vt 93.7475 53.8625
vt 94.5045 51.9630
vt 93.2849 59.4882
vt 92.6036 61.1979
vt 91.9793 62.7642
vt 91.3393 64.3700
vt 90.5863 66.2594
vt 91.3697 67.9732
vt 90.4634 70.2471
vt 89.6954 72.1741
vt 88.9433 74.0611
vt 88.2491 75.8030
vt 95.2616 50.0635
vt 89.4316 56.6009
vt 90.3669 54.5766
vt 91.2033 52.7666
vt 92.0609 50.9104
vt 89.6966 59.9460
vt 90.4685 58.2752
vt 88.9893 61.4766
vt 88.2643 63.0458
vt 87.4112 64.8922
vt 87.0984 68.7982
vt 88.1251 66.5760
vt 86.2283 70.6813
vt 85.3763 72.5253
vt 84.5898 74.2275
vt 92.9185 49.0542
vt 86.7436 55.2655
vt 87.7868 53.2947
vt 88.7196 51.5325
vt 89.6762 49.7253
vt 86.8562 58.5350
vt 87.7172 56.9084
vt 86.0673 60.0252
vt 85.2586 61.5530
vt 84.3070 63.3506
vt 83.8074 67.1639
vt 84.9526 65.0005
vt 82.8369 68.9973
vt 81.8866 70.7926
vt 81.0094 72.4498
vt 90.6328 47.9181
vt 84.1365 53.7889
vt 85.2839 51.8769
vt 86.3099 50.1673
vt 87.3620 48.4141
vt 84.1015 56.9751
vt 85.0486 55.3971
vt 83.2340 58.4208
vt 82.3445 59.9030
vt 81.2979 61.6470
vt 80.6175 65.3582
vt 81.8771 63.2593
vt 79.5501 67.1369
vt 78.5049 68.8785
vt 77.5401 70.4863
vt 88.4142 46.6608
vt 81.6253 52.1843
vt 82.8714 50.3352
vt 83.9855 48.6817
vt 85.1281 46.9861
vt 81.4499 55.2810
vt 82.4783 53.7548
vt 80.5077 56.6792
vt 79.5417 58.1127
vt 78.4052 59.7993
vt 77.5531 63.4011
vt 78.9210 61.3712
vt 76.3939 65.1213
vt 75.2589 66.8058
vt 74.2112 68.3607
vt 86.2707 45.2904
vt 79.2218 50.4685
vt 80.5593 48.6844
vt 81.7553 47.0892
vt 82.9818 45.4533
vt 78.9147 53.4714
vt 80.0186 51.9989
vt 77.9034 54.8203
vt 76.8665 56.2033
vt 75.6465 57.8306
vt 74.6339 61.3181
vt 76.1023 59.3597
vt 73.3897 62.9777
vt 72.1713 64.6028
vt 71.0467 66.1029
vt 84.2083 43.8173
vt 76.9337 48.6604
vt 78.3545 46.9418
vt 79.6248 45.4053
vt 80.9276 43.8295
vt 76.5054 51.5676
vt 77.6780 50.1493
vt 75.4312 52.8670
vt 74.3298 54.1992
vt 73.0341 55.7666
vt 71.8744 59.1381
vt 73.4339 57.2516
vt 70.5528 60.7367
vt 69.2586 62.3020
vt 68.0641 63.7470
vt 82.2303 42.2536
vt 74.7650 46.7806
vt 76.2597 45.1261
vt 77.5962 43.6468
vt 78.9668 42.1296
vt 74.2267 49.5926
vt 75.4604 48.2271
vt 73.0966 50.8436
vt 71.9379 52.1261
vt 70.5746 53.6351
vt 69.2823 56.8917
vt 70.9231 55.0756
vt 67.8918 58.4307
vt 66.5303 59.9378
vt 65.2736 61.3289
vt 80.3374 40.6125
vt 72.7153 44.8498
vt 74.2744 43.2559
vt 75.6684 41.8308
vt 77.0981 40.3692
vt 72.0789 47.5694
vt 73.3657 46.2539
vt 70.9001 48.7746
vt 69.6915 50.0101
vt 68.2695 51.4639
vt 66.8598 54.6099
vt 68.5713 52.8603
vt 65.4096 56.0925
vt 63.9895 57.5444
vt 62.6786 58.8845
vt 78.5277 38.9076
vt 70.7811 42.8884
vt 72.3948 41.3499
vt 73.8375 39.9742
vt 75.3171 38.5633
vt 70.0586 45.5206
vt 71.3904 44.2508
vt 68.8386 46.6840
vt 67.5877 47.8766
vt 66.1160 49.2799
vt 64.6044 52.3225
vt 66.3756 50.6336
vt 63.1035 53.7536
vt 61.6337 55.1550
vt 60.2770 56.4486
vt 76.7968 37.1525
vt 68.9560 40.9160
vt 70.6143 39.4258
vt 72.0971 38.0934
vt 73.6177 36.7270
vt 68.1593 43.4679
vt 69.5279 42.2380
vt 66.9054 44.5946
vt 65.6200 45.7497
vt 64.1075 47.1088
vt 62.5094 50.0577
vt 64.3297 48.4220
vt 60.9669 51.4438
vt 59.4564 52.8011
vt 58.0622 54.0539
vt 75.1384 35.3605
vt 67.2324 38.9514
vt 68.9256 37.5012
vt 70.4396 36.2045
vt 71.9922 34.8746
vt 66.3732 41.4320
vt 67.7706 40.2351
vt 65.0930 42.5285
vt 63.7804 43.6527
vt 62.2362 44.9754
vt 60.5668 47.8427
vt 62.4254 46.2509
vt 58.9919 49.1917
vt 57.4496 50.5126
vt 56.0261 51.7319
vt 73.5449 33.5447
vt 65.6041 37.0148
vt 67.3220 35.5941
vt 68.8580 34.3238
vt 70.4333 33.0209
vt 64.6946 39.4354
vt 66.1124 38.2628
vt 63.3958 40.5096
vt 62.0641 41.6109
vt 60.4973 42.9067
vt 58.7725 45.7079
vt 60.6581 44.1484
vt 57.1746 47.0294
vt 55.6100 48.3234
vt 72.0086 31.7181
vt 64.0598 35.1236
vt 65.7922 33.7208
vt 67.3411 32.4664
vt 68.9297 31.1800
vt 63.1119 37.4970
vt 64.5417 36.3392
vt 61.8021 38.5576
vt 60.4593 39.6451
vt 58.8792 40.9245
vt 57.1147 43.6766
vt 59.0162 42.1368
vt 55.5033 44.9814
vt 70.5183 29.8936
vt 62.5831 33.2896
vt 64.3202 31.8930
vt 65.8735 30.6442
vt 67.4665 29.3635
vt 61.6080 35.6289
vt 63.0417 34.4763
vt 60.2945 36.6849
vt 58.9479 37.7675
vt 57.3636 39.0412
vt 55.5738 41.7617
vt 57.4806 40.2287
vt 69.0595 28.0828
vt 61.1593 31.5210
vt 62.8920 30.1192
vt 64.4413 28.8658
vt 66.0302 27.5804
vt 60.1674 33.8392
vt 61.5975 32.6823
vt 58.8573 34.8990
vt 57.5142 35.9856
vt 55.9338 37.2641
vt 67.6192 26.2949
vt 59.7765 29.8246
vt 61.4957 28.4066
vt 63.0330 27.1388
vt 64.6094 25.8385
vt 58.7782 32.1344
vt 60.1971 30.9641
vt 57.4783 33.2065
vt 56.1456 34.3056
vt 66.1860 24.5382
vt 58.4253 28.2068
vt 60.1216 26.7621
vt 61.6385 25.4703
vt 63.1941 24.1455
vt 57.4306 30.5205
vt 58.8306 29.3281
vt 64.7497 22.8206
vt 57.0973 26.6797
vt 58.7607 25.1976
vt 60.2480 23.8723
vt 61.7734 22.5132
vt 63.2987 21.1541
vt 57.4050 23.7222
vt 58.8530 22.3545
vt 60.3379 20.9518
vt 61.8229 19.5492
vt 57.4466 20.9158
vt 58.8814 19.4624
vt 60.3162 18.0090
vt 57.3979 18.0495
vt 58.7726 16.5395
vt 110.6222 63.5726
vt 111.0942 72.6364
vt 109.9578 53.5077
vn -0.0006 0.0000 -1.0000
vn -0.0005 -0.0000 -1.0000
vn -0.0004 -0.0000 -1.0000
vn -0.0003 -0.0001 -1.0000
vn -0.0000 -0.0002 -1.0000
vn -0.0001 -0.0002 -1.0000
vn 0.0002 -0.0003 -1.0000
vn 0.0005 -0.0004 -1.0000
vn 0.0009 -0.0007 -1.0000
vn 0.0014 -0.0009 -1.0000
vn 0.0018 -0.0013 -1.0000
vn 0.0024 -0.0017 -1.0000
vn 0.0030 -0.0022 -1.0000
vn 0.0029 -0.0022 -1.0000
vn 0.0036 -0.0028 -1.0000
vn 0.0042 -0.0034 -1.0000
vn 0.0049 -0.0042 -1.0000
vn 0.0057 -0.0051 -1.0000
vn 0.0057 -0.0050 -1.0000
vn 0.0055 -0.0049 -1.0000
vn 0.0053 -0.0046 -1.0000
vn 0.0065 -0.0060 -1.0000
vn 0.0063 -0.0058 -1.0000
vn 0.0060 -0.0055 -1.0000
vn 0.0073 -0.0071 -0.9999
vn 0.0072 -0.0069 -1.0000
vn 0.0069 -0.0065 -1.0000
vn 0.0082 -0.0082 -0.9999
vn 0.0078 -0.0076 -0.9999
vn 0.0092 -0.0094 -0.9999
vn 0.0090 -0.0092 -0.9999
vn 0.0087 -0.0088 -0.9999
vn 0.0102 -0.0106 -0.9999
vn 0.0100 -0.0104 -0.9999
vn 0.0097 -0.0100 -0.9999
vn 0.0113 -0.0119 -0.9999
vn 0.0107 -0.0112 -0.9999
vn 0.0119 -0.0126 -0.9999
vn 0.0123 -0.0131 -0.9998
vn 0.0125 -0.0133 -0.9998
vn 0.0131 -0.0141 -0.9998
vn 0.0136 -0.0145 -0.9998
vn 0.0138 -0.0147 -0.9998
vn 0.0144 -0.0154 -0.9998
vn 0.0148 -0.0158 -0.9998
vn 0.0150 -0.0160 -0.9998
vn 0.0156 -0.0166 -0.9997
s 1
f 5/1/1 7/2/1 8/3/1
f 11/4/1 6/5/1 5/1/1
f 13/6/1 12/7/1 11/4/1
f 37/8/1 16/9/1 38/10/1
f 38/10/1 17/11/1 18/12/1
f 18/12/1 19/13/1 20/14/1
f 20/14/1 21/15/1 22/16/1
f 24/17/1 25/18/1 26/19/1
f 26/19/1 27/20/1 28/21/1
f 28/21/1 29/22/1 30/23/1
f 30/23/1 31/24/1 1/25/1
f 9/26/1 14/27/1 13/6/1
f 32/28/1 8/3/1 33/29/1
f 35/30/1 5/1/1 32/28/1
f 36/31/1 11/4/1 35/30/1
f 52/32/1 38/10/1 53/33/1
f 53/33/1 18/12/1 39/34/1
f 39/34/1 20/14/1 40/35/1
f 40/35/1 22/16/1 41/36/1
f 42/37/1 26/19/1 43/38/1
f 43/38/1 28/21/1 44/39/1
f 44/39/1 30/23/1 45/40/1
f 45/40/1 1/25/1 46/41/1
f 34/42/1 13/6/1 36/31/1
f 47/43/2 33/29/1 48/44/2
f 50/45/2 32/28/1 47/43/2
f 51/46/2 35/30/1 50/45/2
f 66/47/2 53/33/1 67/48/2
f 67/48/2 39/34/1 54/49/2
f 54/49/2 40/35/1 55/50/2
f 55/50/2 41/36/1 56/51/2
f 57/52/2 43/38/1 58/53/2
f 58/53/2 44/39/1 59/54/2
f 59/54/2 45/40/1 60/55/2
f 60/55/2 46/41/1 2/56/2
f 49/57/2 36/31/1 51/46/2
f 61/58/3 48/44/2 62/59/3
f 64/60/3 47/43/2 61/58/3
f 65/61/3 50/45/2 64/60/3
f 81/62/3 67/48/2 82/63/3
f 82/63/3 54/49/2 68/64/3
f 68/64/3 55/50/2 69/65/3
f 69/65/3 56/51/2 70/66/3
f 71/67/3 58/53/2 72/68/3
f 72/68/3 59/54/2 73/69/3
f 73/69/3 60/55/2 74/70/3
f 74/70/3 2/56/2 75/71/3
f 63/72/3 51/46/2 65/61/3
f 76/73/4 62/59/3 77/74/4
f 79/75/4 61/58/3 76/73/4
f 80/76/4 64/60/3 79/75/4
f 95/77/4 82/63/3 96/78/4
f 96/78/4 68/64/3 83/79/4
f 83/79/4 69/65/3 84/80/4
f 84/80/4 70/66/3 85/81/4
f 86/82/4 72/68/3 87/83/4
f 87/83/4 73/69/3 88/84/4
f 88/84/4 74/70/3 89/85/4
f 89/85/4 75/71/3 3/86/4
f 78/87/4 65/61/3 80/76/4
f 90/88/5 77/74/4 91/89/5
f 93/90/6 76/73/4 90/88/5
f 94/91/6 79/75/4 93/90/6
f 110/92/5 96/78/4 111/93/5
f 111/93/5 83/79/4 97/94/5
f 97/94/5 84/80/4 98/95/5
f 98/95/5 85/81/4 99/96/5
f 100/97/5 87/83/4 101/98/5
f 101/98/5 88/84/4 102/99/5
f 102/99/5 89/85/4 103/100/5
f 103/100/5 3/86/4 104/101/5
f 92/102/6 80/76/4 94/91/6
f 90/88/5 106/103/7 105/104/7
f 93/90/6 105/104/7 108/105/7
f 94/91/6 108/105/7 109/106/7
f 110/92/5 126/107/7 125/108/7
f 111/93/5 112/109/7 126/107/7
f 97/94/5 113/110/7 112/109/7
f 98/95/5 114/111/7 113/110/7
f 100/97/5 116/112/7 115/113/7
f 101/98/5 117/114/7 116/112/7
f 102/99/5 118/115/7 117/114/7
f 103/100/5 119/116/7 118/115/7
f 92/102/6 109/106/7 107/117/7
f 105/104/7 121/118/8 120/119/8
f 108/105/7 120/119/8 123/120/8
f 109/106/7 123/120/8 124/121/8
f 125/108/7 140/122/8 139/123/8
f 126/107/7 127/124/8 140/122/8
f 112/109/7 128/125/8 127/124/8
f 113/110/7 129/126/8 128/125/8
f 115/113/7 131/127/8 130/128/8
f 116/112/7 132/129/8 131/127/8
f 117/114/7 133/130/8 132/129/8
f 118/115/7 4/131/8 133/130/8
f 107/117/7 124/121/8 122/132/8
f 120/119/8 135/133/9 134/134/9
f 123/120/8 134/134/9 137/135/9
f 124/121/8 137/135/9 138/136/9
f 139/123/8 153/137/9 152/138/9
f 140/122/8 141/139/9 153/137/9
f 127/124/8 142/140/9 141/139/9
f 128/125/8 143/141/9 142/140/9
f 130/128/8 145/142/9 144/143/9
f 131/127/8 146/144/9 145/142/9
f 132/129/8 147/145/9 146/144/9
f 133/130/8 148/146/9 147/145/9
f 122/132/8 138/136/9 136/147/9
f 134/134/9 149/148/10 164/149/10
f 137/135/9 164/149/10 151/150/10
f 138/136/9 151/150/10 169/151/10
f 152/138/9 171/152/10 170/153/10
f 153/137/9 154/154/10 171/152/10
f 141/139/9 173/155/10 154/154/10
f 142/140/9 175/156/10 173/155/10
f 144/143/9 155/157/10 177/158/10
f 145/142/9 156/159/10 155/157/10
f 146/144/9 157/160/10 156/159/10
f 147/145/9 158/161/10 157/160/10
f 136/147/9 169/151/10 150/162/10
f 164/149/10 165/163/11 163/164/11
f 151/150/10 163/164/11 167/165/11
f 169/151/10 167/165/11 168/166/11
f 170/153/10 189/167/11 188/168/11
f 171/152/10 172/169/11 189/167/11
f 154/154/10 174/170/11 172/169/11
f 173/155/10 176/171/11 174/170/11
f 177/158/10 179/172/11 178/173/11
f 155/157/10 180/174/11 179/172/11
f 156/159/10 181/175/11 180/174/11
f 157/160/10 182/176/11 181/175/11
f 150/162/10 168/166/11 166/177/11
f 163/164/11 184/178/12 183/179/12
f 167/165/11 183/179/12 186/180/12
f 168/166/11 186/180/12 187/181/12
f 188/168/11 204/182/12 203/183/12
f 189/167/11 190/184/12 204/182/12
f 172/169/11 191/185/12 190/184/12
f 174/170/11 192/186/12 191/185/12
f 178/173/11 194/187/12 193/188/12
f 179/172/11 195/189/12 194/187/12
f 180/174/11 196/190/12 195/189/12
f 181/175/11 197/191/12 196/190/12
f 166/177/11 187/181/12 185/192/12
f 183/179/12 199/193/13 198/194/13
f 186/180/12 198/194/13 201/195/13
f 187/181/12 201/195/13 202/196/13
f 203/183/12 218/197/13 217/198/13
f 204/182/12 205/199/13 218/197/13
f 190/184/12 206/200/13 205/199/13
f 191/185/12 207/201/14 206/200/13
f 193/188/12 209/202/14 208/203/14
f 194/187/12 210/204/14 209/202/14
f 195/189/12 211/205/14 210/204/14
f 196/190/12 159/206/14 211/205/14
f 185/192/12 202/196/13 200/207/13
f 198/194/13 213/208/15 212/209/15
f 201/195/13 212/209/15 215/210/15
f 202/196/13 215/210/15 216/211/15
f 217/198/13 232/212/15 231/213/15
f 218/197/13 219/214/15 232/212/15
f 205/199/13 220/215/15 219/214/15
f 206/200/13 221/216/15 220/215/15
f 208/203/14 223/217/15 222/218/15
f 209/202/14 224/219/15 223/217/15
f 210/204/14 225/220/15 224/219/15
f 211/205/14 160/221/15 225/220/15
f 200/207/13 216/211/15 214/222/15
f 212/209/15 227/223/16 226/224/16
f 215/210/15 226/224/16 229/225/16
f 216/211/15 229/225/16 230/226/16
f 231/213/15 246/227/16 245/228/16
f 232/212/15 233/229/16 246/227/16
f 219/214/15 234/230/16 233/229/16
f 220/215/15 235/231/16 234/230/16
f 222/218/15 237/232/16 236/233/16
f 223/217/15 238/234/16 237/232/16
f 224/219/15 239/235/16 238/234/16
f 225/220/15 161/236/16 239/235/16
f 214/222/15 230/226/16 228/237/16
f 226/224/16 241/238/17 240/239/17
f 229/225/16 240/239/17 243/240/17
f 230/226/16 243/240/17 244/241/17
f 245/228/16 261/242/17 260/243/17
f 246/227/16 247/244/17 261/242/17
f 233/229/16 248/245/17 247/244/17
f 234/230/16 249/246/17 248/245/17
f 236/233/16 251/247/17 250/248/17
f 237/232/16 252/249/17 251/247/17
f 238/234/16 253/250/17 252/249/17
f 239/235/16 254/251/17 253/250/17
f 228/237/16 244/241/17 242/252/17
f 240/239/17 256/253/18 255/254/18
f 243/240/17 255/254/18 258/255/18
f 244/241/17 258/255/18 259/256/18
f 260/243/17 275/257/18 274/258/18
f 261/242/17 262/259/19 275/257/18
f 247/244/17 263/260/19 262/259/19
f 248/245/17 264/261/19 263/260/19
f 250/248/17 266/262/19 265/263/19
f 251/247/17 267/264/19 266/262/19
f 252/249/17 268/265/20 267/264/19
f 253/250/17 162/266/21 268/265/20
f 242/252/17 259/256/18 257/267/18
f 255/254/18 270/268/22 269/269/22
f 258/255/18 269/269/22 272/270/22
f 259/256/18 272/270/22 273/271/22
f 274/258/18 289/272/22 288/273/22
f 275/257/18 276/274/22 289/272/22
f 262/259/19 277/275/22 276/274/22
f 263/260/19 278/276/22 277/275/22
f 265/263/19 280/277/22 279/278/22
f 266/262/19 281/279/23 280/277/22
f 267/264/19 282/280/24 281/279/23
f 257/267/18 273/271/22 271/281/22
f 269/269/22 284/282/25 283/283/25
f 272/270/22 283/283/25 286/284/25
f 273/271/22 286/284/25 287/285/25
f 288/273/22 299/286/25 298/287/25
f 289/272/22 290/288/25 299/286/25
f 276/274/22 291/289/25 290/288/25
f 277/275/22 292/290/25 291/289/25
f 279/278/22 294/291/26 293/292/25
f 280/277/22 295/293/27 294/291/26
f 271/281/22 287/285/25 285/294/25
f 283/283/25 305/295/28 296/296/28
f 286/284/25 296/296/28 309/297/28
f 287/285/25 309/297/28 311/298/28
f 298/287/25 313/299/28 312/300/28
f 299/286/25 314/301/28 313/299/28
f 290/288/25 300/302/28 314/301/28
f 291/289/25 301/303/28 300/302/28
f 293/292/25 303/304/29 302/305/29
f 285/294/25 311/298/28 297/306/28
f 296/296/28 306/307/30 304/308/30
f 309/297/28 304/308/30 308/309/30
f 311/298/28 308/309/30 310/310/30
f 312/300/28 324/311/30 323/312/30
f 313/299/28 315/313/30 324/311/30
f 314/301/28 316/314/31 315/313/30
f 300/302/28 317/315/32 316/314/31
f 297/306/28 310/310/30 307/316/30
f 304/308/30 319/317/33 318/318/33
f 308/309/30 318/318/33 321/319/33
f 310/310/30 321/319/33 322/320/33
f 323/312/30 333/321/34 332/322/33
f 324/311/30 325/323/35 333/321/34
f 315/313/30 326/324/35 325/323/35
f 307/316/30 322/320/33 320/325/33
f 318/318/33 328/326/36 327/327/36
f 321/319/33 327/327/36 330/328/36
f 322/320/33 330/328/36 331/329/36
f 332/322/33 340/330/37 339/331/37
f 320/325/33 331/329/36 329/332/36
f 327/327/36 335/333/38 334/334/39
f 330/328/36 334/334/39 337/335/40
f 331/329/36 337/335/40 338/336/40
f 329/332/36 338/336/40 336/337/40
f 337/335/40 341/338/41 343/339/42
f 338/336/40 343/339/42 344/340/43
f 336/337/40 344/340/43 342/341/43
f 344/340/43 346/342/44 347/343/45
f 342/341/43 347/343/45 345/344/46
f 345/344/46 349/345/47 348/346/47
f 5/1/1 6/5/1 7/2/1
f 11/4/1 12/7/1 6/5/1
f 13/6/1 14/27/1 12/7/1
f 37/8/1 15/347/1 16/9/1
f 38/10/1 16/9/1 17/11/1
f 18/12/1 17/11/1 19/13/1
f 20/14/1 19/13/1 21/15/1
f 24/17/1 23/348/1 25/18/1
f 26/19/1 25/18/1 27/20/1
f 28/21/1 27/20/1 29/22/1
f 30/23/1 29/22/1 31/24/1
f 9/26/1 10/349/1 14/27/1
f 32/28/1 5/1/1 8/3/1
f 35/30/1 11/4/1 5/1/1
f 36/31/1 13/6/1 11/4/1
f 52/32/1 37/8/1 38/10/1
f 53/33/1 38/10/1 18/12/1
f 39/34/1 18/12/1 20/14/1
f 40/35/1 20/14/1 22/16/1
f 42/37/1 24/17/1 26/19/1
f 43/38/1 26/19/1 28/21/1
f 44/39/1 28/21/1 30/23/1
f 45/40/1 30/23/1 1/25/1
f 34/42/1 9/26/1 13/6/1
f 47/43/2 32/28/1 33/29/1
f 50/45/2 35/30/1 32/28/1
f 51/46/2 36/31/1 35/30/1
f 66/47/2 52/32/1 53/33/1
f 67/48/2 53/33/1 39/34/1
f 54/49/2 39/34/1 40/35/1
f 55/50/2 40/35/1 41/36/1
f 57/52/2 42/37/1 43/38/1
f 58/53/2 43/38/1 44/39/1
f 59/54/2 44/39/1 45/40/1
f 60/55/2 45/40/1 46/41/1
f 49/57/2 34/42/1 36/31/1
f 61/58/3 47/43/2 48/44/2
f 64/60/3 50/45/2 47/43/2
f 65/61/3 51/46/2 50/45/2
f 81/62/3 66/47/2 67/48/2
f 82/63/3 67/48/2 54/49/2
f 68/64/3 54/49/2 55/50/2
f 69/65/3 55/50/2 56/51/2
f 71/67/3 57/52/2 58/53/2
f 72/68/3 58/53/2 59/54/2
f 73/69/3 59/54/2 60/55/2
f 74/70/3 60/55/2 2/56/2
f 63/72/3 49/57/2 51/46/2
f 76/73/4 61/58/3 62/59/3
f 79/75/4 64/60/3 61/58/3
f 80/76/4 65/61/3 64/60/3
f 95/77/4 81/62/3 82/63/3
f 96/78/4 82/63/3 68/64/3
f 83/79/4 68/64/3 69/65/3
f 84/80/4 69/65/3 70/66/3
f 86/82/4 71/67/3 72/68/3
f 87/83/4 72/68/3 73/69/3
f 88/84/4 73/69/3 74/70/3
f 89/85/4 74/70/3 75/71/3
f 78/87/4 63/72/3 65/61/3
f 90/88/5 76/73/4 77/74/4
f 93/90/6 79/75/4 76/73/4
f 94/91/6 80/76/4 79/75/4
f 110/92/5 95/77/4 96/78/4
f 111/93/5 96/78/4 83/79/4
f 97/94/5 83/79/4 84/80/4
f 98/95/5 84/80/4 85/81/4
f 100/97/5 86/82/4 87/83/4
f 101/98/5 87/83/4 88/84/4
f 102/99/5 88/84/4 89/85/4
f 103/100/5 89/85/4 3/86/4
f 92/102/6 78/87/4 80/76/4
f 90/88/5 91/89/5 106/103/7
f 93/90/6 90/88/5 105/104/7
f 94/91/6 93/90/6 108/105/7
f 110/92/5 111/93/5 126/107/7
f 111/93/5 97/94/5 112/109/7
f 97/94/5 98/95/5 113/110/7
f 98/95/5 99/96/5 114/111/7
f 100/97/5 101/98/5 116/112/7
f 101/98/5 102/99/5 117/114/7
f 102/99/5 103/100/5 118/115/7
f 103/100/5 104/101/5 119/116/7
f 92/102/6 94/91/6 109/106/7
f 105/104/7 106/103/7 121/118/8
f 108/105/7 105/104/7 120/119/8
f 109/106/7 108/105/7 123/120/8
f 125/108/7 126/107/7 140/122/8
f 126/107/7 112/109/7 127/124/8
f 112/109/7 113/110/7 128/125/8
f 113/110/7 114/111/7 129/126/8
f 115/113/7 116/112/7 131/127/8
f 116/112/7 117/114/7 132/129/8
f 117/114/7 118/115/7 133/130/8
f 118/115/7 119/116/7 4/131/8
f 107/117/7 109/106/7 124/121/8
f 120/119/8 121/118/8 135/133/9
f 123/120/8 120/119/8 134/134/9
f 124/121/8 123/120/8 137/135/9
f 139/123/8 140/122/8 153/137/9
f 140/122/8 127/124/8 141/139/9
f 127/124/8 128/125/8 142/140/9
f 128/125/8 129/126/8 143/141/9
f 130/128/8 131/127/8 145/142/9
f 131/127/8 132/129/8 146/144/9
f 132/129/8 133/130/8 147/145/9
f 133/130/8 4/131/8 148/146/9
f 122/132/8 124/121/8 138/136/9
f 134/134/9 135/133/9 149/148/10
f 137/135/9 134/134/9 164/149/10
f 138/136/9 137/135/9 151/150/10
f 152/138/9 153/137/9 171/152/10
f 153/137/9 141/139/9 154/154/10
f 141/139/9 142/140/9 173/155/10
f 142/140/9 143/141/9 175/156/10
f 144/143/9 145/142/9 155/157/10
f 145/142/9 146/144/9 156/159/10
f 146/144/9 147/145/9 157/160/10
f 147/145/9 148/146/9 158/161/10
f 136/147/9 138/136/9 169/151/10
f 164/149/10 149/148/10 165/163/11
f 151/150/10 164/149/10 163/164/11
f 169/151/10 151/150/10 167/165/11
f 170/153/10 171/152/10 189/167/11
f 171/152/10 154/154/10 172/169/11
f 154/154/10 173/155/10 174/170/11
f 173/155/10 175/156/10 176/171/11
f 177/158/10 155/157/10 179/172/11
f 155/157/10 156/159/10 180/174/11
f 156/159/10 157/160/10 181/175/11
f 157/160/10 158/161/10 182/176/11
f 150/162/10 169/151/10 168/166/11
f 163/164/11 165/163/11 184/178/12
f 167/165/11 163/164/11 183/179/12
f 168/166/11 167/165/11 186/180/12
f 188/168/11 189/167/11 204/182/12
f 189/167/11 172/169/11 190/184/12
f 172/169/11 174/170/11 191/185/12
f 174/170/11 176/171/11 192/186/12
f 178/173/11 179/172/11 194/187/12
f 179/172/11 180/174/11 195/189/12
f 180/174/11 181/175/11 196/190/12
f 181/175/11 182/176/11 197/191/12
f 166/177/11 168/166/11 187/181/12
f 183/179/12 184/178/12 199/193/13
f 186/180/12 183/179/12 198/194/13
f 187/181/12 186/180/12 201/195/13
f 203/183/12 204/182/12 218/197/13
f 204/182/12 190/184/12 205/199/13
f 190/184/12 191/185/12 206/200/13
f 191/185/12 192/186/12 207/201/14
f 193/188/12 194/187/12 209/202/14
f 194/187/12 195/189/12 210/204/14
f 195/189/12 196/190/12 211/205/14
f 196/190/12 197/191/12 159/206/14
f 185/192/12 187/181/12 202/196/13
f 198/194/13 199/193/13 213/208/15
f 201/195/13 198/194/13 212/209/15
f 202/196/13 201/195/13 215/210/15
f 217/198/13 218/197/13 232/212/15
f 218/197/13 205/199/13 219/214/15
f 205/199/13 206/200/13 220/215/15
f 206/200/13 207/201/14 221/216/15
f 208/203/14 209/202/14 223/217/15
f 209/202/14 210/204/14 224/219/15
f 210/204/14 211/205/14 225/220/15
f 211/205/14 159/206/14 160/221/15
f 200/207/13 202/196/13 216/211/15
f 212/209/15 213/208/15 227/223/16
f 215/210/15 212/209/15 226/224/16
f 216/211/15 215/210/15 229/225/16
f 231/213/15 232/212/15 246/227/16
f 232/212/15 219/214/15 233/229/16
f 219/214/15 220/215/15 234/230/16
f 220/215/15 221/216/15 235/231/16
f 222/218/15 223/217/15 237/232/16
f 223/217/15 224/219/15 238/234/16
f 224/219/15 225/220/15 239/235/16
f 225/220/15 160/221/15 161/236/16
f 214/222/15 216/211/15 230/226/16
f 226/224/16 227/223/16 241/238/17
f 229/225/16 226/224/16 240/239/17
f 230/226/16 229/225/16 243/240/17
f 245/228/16 246/227/16 261/242/17
f 246/227/16 233/229/16 247/244/17
f 233/229/16 234/230/16 248/245/17
f 234/230/16 235/231/16 249/246/17
f 236/233/16 237/232/16 251/247/17
f 237/232/16 238/234/16 252/249/17
f 238/234/16 239/235/16 253/250/17
f 239/235/16 161/236/16 254/251/17
f 228/237/16 230/226/16 244/241/17
f 240/239/17 241/238/17 256/253/18
f 243/240/17 240/239/17 255/254/18
f 244/241/17 243/240/17 258/255/18
f 260/243/17 261/242/17 275/257/18
f 261/242/17 247/244/17 262/259/19
f 247/244/17 248/245/17 263/260/19
f 248/245/17 249/246/17 264/261/19
f 250/248/17 251/247/17 266/262/19
f 251/247/17 252/249/17 267/264/19
f 252/249/17 253/250/17 268/265/20
f 253/250/17 254/251/17 162/266/21
f 242/252/17 244/241/17 259/256/18
f 255/254/18 256/253/18 270/268/22
f 258/255/18 255/254/18 269/269/22
f 259/256/18 258/255/18 272/270/22
f 274/258/18 275/257/18 289/272/22
f 275/257/18 262/259/19 276/274/22
f 262/259/19 263/260/19 277/275/22
f 263/260/19 264/261/19 278/276/22
f 265/263/19 266/262/19 280/277/22
f 266/262/19 267/264/19 281/279/23
f 267/264/19 268/265/20 282/280/24
f 257/267/18 259/256/18 273/271/22
f 269/269/22 270/268/22 284/282/25
f 272/270/22 269/269/22 283/283/25
f 273/271/22 272/270/22 286/284/25
f 288/273/22 289/272/22 299/286/25
f 289/272/22 276/274/22 290/288/25
f 276/274/22 277/275/22 291/289/25
f 277/275/22 278/276/22 292/290/25
f 279/278/22 280/277/22 294/291/26
f 280/277/22 281/279/23 295/293/27
f 271/281/22 273/271/22 287/285/25
f 283/283/25 284/282/25 305/295/28
f 286/284/25 283/283/25 296/296/28
f 287/285/25 286/284/25 309/297/28
f 298/287/25 299/286/25 313/299/28
f 299/286/25 290/288/25 314/301/28
f 290/288/25 291/289/25 300/302/28
f 291/289/25 292/290/25 301/303/28
f 293/292/25 294/291/26 303/304/29
f 285/294/25 287/285/25 311/298/28
f 296/296/28 305/295/28 306/307/30
f 309/297/28 296/296/28 304/308/30
f 311/298/28 309/297/28 308/309/30
f 312/300/28 313/299/28 324/311/30
f 313/299/28 314/301/28 315/313/30
f 314/301/28 300/302/28 316/314/31
f 300/302/28 301/303/28 317/315/32
f 297/306/28 311/298/28 310/310/30
f 304/308/30 306/307/30 319/317/33
f 308/309/30 304/308/30 318/318/33
f 310/310/30 308/309/30 321/319/33
f 323/312/30 324/311/30 333/321/34
f 324/311/30 315/313/30 325/323/35
f 315/313/30 316/314/31 326/324/35
f 307/316/30 310/310/30 322/320/33
f 318/318/33 319/317/33 328/326/36
f 321/319/33 318/318/33 327/327/36
f 322/320/33 321/319/33 330/328/36
f 332/322/33 333/321/34 340/330/37
f 320/325/33 322/320/33 331/329/36
f 327/327/36 328/326/36 335/333/38
f 330/328/36 327/327/36 334/334/39
f 331/329/36 330/328/36 337/335/40
f 329/332/36 331/329/36 338/336/40
f 337/335/40 334/334/39 341/338/41
f 338/336/40 337/335/40 343/339/42
f 336/337/40 338/336/40 344/340/43
f 344/340/43 343/339/42 346/342/44
f 342/341/43 344/340/43 347/343/45
f 345/344/46 347/343/45 349/345/47
