# Blender v2.78 (sub 0) OBJ File: 'vtrack.blend'
# www.blender.org
o grass.002_wall_house_stair_Cube.014
v 31.193615 -69.083954 -6.239609
v 30.763680 -71.730331 -6.201523
v 30.227806 -74.479965 -6.172459
v 28.746449 -80.303040 -6.159380
v 26.499943 -86.559769 -6.244195
v 24.989323 -89.814621 -6.339187
v 15.655306 -62.282131 0.032523
v 17.566027 -62.480190 0.001392
v 13.946880 -62.105038 0.060356
v 20.992188 -62.896328 -3.430533
v 22.455261 -63.047985 -3.454370
v 24.176689 -63.226425 -3.482414
v 24.751484 -63.335155 -6.212299
v 26.802601 -63.547768 -6.245716
v 28.540749 -63.727943 -6.274034
v 30.242798 -63.904373 -6.301764
v 31.813889 -64.067230 -6.327360
v 15.415098 -64.423401 0.071252
v 17.321388 -64.660446 0.040824
v 10.214619 -63.776749 0.154260
v 13.710634 -64.211456 0.098456
v 11.962626 -63.994106 0.126359
v 18.007462 -62.586941 -3.381906
v 19.565145 -62.748402 -3.407284
v 20.739845 -65.144470 -3.389878
v 22.199524 -65.325974 -3.413177
v 23.916958 -65.539536 -3.440591
v 24.490616 -65.658371 -6.170291
v 26.536980 -65.912827 -6.202956
v 28.271091 -66.128448 -6.230635
v 29.969196 -66.339600 -6.257740
v 31.536644 -66.534515 -6.282759
v 15.123240 -66.597214 0.108114
v 17.023306 -66.879929 0.078449
v 9.939741 -65.825989 0.189037
v 13.424343 -66.344452 0.134635
v 11.682041 -66.085220 0.161836
v 17.762043 -64.774185 -3.342347
v 19.316113 -64.967438 -3.367153
v 20.431414 -67.439987 -3.350980
v 21.886328 -67.656464 -3.373694
v 23.598156 -67.911148 -3.400417
v 24.170593 -68.039017 -6.129967
v 26.210270 -68.342499 -6.161809
v 27.938725 -68.599670 -6.188794
v 29.631283 -68.851501 -6.215218
v 14.764454 -68.807190 0.139962
v 16.655756 -69.143646 0.111065
v 9.604866 -67.889328 0.218790
v 13.073393 -68.506363 0.165795
v 11.339128 -68.197845 0.192294
v 17.463331 -66.998367 -3.304642
v 19.012329 -67.228851 -3.328825
v 20.049793 -69.790039 -3.317129
v 21.497997 -70.047668 -3.339255
v 23.201927 -70.350784 -3.365288
v 23.773060 -70.486740 -6.094721
v 25.803326 -70.847916 -6.125739
v 27.523804 -71.153976 -6.152025
v 29.208557 -71.453674 -6.177765
v 14.326746 -71.053040 0.163717
v 16.205847 -71.452103 0.135482
v 9.200443 -69.964417 0.240747
v 12.646595 -70.696243 0.188963
v 10.923519 -70.330322 0.214855
v 17.095404 -69.264481 -3.271991
v 18.637255 -69.538757 -3.295547
v 19.580786 -72.196579 -3.291680
v 21.019642 -72.502121 -3.313301
v 22.712585 -72.861649 -3.338740
v 23.282276 -73.005005 -6.068092
v 25.299450 -73.433380 -6.098404
v 27.008827 -73.796387 -6.124088
v 28.682713 -74.151855 -6.149242
v 13.798073 -73.332550 0.176347
v 15.660429 -73.803619 0.148505
v 8.717445 -72.047455 0.252307
v 12.132891 -72.911362 0.201241
v 10.425169 -72.479401 0.226774
v 16.645451 -71.573227 -3.247572
v 18.177357 -71.898544 -3.270590
v 19.009569 -74.659119 -3.278048
v 20.435608 -75.019821 -3.299368
v 22.113464 -75.444214 -3.324454
v 22.681522 -75.594635 -6.053767
v 24.680721 -76.100311 -6.083657
v 26.374874 -76.528839 -6.108985
v 28.033840 -76.948471 -6.133788
v 29.565166 -77.335800 -6.156682
v 13.161064 -75.643173 0.174326
v 15.000637 -76.196564 0.146398
v 8.142595 -74.133469 0.250519
v 11.516256 -75.148361 0.199297
v 9.829426 -74.640915 0.224908
v 16.100391 -73.923264 -3.234554
v 17.618647 -74.307297 -3.257253
v 18.314999 -77.177750 -3.280283
v 19.723591 -77.601501 -3.301667
v 21.380919 -78.100067 -3.326829
v 21.947025 -78.257568 -6.056149
v 23.921761 -78.851639 -6.086130
v 25.595188 -79.355057 -6.111536
v 27.233860 -79.848007 -6.136415
v 12.396383 -77.978653 0.153920
v 14.205275 -78.625290 0.125153
v 7.461607 -76.214615 0.232396
v 10.779003 -77.400497 0.179640
v 9.120306 -76.807556 0.206019
v 15.441412 -76.313293 -3.236655
v 16.941093 -76.764435 -3.259423
v 17.472965 -79.748322 -3.302802
v 18.858068 -80.243454 -3.324827
v 20.487759 -80.826019 -3.350745
v 21.051352 -80.991165 -6.080132
v 22.993160 -81.685303 -6.111013
v 24.638676 -82.273529 -6.137181
v 26.250019 -82.849533 -6.162806
v 27.737385 -83.381241 -6.186459
v 11.483580 -80.326889 0.111473
v 13.251757 -81.077652 0.080790
v 6.659874 -78.278748 0.195180
v 9.902603 -79.655609 0.138907
v 8.281239 -78.967178 0.167045
v 14.647305 -78.738220 -3.257866
v 16.121975 -79.265366 -3.281317
v 16.457336 -82.359512 -3.350090
v 17.811262 -82.934402 -3.373586
v 19.404270 -83.610779 -3.401230
v 19.964394 -83.784775 -6.130782
v 21.862494 -84.590714 -6.163721
v 23.470978 -85.273682 -6.191631
v 25.046047 -85.942444 -6.218964
v 10.398165 -82.666412 0.043268
v 8.864700 -81.892838 0.073694
v 7.292061 -81.099503 0.104900
v 13.695272 -81.186752 -3.302160
v 15.136749 -81.798798 -3.327175
v 16.550123 -85.652176 -3.452863
v 20.491243 -87.545502 -6.249935
v 22.051386 -88.332535 -6.280892
v 21.070883 -96.315186 -6.646575
v 16.106041 -102.244217 -7.053829
v 10.474871 -107.170242 -7.426780
v 1.352419 -112.644958 -7.681103
v -1.821586 -114.014420 -7.659939
v 9.127693 -84.964020 -0.051650
v 12.113205 -83.531586 0.009237
v 10.775534 -85.951004 -0.090696
v 4.632282 -82.271439 0.054877
v 5.719420 -80.306168 0.136106
v 7.654316 -84.081528 -0.016736
v 6.143299 -83.176483 0.019070
v 12.557829 -83.638214 -3.373645
v 13.955990 -84.343536 -3.401389
v 15.236885 -84.989700 -3.426804
v 13.793753 -87.600128 -3.534618
v 15.055532 -88.355896 -3.564517
v 18.095259 -86.431641 -3.483521
v 16.540121 -89.245102 -3.599696
v 18.650185 -86.616760 -6.213405
v 17.086952 -89.444778 -6.330186
v 18.855871 -90.504288 -6.372103
v 20.354879 -91.402145 -6.407625
v 23.579124 -89.103226 -6.311206
v 21.822754 -92.281342 -6.442408
v 23.177696 -93.092896 -6.474516
v 7.680359 -87.178467 -0.169783
v 9.247068 -88.289505 -0.215464
v 3.406279 -84.147507 -0.045163
v 6.279524 -86.185074 -0.128939
v 4.842902 -85.166290 -0.087051
v 11.219669 -86.058365 -3.473621
v 12.563044 -86.862991 -3.505455
v 12.134554 -90.138260 -3.670077
v 13.334209 -90.988998 -3.705056
v 14.745707 -91.989960 -3.746211
v 15.280012 -92.208588 -6.477730
v 16.961838 -93.401260 -6.526766
v 18.387043 -94.411942 -6.568321
v 19.782652 -95.401642 -6.609014
v 6.074514 -89.264297 -0.304171
v 7.548122 -90.495819 -0.357664
v 2.054413 -85.904602 -0.158240
v 4.756920 -88.163147 -0.256341
v 3.405666 -87.033875 -0.207292
v 9.687206 -88.402725 -3.598720
v 10.964439 -89.308487 -3.635960
v 10.279886 -92.545837 -3.825342
v 11.408255 -93.488846 -3.866301
v 12.735876 -94.598358 -3.914493
v 13.251211 -94.841293 -6.647604
v 14.833099 -96.163315 -6.705026
v 16.173613 -97.283615 -6.753685
v 17.486292 -98.380646 -6.801335
v 18.697968 -99.393280 -6.845320
v 4.335176 -91.176697 -0.443893
v 5.707218 -92.520096 -0.505582
v 0.592156 -87.511795 -0.275601
v 3.108396 -89.975525 -0.388734
v 1.850276 -88.743652 -0.332167
v 7.977968 -90.622070 -3.741782
v 9.179304 -91.626053 -3.785391
v 8.260372 -94.766525 -3.987662
v 9.310966 -95.795197 -4.034900
v 10.547085 -97.005508 -4.090477
v 11.034697 -97.278702 -6.825813
v 12.507553 -98.720825 -6.892036
v 13.755674 -99.942902 -6.948153
v 14.977879 -101.139603 -7.003106
v 2.496958 -92.909729 -0.576887
v 3.761950 -94.354034 -0.646338
v -0.954027 -88.969559 -0.387417
v 1.365892 -91.618332 -0.514788
v 0.205932 -90.293945 -0.451102
v 6.117109 -92.667984 -3.891298
v 4.171904 -94.565826 -4.035959
v 7.235647 -93.763184 -3.941589
v 5.203170 -95.743271 -4.092578
v 6.117105 -96.786758 -4.142756
v 7.085732 -97.892685 -4.195934
v 8.225405 -99.193909 -4.258505
v 8.675941 -99.501816 -6.996513
v 10.033884 -101.052231 -7.071069
v 11.184626 -102.366089 -7.134248
v 12.311468 -103.652664 -7.196114
v 13.351612 -104.840256 -7.253222
v 0.582302 -94.461288 -0.692270
v 1.737070 -95.994827 -0.768394
v -2.567982 -90.277664 -0.484601
v -0.450208 -93.090103 -0.624207
v -1.509094 -91.683884 -0.554402
v 2.102294 -96.242569 -4.160691
v 3.043701 -97.492767 -4.222748
v 3.878000 -98.600723 -4.277746
v 4.762227 -99.774994 -4.336035
v 5.802596 -101.156616 -4.404618
v 6.206614 -101.501953 -7.145415
v 7.446234 -103.148178 -7.227133
v 8.496704 -104.543213 -7.296381
v 9.525362 -105.909286 -7.364190
v -1.393647 -95.835571 -0.781519
v -0.350645 -97.446960 -0.862725
v -4.239022 -91.439575 -0.559988
v -2.326221 -94.394775 -0.708912
v -3.282622 -92.917175 -0.634450
v -0.040906 -97.733170 -4.257514
v 0.809382 -99.046829 -4.323715
v 1.562933 -100.211029 -4.382384
v 2.361577 -101.444916 -4.444564
v 3.301250 -102.896667 -4.517724
v 3.649939 -103.280396 -7.261015
v 4.769577 -105.010193 -7.348186
v 5.718376 -106.476044 -7.422057
v 6.647470 -107.911469 -7.494393
v 7.505081 -109.236450 -7.561164
v -3.420663 -97.047943 -0.839018
v -2.490336 -98.726761 -0.923447
v -4.252492 -95.546875 -0.763529
v -2.244647 -99.051132 -4.320043
v -1.486215 -100.419769 -4.388871
v -0.814071 -101.632675 -4.449869
v -0.101704 -102.918167 -4.514518
v 0.736457 -104.430664 -4.590582
v 1.022829 -104.851562 -7.335633
v 2.021513 -106.653732 -7.426266
v 2.867813 -108.180908 -7.503068
v 3.696538 -109.676392 -7.578277
v 4.461501 -111.056793 -7.647697
v -4.504263 -100.205261 -4.344255
v -3.838256 -101.621109 -4.414085
v -3.248023 -102.875870 -4.475972
v -2.622468 -104.205734 -4.541559
v -1.886450 -105.770432 -4.618731
v -1.667202 -106.225571 -7.364498
v -0.790221 -108.089935 -7.456448
v -0.047055 -109.669830 -7.534368
v 0.680678 -111.216919 -7.610671
v -5.201704 -105.318466 -4.524343
v -4.418408 -107.412537 -7.346142
v -3.664220 -109.329910 -7.437279
v -3.025109 -110.954712 -7.514507
v -2.399271 -112.545776 -7.590133
v -5.062336 -115.173904 -7.586635
v -5.739670 -103.950790 -4.459334
v -4.568740 -106.927643 -4.600830
v -6.601331 -110.380737 -7.370856
v -6.067536 -112.043228 -7.445699
v -5.544828 -113.671204 -7.518987
vt -95.2303 -16.6615
vt -97.7626 -14.3876
vt -97.4650 -16.9362
vt -93.2326 -16.4159
vt -95.5222 -14.1587
vt -99.0233 -16.8430
vt -101.1757 -14.4432
vt -100.8684 -17.0698
vt -102.8707 -14.6164
vt -102.5591 -17.2776
vt -104.6088 -14.7939
vt -104.2927 -17.4907
vt -106.6542 -15.0029
vt -106.3328 -17.7414
vt -107.9543 -17.7060
vt -110.7434 -15.1790
vt -110.4107 -18.0079
vt -112.8309 -15.3922
vt -112.4927 -18.2637
vt -114.8753 -15.6010
vt -114.5319 -18.5144
vt -116.7630 -15.7938
vt -116.4146 -18.7458
vt -94.8787 -19.2014
vt -97.1056 -19.5298
vt -92.8880 -18.9080
vt -90.8469 -18.6070
vt -98.6585 -19.4745
vt -100.4971 -19.7456
vt -102.1818 -19.9939
vt -103.9093 -20.2486
vt -105.9422 -20.5483
vt -107.5580 -20.5522
vt -110.0056 -20.9130
vt -112.0803 -21.2188
vt -114.1123 -21.5183
vt -115.9883 -21.7949
vt -88.8061 -18.3062
vt -91.1843 -16.1641
vt -94.4506 -21.7827
vt -96.6667 -22.1740
vt -92.4695 -21.4329
vt -90.4382 -21.0742
vt -98.2135 -22.1546
vt -100.0432 -22.4777
vt -101.7197 -22.7737
vt -103.4388 -23.0773
vt -105.4619 -23.4345
vt -107.0710 -23.4774
vt -109.5067 -23.9075
vt -111.5713 -24.2720
vt -113.5933 -24.6290
vt -115.4601 -24.9586
vt -88.4073 -20.7155
vt -93.9329 -24.4049
vt -96.1343 -24.8696
vt -91.9649 -23.9895
vt -89.9470 -23.5636
vt -97.6742 -24.8842
vt -99.4918 -25.2678
vt -101.1572 -25.6193
vt -102.8649 -25.9797
vt -104.8745 -26.4038
vt -106.4757 -26.4859
vt -108.8952 -26.9965
vt -110.9460 -27.4293
vt -112.9546 -27.8532
vt -114.8090 -28.2446
vt -87.9295 -23.1378
vt -93.3122 -27.0656
vt -95.4938 -27.6145
vt -91.3620 -26.5749
vt -89.3623 -26.0716
vt -97.0261 -27.6617
vt -98.8273 -28.1150
vt -100.4777 -28.5302
vt -102.1700 -28.9560
vt -104.1615 -29.4571
vt -105.7534 -29.5787
vt -108.1511 -30.1820
vt -110.1834 -30.6933
vt -112.1739 -31.1941
vt -114.0115 -31.6565
vt -87.3629 -25.5685
vt -92.5694 -29.7621
vt -94.7244 -30.4074
vt -90.6430 -29.1852
vt -88.6677 -28.5936
vt -96.2480 -30.4860
vt -98.0273 -31.0187
vt -99.6575 -31.5069
vt -101.3292 -32.0075
vt -103.2963 -32.5965
vt -104.8771 -32.7585
vt -107.2456 -33.4677
vt -109.2531 -34.0688
vt -111.2193 -34.6576
vt -113.0345 -35.2011
vt -86.6927 -28.0022
vt -91.6828 -32.4874
vt -93.8023 -33.2419
vt -89.7880 -31.8130
vt -87.8453 -31.1214
vt -95.3160 -33.3513
vt -97.0658 -33.9743
vt -98.6693 -34.5450
vt -100.3135 -35.1302
vt -102.2483 -35.8189
vt -103.8155 -36.0229
vt -106.1451 -36.8520
vt -108.1196 -37.5548
vt -110.0535 -38.2432
vt -111.8389 -38.8786
vt -85.9030 -30.4299
vt -90.6292 -35.2280
vt -92.7020 -36.1045
vt -88.7764 -34.4445
vt -86.8765 -33.6412
vt -94.2039 -36.2452
vt -95.9152 -36.9688
vt -97.4834 -37.6318
vt -99.0913 -38.3118
vt -100.9835 -39.1118
vt -102.5341 -39.3599
vt -104.8124 -40.3232
vt -106.7436 -41.1397
vt -108.6349 -41.9394
vt -110.3812 -42.6777
vt -84.9771 -32.8380
vt -89.3809 -37.9596
vt -91.3929 -38.9702
vt -87.5823 -37.0562
vt -85.7383 -36.1299
vt -92.8802 -39.1438
vt -94.5414 -39.9783
vt -96.0637 -40.7428
vt -97.6246 -41.5268
vt -99.4616 -42.4495
vt -100.9911 -42.7450
vt -103.2029 -43.8558
vt -105.0777 -44.7974
vt -106.9140 -45.7197
vt -108.6095 -46.5712
vt -83.8946 -35.2038
vt -89.8583 -41.7979
vt -87.9230 -40.6442
vt -86.1930 -39.6128
vt -84.4192 -38.5555
vt -92.9245 -42.9603
vt -91.3265 -42.0077
vt -94.3889 -43.8332
vt -95.8906 -44.7284
vt -97.6579 -45.7818
vt -101.2882 -47.3971
vt -99.1602 -46.1287
vt -103.0922 -48.4723
vt -104.8590 -49.5254
vt -106.4904 -50.4977
vt -82.6459 -37.4984
vt -86.2635 -43.2340
vt -88.1064 -44.5338
vt -84.6162 -42.0722
vt -82.9273 -40.8811
vt -89.5487 -44.7850
vt -91.0706 -45.8582
vt -92.4651 -46.8417
vt -93.8954 -47.8503
vt -95.5785 -49.0373
vt -97.0457 -49.4403
vt -99.0728 -50.8696
vt -100.7910 -52.0813
vt -102.4742 -53.2681
vt -104.0282 -54.3639
vt -81.2389 -39.6903
vt -84.4214 -45.6764
vt -86.1581 -47.1185
vt -82.8691 -44.3875
vt -81.2777 -43.0662
vt -87.5648 -47.4176
vt -88.9991 -48.6084
vt -90.3135 -49.6996
vt -91.6615 -50.8188
vt -93.2481 -52.1360
vt -94.6702 -52.6001
vt -96.5810 -54.1863
vt -98.2009 -55.5311
vt -99.7877 -56.8483
vt -101.2529 -58.0648
vt -79.6869 -41.7453
vt -84.0432 -49.4932
vt -82.4227 -47.9187
vt -80.9744 -46.5114
vt -79.4897 -45.0688
vt -86.7394 -51.1482
vt -85.4010 -49.8478
vt -87.9660 -52.3399
vt -89.2240 -53.5621
vt -90.7048 -55.0006
vt -93.8528 -57.2632
vt -92.0693 -55.5307
vt -95.3649 -58.7321
vt -96.8462 -60.1710
vt -98.2140 -61.4997
vt -78.0056 -43.6268
vt -80.3046 -49.9529
vt -81.8021 -51.6472
vt -78.9664 -48.4386
vt -77.5946 -46.8864
vt -83.1335 -52.1051
vt -84.3704 -53.5044
vt -85.4670 -54.7451
vt -86.6298 -56.0604
vt -87.9984 -57.6088
vt -90.9409 -60.0726
vt -89.2923 -58.2077
vt -92.3387 -61.6537
vt -93.7082 -63.2028
vt -94.9727 -64.6333
vt -76.2235 -45.3350
vt -78.0910 -51.7756
vt -79.4610 -53.5760
vt -76.8666 -50.1666
vt -75.6117 -48.5173
vt -80.7112 -54.1011
vt -81.8430 -55.5882
vt -82.8465 -56.9067
vt -83.9104 -58.3047
vt -85.1627 -59.9503
vt -86.3734 -60.6188
vt -87.8821 -62.6010
vt -89.1614 -64.2817
vt -90.4148 -65.9284
vt -91.5723 -67.4490
vt -74.3574 -46.8689
vt -77.0378 -55.2834
vt -75.7977 -53.3904
vt -74.6896 -51.6987
vt -73.5538 -49.9647
vt -79.2173 -57.4397
vt -78.1928 -55.8760
vt -80.1256 -58.8261
vt -81.0887 -60.2962
vt -82.2226 -62.0267
vt -84.7037 -64.8477
vt -83.3377 -62.7631
vt -85.8620 -66.6153
vt -86.9968 -68.3471
vt -88.0448 -69.9466
vt -72.4185 -48.2317
vt -74.5446 -56.7875
vt -73.4363 -54.8143
vt -72.4459 -53.0511
vt -76.5086 -59.0744
vt -75.5929 -57.4445
vt -77.3205 -60.5196
vt -78.1814 -62.0519
vt -79.1948 -63.8558
vt -81.4259 -66.8291
vt -80.2048 -64.6560
vt -82.4613 -68.6717
vt -83.4757 -70.4772
vt -84.4126 -72.1446
vt -73.7229 -60.5025
vt -72.9173 -58.8159
vt -74.4372 -61.9978
vt -75.1946 -63.5835
vt -76.0862 -65.4501
vt -78.0583 -68.5567
vt -76.9839 -66.3080
vt -78.9692 -70.4635
vt -79.8618 -72.3318
vt -80.6861 -74.0573
vt -72.1283 -64.9029
vt -71.4757 -63.2721
vt -72.8964 -66.8225
vt -74.6040 -70.0426
vt -73.6785 -67.7301
vt -75.3888 -72.0035
vt -76.1577 -73.9249
vt -76.8678 -75.6993
vt -71.7210 -73.3007
vt -71.0644 -71.2949
vt -72.3644 -75.2658
vt -72.9586 -77.0807
vt -93.5193 -13.9541
vt -99.3258 -14.2543
vt -108.2807 -14.9274
vt -89.1364 -15.9124
vn -0.0179 -0.0153 -0.9997
vn -0.0180 -0.0161 -0.9997
vn -0.0178 -0.0151 -0.9997
vn -0.0176 -0.0131 -0.9998
vn -0.0178 -0.0146 -0.9997
vn -0.0170 -0.0095 -0.9998
vn -0.0160 -0.0047 -0.9999
vn -0.0160 -0.0046 -0.9999
vn -0.0146 0.0014 -0.9999
vn -0.0146 0.0013 -0.9999
vn -0.0126 0.0086 -0.9999
vn -0.0099 0.0169 -0.9998
vn -0.0098 0.0169 -0.9998
vn -0.0098 0.0170 -0.9998
vn -0.0062 0.0262 -0.9996
vn -0.0017 0.0360 -0.9994
vn 0.0034 0.0451 -0.9990
vn 0.0083 0.0528 -0.9986
vn 0.0083 0.0527 -0.9986
vn 0.0124 0.0581 -0.9982
vn 0.0123 0.0581 -0.9982
vn 0.0124 0.0582 -0.9982
vn 0.0144 0.0605 -0.9981
vn 0.0144 0.0606 -0.9981
vn 0.0136 0.0599 -0.9981
vn 0.0097 0.0569 -0.9983
vn 0.0097 0.0568 -0.9983
vn 0.0029 0.0522 -0.9986
vn 0.0028 0.0522 -0.9986
vn 0.0042 0.0530 -0.9986
vn 0.0069 0.0548 -0.9985
vn -0.0013 0.0495 -0.9988
vn -0.0065 0.0467 -0.9989
vn -0.0064 0.0467 -0.9989
vn -0.0117 0.0438 -0.9990
vn -0.0156 0.0420 -0.9990
vn -0.0174 0.0411 -0.9990
vn -0.0232 0.0384 -0.9990
vn -0.0271 0.0368 -0.9990
vn -0.0290 0.0361 -0.9989
vn -0.0347 0.0338 -0.9988
s 1
f 18/1/1 8/2/2 19/3/1
f 21/4/3 7/5/2 18/1/1
f 38/6/1 24/7/2 39/8/1
f 39/8/1 10/9/2 25/10/1
f 25/10/1 11/11/2 26/12/1
f 26/12/1 12/13/2 27/14/1
f 28/15/1 14/16/2 29/17/1
f 29/17/1 15/18/2 30/19/1
f 30/19/1 16/20/2 31/21/1
f 31/21/1 17/22/2 32/23/1
f 33/24/4 19/3/1 34/25/4
f 36/26/4 18/1/1 33/24/4
f 37/27/4 21/4/3 36/26/4
f 52/28/4 39/8/1 53/29/4
f 53/29/4 25/10/1 40/30/4
f 40/30/4 26/12/1 41/31/4
f 41/31/4 27/14/1 42/32/4
f 43/33/4 29/17/1 44/34/4
f 44/34/4 30/19/1 45/35/4
f 45/35/4 31/21/1 46/36/4
f 46/36/4 32/23/1 1/37/4
f 35/38/4 22/39/5 37/27/4
f 47/40/6 34/25/4 48/41/6
f 50/42/6 33/24/4 47/40/6
f 51/43/6 36/26/4 50/42/6
f 66/44/6 53/29/4 67/45/6
f 67/45/6 40/30/4 54/46/6
f 54/46/6 41/31/4 55/47/6
f 55/47/6 42/32/4 56/48/6
f 57/49/6 44/34/4 58/50/6
f 58/50/6 45/35/4 59/51/6
f 59/51/6 46/36/4 60/52/6
f 60/52/6 1/37/4 2/53/6
f 49/54/6 37/27/4 51/43/6
f 61/55/7 48/41/6 62/56/7
f 64/57/7 47/40/6 61/55/7
f 65/58/7 50/42/6 64/57/7
f 80/59/8 67/45/6 81/60/8
f 81/60/8 54/46/6 68/61/8
f 68/61/8 55/47/6 69/62/8
f 69/62/8 56/48/6 70/63/8
f 71/64/8 58/50/6 72/65/8
f 72/65/8 59/51/6 73/66/8
f 73/66/8 60/52/6 74/67/8
f 74/67/8 2/53/6 3/68/8
f 63/69/7 51/43/6 65/58/7
f 75/70/9 62/56/7 76/71/9
f 78/72/9 61/55/7 75/70/9
f 79/73/10 64/57/7 78/72/9
f 95/74/9 81/60/8 96/75/9
f 96/75/9 68/61/8 82/76/9
f 82/76/9 69/62/8 83/77/9
f 83/77/9 70/63/8 84/78/9
f 85/79/9 72/65/8 86/80/9
f 86/80/9 73/66/8 87/81/9
f 87/81/9 74/67/8 88/82/9
f 88/82/9 3/68/8 89/83/9
f 77/84/10 65/58/7 79/73/10
f 90/85/11 76/71/9 91/86/11
f 93/87/11 75/70/9 90/85/11
f 94/88/11 78/72/9 93/87/11
f 109/89/11 96/75/9 110/90/11
f 110/90/11 82/76/9 97/91/11
f 97/91/11 83/77/9 98/92/11
f 98/92/11 84/78/9 99/93/11
f 100/94/11 86/80/9 101/95/11
f 101/95/11 87/81/9 102/96/11
f 102/96/11 88/82/9 103/97/11
f 103/97/11 89/83/9 4/98/11
f 92/99/11 79/73/10 94/88/11
f 104/100/12 91/86/11 105/101/12
f 107/102/12 90/85/11 104/100/12
f 108/103/12 93/87/11 107/102/12
f 124/104/12 110/90/11 125/105/12
f 125/105/12 97/91/11 111/106/12
f 111/106/12 98/92/11 112/107/12
f 112/107/12 99/93/11 113/108/12
f 114/109/13 101/95/11 115/110/13
f 115/110/13 102/96/11 116/111/13
f 116/111/13 103/97/11 117/112/14
f 117/112/14 4/98/11 118/113/14
f 106/114/12 94/88/11 108/103/12
f 119/115/15 105/101/12 120/116/15
f 122/117/15 104/100/12 119/115/15
f 123/118/15 107/102/12 122/117/15
f 136/119/15 125/105/12 137/120/15
f 137/120/15 111/106/12 126/121/15
f 126/121/15 112/107/12 127/122/15
f 127/122/15 113/108/12 128/123/15
f 129/124/15 115/110/13 130/125/15
f 130/125/15 116/111/13 131/126/15
f 131/126/15 117/112/14 132/127/15
f 132/127/15 118/113/14 5/128/15
f 121/129/15 108/103/12 123/118/15
f 133/130/16 120/116/15 147/131/16
f 134/132/16 119/115/15 133/130/16
f 135/133/16 122/117/15 134/132/16
f 153/134/16 137/120/15 154/135/16
f 154/135/16 126/121/15 155/136/16
f 155/136/16 127/122/15 138/137/16
f 138/137/16 128/123/15 158/138/16
f 160/139/16 130/125/15 139/140/16
f 139/140/16 131/126/15 140/141/16
f 140/141/16 132/127/15 164/142/16
f 164/142/16 5/128/15 6/143/16
f 150/144/16 123/118/15 135/133/16
f 133/130/16 148/145/17 146/146/17
f 134/132/16 146/146/17 151/147/17
f 135/133/16 151/147/17 152/148/17
f 153/134/16 173/149/17 172/150/17
f 154/135/16 156/151/17 173/149/17
f 155/136/16 157/152/17 156/151/17
f 138/137/16 159/153/17 157/152/17
f 160/139/16 162/154/17 161/155/17
f 139/140/16 163/156/17 162/154/17
f 140/141/16 165/157/17 163/156/17
f 164/142/16 166/158/17 165/157/17
f 150/144/16 152/148/17 149/159/17
f 167/160/18 148/145/17 168/161/18
f 170/162/19 146/146/17 167/160/18
f 171/163/19 151/147/17 170/162/19
f 186/164/18 173/149/17 187/165/18
f 187/165/18 156/151/17 174/166/18
f 174/166/18 157/152/17 175/167/18
f 175/167/18 159/153/17 176/168/18
f 177/169/18 162/154/17 178/170/18
f 178/170/18 163/156/17 179/171/18
f 179/171/18 165/157/17 180/172/18
f 180/172/18 166/158/17 141/173/18
f 169/174/19 152/148/17 171/163/19
f 181/175/20 168/161/18 182/176/20
f 184/177/21 167/160/18 181/175/20
f 185/178/21 170/162/19 184/177/21
f 201/179/22 187/165/18 202/180/22
f 202/180/22 174/166/18 188/181/22
f 188/181/22 175/167/18 189/182/22
f 189/182/22 176/168/18 190/183/22
f 191/184/22 178/170/18 192/185/22
f 192/185/22 179/171/18 193/186/22
f 193/186/22 180/172/18 194/187/22
f 194/187/22 141/173/18 195/188/22
f 183/189/21 171/163/19 185/178/21
f 181/175/20 197/190/23 196/191/23
f 184/177/21 196/191/23 199/192/23
f 185/178/21 199/192/23 200/193/23
f 201/179/22 217/194/24 215/195/23
f 202/180/22 203/196/24 217/194/24
f 188/181/22 204/197/24 203/196/24
f 189/182/22 205/198/24 204/197/24
f 191/184/22 207/199/24 206/200/24
f 192/185/22 208/201/24 207/199/24
f 193/186/22 209/202/24 208/201/24
f 194/187/22 142/203/24 209/202/24
f 183/189/21 200/193/23 198/204/23
f 210/205/25 197/190/23 211/206/25
f 213/207/25 196/191/23 210/205/25
f 214/208/25 199/192/23 213/207/25
f 216/209/25 217/194/24 218/210/25
f 218/210/25 203/196/24 219/211/25
f 219/211/25 204/197/24 220/212/25
f 220/212/25 205/198/24 221/213/25
f 206/200/24 223/214/25 222/215/25
f 207/199/24 224/216/25 223/214/25
f 208/201/24 225/217/25 224/216/25
f 209/202/24 226/218/25 225/217/25
f 212/219/25 200/193/23 214/208/25
f 227/220/26 211/206/25 228/221/26
f 230/222/26 210/205/25 227/220/26
f 231/223/27 213/207/25 230/222/26
f 232/224/26 218/210/25 233/225/26
f 233/225/26 219/211/25 234/226/26
f 234/226/26 220/212/25 235/227/26
f 235/227/26 221/213/25 236/228/26
f 237/229/26 223/214/25 238/230/26
f 238/230/26 224/216/25 239/231/26
f 239/231/26 225/217/25 240/232/26
f 240/232/26 226/218/25 143/233/26
f 229/234/27 214/208/25 231/223/27
f 227/220/26 242/235/28 241/236/29
f 230/222/26 241/236/29 244/237/30
f 231/223/27 244/237/30 245/238/31
f 232/224/26 247/239/28 246/240/28
f 233/225/26 248/241/28 247/239/28
f 234/226/26 249/242/28 248/241/28
f 235/227/26 250/243/28 249/242/28
f 237/229/26 252/244/28 251/245/28
f 238/230/26 253/246/28 252/244/28
f 239/231/26 254/247/28 253/246/28
f 240/232/26 255/248/28 254/247/28
f 229/234/27 245/238/31 243/249/31
f 241/236/29 257/250/32 256/251/32
f 244/237/30 256/251/32 258/252/32
f 246/240/28 260/253/33 259/254/33
f 247/239/28 261/255/33 260/253/33
f 248/241/28 262/256/33 261/255/33
f 249/242/28 263/257/33 262/256/33
f 251/245/28 265/258/34 264/259/34
f 252/244/28 266/260/34 265/258/34
f 253/246/28 267/261/34 266/260/34
f 254/247/28 268/262/34 267/261/34
f 259/254/33 270/263/35 269/264/35
f 260/253/33 271/265/36 270/263/35
f 261/255/33 272/266/37 271/265/36
f 262/256/33 273/267/37 272/266/37
f 264/259/34 275/268/37 274/269/37
f 265/258/34 276/270/37 275/268/37
f 266/260/34 277/271/37 276/270/37
f 267/261/34 144/272/37 277/271/37
f 271/265/36 278/273/38 284/274/38
f 272/266/37 285/275/38 278/273/38
f 274/269/37 280/276/39 279/277/38
f 275/268/37 281/278/40 280/276/39
f 276/270/37 282/279/40 281/278/40
f 277/271/37 145/280/40 282/279/40
f 280/276/39 287/281/41 286/282/41
f 281/278/40 288/283/41 287/281/41
f 282/279/40 283/284/41 288/283/41
f 18/1/1 7/5/2 8/2/2
f 21/4/3 9/285/2 7/5/2
f 38/6/1 23/286/2 24/7/2
f 39/8/1 24/7/2 10/9/2
f 25/10/1 10/9/2 11/11/2
f 26/12/1 11/11/2 12/13/2
f 28/15/1 13/287/2 14/16/2
f 29/17/1 14/16/2 15/18/2
f 30/19/1 15/18/2 16/20/2
f 31/21/1 16/20/2 17/22/2
f 33/24/4 18/1/1 19/3/1
f 36/26/4 21/4/3 18/1/1
f 37/27/4 22/39/5 21/4/3
f 52/28/4 38/6/1 39/8/1
f 53/29/4 39/8/1 25/10/1
f 40/30/4 25/10/1 26/12/1
f 41/31/4 26/12/1 27/14/1
f 43/33/4 28/15/1 29/17/1
f 44/34/4 29/17/1 30/19/1
f 45/35/4 30/19/1 31/21/1
f 46/36/4 31/21/1 32/23/1
f 35/38/4 20/288/5 22/39/5
f 47/40/6 33/24/4 34/25/4
f 50/42/6 36/26/4 33/24/4
f 51/43/6 37/27/4 36/26/4
f 66/44/6 52/28/4 53/29/4
f 67/45/6 53/29/4 40/30/4
f 54/46/6 40/30/4 41/31/4
f 55/47/6 41/31/4 42/32/4
f 57/49/6 43/33/4 44/34/4
f 58/50/6 44/34/4 45/35/4
f 59/51/6 45/35/4 46/36/4
f 60/52/6 46/36/4 1/37/4
f 49/54/6 35/38/4 37/27/4
f 61/55/7 47/40/6 48/41/6
f 64/57/7 50/42/6 47/40/6
f 65/58/7 51/43/6 50/42/6
f 80/59/8 66/44/6 67/45/6
f 81/60/8 67/45/6 54/46/6
f 68/61/8 54/46/6 55/47/6
f 69/62/8 55/47/6 56/48/6
f 71/64/8 57/49/6 58/50/6
f 72/65/8 58/50/6 59/51/6
f 73/66/8 59/51/6 60/52/6
f 74/67/8 60/52/6 2/53/6
f 63/69/7 49/54/6 51/43/6
f 75/70/9 61/55/7 62/56/7
f 78/72/9 64/57/7 61/55/7
f 79/73/10 65/58/7 64/57/7
f 95/74/9 80/59/8 81/60/8
f 96/75/9 81/60/8 68/61/8
f 82/76/9 68/61/8 69/62/8
f 83/77/9 69/62/8 70/63/8
f 85/79/9 71/64/8 72/65/8
f 86/80/9 72/65/8 73/66/8
f 87/81/9 73/66/8 74/67/8
f 88/82/9 74/67/8 3/68/8
f 77/84/10 63/69/7 65/58/7
f 90/85/11 75/70/9 76/71/9
f 93/87/11 78/72/9 75/70/9
f 94/88/11 79/73/10 78/72/9
f 109/89/11 95/74/9 96/75/9
f 110/90/11 96/75/9 82/76/9
f 97/91/11 82/76/9 83/77/9
f 98/92/11 83/77/9 84/78/9
f 100/94/11 85/79/9 86/80/9
f 101/95/11 86/80/9 87/81/9
f 102/96/11 87/81/9 88/82/9
f 103/97/11 88/82/9 89/83/9
f 92/99/11 77/84/10 79/73/10
f 104/100/12 90/85/11 91/86/11
f 107/102/12 93/87/11 90/85/11
f 108/103/12 94/88/11 93/87/11
f 124/104/12 109/89/11 110/90/11
f 125/105/12 110/90/11 97/91/11
f 111/106/12 97/91/11 98/92/11
f 112/107/12 98/92/11 99/93/11
f 114/109/13 100/94/11 101/95/11
f 115/110/13 101/95/11 102/96/11
f 116/111/13 102/96/11 103/97/11
f 117/112/14 103/97/11 4/98/11
f 106/114/12 92/99/11 94/88/11
f 119/115/15 104/100/12 105/101/12
f 122/117/15 107/102/12 104/100/12
f 123/118/15 108/103/12 107/102/12
f 136/119/15 124/104/12 125/105/12
f 137/120/15 125/105/12 111/106/12
f 126/121/15 111/106/12 112/107/12
f 127/122/15 112/107/12 113/108/12
f 129/124/15 114/109/13 115/110/13
f 130/125/15 115/110/13 116/111/13
f 131/126/15 116/111/13 117/112/14
f 132/127/15 117/112/14 118/113/14
f 121/129/15 106/114/12 108/103/12
f 133/130/16 119/115/15 120/116/15
f 134/132/16 122/117/15 119/115/15
f 135/133/16 123/118/15 122/117/15
f 153/134/16 136/119/15 137/120/15
f 154/135/16 137/120/15 126/121/15
f 155/136/16 126/121/15 127/122/15
f 138/137/16 127/122/15 128/123/15
f 160/139/16 129/124/15 130/125/15
f 139/140/16 130/125/15 131/126/15
f 140/141/16 131/126/15 132/127/15
f 164/142/16 132/127/15 5/128/15
f 150/144/16 121/129/15 123/118/15
f 133/130/16 147/131/16 148/145/17
f 134/132/16 133/130/16 146/146/17
f 135/133/16 134/132/16 151/147/17
f 153/134/16 154/135/16 173/149/17
f 154/135/16 155/136/16 156/151/17
f 155/136/16 138/137/16 157/152/17
f 138/137/16 158/138/16 159/153/17
f 160/139/16 139/140/16 162/154/17
f 139/140/16 140/141/16 163/156/17
f 140/141/16 164/142/16 165/157/17
f 164/142/16 6/143/16 166/158/17
f 150/144/16 135/133/16 152/148/17
f 167/160/18 146/146/17 148/145/17
f 170/162/19 151/147/17 146/146/17
f 171/163/19 152/148/17 151/147/17
f 186/164/18 172/150/17 173/149/17
f 187/165/18 173/149/17 156/151/17
f 174/166/18 156/151/17 157/152/17
f 175/167/18 157/152/17 159/153/17
f 177/169/18 161/155/17 162/154/17
f 178/170/18 162/154/17 163/156/17
f 179/171/18 163/156/17 165/157/17
f 180/172/18 165/157/17 166/158/17
f 169/174/19 149/159/17 152/148/17
f 181/175/20 167/160/18 168/161/18
f 184/177/21 170/162/19 167/160/18
f 185/178/21 171/163/19 170/162/19
f 201/179/22 186/164/18 187/165/18
f 202/180/22 187/165/18 174/166/18
f 188/181/22 174/166/18 175/167/18
f 189/182/22 175/167/18 176/168/18
f 191/184/22 177/169/18 178/170/18
f 192/185/22 178/170/18 179/171/18
f 193/186/22 179/171/18 180/172/18
f 194/187/22 180/172/18 141/173/18
f 183/189/21 169/174/19 171/163/19
f 181/175/20 182/176/20 197/190/23
f 184/177/21 181/175/20 196/191/23
f 185/178/21 184/177/21 199/192/23
f 201/179/22 202/180/22 217/194/24
f 202/180/22 188/181/22 203/196/24
f 188/181/22 189/182/22 204/197/24
f 189/182/22 190/183/22 205/198/24
f 191/184/22 192/185/22 207/199/24
f 192/185/22 193/186/22 208/201/24
f 193/186/22 194/187/22 209/202/24
f 194/187/22 195/188/22 142/203/24
f 183/189/21 185/178/21 200/193/23
f 210/205/25 196/191/23 197/190/23
f 213/207/25 199/192/23 196/191/23
f 214/208/25 200/193/23 199/192/23
f 216/209/25 215/195/23 217/194/24
f 218/210/25 217/194/24 203/196/24
f 219/211/25 203/196/24 204/197/24
f 220/212/25 204/197/24 205/198/24
f 206/200/24 207/199/24 223/214/25
f 207/199/24 208/201/24 224/216/25
f 208/201/24 209/202/24 225/217/25
f 209/202/24 142/203/24 226/218/25
f 212/219/25 198/204/23 200/193/23
f 227/220/26 210/205/25 211/206/25
f 230/222/26 213/207/25 210/205/25
f 231/223/27 214/208/25 213/207/25
f 232/224/26 216/209/25 218/210/25
f 233/225/26 218/210/25 219/211/25
f 234/226/26 219/211/25 220/212/25
f 235/227/26 220/212/25 221/213/25
f 237/229/26 222/215/25 223/214/25
f 238/230/26 223/214/25 224/216/25
f 239/231/26 224/216/25 225/217/25
f 240/232/26 225/217/25 226/218/25
f 229/234/27 212/219/25 214/208/25
f 227/220/26 228/221/26 242/235/28
f 230/222/26 227/220/26 241/236/29
f 231/223/27 230/222/26 244/237/30
f 232/224/26 233/225/26 247/239/28
f 233/225/26 234/226/26 248/241/28
f 234/226/26 235/227/26 249/242/28
f 235/227/26 236/228/26 250/243/28
f 237/229/26 238/230/26 252/244/28
f 238/230/26 239/231/26 253/246/28
f 239/231/26 240/232/26 254/247/28
f 240/232/26 143/233/26 255/248/28
f 229/234/27 231/223/27 245/238/31
f 241/236/29 242/235/28 257/250/32
f 244/237/30 241/236/29 256/251/32
f 246/240/28 247/239/28 260/253/33
f 247/239/28 248/241/28 261/255/33
f 248/241/28 249/242/28 262/256/33
f 249/242/28 250/243/28 263/257/33
f 251/245/28 252/244/28 265/258/34
f 252/244/28 253/246/28 266/260/34
f 253/246/28 254/247/28 267/261/34
f 254/247/28 255/248/28 268/262/34
f 259/254/33 260/253/33 270/263/35
f 260/253/33 261/255/33 271/265/36
f 261/255/33 262/256/33 272/266/37
f 262/256/33 263/257/33 273/267/37
f 264/259/34 265/258/34 275/268/37
f 265/258/34 266/260/34 276/270/37
f 266/260/34 267/261/34 277/271/37
f 267/261/34 268/262/34 144/272/37
f 271/265/36 272/266/37 278/273/38
f 272/266/37 273/267/37 285/275/38
f 274/269/37 275/268/37 280/276/39
f 275/268/37 276/270/37 281/278/40
f 276/270/37 277/271/37 282/279/40
f 277/271/37 144/272/37 145/280/40
f 280/276/39 281/278/40 287/281/41
f 281/278/40 282/279/40 288/283/41
f 282/279/40 145/280/40 283/284/41
