# Blender v2.78 (sub 0) OBJ File: 'vtrack.blend'
# www.blender.org
o grass.005_wall_house_stair_Cube.017
v -80.801605 -25.265705 -3.886528
v -78.396088 -25.582321 -3.946898
v -73.153847 -26.444885 -4.129029
v -70.394180 -27.019772 -4.247515
v -86.900627 -40.915817 2.558124
v -86.685829 -39.006939 2.525004
v -87.486618 -46.123360 2.648476
v -87.092690 -42.622597 2.587736
v -87.289650 -44.372978 2.618106
v -86.329254 -35.578064 -0.910913
v -86.164780 -34.116402 -0.936274
v -85.971260 -32.396629 -0.966112
v -85.929680 -31.817545 -3.696935
v -85.699097 -29.768406 -3.732489
v -85.503700 -28.031937 -3.762617
v -85.312355 -26.331528 -3.792120
v -85.135735 -24.761948 -3.819352
v -84.819008 -41.151096 2.533037
v -84.598991 -39.242813 2.499829
v -85.419220 -46.357010 2.623631
v -85.015724 -42.857342 2.562730
v -85.217468 -44.607178 2.593179
v -86.664795 -38.559914 -0.859178
v -86.489685 -37.003731 -0.886179
v -84.254463 -35.812611 -0.935993
v -84.085991 -34.351402 -0.961419
v -83.887779 -32.632172 -0.991337
v -83.861870 -32.051334 -3.721983
v -83.625687 -30.002834 -3.757632
v -83.425545 -28.266905 -3.787840
v -83.229561 -26.567022 -3.817422
v -83.048653 -24.997934 -3.844724
v -82.679062 -41.405891 2.493449
v -82.441704 -39.499695 2.459894
v -83.326584 -46.606121 2.584991
v -82.891289 -43.110275 2.523453
v -83.108932 -44.858196 2.554222
v -84.598145 -38.793530 -0.884119
v -84.418777 -37.237831 -0.911191
v -82.087982 -36.070648 -0.976149
v -81.906235 -34.611038 -1.001843
v -81.692398 -32.893684 -1.032074
v -81.678925 -32.311394 -3.762498
v -81.424133 -30.265133 -3.798522
v -81.208206 -28.531105 -3.829045
v -80.996773 -26.833080 -3.858936
v -80.484589 -41.694374 2.438611
v -80.217651 -39.792107 2.404286
v -81.212814 -46.883884 2.532253
v -80.723267 -43.395241 2.469303
v -80.968040 -45.139557 2.500779
v -82.458763 -39.048309 -0.923733
v -82.265259 -37.494316 -0.951087
v -79.832558 -36.367283 -1.032597
v -79.628159 -34.910683 -1.058881
v -79.387665 -33.196869 -1.089805
v -79.382751 -32.613487 -3.820027
v -79.096199 -30.571445 -3.856875
v -78.853371 -28.840988 -3.888099
v -78.615585 -27.146465 -3.918675
v -78.242096 -42.032921 2.367919
v -77.933495 -40.136993 2.332253
v -79.083977 -47.205139 2.465221
v -78.518021 -43.728123 2.399812
v -78.801003 -45.466629 2.432518
v -80.249512 -39.338802 -0.978976
v -80.031891 -37.788010 -1.006961
v -77.494080 -36.720490 -1.106395
v -77.257782 -35.268745 -1.133705
v -76.979752 -33.560646 -1.165840
v -76.978729 -32.976715 -3.895948
v -76.647461 -30.941475 -3.934236
v -76.366730 -29.216785 -3.966683
v -76.091827 -27.527908 -3.998453
v -75.838089 -25.968983 -4.027781
v -75.966125 -42.436180 2.282223
v -75.605408 -40.549511 2.244573
v -76.950180 -47.583130 2.384932
v -76.288651 -44.123100 2.315886
v -76.619415 -45.853115 2.350410
v -77.976143 -39.682114 -1.050679
v -77.724564 -38.136490 -1.079756
v -75.090515 -37.146477 -1.196957
v -74.814308 -35.701820 -1.225786
v -74.489326 -34.002060 -1.259706
v -74.487122 -33.418388 -3.989869
v -74.099899 -31.393095 -4.030285
v -73.771759 -29.676826 -4.064534
v -73.450439 -27.996202 -4.098071
v -73.259552 -41.038059 2.143948
v -74.824486 -48.025795 2.293801
v -75.653992 -40.093632 -1.138145
v -75.359924 -38.555557 -1.168838
v -72.653473 -37.654083 -1.301522
v -72.332047 -36.218849 -1.332300
v -71.945740 -33.947788 -4.098940
v -71.495117 -31.935705 -4.142090
v -71.113258 -30.230633 -4.178656
v -67.623825 -27.690411 -4.378026
v -64.905861 -28.443254 -4.514781
v -62.291256 -29.255838 -4.652197
v -57.455929 -30.960707 -4.914179
v -55.251759 -31.810463 -5.034184
v -71.407547 -43.462151 2.077213
v -73.679321 -42.912418 2.184143
v -70.926437 -41.602654 2.034117
v -72.720047 -48.534981 2.194783
v -71.837723 -45.124775 2.115748
v -74.054657 -44.588333 2.220083
v -72.278885 -46.829880 2.155266
v -74.439575 -46.307064 2.256944
v -73.309196 -40.582016 -1.238732
v -72.966980 -39.053970 -1.271502
v -70.221535 -38.242676 -1.416032
v -69.853142 -36.818832 -1.449031
v -71.953857 -34.530182 -1.368517
v -69.419693 -35.143551 -1.487859
v -69.402107 -34.563484 -4.218735
v -68.885643 -32.567352 -4.264998
v -68.447983 -30.875807 -4.304201
v -70.739334 -28.560970 -4.214464
v -68.019424 -29.219383 -4.342591
v -69.174789 -44.080517 1.964932
v -68.634659 -42.237370 1.918861
v -70.648285 -49.108742 2.090622
v -69.657730 -45.728523 2.006130
v -70.153008 -47.418636 2.048375
v -70.973068 -41.147388 -1.348710
v -70.580856 -39.631462 -1.383843
v -67.831619 -38.904610 -1.536238
v -67.418030 -37.493286 -1.571517
v -66.931419 -35.832733 -1.613024
v -66.902275 -35.255898 -4.344485
v -66.322464 -33.277317 -4.393945
v -65.831116 -31.600639 -4.435855
v -65.349976 -29.958782 -4.476896
v -66.999146 -44.756927 1.850611
v -66.406128 -42.930183 1.801756
v -68.616936 -49.740406 1.983891
v -67.529373 -46.390266 1.894295
v -68.073166 -48.065334 1.939094
v -68.675354 -41.783783 -1.464269
v -68.235016 -40.281189 -1.501829
v -65.512863 -39.625431 -1.658092
v -65.058777 -38.226662 -1.695501
v -64.524506 -36.580894 -1.739516
v -64.483170 -36.007851 -4.471620
v -63.846581 -34.046883 -4.524065
v -63.307125 -32.385128 -4.568508
v -62.778866 -30.757881 -4.612027
v -64.887360 -45.476555 1.736796
v -64.249619 -43.665001 1.685528
v -66.627151 -50.418579 1.876654
v -65.457581 -47.096306 1.782635
v -66.042366 -48.757446 1.829644
v -66.439209 -42.478981 -1.581776
v -65.955765 -40.989758 -1.621603
v -63.278290 -40.386787 -1.778530
v -62.789959 -38.999649 -1.817786
v -62.215405 -37.367569 -1.863975
v -62.162334 -36.798531 -4.596711
v -61.477734 -34.853874 -4.651743
v -60.897598 -33.205948 -4.698381
v -60.329502 -31.592234 -4.744050
v -59.805119 -30.102684 -4.786204
v -62.839451 -46.224648 1.625251
v -62.166031 -44.426117 1.572038
v -64.676575 -51.131168 1.770418
v -63.441574 -47.832771 1.672830
v -64.059074 -49.481968 1.721626
v -64.274506 -43.216602 -1.698445
v -63.754597 -41.739765 -1.740241
v -61.130978 -41.171162 -1.895496
v -60.615326 -39.793991 -1.936242
v -60.008621 -38.173634 -1.984182
v -59.945023 -37.608448 -4.717494
v -59.222122 -35.677765 -4.774618
v -58.609524 -34.041672 -4.823024
v -58.009647 -32.439552 -4.870426
v -60.856152 -46.989510 1.517298
v -60.156891 -45.200905 1.462674
v -62.763783 -51.868935 1.666312
v -61.481380 -48.588745 1.566138
v -62.122585 -50.228844 1.616225
v -62.182919 -43.980644 -1.812371
v -61.633926 -42.514416 -1.855752
v -59.074207 -41.964264 -2.007458
v -58.538773 -40.594696 -2.049284
v -57.908783 -38.983292 -2.098495
v -57.836369 -38.421501 -4.832287
v -57.085728 -36.501472 -4.890924
v -56.449623 -34.874416 -4.940614
v -55.826725 -33.281143 -4.989272
v -58.928413 -47.759575 1.413346
v -58.212357 -45.977654 1.357815
v -60.881859 -52.620758 1.564837
v -59.568661 -49.352837 1.462996
v -60.225258 -50.986797 1.513916
v -60.166523 -44.758232 -1.922131
v -59.596458 -43.300102 -1.966663
v -57.097176 -42.753960 -2.114075
v -56.548878 -41.389511 -2.156596
v -55.903759 -39.784126 -2.206625
v -55.824368 -39.225121 -4.940794
v -55.055698 -37.312271 -5.000405
v -54.404316 -35.691292 -5.050922
v -53.766464 -34.103981 -5.100388
v -53.177685 -32.638794 -5.146048
v -57.048847 -48.525242 1.313648
v -56.324463 -46.746708 1.257673
v -59.025009 -53.377201 1.466353
v -57.696537 -50.115479 1.363697
v -58.360775 -51.746338 1.415027
v -58.215725 -45.537483 -2.027329
v -57.631969 -44.084805 -2.072600
v -55.191158 -43.530380 -2.215184
v -54.636486 -42.168526 -2.258045
v -53.983864 -40.566185 -2.308475
v -53.899403 -40.009247 -5.042913
v -53.121792 -38.100029 -5.103004
v -52.462833 -36.482128 -5.153921
v -51.817562 -34.897827 -5.203784
v -51.221935 -33.435421 -5.249810
v -55.213516 -49.277546 1.218569
v -54.489277 -47.498951 1.162597
v -57.189289 -54.129662 1.371264
v -55.861080 -50.867832 1.268615
v -56.525185 -52.498749 1.319941
v -56.322716 -46.308624 -2.127744
v -55.732174 -44.858700 -2.173378
v -53.352406 -44.284088 -2.310450
v -52.797844 -42.922188 -2.353308
v -52.145351 -41.319794 -2.403735
v -52.057846 -40.764103 -5.138335
v -51.280392 -38.854828 -5.198420
v -50.621563 -37.236870 -5.249336
v -49.976418 -35.652519 -5.299197
v -49.380913 -34.190063 -5.345219
v -53.417789 -50.008488 1.128249
v -55.370483 -54.869976 1.279793
v -54.057789 -51.601845 1.177917
v -54.483738 -47.062420 -2.223017
v -53.893311 -45.612450 -2.268648
v -50.294575 -41.481888 -5.227038
v -48.875069 -37.947838 -5.337202
v -47.648911 -34.895149 -5.432362
v -41.635330 -37.167572 -5.710342
v -38.070438 -38.203934 -5.849949
v -51.654175 -50.712723 1.042331
v -52.702011 -48.226460 1.072699
v -50.954350 -48.924347 0.987555
v -53.563347 -55.591534 1.191766
v -52.279907 -52.311760 1.091310
v -52.921631 -53.951645 1.141539
v -54.714134 -53.235912 1.228856
v -52.694092 -47.790901 -2.313035
v -52.110565 -46.338135 -2.358322
v -51.575977 -45.007202 -2.399809
v -49.852211 -45.695583 -2.483796
v -51.027893 -43.642673 -2.442344
v -49.316341 -44.326195 -2.525738
v -50.383022 -42.037186 -2.492392
v -48.685844 -42.714989 -2.575090
v -48.598400 -42.159294 -5.309686
v -49.526199 -39.568916 -5.286669
v -47.847153 -40.239510 -5.368488
v -47.210533 -38.612656 -5.418317
v -48.237461 -36.360428 -5.386685
v -46.587135 -37.019588 -5.467111
v -46.011700 -35.549091 -5.512153
v -49.918774 -51.384510 0.960718
v -49.242199 -49.587177 0.907029
v -51.764511 -56.287762 1.107186
v -50.523716 -52.991558 1.008725
v -51.144112 -54.639660 1.057956
v -50.945408 -48.489204 -2.398228
v -50.374886 -47.031258 -2.442884
v -48.176735 -46.344296 -2.562607
v -47.658669 -44.968044 -2.603717
v -47.049126 -43.348766 -2.652089
v -46.964626 -42.791939 -5.386550
v -46.238342 -40.862541 -5.444184
v -45.622871 -39.227539 -5.493024
v -45.020187 -37.626488 -5.540849
v -44.463871 -36.148628 -5.584997
v -48.209343 -52.017944 0.883403
v -47.563400 -50.209335 0.831092
v -49.971508 -56.951954 1.026113
v -48.786892 -53.635071 0.930177
v -49.379204 -55.293514 0.978146
v -49.233612 -49.151905 -2.478739
v -48.682045 -47.686653 -2.522508
v -46.547577 -46.948185 -2.636314
v -46.052971 -45.563301 -2.676371
v -45.471024 -43.933868 -2.723500
v -45.391479 -43.375221 -5.457737
v -44.698074 -41.433716 -5.513892
v -44.110474 -39.788452 -5.561480
v -43.535080 -38.177361 -5.608079
v -43.003952 -36.690231 -5.651094
v -46.525200 -52.604588 0.810571
v -45.917755 -50.782639 0.759916
v -48.182354 -57.574978 0.948760
v -47.068336 -54.233639 0.855863
v -47.625343 -55.904308 0.902312
v -47.556595 -49.773411 -2.554597
v -47.030006 -48.298969 -2.597244
v -44.965408 -47.499508 -2.704756
v -44.500278 -46.104408 -2.743543
v -43.953011 -44.462959 -2.789178
v -43.880577 -43.901855 -5.523112
v -43.228497 -41.946037 -5.577487
v -42.675915 -40.288643 -5.623568
v -42.134808 -38.665672 -5.668691
v -44.865906 -53.136578 0.742353
v -44.305229 -51.299644 0.693618
v -46.395458 -58.147850 0.875299
v -45.367218 -54.779030 0.785927
v -45.881340 -56.463440 0.830613
v -45.914299 -50.345566 -2.625628
v -45.419090 -48.860249 -2.666923
v -43.430958 -47.991508 -2.767848
v -43.001640 -46.584938 -2.805162
v -42.496513 -44.929985 -2.849067
v -42.433479 -44.365883 -5.582615
v -41.831604 -42.393970 -5.634931
v -41.321571 -40.722946 -5.679260
v -40.822128 -39.086628 -5.722672
v -40.361115 -37.576202 -5.762741
v -43.228802 -53.611572 0.678419
v -42.722744 -51.758797 0.631817
v -44.609360 -58.666069 0.805548
v -43.681282 -55.268188 0.720086
v -44.145321 -56.967129 0.762816
v -44.306786 -50.860973 -2.691721
v -43.849701 -49.363441 -2.731451
v -41.940369 -48.424004 -2.826062
v -41.552872 -47.005295 -2.861744
v -41.096947 -45.336071 -2.903728
v -41.045483 -44.768612 -5.636823
v -40.502239 -42.779697 -5.686849
v -40.041885 -41.094261 -5.729240
v -39.591095 -39.443825 -5.770752
v -39.174988 -37.920372 -5.809068
v -41.611408 -54.026516 0.618581
v -41.167328 -52.157860 0.574271
v -42.822884 -59.124336 0.739460
v -42.008469 -55.697334 0.658199
v -42.415676 -57.410835 0.698831
v -42.730881 -51.318218 -2.753266
v -42.318325 -49.807770 -2.791257
v -40.489830 -48.796204 -2.879730
v -40.149796 -47.365341 -2.913657
v -39.749710 -45.681808 -2.953578
v -39.711842 -45.110867 -5.686171
v -39.235134 -43.104904 -5.733736
v -38.831165 -41.405022 -5.774043
v -38.435581 -39.740440 -5.813514
v -40.011444 -54.378250 0.562737
v -39.636147 -52.494514 0.520823
v -41.035271 -59.517193 0.677074
v -40.347000 -56.062542 0.600211
v -40.691139 -57.789867 0.638643
v -41.183525 -51.715221 -2.810514
v -40.821495 -50.191830 -2.846637
v -39.075485 -49.107258 -2.929105
v -38.788116 -47.664852 -2.961198
v -38.449997 -45.967735 -2.998959
v -38.427586 -45.393417 -5.731012
v -38.024715 -43.371269 -5.776005
v -39.661732 -52.049831 -2.863634
v -39.355778 -50.514145 -2.897803
vt 21.4663 10.1016
vt 23.6274 12.5839
vt 21.2160 12.3153
vt 21.6900 8.1227
vt 23.8714 10.3697
vt 21.9194 6.0937
vt 24.0895 8.3903
vt 21.6561 13.4295
vt 23.8724 15.5266
vt 21.4495 15.2570
vt 23.6879 17.2016
vt 21.2603 16.9316
vt 23.4987 18.9192
vt 21.0661 18.6488
vt 23.2761 20.9405
vt 20.8377 20.6696
vt 21.1629 21.9209
vt 23.3393 24.6258
vt 20.8879 24.3538
vt 23.1122 26.6884
vt 20.6549 26.4160
vt 22.8897 28.7087
vt 20.4266 28.4358
vt 22.6843 30.5739
vt 20.2159 30.3006
vt 22.1488 4.0651
vt 24.3131 6.3609
vt 18.9950 9.8132
vt 18.7244 12.0248
vt 19.2369 7.8362
vt 19.4850 5.8091
vt 19.1546 13.1380
vt 18.9312 14.9638
vt 18.7265 16.6368
vt 18.5166 18.3524
vt 18.2696 20.3714
vt 18.5836 21.6215
vt 18.2863 24.0522
vt 18.0343 26.1125
vt 17.7874 28.1304
vt 17.5595 29.9935
vt 19.7331 3.7824
vt 16.4616 9.4882
vt 16.1564 11.6958
vt 16.7344 7.5148
vt 17.0141 5.4914
vt 16.5723 12.8073
vt 16.3204 14.6298
vt 16.0896 16.2999
vt 15.8530 18.0123
vt 15.5744 20.0277
vt 15.8714 21.2758
vt 15.5361 23.7022
vt 15.2519 25.7588
vt 14.9736 27.7732
vt 14.7166 29.6329
vt 17.2938 3.4685
vt 13.8732 9.1077
vt 13.5196 11.3087
vt 14.1894 7.1401
vt 14.5136 5.1228
vt 13.9155 12.4175
vt 13.6235 14.2346
vt 13.3560 15.8996
vt 13.0817 17.6071
vt 12.7589 19.6164
vt 13.0321 20.8614
vt 12.6435 23.2806
vt 12.3141 25.3312
vt 11.9915 27.3397
vt 11.6937 29.1941
vt 14.8377 3.1060
vt 11.2462 8.6543
vt 10.8318 10.8456
vt 11.6165 6.6956
vt 11.9962 4.6873
vt 11.2015 11.9501
vt 10.8596 13.7592
vt 10.5461 15.4169
vt 10.2248 17.1169
vt 9.8466 19.1174
vt 10.0891 20.3575
vt 9.6338 22.7661
vt 9.2479 24.8078
vt 8.8700 26.8076
vt 8.5210 28.6540
vt 12.3759 2.6795
vt 8.6059 8.1182
vt 8.1229 10.2963
vt 9.0377 6.1712
vt 9.4804 4.1750
vt 8.4604 11.3946
vt 8.0617 13.1929
vt 7.6963 14.8407
vt 7.3216 16.5305
vt 6.8806 18.5192
vt 7.0862 19.7523
vt 6.5554 22.1468
vt 6.1054 24.1765
vt 5.6647 26.1645
vt 5.2577 28.0001
vt 9.9230 2.1793
vt 5.9819 7.4978
vt 5.4274 9.6599
vt 6.4776 5.5652
vt 6.9857 3.5837
vt 5.7281 10.7499
vt 5.2703 12.5350
vt 4.8509 14.1708
vt 4.4208 15.8483
vt 3.9145 17.8226
vt 4.0790 19.0465
vt 3.4696 21.4236
vt 2.9529 23.4386
vt 2.4469 25.4124
vt 1.9796 27.2348
vt 7.4937 1.6029
vt 3.4015 6.7982
vt 2.7781 8.9426
vt 3.9586 4.8814
vt 4.5299 2.9163
vt 3.0391 10.0222
vt 2.5244 11.7927
vt 2.0528 13.4152
vt 1.5692 15.0791
vt 1.0000 17.0373
vt 1.1215 18.2502
vt 0.4362 20.6081
vt -0.1447 22.6069
vt -0.7137 24.5648
vt -1.2391 26.3726
vt 5.1010 0.9518
vt 0.2000 8.1575
vt 0.8852 6.0310
vt 1.4977 4.1302
vt 2.1257 2.1815
vt -0.1456 10.9810
vt 0.4202 9.2251
vt -0.6640 12.5901
vt -1.1957 14.2402
vt -1.8214 16.1823
vt -2.4964 19.7213
vt -1.7430 17.3827
vt -3.1351 21.7037
vt -3.7607 23.6456
vt -4.3383 25.4387
vt 2.7535 0.2334
vt -2.2968 7.3229
vt -1.5590 5.2129
vt -0.8995 3.3269
vt -0.2235 1.3934
vt -2.7262 10.1197
vt -2.1171 8.3774
vt -3.2844 11.7163
vt -3.8569 13.3537
vt -4.5306 15.2809
vt -5.3047 18.7886
vt -4.4935 16.4680
vt -5.9924 20.7559
vt -6.6661 22.6830
vt -7.2881 24.4623
vt 0.4524 -0.5394
vt -4.7111 6.4567
vt -3.9311 4.3608
vt -3.2341 2.4875
vt -2.5195 0.5670
vt -5.2146 9.2281
vt -4.5707 7.4975
vt -5.8046 10.8141
vt -6.4098 12.4406
vt -7.1220 14.3550
vt -7.9812 17.8341
vt -7.1237 15.5288
vt -8.7083 19.7884
vt -9.4205 21.7027
vt -10.0780 23.4704
vt -1.8051 -1.3529
vt -7.0409 5.5732
vt -6.2303 3.4880
vt -5.5058 1.6242
vt -4.7630 -0.2865
vt -7.6072 8.3221
vt -6.9380 6.6002
vt -8.2206 9.9001
vt -8.8496 11.5183
vt -9.5900 13.4230
vt -10.5186 16.8776
vt -9.6271 14.5839
vt -11.2743 18.8221
vt -12.0146 20.7269
vt -12.6982 22.4857
vt -4.0206 -2.1965
vt -9.2977 4.6861
vt -8.4668 2.6079
vt -7.7242 0.7505
vt -6.9629 -1.1538
vt -9.9161 7.4157
vt -9.2301 5.6996
vt -10.5448 8.9884
vt -11.1896 10.6012
vt -11.9484 12.4996
vt -12.9316 15.9344
vt -12.0178 13.6483
vt -13.7062 17.8724
vt -14.4651 19.7708
vt -15.1658 21.5239
vt -6.2019 -3.0573
vt -11.4904 3.8066
vt -10.6491 1.7317
vt -9.8972 -0.1228
vt -9.1263 -2.0240
vt -12.1507 6.5205
vt -11.4561 4.8071
vt -12.7873 8.0907
vt -13.4401 9.7010
vt -14.2085 11.5964
vt -15.2322 15.0165
vt -14.3069 12.7340
vt -16.0166 16.9515
vt -16.7850 18.8470
vt -17.4945 20.5973
vt -8.3558 -3.9245
vt -13.6233 2.9454
vt -12.7815 0.8699
vt -12.0291 -0.9852
vt -11.2577 -2.8869
vt -14.3152 5.6476
vt -13.6201 3.9337
vt -14.9521 7.2183
vt -15.6055 8.8291
vt -16.3744 10.7250
vt -17.4243 14.1358
vt -16.4984 11.8527
vt -18.2092 16.0714
vt -18.9782 17.9675
vt -19.6882 19.7184
vt -10.4867 -4.7880
vt -15.7021 2.1116
vt -14.8693 0.0316
vt -14.1251 -1.8274
vt -13.3621 -3.7333
vt -16.4150 4.8063
vt -15.7275 3.0887
vt -17.0451 6.3803
vt -17.6913 7.9946
vt -18.4518 9.8945
vt -19.5141 13.3017
vt -18.5982 11.0137
vt -20.2905 15.2414
vt -21.0510 17.1416
vt -21.7534 18.8961
vt -12.5994 -5.6384
vt -17.7360 1.3111
vt -16.9212 -0.7767
vt -16.1929 -2.6426
vt -15.4463 -4.5556
vt -18.4607 4.0020
vt -17.7879 2.2781
vt -19.0773 5.5820
vt -19.7096 7.2022
vt -20.4538 9.1092
vt -21.5155 12.5178
vt -20.6193 10.2212
vt -22.2752 14.4647
vt -23.0194 16.3718
vt -23.7067 18.1329
vt -14.7000 -6.4679
vt -19.7297 0.5503
vt -18.9414 -1.5482
vt -18.2367 -3.4238
vt -17.5144 -5.3467
vt -20.4571 3.2411
vt -19.8061 1.5082
vt -21.0536 4.8291
vt -21.6654 6.4577
vt -22.3854 8.3745
vt -23.4343 11.7889
vt -22.5672 9.4806
vt -24.1693 13.7457
vt -24.8894 15.6627
vt -25.5542 17.4327
vt -16.7922 -7.2689
vt -21.6857 -0.1642
vt -20.9324 -2.2761
vt -20.2592 -4.1637
vt -19.5690 -6.0989
vt -22.4064 2.5297
vt -21.7844 0.7858
vt -22.9763 4.1279
vt -23.5609 5.7668
vt -24.2488 7.6958
vt -25.2722 11.1204
vt -24.4438 8.7975
vt -25.9745 13.0896
vt -26.6624 15.0186
vt -27.2977 16.7998
vt -18.8789 -8.0333
vt -23.6040 -0.8228
vt -22.8950 -2.9504
vt -22.2614 -4.8521
vt -21.6117 -6.8017
vt -24.3080 1.8776
vt -23.7227 0.1207
vt -24.8445 3.4876
vt -25.3946 5.1387
vt -26.0421 7.0820
vt -27.0265 10.5207
vt -26.2468 8.1805
vt -27.6874 12.5045
vt -28.3349 14.4477
vt -28.9327 16.2420
vt -20.9623 -8.7507
vt -25.4845 -1.4167
vt -24.8295 -3.5620
vt -24.2442 -5.4795
vt -23.6440 -7.4453
vt -26.1615 1.2929
vt -25.6207 -0.4786
vt -26.6571 2.9162
vt -27.1653 4.5809
vt -27.7634 6.5402
vt -28.6946 9.9964
vt -27.9744 7.6370
vt -29.3052 11.9964
vt -29.9032 13.9556
vt -30.4555 15.7646
vt -23.0441 -9.4106
vt -27.3307 -1.9441
vt -26.7390 -4.1079
vt -26.2101 -6.0421
vt -25.6679 -8.0251
vt -27.9708 0.7767
vt -27.4822 -1.0101
vt -28.4184 2.4140
vt -28.8775 4.0931
vt -29.4179 6.0693
vt -30.2826 9.5451
vt -29.6320 7.1655
vt -30.8342 11.5624
vt -31.3745 13.5384
vt -31.8733 15.3628
vt -25.1259 -10.0074
vt -29.1459 -2.4021
vt -28.6261 -4.5846
vt -28.1615 -6.5355
vt -27.6852 -8.5356
vt -29.7398 0.3308
vt -29.3106 -1.4713
vt -30.1331 1.9822
vt -30.5364 3.6757
vt -31.0110 5.6688
vt -31.7967 9.1651
vt -31.2251 6.7651
vt -32.2812 11.1995
vt -32.7557 13.1922
vt -33.1939 15.0322
vt -27.2090 -10.5351
vt -30.9334 -2.7881
vt -30.4936 -4.9883
vt -30.1004 -6.9550
vt -29.6972 -8.9713
vt -31.4726 -0.0429
vt -31.1094 -1.8595
vt -31.8054 1.6218
vt -32.1467 3.3289
vt -32.5484 5.3380
vt -33.2433 8.8543
vt -32.7597 6.4352
vt -29.2943 -10.9871
vt 24.0738 13.6987
vt 23.6073 22.1923
vt 24.5366 4.3318
vn -0.0171 -0.0154 -0.9997
vn -0.0138 -0.0158 -0.9998
vn -0.0170 -0.0154 -0.9997
vn -0.0139 -0.0158 -0.9998
vn -0.0172 -0.0154 -0.9997
vn -0.0236 -0.0147 -0.9996
vn -0.0235 -0.0147 -0.9996
vn -0.0237 -0.0147 -0.9996
vn -0.0237 -0.0146 -0.9996
vn -0.0302 -0.0138 -0.9994
vn -0.0303 -0.0138 -0.9994
vn -0.0302 -0.0138 -0.9995
vn -0.0367 -0.0128 -0.9992
vn -0.0366 -0.0128 -0.9992
vn -0.0425 -0.0118 -0.9990
vn -0.0426 -0.0118 -0.9990
vn -0.0474 -0.0108 -0.9988
vn -0.0473 -0.0108 -0.9988
vn -0.0512 -0.0099 -0.9986
vn -0.0540 -0.0091 -0.9985
vn -0.0559 -0.0085 -0.9984
vn -0.0570 -0.0082 -0.9983
vn -0.0574 -0.0081 -0.9983
vn -0.0574 -0.0080 -0.9983
vn -0.0573 -0.0081 -0.9983
vn -0.0567 -0.0083 -0.9984
vn -0.0568 -0.0083 -0.9984
vn -0.0559 -0.0087 -0.9984
vn -0.0547 -0.0091 -0.9985
vn -0.0533 -0.0097 -0.9985
vn -0.0534 -0.0097 -0.9985
vn -0.0519 -0.0103 -0.9986
vn -0.0518 -0.0103 -0.9986
vn -0.0502 -0.0109 -0.9987
vn -0.0484 -0.0116 -0.9988
vn -0.0483 -0.0116 -0.9988
vn -0.0463 -0.0123 -0.9989
vn -0.0462 -0.0124 -0.9989
vn -0.0440 -0.0131 -0.9989
vn -0.0417 -0.0137 -0.9990
vn -0.0393 -0.0143 -0.9991
vn -0.0397 -0.0142 -0.9991
vn -0.0406 -0.0140 -0.9991
vn -0.0381 -0.0146 -0.9992
s 1
f 18/1/1 6/2/2 19/3/1
f 21/4/3 5/5/2 18/1/1
f 22/6/3 8/7/2 21/4/3
f 38/8/1 24/9/4 39/10/1
f 39/10/1 10/11/4 25/12/1
f 25/12/1 11/13/4 26/14/1
f 26/14/1 12/15/4 27/16/1
f 28/17/1 14/18/4 29/19/1
f 29/19/1 15/20/4 30/21/1
f 30/21/1 16/22/4 31/23/5
f 31/23/5 17/24/4 32/25/5
f 20/26/3 9/27/2 22/6/3
f 33/28/6 19/3/1 34/29/6
f 36/30/6 18/1/1 33/28/6
f 37/31/7 21/4/3 36/30/6
f 52/32/6 39/10/1 53/33/6
f 53/33/6 25/12/1 40/34/6
f 40/34/6 26/14/1 41/35/6
f 41/35/6 27/16/1 42/36/6
f 43/37/6 29/19/1 44/38/6
f 44/38/6 30/21/1 45/39/8
f 45/39/8 31/23/5 46/40/9
f 46/40/9 32/25/5 1/41/8
f 35/42/7 22/6/3 37/31/7
f 47/43/10 34/29/6 48/44/10
f 50/45/10 33/28/6 47/43/10
f 51/46/10 36/30/6 50/45/10
f 66/47/10 53/33/6 67/48/10
f 67/48/10 40/34/6 54/49/10
f 54/49/10 41/35/6 55/50/10
f 55/50/10 42/36/6 56/51/10
f 57/52/10 44/38/6 58/53/11
f 58/53/11 45/39/8 59/54/11
f 59/54/11 46/40/9 60/55/11
f 60/55/11 1/41/8 2/56/11
f 49/57/12 37/31/7 51/46/10
f 61/58/13 48/44/10 62/59/13
f 64/60/13 47/43/10 61/58/13
f 65/61/14 50/45/10 64/60/13
f 81/62/13 67/48/10 82/63/13
f 82/63/13 54/49/10 68/64/13
f 68/64/13 55/50/10 69/65/13
f 69/65/13 56/51/10 70/66/13
f 71/67/13 58/53/11 72/68/13
f 72/68/13 59/54/11 73/69/13
f 73/69/13 60/55/11 74/70/13
f 74/70/13 2/56/11 75/71/13
f 63/72/14 51/46/10 65/61/14
f 76/73/15 62/59/13 77/74/15
f 79/75/15 61/58/13 76/73/15
f 80/76/15 64/60/13 79/75/15
f 92/77/15 82/63/13 93/78/15
f 93/78/15 68/64/13 83/79/15
f 83/79/15 69/65/13 84/80/15
f 84/80/15 70/66/13 85/81/15
f 86/82/15 72/68/13 87/83/15
f 87/83/15 73/69/13 88/84/15
f 88/84/15 74/70/13 89/85/16
f 89/85/16 75/71/13 3/86/16
f 78/87/15 65/61/14 80/76/15
f 105/88/17 77/74/15 90/89/17
f 109/90/18 76/73/15 105/88/17
f 111/91/18 79/75/15 109/90/18
f 112/92/17 93/78/15 113/93/17
f 113/93/17 83/79/15 94/94/17
f 94/94/17 84/80/15 95/95/17
f 95/95/17 85/81/15 116/96/17
f 96/97/17 87/83/15 97/98/17
f 97/98/17 88/84/15 98/99/17
f 98/99/17 89/85/16 121/100/17
f 121/100/17 3/86/16 4/101/17
f 91/102/18 80/76/15 111/91/18
f 104/103/19 90/89/17 106/104/19
f 108/105/19 105/88/17 104/103/19
f 110/106/19 109/90/18 108/105/19
f 128/107/19 113/93/17 129/108/19
f 129/108/19 94/94/17 114/109/19
f 114/109/19 95/95/17 115/110/19
f 115/110/19 116/96/17 117/111/19
f 118/112/19 97/98/17 119/113/19
f 119/113/19 98/99/17 120/114/19
f 120/114/19 121/100/17 122/115/19
f 122/115/19 4/101/17 99/116/19
f 107/117/19 111/91/18 110/106/19
f 123/118/20 106/104/19 124/119/20
f 126/120/20 104/103/19 123/118/20
f 127/121/20 108/105/19 126/120/20
f 142/122/20 129/108/19 143/123/20
f 143/123/20 114/109/19 130/124/20
f 130/124/20 115/110/19 131/125/20
f 131/125/20 117/111/19 132/126/20
f 133/127/20 119/113/19 134/128/20
f 134/128/20 120/114/19 135/129/20
f 135/129/20 122/115/19 136/130/20
f 136/130/20 99/116/19 100/131/20
f 125/132/20 110/106/19 127/121/20
f 123/118/20 138/133/21 137/134/21
f 126/120/20 137/134/21 140/135/21
f 127/121/20 140/135/21 141/136/21
f 142/122/20 157/137/21 156/138/21
f 143/123/20 144/139/21 157/137/21
f 130/124/20 145/140/21 144/139/21
f 131/125/20 146/141/21 145/140/21
f 133/127/20 148/142/21 147/143/21
f 134/128/20 149/144/21 148/142/21
f 135/129/20 150/145/21 149/144/21
f 136/130/20 101/146/21 150/145/21
f 125/132/20 141/136/21 139/147/21
f 137/134/21 152/148/22 151/149/22
f 140/135/21 151/149/22 154/150/22
f 141/136/21 154/150/22 155/151/22
f 156/138/21 172/152/22 171/153/22
f 157/137/21 158/154/22 172/152/22
f 144/139/21 159/155/22 158/154/22
f 145/140/21 160/156/22 159/155/22
f 147/143/21 162/157/22 161/158/22
f 148/142/21 163/159/22 162/157/22
f 149/144/21 164/160/22 163/159/22
f 150/145/21 165/161/22 164/160/22
f 139/147/21 155/151/22 153/162/22
f 151/149/22 167/163/23 166/164/23
f 154/150/22 166/164/23 169/165/23
f 155/151/22 169/165/23 170/166/23
f 171/153/22 186/167/23 185/168/23
f 172/152/22 173/169/23 186/167/23
f 158/154/22 174/170/23 173/169/23
f 159/155/22 175/171/24 174/170/23
f 161/158/22 177/172/24 176/173/23
f 162/157/22 178/174/24 177/172/24
f 163/159/22 179/175/24 178/174/24
f 164/160/22 102/176/24 179/175/24
f 153/162/22 170/166/23 168/177/23
f 166/164/23 181/178/25 180/179/25
f 169/165/23 180/179/25 183/180/25
f 170/166/23 183/180/25 184/181/25
f 185/168/23 200/182/25 199/183/25
f 186/167/23 187/184/25 200/182/25
f 173/169/23 188/185/25 187/184/25
f 174/170/23 189/186/25 188/185/25
f 176/173/23 191/187/25 190/188/25
f 177/172/24 192/189/25 191/187/25
f 178/174/24 193/190/25 192/189/25
f 179/175/24 103/191/25 193/190/25
f 168/177/23 184/181/25 182/192/25
f 180/179/25 195/193/26 194/194/26
f 183/180/25 194/194/26 197/195/26
f 184/181/25 197/195/26 198/196/26
f 199/183/25 215/197/27 214/198/26
f 200/182/25 201/199/27 215/197/27
f 187/184/25 202/200/27 201/199/27
f 188/185/25 203/201/27 202/200/27
f 190/188/25 205/202/27 204/203/27
f 191/187/25 206/204/27 205/202/27
f 192/189/25 207/205/27 206/204/27
f 193/190/25 208/206/27 207/205/27
f 182/192/25 198/196/26 196/207/26
f 194/194/26 210/208/28 209/209/28
f 197/195/26 209/209/28 212/210/28
f 198/196/26 212/210/28 213/211/28
f 214/198/26 230/212/28 229/213/28
f 215/197/27 216/214/28 230/212/28
f 201/199/27 217/215/28 216/214/28
f 202/200/27 218/216/28 217/215/28
f 204/203/27 220/217/28 219/218/28
f 205/202/27 221/219/28 220/217/28
f 206/204/27 222/220/28 221/219/28
f 207/205/27 223/221/28 222/220/28
f 196/207/26 213/211/28 211/222/28
f 209/209/28 225/223/29 224/224/29
f 212/210/28 224/224/29 227/225/29
f 213/211/28 227/225/29 228/226/29
f 229/213/28 243/227/29 242/228/29
f 230/212/28 231/229/29 243/227/29
f 216/214/28 232/230/29 231/229/29
f 217/215/28 233/231/29 232/230/29
f 219/218/28 235/232/29 234/233/29
f 220/217/28 236/234/29 235/232/29
f 221/219/28 237/235/29 236/234/29
f 222/220/28 238/236/29 237/235/29
f 211/222/28 228/226/29 226/237/29
f 224/224/29 250/238/30 239/239/30
f 227/225/29 239/239/30 241/240/30
f 228/226/29 241/240/30 255/241/30
f 242/228/29 257/242/30 256/243/30
f 243/227/29 258/244/30 257/242/30
f 231/229/29 260/245/31 258/244/30
f 232/230/29 262/246/31 260/245/31
f 234/233/29 265/247/31 244/248/31
f 235/232/29 245/249/31 265/247/31
f 236/234/29 268/250/31 245/249/31
f 237/235/29 246/251/31 268/250/31
f 226/237/29 255/241/30 240/252/30
f 239/239/30 251/253/32 249/254/32
f 241/240/30 249/254/32 253/255/33
f 255/241/30 253/255/33 254/256/33
f 256/243/30 277/257/32 276/258/32
f 257/242/30 259/259/32 277/257/32
f 258/244/30 261/260/32 259/259/32
f 260/245/31 263/261/32 261/260/32
f 244/248/31 266/262/32 264/263/32
f 265/247/31 267/264/32 266/262/32
f 245/249/31 269/265/32 267/264/32
f 268/250/31 270/266/32 269/265/32
f 240/252/30 254/256/33 252/267/33
f 249/254/32 272/268/34 271/269/34
f 253/255/33 271/269/34 274/270/34
f 254/256/33 274/270/34 275/271/34
f 276/258/32 292/272/34 291/273/34
f 277/257/32 278/274/34 292/272/34
f 259/259/32 279/275/34 278/274/34
f 261/260/32 280/276/34 279/275/34
f 264/263/32 282/277/34 281/278/34
f 266/262/32 283/279/34 282/277/34
f 267/264/32 284/280/34 283/279/34
f 269/265/32 285/281/34 284/280/34
f 252/267/33 275/271/34 273/282/34
f 271/269/34 287/283/35 286/284/35
f 274/270/34 286/284/35 289/285/35
f 275/271/34 289/285/35 290/286/36
f 291/273/34 307/287/35 306/288/35
f 292/272/34 293/289/35 307/287/35
f 278/274/34 294/290/35 293/289/35
f 279/275/34 295/291/35 294/290/35
f 281/278/34 297/292/35 296/293/35
f 282/277/34 298/294/35 297/292/35
f 283/279/34 299/295/35 298/294/35
f 284/280/34 300/296/35 299/295/35
f 273/282/34 290/286/36 288/297/36
f 286/284/35 302/298/37 301/299/37
f 289/285/35 301/299/37 304/300/37
f 290/286/36 304/300/37 305/301/37
f 306/288/35 321/302/37 320/303/37
f 307/287/35 308/304/37 321/302/37
f 293/289/35 309/305/37 308/304/37
f 294/290/35 310/306/37 309/305/37
f 296/293/35 312/307/37 311/308/37
f 297/292/35 313/309/37 312/307/37
f 298/294/35 314/310/37 313/309/37
f 299/295/35 247/311/37 314/310/37
f 288/297/36 305/301/37 303/312/38
f 301/299/37 316/313/39 315/314/39
f 304/300/37 315/314/39 318/315/39
f 305/301/37 318/315/39 319/316/39
f 320/303/37 336/317/39 335/318/39
f 321/302/37 322/319/39 336/317/39
f 308/304/37 323/320/39 322/319/39
f 309/305/37 324/321/39 323/320/39
f 311/308/37 326/322/39 325/323/39
f 312/307/37 327/324/39 326/322/39
f 313/309/37 328/325/39 327/324/39
f 314/310/37 329/326/39 328/325/39
f 303/312/38 319/316/39 317/327/39
f 315/314/39 331/328/40 330/329/40
f 318/315/39 330/329/40 333/330/40
f 319/316/39 333/330/40 334/331/40
f 335/318/39 351/332/40 350/333/40
f 336/317/39 337/334/40 351/332/40
f 322/319/39 338/335/40 337/334/40
f 323/320/39 339/336/40 338/335/40
f 325/323/39 341/337/40 340/338/40
f 326/322/39 342/339/40 341/337/40
f 327/324/39 343/340/40 342/339/40
f 328/325/39 344/341/40 343/340/40
f 317/327/39 334/331/40 332/342/40
f 330/329/40 346/343/41 345/344/41
f 333/330/40 345/344/41 348/345/41
f 334/331/40 348/345/41 349/346/41
f 350/333/40 365/347/41 364/348/41
f 351/332/40 352/349/41 365/347/41
f 337/334/40 353/350/41 352/349/41
f 338/335/40 354/351/41 353/350/41
f 340/338/40 356/352/42 355/353/41
f 341/337/40 357/354/43 356/352/42
f 342/339/40 358/355/43 357/354/43
f 343/340/40 248/356/43 358/355/43
f 332/342/40 349/346/41 347/357/41
f 345/344/41 360/358/44 359/359/44
f 348/345/41 359/359/44 362/360/44
f 349/346/41 362/360/44 363/361/44
f 364/348/41 372/362/44 371/363/44
f 365/347/41 366/364/44 372/362/44
f 352/349/41 367/365/44 366/364/44
f 353/350/41 368/366/44 367/365/44
f 355/353/41 370/367/44 369/368/44
f 347/357/41 363/361/44 361/369/44
f 18/1/1 5/5/2 6/2/2
f 21/4/3 8/7/2 5/5/2
f 22/6/3 9/27/2 8/7/2
f 38/8/1 23/370/4 24/9/4
f 39/10/1 24/9/4 10/11/4
f 25/12/1 10/11/4 11/13/4
f 26/14/1 11/13/4 12/15/4
f 28/17/1 13/371/4 14/18/4
f 29/19/1 14/18/4 15/20/4
f 30/21/1 15/20/4 16/22/4
f 31/23/5 16/22/4 17/24/4
f 20/26/3 7/372/2 9/27/2
f 33/28/6 18/1/1 19/3/1
f 36/30/6 21/4/3 18/1/1
f 37/31/7 22/6/3 21/4/3
f 52/32/6 38/8/1 39/10/1
f 53/33/6 39/10/1 25/12/1
f 40/34/6 25/12/1 26/14/1
f 41/35/6 26/14/1 27/16/1
f 43/37/6 28/17/1 29/19/1
f 44/38/6 29/19/1 30/21/1
f 45/39/8 30/21/1 31/23/5
f 46/40/9 31/23/5 32/25/5
f 35/42/7 20/26/3 22/6/3
f 47/43/10 33/28/6 34/29/6
f 50/45/10 36/30/6 33/28/6
f 51/46/10 37/31/7 36/30/6
f 66/47/10 52/32/6 53/33/6
f 67/48/10 53/33/6 40/34/6
f 54/49/10 40/34/6 41/35/6
f 55/50/10 41/35/6 42/36/6
f 57/52/10 43/37/6 44/38/6
f 58/53/11 44/38/6 45/39/8
f 59/54/11 45/39/8 46/40/9
f 60/55/11 46/40/9 1/41/8
f 49/57/12 35/42/7 37/31/7
f 61/58/13 47/43/10 48/44/10
f 64/60/13 50/45/10 47/43/10
f 65/61/14 51/46/10 50/45/10
f 81/62/13 66/47/10 67/48/10
f 82/63/13 67/48/10 54/49/10
f 68/64/13 54/49/10 55/50/10
f 69/65/13 55/50/10 56/51/10
f 71/67/13 57/52/10 58/53/11
f 72/68/13 58/53/11 59/54/11
f 73/69/13 59/54/11 60/55/11
f 74/70/13 60/55/11 2/56/11
f 63/72/14 49/57/12 51/46/10
f 76/73/15 61/58/13 62/59/13
f 79/75/15 64/60/13 61/58/13
f 80/76/15 65/61/14 64/60/13
f 92/77/15 81/62/13 82/63/13
f 93/78/15 82/63/13 68/64/13
f 83/79/15 68/64/13 69/65/13
f 84/80/15 69/65/13 70/66/13
f 86/82/15 71/67/13 72/68/13
f 87/83/15 72/68/13 73/69/13
f 88/84/15 73/69/13 74/70/13
f 89/85/16 74/70/13 75/71/13
f 78/87/15 63/72/14 65/61/14
f 105/88/17 76/73/15 77/74/15
f 109/90/18 79/75/15 76/73/15
f 111/91/18 80/76/15 79/75/15
f 112/92/17 92/77/15 93/78/15
f 113/93/17 93/78/15 83/79/15
f 94/94/17 83/79/15 84/80/15
f 95/95/17 84/80/15 85/81/15
f 96/97/17 86/82/15 87/83/15
f 97/98/17 87/83/15 88/84/15
f 98/99/17 88/84/15 89/85/16
f 121/100/17 89/85/16 3/86/16
f 91/102/18 78/87/15 80/76/15
f 104/103/19 105/88/17 90/89/17
f 108/105/19 109/90/18 105/88/17
f 110/106/19 111/91/18 109/90/18
f 128/107/19 112/92/17 113/93/17
f 129/108/19 113/93/17 94/94/17
f 114/109/19 94/94/17 95/95/17
f 115/110/19 95/95/17 116/96/17
f 118/112/19 96/97/17 97/98/17
f 119/113/19 97/98/17 98/99/17
f 120/114/19 98/99/17 121/100/17
f 122/115/19 121/100/17 4/101/17
f 107/117/19 91/102/18 111/91/18
f 123/118/20 104/103/19 106/104/19
f 126/120/20 108/105/19 104/103/19
f 127/121/20 110/106/19 108/105/19
f 142/122/20 128/107/19 129/108/19
f 143/123/20 129/108/19 114/109/19
f 130/124/20 114/109/19 115/110/19
f 131/125/20 115/110/19 117/111/19
f 133/127/20 118/112/19 119/113/19
f 134/128/20 119/113/19 120/114/19
f 135/129/20 120/114/19 122/115/19
f 136/130/20 122/115/19 99/116/19
f 125/132/20 107/117/19 110/106/19
f 123/118/20 124/119/20 138/133/21
f 126/120/20 123/118/20 137/134/21
f 127/121/20 126/120/20 140/135/21
f 142/122/20 143/123/20 157/137/21
f 143/123/20 130/124/20 144/139/21
f 130/124/20 131/125/20 145/140/21
f 131/125/20 132/126/20 146/141/21
f 133/127/20 134/128/20 148/142/21
f 134/128/20 135/129/20 149/144/21
f 135/129/20 136/130/20 150/145/21
f 136/130/20 100/131/20 101/146/21
f 125/132/20 127/121/20 141/136/21
f 137/134/21 138/133/21 152/148/22
f 140/135/21 137/134/21 151/149/22
f 141/136/21 140/135/21 154/150/22
f 156/138/21 157/137/21 172/152/22
f 157/137/21 144/139/21 158/154/22
f 144/139/21 145/140/21 159/155/22
f 145/140/21 146/141/21 160/156/22
f 147/143/21 148/142/21 162/157/22
f 148/142/21 149/144/21 163/159/22
f 149/144/21 150/145/21 164/160/22
f 150/145/21 101/146/21 165/161/22
f 139/147/21 141/136/21 155/151/22
f 151/149/22 152/148/22 167/163/23
f 154/150/22 151/149/22 166/164/23
f 155/151/22 154/150/22 169/165/23
f 171/153/22 172/152/22 186/167/23
f 172/152/22 158/154/22 173/169/23
f 158/154/22 159/155/22 174/170/23
f 159/155/22 160/156/22 175/171/24
f 161/158/22 162/157/22 177/172/24
f 162/157/22 163/159/22 178/174/24
f 163/159/22 164/160/22 179/175/24
f 164/160/22 165/161/22 102/176/24
f 153/162/22 155/151/22 170/166/23
f 166/164/23 167/163/23 181/178/25
f 169/165/23 166/164/23 180/179/25
f 170/166/23 169/165/23 183/180/25
f 185/168/23 186/167/23 200/182/25
f 186/167/23 173/169/23 187/184/25
f 173/169/23 174/170/23 188/185/25
f 174/170/23 175/171/24 189/186/25
f 176/173/23 177/172/24 191/187/25
f 177/172/24 178/174/24 192/189/25
f 178/174/24 179/175/24 193/190/25
f 179/175/24 102/176/24 103/191/25
f 168/177/23 170/166/23 184/181/25
f 180/179/25 181/178/25 195/193/26
f 183/180/25 180/179/25 194/194/26
f 184/181/25 183/180/25 197/195/26
f 199/183/25 200/182/25 215/197/27
f 200/182/25 187/184/25 201/199/27
f 187/184/25 188/185/25 202/200/27
f 188/185/25 189/186/25 203/201/27
f 190/188/25 191/187/25 205/202/27
f 191/187/25 192/189/25 206/204/27
f 192/189/25 193/190/25 207/205/27
f 193/190/25 103/191/25 208/206/27
f 182/192/25 184/181/25 198/196/26
f 194/194/26 195/193/26 210/208/28
f 197/195/26 194/194/26 209/209/28
f 198/196/26 197/195/26 212/210/28
f 214/198/26 215/197/27 230/212/28
f 215/197/27 201/199/27 216/214/28
f 201/199/27 202/200/27 217/215/28
f 202/200/27 203/201/27 218/216/28
f 204/203/27 205/202/27 220/217/28
f 205/202/27 206/204/27 221/219/28
f 206/204/27 207/205/27 222/220/28
f 207/205/27 208/206/27 223/221/28
f 196/207/26 198/196/26 213/211/28
f 209/209/28 210/208/28 225/223/29
f 212/210/28 209/209/28 224/224/29
f 213/211/28 212/210/28 227/225/29
f 229/213/28 230/212/28 243/227/29
f 230/212/28 216/214/28 231/229/29
f 216/214/28 217/215/28 232/230/29
f 217/215/28 218/216/28 233/231/29
f 219/218/28 220/217/28 235/232/29
f 220/217/28 221/219/28 236/234/29
f 221/219/28 222/220/28 237/235/29
f 222/220/28 223/221/28 238/236/29
f 211/222/28 213/211/28 228/226/29
f 224/224/29 225/223/29 250/238/30
f 227/225/29 224/224/29 239/239/30
f 228/226/29 227/225/29 241/240/30
f 242/228/29 243/227/29 257/242/30
f 243/227/29 231/229/29 258/244/30
f 231/229/29 232/230/29 260/245/31
f 232/230/29 233/231/29 262/246/31
f 234/233/29 235/232/29 265/247/31
f 235/232/29 236/234/29 245/249/31
f 236/234/29 237/235/29 268/250/31
f 237/235/29 238/236/29 246/251/31
f 226/237/29 228/226/29 255/241/30
f 239/239/30 250/238/30 251/253/32
f 241/240/30 239/239/30 249/254/32
f 255/241/30 241/240/30 253/255/33
f 256/243/30 257/242/30 277/257/32
f 257/242/30 258/244/30 259/259/32
f 258/244/30 260/245/31 261/260/32
f 260/245/31 262/246/31 263/261/32
f 244/248/31 265/247/31 266/262/32
f 265/247/31 245/249/31 267/264/32
f 245/249/31 268/250/31 269/265/32
f 268/250/31 246/251/31 270/266/32
f 240/252/30 255/241/30 254/256/33
f 249/254/32 251/253/32 272/268/34
f 253/255/33 249/254/32 271/269/34
f 254/256/33 253/255/33 274/270/34
f 276/258/32 277/257/32 292/272/34
f 277/257/32 259/259/32 278/274/34
f 259/259/32 261/260/32 279/275/34
f 261/260/32 263/261/32 280/276/34
f 264/263/32 266/262/32 282/277/34
f 266/262/32 267/264/32 283/279/34
f 267/264/32 269/265/32 284/280/34
f 269/265/32 270/266/32 285/281/34
f 252/267/33 254/256/33 275/271/34
f 271/269/34 272/268/34 287/283/35
f 274/270/34 271/269/34 286/284/35
f 275/271/34 274/270/34 289/285/35
f 291/273/34 292/272/34 307/287/35
f 292/272/34 278/274/34 293/289/35
f 278/274/34 279/275/34 294/290/35
f 279/275/34 280/276/34 295/291/35
f 281/278/34 282/277/34 297/292/35
f 282/277/34 283/279/34 298/294/35
f 283/279/34 284/280/34 299/295/35
f 284/280/34 285/281/34 300/296/35
f 273/282/34 275/271/34 290/286/36
f 286/284/35 287/283/35 302/298/37
f 289/285/35 286/284/35 301/299/37
f 290/286/36 289/285/35 304/300/37
f 306/288/35 307/287/35 321/302/37
f 307/287/35 293/289/35 308/304/37
f 293/289/35 294/290/35 309/305/37
f 294/290/35 295/291/35 310/306/37
f 296/293/35 297/292/35 312/307/37
f 297/292/35 298/294/35 313/309/37
f 298/294/35 299/295/35 314/310/37
f 299/295/35 300/296/35 247/311/37
f 288/297/36 290/286/36 305/301/37
f 301/299/37 302/298/37 316/313/39
f 304/300/37 301/299/37 315/314/39
f 305/301/37 304/300/37 318/315/39
f 320/303/37 321/302/37 336/317/39
f 321/302/37 308/304/37 322/319/39
f 308/304/37 309/305/37 323/320/39
f 309/305/37 310/306/37 324/321/39
f 311/308/37 312/307/37 326/322/39
f 312/307/37 313/309/37 327/324/39
f 313/309/37 314/310/37 328/325/39
f 314/310/37 247/311/37 329/326/39
f 303/312/38 305/301/37 319/316/39
f 315/314/39 316/313/39 331/328/40
f 318/315/39 315/314/39 330/329/40
f 319/316/39 318/315/39 333/330/40
f 335/318/39 336/317/39 351/332/40
f 336/317/39 322/319/39 337/334/40
f 322/319/39 323/320/39 338/335/40
f 323/320/39 324/321/39 339/336/40
f 325/323/39 326/322/39 341/337/40
f 326/322/39 327/324/39 342/339/40
f 327/324/39 328/325/39 343/340/40
f 328/325/39 329/326/39 344/341/40
f 317/327/39 319/316/39 334/331/40
f 330/329/40 331/328/40 346/343/41
f 333/330/40 330/329/40 345/344/41
f 334/331/40 333/330/40 348/345/41
f 350/333/40 351/332/40 365/347/41
f 351/332/40 337/334/40 352/349/41
f 337/334/40 338/335/40 353/350/41
f 338/335/40 339/336/40 354/351/41
f 340/338/40 341/337/40 356/352/42
f 341/337/40 342/339/40 357/354/43
f 342/339/40 343/340/40 358/355/43
f 343/340/40 344/341/40 248/356/43
f 332/342/40 334/331/40 349/346/41
f 345/344/41 346/343/41 360/358/44
f 348/345/41 345/344/41 359/359/44
f 349/346/41 348/345/41 362/360/44
f 364/348/41 365/347/41 372/362/44
f 365/347/41 352/349/41 366/364/44
f 352/349/41 353/350/41 367/365/44
f 353/350/41 354/351/41 368/366/44
f 355/353/41 356/352/42 370/367/44
f 347/357/41 349/346/41 363/361/44
