# Blender v2.78 (sub 0) OBJ File: 'vtrack.blend'
# www.blender.org
o spectator_wall_source_Cube.008
v -6.364309 52.072670 -5.275619
v -6.305273 52.060513 -5.268543
v -6.290460 52.068611 -5.317754
v -6.359223 52.082775 -5.325995
v -6.505331 51.899220 -5.194205
v -6.519373 51.909916 -5.225453
v -6.452396 51.922119 -5.336284
v -6.447828 51.909698 -5.289358
v -6.423974 52.079140 -5.256161
v -6.428718 52.090309 -5.303332
v -6.275239 52.025169 -5.131637
v -6.255479 52.027447 -5.158292
v -6.481477 52.068661 -5.161007
v -6.495696 52.078106 -5.192501
v -6.655486 51.921501 -4.345198
v -6.698373 51.906700 -4.242284
v -6.329126 51.891071 -5.301740
v -6.314138 51.900421 -5.350706
v -6.279157 51.859257 -5.191244
v -6.299092 51.855728 -5.164834
v -6.388163 51.903229 -5.308816
v -6.382901 51.914585 -5.358947
v -6.679340 51.752060 -4.378396
v -6.722052 51.738510 -4.275236
v -6.234336 52.995911 -5.094739
v -6.175300 52.983753 -5.087663
v -6.305273 52.060513 -5.268543
v -6.364309 52.072670 -5.275619
v -6.351505 52.991901 -4.980127
v -6.294002 53.002380 -5.075281
v -6.423974 52.079140 -5.256161
v -6.481477 52.068661 -5.161007
v -6.525514 52.844742 -4.164319
v -6.655486 51.921501 -4.345198
v -6.290460 52.068611 -5.317754
v -6.255479 52.027447 -5.158292
v -6.279157 51.859257 -5.191244
v -6.314138 51.900421 -5.350706
v -6.359223 52.082775 -5.325995
v -6.382901 51.914585 -5.358947
v -6.495696 52.078106 -5.192501
v -6.428718 52.090309 -5.303332
v -6.452396 51.922119 -5.336284
v -6.519373 51.909916 -5.225453
v -6.698373 51.906700 -4.242284
v -6.722052 51.738510 -4.275236
v -6.513539 51.010033 -5.483595
v -6.454166 50.999950 -5.476087
v -6.439427 51.007584 -5.525393
v -6.508583 51.019337 -5.534139
v -6.654871 50.833828 -5.402675
v -6.669139 50.843109 -5.434216
v -6.602147 50.855404 -5.545027
v -6.597355 50.844383 -5.497811
v -6.573461 51.014908 -5.464468
v -6.578377 51.025013 -5.511861
v -6.423546 50.968224 -5.338428
v -6.403763 50.970638 -5.365054
v -6.630974 51.004375 -5.369328
v -6.645367 51.012749 -5.401045
v -6.803368 50.867161 -4.551443
v -6.846162 50.852924 -4.448410
v -6.477917 50.830444 -5.509230
v -6.463031 50.839153 -5.558329
v -6.427204 50.803371 -5.397761
v -6.447155 50.799725 -5.371373
v -6.537371 50.839943 -5.516852
v -6.532280 50.850227 -5.567205
v -6.826876 50.699409 -4.584246
v -6.869485 50.686512 -4.480953
v -6.388163 51.903229 -5.308816
v -6.329126 51.891071 -5.301740
v -6.454166 50.999950 -5.476087
v -6.513539 51.010033 -5.483595
v -6.505332 51.899220 -5.194205
v -6.447828 51.909695 -5.289358
v -6.573461 51.014908 -5.464468
v -6.630974 51.004375 -5.369328
v -6.679340 51.752060 -4.378396
v -6.803368 50.867161 -4.551443
v -6.439427 51.007584 -5.525393
v -6.403763 50.970638 -5.365054
v -6.427204 50.803371 -5.397761
v -6.463031 50.839153 -5.558329
v -6.508583 51.019337 -5.534139
v -6.532280 50.850227 -5.567205
v -6.645367 51.012749 -5.401045
v -6.578377 51.025013 -5.511861
v -6.602147 50.855404 -5.545027
v -6.669139 50.843109 -5.434216
v -6.846162 50.852924 -4.448410
v -6.869485 50.686512 -4.480953
v -6.631401 49.949512 -5.673006
v -6.571571 49.943550 -5.664762
v -6.556934 49.950283 -5.714231
v -6.626622 49.957230 -5.723833
v -6.761073 49.775566 -5.585017
v -6.775642 49.782696 -5.616979
v -6.708635 49.795135 -5.727765
v -6.703544 49.786247 -5.680132
v -6.691673 49.951244 -5.654441
v -6.696824 49.959244 -5.702210
v -6.540154 49.919003 -5.525821
v -6.520341 49.921692 -5.552398
v -6.749200 49.940578 -5.559323
v -6.763829 49.946823 -5.591420
v -6.919403 49.823112 -4.737914
v -6.962073 49.810001 -4.634680
v -6.583358 49.779713 -5.690272
v -6.568648 49.787514 -5.739577
v -6.531960 49.760239 -5.577539
v -6.551858 49.756306 -5.551154
v -6.643236 49.785015 -5.698619
v -6.638391 49.793701 -5.749298
v -6.931049 49.661232 -4.763120
v -6.973623 49.649494 -4.659674
v -6.537371 50.839939 -5.516852
v -6.477917 50.830437 -5.509231
v -6.571571 49.943550 -5.664762
v -6.631401 49.949512 -5.673006
v -6.654872 50.833828 -5.402675
v -6.597355 50.844383 -5.497812
v -6.691673 49.951244 -5.654441
v -6.749200 49.940578 -5.559323
v -6.826876 50.699409 -4.584247
v -6.919403 49.823112 -4.737914
v -6.556934 49.950283 -5.714231
v -6.520341 49.921692 -5.552398
v -6.531960 49.760239 -5.577539
v -6.568648 49.787514 -5.739577
v -6.626622 49.957230 -5.723833
v -6.638391 49.793701 -5.749298
v -6.763829 49.946823 -5.591420
v -6.696824 49.959244 -5.702210
v -6.708635 49.795135 -5.727765
v -6.775642 49.782696 -5.616979
v -6.962073 49.810001 -4.634680
v -6.973623 49.649494 -4.659674
v -6.678066 48.884773 -5.821354
v -6.618049 48.883003 -5.812524
v -6.603453 48.888817 -5.862122
v -6.673358 48.890877 -5.872406
v -6.797087 48.706100 -5.727700
v -6.811810 48.711090 -5.759995
v -6.744798 48.723690 -5.870760
v -6.739553 48.716923 -5.822796
v -6.738482 48.883293 -5.803238
v -6.743728 48.889156 -5.851305
v -6.586306 48.865742 -5.672565
v -6.566481 48.868710 -5.699103
v -6.796014 48.872494 -5.708139
v -6.810739 48.876575 -5.740538
v -6.965324 48.775024 -4.883934
v -7.007944 48.763050 -4.780542
v -6.619113 48.717762 -5.831948
v -6.604515 48.724663 -5.881422
v -6.567535 48.705845 -5.718251
v -6.587363 48.701614 -5.691858
v -6.679135 48.718891 -5.840855
v -6.674426 48.725983 -5.891794
v -6.966376 48.611683 -4.903136
v -7.008991 48.601089 -4.799584
v -6.643236 49.785023 -5.698619
v -6.583358 49.779713 -5.690273
v -6.618049 48.883003 -5.812524
v -6.678066 48.884773 -5.821354
v -6.761073 49.775566 -5.585018
v -6.703545 49.786251 -5.680132
v -6.738482 48.883293 -5.803238
v -6.796014 48.872494 -5.708139
v -6.931048 49.661228 -4.763120
v -6.965324 48.775024 -4.883934
v -6.603453 48.888817 -5.862122
v -6.566481 48.868710 -5.699103
v -6.567535 48.705845 -5.718251
v -6.604515 48.724663 -5.881422
v -6.673358 48.890877 -5.872406
v -6.674426 48.725983 -5.891794
v -6.810739 48.876575 -5.740538
v -6.743728 48.889156 -5.851305
v -6.744798 48.723690 -5.870760
v -6.811810 48.711090 -5.759995
v -7.007944 48.763050 -4.780542
v -7.008991 48.601089 -4.799584
vt 0.5482 0.7979
vt 0.5443 0.7994
vt 0.5452 0.7967
vt 0.6486 0.7479
vt 0.6505 0.7428
vt 0.6499 0.7491
vt 0.5415 0.7965
vt 0.5428 0.7943
vt 0.5531 0.7936
vt 0.5478 0.8007
vt 0.5408 0.7892
vt 0.5422 0.7880
vt 0.5528 0.7424
vt 0.5531 0.7361
vt 0.6558 0.7392
vt 0.6608 0.7435
vt 0.6604 0.7453
vt 0.6520 0.7377
vt 0.6529 0.7403
vt 0.6492 0.7406
vt 0.6604 0.7946
vt 0.9511 0.1306
vt 0.9545 0.0794
vt 0.9545 0.1309
vt 0.4658 0.0907
vt 0.5153 0.0969
vt 0.4653 0.0969
vt 0.4685 0.1441
vt 0.5185 0.1441
vt 0.9579 0.0792
vt 0.9579 0.1307
vt 0.6463 0.0446
vt 0.6368 0.0539
vt 0.6368 0.0444
vt 0.2063 0.9725
vt 0.2023 0.9816
vt 0.2023 0.9722
vt 0.7930 0.0791
vt 0.8012 0.0867
vt 0.7921 0.0862
vt 0.1984 0.9817
vt 0.1984 0.9724
vt 0.7930 0.1413
vt 0.8021 0.1418
vt 0.3211 0.7885
vt 0.3171 0.7900
vt 0.3181 0.7873
vt 0.3496 0.7383
vt 0.3516 0.7333
vt 0.3510 0.7396
vt 0.3143 0.7871
vt 0.3156 0.7849
vt 0.3261 0.7841
vt 0.3207 0.7913
vt 0.3137 0.7799
vt 0.3151 0.7786
vt 0.3258 0.7329
vt 0.3261 0.7267
vt 0.3570 0.7297
vt 0.3621 0.7340
vt 0.3617 0.7359
vt 0.3531 0.7282
vt 0.3540 0.7308
vt 0.3503 0.7310
vt 0.3617 0.7852
vt 0.7987 0.2490
vt 0.7953 0.2985
vt 0.7953 0.2487
vt 0.3143 0.4738
vt 0.3621 0.4819
vt 0.3137 0.4799
vt 0.3149 0.5272
vt 0.3628 0.5291
vt 0.7919 0.2987
vt 0.7919 0.2488
vt 0.7008 0.4405
vt 0.7103 0.4499
vt 0.7008 0.4500
vt 0.9581 0.3634
vt 0.9542 0.3538
vt 0.9581 0.3540
vt 0.8254 0.0791
vt 0.8338 0.0866
vt 0.8246 0.0862
vt 0.9621 0.3631
vt 0.9621 0.3537
vt 0.8346 0.1416
vt 0.8256 0.1413
vt 0.3971 0.7875
vt 0.3930 0.7891
vt 0.3940 0.7865
vt 0.4254 0.7373
vt 0.4274 0.7323
vt 0.4269 0.7386
vt 0.3901 0.7863
vt 0.3915 0.7840
vt 0.4023 0.7831
vt 0.3967 0.7904
vt 0.3895 0.7790
vt 0.3909 0.7777
vt 0.4019 0.7319
vt 0.4023 0.7257
vt 0.4330 0.7288
vt 0.4382 0.7332
vt 0.4378 0.7350
vt 0.4290 0.7272
vt 0.4299 0.7299
vt 0.4261 0.7301
vt 0.4378 0.7843
vt 0.6554 0.9087
vt 0.6520 0.9580
vt 0.6520 0.9084
vt 0.2384 0.4741
vt 0.2865 0.4817
vt 0.2378 0.4803
vt 0.2393 0.5276
vt 0.2870 0.5289
vt 0.6486 0.9583
vt 0.6486 0.9086
vt 0.8623 0.4505
vt 0.8532 0.4410
vt 0.8623 0.4410
vt 0.9808 0.1771
vt 0.9847 0.1682
vt 0.9847 0.1773
vt 0.6486 0.8306
vt 0.6582 0.8237
vt 0.6576 0.8309
vt 0.9887 0.1679
vt 0.9887 0.1771
vt 0.6494 0.8856
vt 0.6582 0.8859
vt 0.4730 0.7865
vt 0.4689 0.7881
vt 0.4699 0.7854
vt 0.5012 0.7360
vt 0.5032 0.7310
vt 0.5026 0.7373
vt 0.4659 0.7853
vt 0.4673 0.7830
vt 0.4783 0.7820
vt 0.4726 0.7893
vt 0.4652 0.7780
vt 0.4667 0.7767
vt 0.4779 0.7308
vt 0.4783 0.7245
vt 0.5090 0.7275
vt 0.5142 0.7320
vt 0.5139 0.7338
vt 0.5048 0.7259
vt 0.5058 0.7286
vt 0.5018 0.7287
vt 0.5139 0.7831
vt 0.9515 0.7868
vt 0.9548 0.7370
vt 0.9548 0.7870
vt 0.3895 0.4799
vt 0.4396 0.4748
vt 0.4392 0.4809
vt 0.3908 0.5271
vt 0.4396 0.5281
vt 0.9583 0.7367
vt 0.9583 0.7869
vt 0.8532 0.2893
vt 0.8624 0.2988
vt 0.8532 0.2988
vt 0.9805 0.9399
vt 0.9844 0.9309
vt 0.9844 0.9400
vt 0.8896 0.0863
vt 0.8992 0.0793
vt 0.8988 0.0865
vt 0.9885 0.9307
vt 0.9885 0.9399
vt 0.8903 0.1412
vt 0.8992 0.1414
vt 0.5528 0.7917
vt 0.6554 0.7363
vt 0.6608 0.8009
vt 0.9511 0.0791
vt 0.5158 0.0907
vt 0.6463 0.0541
vt 0.2063 0.9819
vt 0.8021 0.0795
vt 0.3258 0.7823
vt 0.3566 0.7268
vt 0.3621 0.7915
vt 0.7987 0.2987
vt 0.3628 0.4757
vt 0.7103 0.4404
vt 0.9542 0.3632
vt 0.8346 0.0794
vt 0.4019 0.7813
vt 0.4326 0.7259
vt 0.4382 0.7906
vt 0.6554 0.9580
vt 0.2870 0.4755
vt 0.8532 0.4505
vt 0.9808 0.1680
vt 0.6492 0.8234
vt 0.4779 0.7802
vt 0.5085 0.7247
vt 0.5142 0.7894
vt 0.9515 0.7369
vt 0.3899 0.4737
vt 0.8624 0.2893
vt 0.9805 0.9307
vt 0.8901 0.0791
vn 0.1729 0.9622 0.2105
vn -0.2094 -0.9501 -0.2312
vn 0.1730 0.9622 0.2106
vn 0.1730 0.9622 0.2104
vn 0.1730 0.9622 0.2105
vn -0.1236 -0.9670 -0.2226
vn -0.1690 -0.9573 -0.2346
vn -0.1803 -0.9551 -0.2352
vn -0.2315 -0.9476 -0.2203
vn 0.1516 0.1694 -0.9738
vn -0.0612 0.2002 -0.9778
vn -0.0708 0.2014 -0.9770
vn -0.6067 0.2342 -0.7596
vn -0.9213 0.1955 -0.3360
vn -0.9208 0.1957 -0.3373
vn -0.9694 0.1709 -0.1759
vn -0.6010 0.2343 -0.7641
vn 0.9677 -0.0901 -0.2355
vn 0.6892 0.0447 -0.7232
vn 0.6677 0.0515 -0.7427
vn -0.0708 0.2014 -0.9769
vn 0.1406 0.9712 0.1926
vn -0.1671 -0.9637 -0.2081
vn 0.1405 0.9712 0.1926
vn 0.1408 0.9711 0.1925
vn 0.1407 0.9711 0.1926
vn 0.1405 0.9712 0.1925
vn -0.0844 -0.9764 -0.1989
vn -0.1278 -0.9691 -0.2109
vn -0.1388 -0.9674 -0.2118
vn -0.1888 -0.9619 -0.1977
vn 0.1516 0.1693 -0.9738
vn -0.0651 0.2004 -0.9775
vn -0.0709 0.2011 -0.9770
vn -0.6068 0.2339 -0.7597
vn -0.9212 0.1952 -0.3366
vn -0.9209 0.1953 -0.3374
vn -0.9695 0.1704 -0.1759
vn -0.9696 0.1703 -0.1758
vn -0.6034 0.2339 -0.7624
vn 0.6772 0.0487 -0.7342
vn 0.9677 -0.0895 -0.2359
vn 0.6771 0.0487 -0.7343
vn -0.0663 0.2004 -0.9775
vn -0.6041 0.2336 -0.7619
vn -0.9212 0.1949 -0.3368
vn 0.0765 0.9847 0.1566
vn -0.1023 -0.9798 -0.1718
vn 0.0765 0.9847 0.1567
vn 0.0765 0.9847 0.1568
vn -0.0193 -0.9867 -0.1616
vn -0.0627 -0.9827 -0.1742
vn -0.0738 -0.9817 -0.1755
vn -0.1240 -0.9790 -0.1618
vn 0.1500 0.1554 -0.9764
vn -0.0720 0.1797 -0.9811
vn -0.0722 0.1797 -0.9811
vn -0.6103 0.1989 -0.7668
vn -0.9255 0.1581 -0.3441
vn -0.9739 0.1348 -0.1825
vn -0.6102 0.1989 -0.7668
vn 0.9734 -0.0348 -0.2263
vn 0.6789 0.0650 -0.7314
vn 0.6785 0.0651 -0.7317
vn -0.0707 0.1584 -0.9848
vn -0.0708 0.1585 -0.9848
vn -0.9290 0.1213 -0.3497
vn -0.6114 0.1645 -0.7740
vn -0.6115 0.1645 -0.7740
vn -0.9771 0.0996 -0.1882
vn 0.0117 0.9927 0.1198
vn -0.0380 -0.9900 -0.1356
vn 0.0116 0.9927 0.1197
vn 0.0116 0.9927 0.1200
vn 0.0456 -0.9911 -0.1247
vn 0.0018 -0.9905 -0.1378
vn -0.0092 -0.9903 -0.1387
vn -0.0599 -0.9903 -0.1257
vn 0.1481 0.1280 -0.9807
vn -0.0750 0.1376 -0.9877
vn -0.0752 0.1376 -0.9876
vn -0.9308 0.0845 -0.3556
vn -0.6152 0.1298 -0.7776
vn -0.9308 0.0845 -0.3555
vn -0.9790 0.0643 -0.1935
vn -0.9790 0.0642 -0.1935
vn -0.6153 0.1298 -0.7775
vn 0.9756 0.0194 -0.2188
vn 0.6795 0.0813 -0.7292
vn 0.6793 0.0814 -0.7294
vn -0.0724 0.1169 -0.9905
vn -0.9318 0.0483 -0.3597
vn -0.6141 0.0961 -0.7834
vn -0.6141 0.0961 -0.7833
vn -0.9798 0.0296 -0.1978
vn 0.1730 0.9622 0.2103
vn -0.2093 -0.9501 -0.2311
vn 0.1729 0.9622 0.2104
vn -0.1237 -0.9671 -0.2225
vn -0.1691 -0.9573 -0.2345
vn -0.2315 -0.9476 -0.2204
vn 0.9677 -0.0901 -0.2356
vn 0.1407 0.9712 0.1924
vn -0.1672 -0.9637 -0.2080
vn 0.1404 0.9712 0.1924
vn 0.1406 0.9711 0.1926
vn -0.0844 -0.9764 -0.1987
vn -0.1280 -0.9691 -0.2106
vn -0.1389 -0.9674 -0.2116
vn -0.1874 -0.9622 -0.1974
vn 0.1519 0.1692 -0.9738
vn 0.0766 0.9847 0.1568
vn -0.1023 -0.9798 -0.1720
vn 0.0766 0.9847 0.1567
vn -0.0190 -0.9866 -0.1618
vn -0.0629 -0.9827 -0.1743
vn -0.0738 -0.9818 -0.1753
vn -0.1228 -0.9792 -0.1617
vn -0.0379 -0.9900 -0.1357
vn 0.0116 0.9927 0.1198
vn 0.0117 0.9927 0.1197
vn 0.0459 -0.9911 -0.1247
vn 0.0017 -0.9905 -0.1376
vn -0.0092 -0.9903 -0.1388
vn -0.0588 -0.9903 -0.1255
s off
f 2/1/1 4/2/1 1/3/1
f 6/4/2 8/5/2 5/6/2
f 1/3/3 10/7/3 9/8/3
f 2/1/4 12/9/4 3/10/4
f 9/8/5 14/11/5 13/12/5
f 15/13/4 14/11/4 16/14/4
f 17/15/6 19/16/6 20/17/6
f 22/18/7 17/15/7 21/19/7
f 7/20/8 21/19/8 8/5/8
f 23/21/9 6/4/9 5/6/9
s 1
f 26/22/10 28/23/11 25/24/12
f 30/25/13 32/26/14 29/27/15
f 33/28/16 32/26/14 34/29/16
f 25/24/12 31/30/17 30/31/13
f 36/32/18 38/33/19 35/34/20
f 35/35/20 40/36/11 39/37/21
f 42/38/13 44/39/14 41/40/15
f 39/37/21 43/41/17 42/42/13
f 45/43/16 44/39/14 46/44/16
s off
f 48/45/22 50/46/22 47/47/22
f 52/48/23 54/49/23 51/50/23
f 47/47/24 56/51/24 55/52/24
f 48/45/25 58/53/25 49/54/25
f 55/52/26 60/55/26 59/56/26
f 61/57/27 60/55/27 62/58/27
f 63/59/28 65/60/28 66/61/28
f 68/62/29 63/59/29 67/63/29
f 53/64/30 67/63/30 54/49/30
f 69/65/31 52/48/31 51/50/31
s 1
f 72/66/32 74/67/33 71/68/34
f 76/69/35 78/70/36 75/71/37
f 79/72/38 78/70/36 80/73/39
f 71/68/34 77/74/40 76/75/35
f 81/76/41 83/77/42 84/78/43
f 85/79/44 84/80/43 86/81/44
f 88/82/45 90/83/46 87/84/46
f 88/85/45 86/81/44 89/86/45
f 87/84/46 92/87/39 91/88/39
s off
f 94/89/47 96/90/47 93/91/47
f 98/92/48 100/93/48 97/94/48
f 93/91/47 102/95/47 101/96/47
f 94/89/49 104/97/49 95/98/49
f 101/96/50 106/99/50 105/100/50
f 107/101/47 106/99/47 108/102/47
f 109/103/51 111/104/51 112/105/51
f 114/106/52 109/103/52 113/107/52
f 99/108/53 113/107/53 100/93/53
f 115/109/54 98/92/54 97/94/54
s 1
f 118/110/55 120/111/56 117/112/57
f 122/113/58 124/114/59 121/115/59
f 125/116/60 124/114/59 126/117/60
f 117/112/57 123/118/61 122/119/58
f 128/120/62 130/121/63 127/122/64
f 127/123/64 132/124/65 131/125/66
f 133/126/67 135/127/68 136/128/67
f 131/125/66 135/129/68 134/130/69
f 137/131/70 136/128/67 138/132/70
s off
f 140/133/71 142/134/71 139/135/71
f 144/136/72 146/137/72 143/138/72
f 139/135/73 148/139/73 147/140/73
f 140/133/71 150/141/71 141/142/71
f 147/140/74 152/143/74 151/144/74
f 153/145/71 152/143/71 154/146/71
f 155/147/75 157/148/75 158/149/75
f 160/150/76 155/147/76 159/151/76
f 145/152/77 159/151/77 146/137/77
f 161/153/78 144/136/78 143/138/78
s 1
f 164/154/79 166/155/80 163/156/81
f 167/157/82 169/158/83 170/159/84
f 171/160/85 170/159/84 172/161/86
f 163/156/81 169/162/83 168/163/87
f 174/164/88 176/165/89 173/166/90
f 173/167/90 178/168/91 177/169/91
f 179/170/92 181/171/93 182/172/92
f 177/169/91 181/173/93 180/174/94
f 183/175/95 182/172/92 184/176/95
s off
f 2/1/96 3/10/96 4/2/96
f 6/4/97 7/20/97 8/5/97
f 1/3/96 4/2/96 10/7/96
f 2/1/5 11/177/5 12/9/5
f 9/8/98 10/7/98 14/11/98
f 15/13/5 13/12/5 14/11/5
f 17/15/99 18/178/99 19/16/99
f 22/18/100 18/178/100 17/15/100
f 7/20/8 22/18/8 21/19/8
f 23/21/101 24/179/101 6/4/101
s 1
f 26/22/10 27/180/10 28/23/11
f 30/25/13 31/181/17 32/26/14
f 33/28/16 29/27/15 32/26/14
f 25/24/12 28/23/11 31/30/17
f 36/32/18 37/182/102 38/33/19
f 35/35/20 38/183/19 40/36/11
f 42/38/13 43/184/17 44/39/14
f 39/37/21 40/36/11 43/41/17
f 45/43/16 41/40/15 44/39/14
s off
f 48/45/103 49/54/103 50/46/103
f 52/48/104 53/64/104 54/49/104
f 47/47/105 50/46/105 56/51/105
f 48/45/22 57/185/22 58/53/22
f 55/52/106 56/51/106 60/55/106
f 61/57/106 59/56/106 60/55/106
f 63/59/107 64/186/107 65/60/107
f 68/62/108 64/186/108 63/59/108
f 53/64/109 68/62/109 67/63/109
f 69/65/110 70/187/110 52/48/110
s 1
f 72/66/32 73/188/111 74/67/33
f 76/69/35 77/189/40 78/70/36
f 79/72/38 75/71/37 78/70/36
f 71/68/34 74/67/33 77/74/40
f 81/76/41 82/190/42 83/77/42
f 85/79/44 81/191/41 84/80/43
f 88/82/45 89/192/45 90/83/46
f 88/85/45 85/79/44 86/81/44
f 87/84/46 90/83/46 92/87/39
s off
f 94/89/112 95/98/112 96/90/112
f 98/92/113 99/108/113 100/93/113
f 93/91/50 96/90/50 102/95/50
f 94/89/49 103/193/49 104/97/49
f 101/96/47 102/95/47 106/99/47
f 107/101/114 105/100/114 106/99/114
f 109/103/115 110/194/115 111/104/115
f 114/106/116 110/194/116 109/103/116
f 99/108/117 114/106/117 113/107/117
f 115/109/118 116/195/118 98/92/118
s 1
f 118/110/55 119/196/55 120/111/56
f 122/113/58 123/197/61 124/114/59
f 125/116/60 121/115/59 124/114/59
f 117/112/57 120/111/56 123/118/61
f 128/120/62 129/198/62 130/121/63
f 127/123/64 130/199/63 132/124/65
f 133/126/67 134/200/69 135/127/68
f 131/125/66 132/124/65 135/129/68
f 137/131/70 133/126/67 136/128/67
s off
f 140/133/73 141/142/73 142/134/73
f 144/136/119 145/152/119 146/137/119
f 139/135/120 142/134/120 148/139/120
f 140/133/121 149/201/121 150/141/121
f 147/140/71 148/139/71 152/143/71
f 153/145/73 151/144/73 152/143/73
f 155/147/122 156/202/122 157/148/122
f 160/150/123 156/202/123 155/147/123
f 145/152/124 160/150/124 159/151/124
f 161/153/125 162/203/125 144/136/125
s 1
f 164/154/79 165/204/79 166/155/80
f 167/157/82 168/205/87 169/158/83
f 171/160/85 167/157/82 170/159/84
f 163/156/81 166/155/80 169/162/83
f 174/164/88 175/206/88 176/165/89
f 173/167/90 176/207/89 178/168/91
f 179/170/92 180/208/94 181/171/93
f 177/169/91 178/168/91 181/173/93
f 183/175/95 179/170/92 182/172/92
