# Blender v2.78 (sub 0) OBJ File: 'vtrack.blend'
# www.blender.org
o spectator_source_part2.002_Cube.010
v -12.590209 94.212616 -9.848971
v -12.635043 96.256172 -9.849147
v -12.442965 92.176430 -9.848584
v -12.590209 94.212616 -9.848971
v -12.208390 90.151077 -9.847923
v -12.442965 92.176430 -9.848584
v -11.879190 88.142509 -9.846828
v -12.208390 90.151077 -9.847923
v -11.478106 86.150459 -9.845267
v -11.879190 88.142509 -9.846828
v -11.010059 84.176620 -9.843135
v -11.478106 86.150459 -9.845267
v -10.478868 82.223053 -9.840261
v -11.010059 84.176620 -9.843135
v -9.899217 80.287376 -9.836592
v -10.478868 82.223053 -9.840261
v -9.279908 78.368195 -9.832019
v -9.899217 80.287376 -9.836592
v -8.629375 76.463737 -9.826423
v -9.279908 78.368195 -9.832019
v -7.956737 74.571533 -9.819672
v -8.629375 76.463737 -9.826423
v -7.271393 72.688507 -9.811646
v -7.956737 74.571533 -9.819672
v -6.582549 70.811226 -9.802251
v -7.271393 72.688507 -9.811646
v -5.898427 68.936142 -9.791430
v -6.582549 70.811226 -9.802251
v -5.225269 67.059837 -9.779196
v -5.898427 68.936142 -9.791430
v -13.065143 94.212616 -9.848971
v -12.940077 96.256172 -9.849147
v -13.079541 92.176430 -9.848584
v -12.735015 88.142509 -9.846828
v -12.903272 90.151077 -9.847923
v -11.704941 84.176620 -9.843135
v -12.333931 86.150459 -9.845267
v -11.173750 82.223053 -9.840261
v -10.594098 80.287376 -9.836592
v -9.208624 76.463737 -9.826423
v -9.859157 78.368195 -9.832019
v -8.535985 74.571533 -9.819672
v -7.161797 70.811226 -9.802251
v -7.850641 72.688507 -9.811646
v -5.720913 67.059837 -9.779196
v -6.477674 68.936142 -9.791430
vt -3.0497 -9.8071
vt -3.0910 -9.1070
vt -3.3008 -9.8071
vt -2.8399 -9.1070
vt -2.8251 -8.4129
vt -2.6157 -8.4129
vt -2.5895 -7.7240
vt -1.6389 -5.6791
vt -1.6003 -5.0006
vt -1.8482 -5.6791
vt -1.3910 -5.0006
vt -1.3260 -4.3218
vt -2.3802 -7.7240
vt -2.3460 -7.0395
vt -3.5563 -11.9473
vt -3.7206 -11.2271
vt -3.8657 -11.9473
vt -2.1367 -7.0395
vt -2.0977 -6.3583
vt -1.8884 -6.3583
vt -3.4112 -11.2271
vt -3.4930 -10.5135
vt -3.2419 -10.5135
vt -3.8135 -14.1416
vt -3.9903 -13.4056
vt -3.9852 -14.1416
vt -3.7603 -13.4056
vt -3.9266 -12.6735
vt -3.6754 -12.6735
vt -3.8135 -14.1416
vt -3.9400 -14.8802
vt -3.8297 -14.8802
vt -2.8399 -9.1070
vt -2.6157 -8.4129
vt -2.3802 -7.7240
vt -1.3910 -5.0006
vt -1.1470 -4.3218
vt -2.1367 -7.0395
vt -3.4112 -11.2271
vt -1.8884 -6.3583
vt -1.6389 -5.6791
vt -3.2419 -10.5135
vt -3.0497 -9.8071
vt -3.7603 -13.4056
vt -3.6754 -12.6735
vt -3.5563 -11.9473
vn 0.0000 -0.0019 -1.0000
vn 0.0000 -0.0024 -1.0000
vn 0.0000 -0.0029 -1.0000
vn 0.0000 -0.0058 -1.0000
vn 0.0000 -0.0065 -1.0000
vn 0.0000 -0.0036 -1.0000
vn 0.0000 -0.0008 -1.0000
vn 0.0000 -0.0043 -1.0000
vn 0.0000 -0.0050 -1.0000
vn 0.0000 -0.0011 -1.0000
vn 0.0000 -0.0015 -1.0000
vn 0.0000 -0.0002 -1.0000
vn 0.0000 -0.0003 -1.0000
vn 0.0000 -0.0005 -1.0000
vn 0.0000 -0.0001 -1.0000
s 1
f 16/1/1 39/2/1 38/3/1
f 18/4/2 41/5/2 39/2/2
f 20/6/3 40/7/3 41/5/3
f 28/8/4 46/9/4 43/10/4
f 30/11/5 45/12/5 46/9/5
f 22/13/6 42/14/6 40/7/6
f 10/15/7 37/16/7 34/17/7
f 24/18/8 44/19/8 42/14/8
f 26/20/9 43/10/9 44/19/9
f 12/21/10 36/22/10 37/16/10
f 14/23/11 38/3/11 36/22/11
f 4/24/12 33/25/12 31/26/12
f 6/27/13 35/28/13 33/25/13
f 8/29/14 34/17/14 35/28/14
f 1/30/15 32/31/15 2/32/15
f 16/1/1 15/33/1 39/2/1
f 18/4/2 17/34/2 41/5/2
f 20/6/3 19/35/3 40/7/3
f 28/8/4 27/36/4 46/9/4
f 30/11/5 29/37/5 45/12/5
f 22/13/6 21/38/6 42/14/6
f 10/15/7 9/39/7 37/16/7
f 24/18/8 23/40/8 44/19/8
f 26/20/9 25/41/9 43/10/9
f 12/21/10 11/42/10 36/22/10
f 14/23/11 13/43/11 38/3/11
f 4/24/12 3/44/12 33/25/12
f 6/27/13 5/45/13 35/28/13
f 8/29/14 7/46/14 34/17/14
f 1/30/15 31/26/15 32/31/15
