# Blender v2.78 (sub 0) OBJ File: 'vtrack.blend'
# www.blender.org
o spectator_source_part2.005_Cube.013
v -0.007859 -44.056854 -7.892929
v 12.642616 -45.416470 -7.892928
v -6.601613 -38.418873 -7.900389
v -8.957843 -38.418873 -7.900389
v -23.028879 -38.418873 -7.900389
v -11.134942 -84.678757 -7.892921
v 1.515533 -84.541702 -7.892921
v -18.961967 -83.974823 -7.900381
v -21.318195 -83.974823 -7.900381
v -23.028879 -83.974823 -7.900381
v -4.954765 -61.900780 -7.892925
v 7.695710 -61.763725 -7.892925
v -1.244586 -48.517838 -7.892928
v -2.481312 -52.978817 -7.892927
v -3.718039 -57.439796 -7.892926
v 11.405890 -49.503284 -6.770382
v 10.169163 -53.590099 -5.624681
v 8.932436 -57.676910 -6.770381
vt -7.4595 1.4908
vt -6.8618 17.4066
vt -7.4595 17.4066
vt -0.7127 8.1344
vt -1.1447 9.6929
vt -1.7203 1.4908
vt 1.1156 17.6023
vt -3.3037 17.6502
vt -2.5435 1.4908
vt -6.0386 17.4066
vt 3.2746 9.6450
vt 0.5835 3.4592
vt 4.5465 5.1397
vt 0.1514 5.0176
vt 4.0997 6.3143
vt -0.2806 6.5760
vt 3.6919 7.9638
vt 5.0028 3.9342
vn 0.0000 -0.0000 -1.0000
vn 0.0240 0.0082 -0.9997
vn 0.0005 -0.0001 -1.0000
vn 0.0004 -0.0001 -1.0000
vn 0.0432 0.1140 -0.9925
vn 0.0302 -0.0331 -0.9990
vn 0.0253 -0.2442 -0.9694
vn 0.0626 -0.0324 -0.9975
vn 0.1302 -0.0488 -0.9903
vn 0.0685 -0.0042 -0.9976
vn 0.1344 0.1967 -0.9712
vn -0.0276 -0.2570 -0.9660
s 1
f 5/1/1 9/2/1 10/3/1
f 15/4/2 11/5/3 3/6/4
f 11/5/3 7/7/1 6/8/3
f 4/9/1 8/10/4 9/2/1
f 15/4/2 12/11/5 11/5/3
f 1/12/6 16/13/7 13/14/8
f 13/14/8 17/15/9 14/16/10
f 14/16/10 18/17/11 15/4/2
f 5/1/1 4/9/1 9/2/1
f 8/10/4 3/6/4 11/5/3
f 1/12/6 13/14/8 3/6/4
f 14/16/10 15/4/2 3/6/4
f 3/6/4 13/14/8 14/16/10
f 11/5/3 6/8/3 8/10/4
f 11/5/3 12/11/5 7/7/1
f 4/9/1 3/6/4 8/10/4
f 15/4/2 18/17/11 12/11/5
f 1/12/6 2/18/12 16/13/7
f 13/14/8 16/13/7 17/15/9
f 14/16/10 17/15/9 18/17/11
