# Blender v2.78 (sub 0) OBJ File: 'vtrack.blend'
# www.blender.org
o spectator_wall_source.007_Cube.035
v -1.373902 13.844261 -5.084769
v -1.434120 13.844564 -5.077232
v -1.447517 13.844269 -5.127503
v -1.377377 13.843915 -5.136282
v -1.258195 14.014459 -4.969380
v -1.242693 14.012922 -5.001663
v -1.307021 14.012156 -5.114709
v -1.313423 14.013799 -5.066436
v -1.313936 13.844149 -5.065163
v -1.307531 13.843784 -5.113446
v -1.469233 13.845692 -4.937018
v -1.488414 13.845582 -4.964188
v -1.258708 13.844598 -4.968105
v -1.243204 13.844307 -5.000397
v -1.109312 13.849810 -4.134359
v -1.069195 13.850377 -4.029287
v -1.433609 14.013915 -5.078503
v -1.447008 14.012295 -5.128765
v -1.487905 14.013642 -4.965449
v -1.468721 14.015072 -4.938289
v -1.373390 14.013751 -5.086041
v -1.376868 14.012101 -5.137544
v -1.108796 14.020704 -4.135642
v -1.068680 14.020189 -4.030561
v -1.384095 12.921268 -5.080713
v -1.444306 12.922299 -5.073179
v -1.434120 13.844564 -5.077232
v -1.373902 13.844261 -5.084769
v -1.268923 12.919508 -4.964040
v -1.324138 12.920285 -5.061103
v -1.313936 13.844149 -5.065163
v -1.258708 13.844598 -4.968105
v -1.119597 12.918348 -4.130265
v -1.109312 13.849810 -4.134359
v -1.447517 13.844269 -5.127503
v -1.488414 13.845582 -4.964188
v -1.487905 14.013642 -4.965449
v -1.447008 14.012295 -5.128765
v -1.377377 13.843915 -5.136282
v -1.376868 14.012101 -5.137544
v -1.243204 13.844307 -5.000397
v -1.307531 13.843784 -5.113446
v -1.307021 14.012156 -5.114709
v -1.242693 14.012922 -5.001663
v -1.069195 13.850377 -4.029287
v -1.068680 14.020189 -4.030561
v -1.378265 14.937510 -5.095197
v -1.438480 14.936890 -5.087651
v -1.451875 14.936161 -5.137918
v -1.381740 14.936883 -5.146707
v -1.265318 15.110096 -4.980555
v -1.249797 15.108676 -5.012833
v -1.314116 15.106420 -5.125865
v -1.320539 15.108155 -5.077598
v -1.318303 14.938435 -5.075601
v -1.311898 14.937961 -5.123883
v -1.473592 14.938072 -4.947437
v -1.492772 14.937539 -4.974603
v -1.263079 14.940185 -4.978555
v -1.247576 14.939999 -5.010848
v -1.113703 14.951411 -4.144865
v -1.073589 14.953075 -4.039803
v -1.440712 15.106297 -5.089645
v -1.454088 15.104257 -5.139897
v -1.494985 15.105615 -4.976581
v -1.475824 15.107463 -4.949431
v -1.380499 15.107067 -5.097192
v -1.383955 15.105151 -5.148687
v -1.115952 15.122132 -4.146873
v -1.075822 15.122690 -4.041799
v -1.373390 14.013751 -5.086041
v -1.433609 14.013916 -5.078503
v -1.438480 14.936890 -5.087651
v -1.378265 14.937510 -5.095197
v -1.258195 14.014459 -4.969380
v -1.313423 14.013799 -5.066436
v -1.318303 14.938435 -5.075601
v -1.263079 14.940185 -4.978555
v -1.108796 14.020705 -4.135642
v -1.113703 14.951411 -4.144865
v -1.451875 14.936161 -5.137918
v -1.492772 14.937539 -4.974603
v -1.494985 15.105615 -4.976581
v -1.454088 15.104257 -5.139897
v -1.381740 14.936883 -5.146707
v -1.383955 15.105151 -5.148687
v -1.247576 14.939999 -5.010848
v -1.311898 14.937961 -5.123883
v -1.314116 15.106420 -5.125865
v -1.249797 15.108676 -5.012833
v -1.073589 14.953075 -4.039803
v -1.075822 15.122690 -4.041799
v -1.400079 16.030859 -5.109303
v -1.460274 16.029242 -5.101744
v -1.473662 16.028152 -5.152007
v -1.403549 16.030039 -5.160810
v -1.289949 16.205647 -4.995100
v -1.274412 16.204418 -5.027378
v -1.338700 16.200788 -5.140391
v -1.345144 16.202528 -5.092128
v -1.340138 16.032850 -5.089720
v -1.333732 16.032358 -5.138002
v -1.495380 16.030199 -4.961527
v -1.514552 16.029270 -4.988688
v -1.284938 16.035791 -4.992690
v -1.269438 16.035784 -5.024985
v -1.135654 16.051746 -4.159060
v -1.095559 16.054367 -4.054011
v -1.465270 16.198587 -5.104147
v -1.478618 16.196199 -5.154391
v -1.519506 16.197248 -4.991071
v -1.500375 16.199486 -4.963929
v -1.405080 16.200369 -5.111708
v -1.408511 16.198273 -5.163197
v -1.140684 16.222233 -4.161479
v -1.100554 16.223732 -4.056414
v -1.380499 15.107067 -5.097192
v -1.440712 15.106298 -5.089645
v -1.460274 16.029242 -5.101744
v -1.400079 16.030859 -5.109303
v -1.265317 15.110096 -4.980555
v -1.320538 15.108157 -5.077598
v -1.340138 16.032850 -5.089720
v -1.284938 16.035791 -4.992690
v -1.115952 15.122133 -4.146873
v -1.135654 16.051746 -4.159060
v -1.473662 16.028152 -5.152007
v -1.514552 16.029270 -4.988688
v -1.519506 16.197248 -4.991071
v -1.478618 16.196199 -5.154391
v -1.403549 16.030039 -5.160810
v -1.408511 16.198273 -5.163197
v -1.269438 16.035784 -5.024985
v -1.333732 16.032358 -5.138002
v -1.338700 16.200788 -5.140391
v -1.274412 16.204418 -5.027378
v -1.095559 16.054367 -4.054011
v -1.100554 16.223732 -4.056414
v -1.440827 17.123566 -5.125393
v -1.500980 17.120855 -5.117818
v -1.514357 17.119469 -5.168077
v -1.444293 17.122627 -5.176899
v -1.334046 17.300402 -5.011387
v -1.318495 17.299435 -5.043667
v -1.382731 17.294519 -5.156662
v -1.389196 17.296181 -5.108398
v -1.380928 17.126675 -5.105827
v -1.374525 17.126247 -5.154110
v -1.536068 17.121321 -4.977594
v -1.555225 17.120010 -5.004750
v -1.325770 17.130728 -5.008813
v -1.310280 17.130970 -5.041112
v -1.176620 17.150303 -4.175237
v -1.136557 17.153769 -4.070200
v -1.509231 17.290001 -5.120384
v -1.522543 17.287325 -5.170622
v -1.563406 17.287750 -5.007294
v -1.544314 17.290365 -4.980158
v -1.449086 17.292892 -5.127961
v -1.452489 17.290691 -5.179448
v -1.184918 17.320440 -4.177817
v -1.144798 17.322771 -4.072762
v -1.405080 16.200369 -5.111708
v -1.465270 16.198587 -5.104147
v -1.500980 17.120855 -5.117818
v -1.440827 17.123566 -5.125393
v -1.289949 16.205647 -4.995100
v -1.345144 16.202528 -5.092128
v -1.380928 17.126675 -5.105827
v -1.325770 17.130728 -5.008813
v -1.140684 16.222233 -4.161479
v -1.176620 17.150303 -4.175237
v -1.514357 17.119469 -5.168077
v -1.555225 17.120010 -5.004750
v -1.563406 17.287750 -5.007294
v -1.522543 17.287325 -5.170622
v -1.444293 17.122627 -5.176899
v -1.452489 17.290691 -5.179448
v -1.310280 17.130970 -5.041112
v -1.374525 17.126247 -5.154110
v -1.382731 17.294519 -5.156662
v -1.318495 17.299435 -5.043667
v -1.136557 17.153769 -4.070200
v -1.144798 17.322771 -4.072762
v -1.503235 18.214703 -5.141795
v -1.563320 18.210781 -5.134202
v -1.576683 18.209148 -5.184457
v -1.506699 18.213715 -5.193300
v -1.399976 18.393488 -5.027722
v -1.384421 18.392859 -5.060009
v -1.448583 18.386707 -5.172986
v -1.455063 18.388206 -5.124718
v -1.443404 18.219004 -5.122247
v -1.437011 18.218725 -5.170532
v -1.598364 18.210484 -4.993967
v -1.617500 18.208801 -5.021116
v -1.388307 18.224121 -5.025249
v -1.372835 18.224688 -5.057553
v -1.239304 18.246332 -4.191712
v -1.199284 18.250557 -4.086687
v -1.574951 18.379591 -5.136667
v -1.588224 18.376678 -5.186904
v -1.629030 18.376169 -5.023561
v -1.609985 18.379154 -4.996429
v -1.514880 18.383711 -5.144263
v -1.518256 18.381475 -5.195750
v -1.250997 18.416035 -4.194190
v -1.210896 18.419117 -4.089148
v -1.449087 17.292894 -5.127962
v -1.509231 17.290003 -5.120384
v -1.563320 18.210781 -5.134202
v -1.503235 18.214703 -5.141795
v -1.334046 17.300404 -5.011387
v -1.389196 17.296183 -5.108398
v -1.443404 18.219004 -5.122247
v -1.388307 18.224121 -5.025249
v -1.184919 17.320442 -4.177817
v -1.239304 18.246332 -4.191712
v -1.576683 18.209148 -5.184457
v -1.617500 18.208801 -5.021116
v -1.629030 18.376169 -5.023561
v -1.588224 18.376678 -5.186904
v -1.506699 18.213715 -5.193300
v -1.518256 18.381475 -5.195750
v -1.372835 18.224688 -5.057553
v -1.437011 18.218725 -5.170532
v -1.448583 18.386707 -5.172986
v -1.384421 18.392859 -5.060009
v -1.199284 18.250557 -4.086687
v -1.210896 18.419117 -4.089148
v -1.588206 19.303400 -5.156975
v -1.648186 19.298143 -5.149364
v -1.661533 19.296301 -5.199615
v -1.591671 19.302423 -5.208480
v -1.488837 19.484070 -5.042627
v -1.473287 19.483849 -5.074920
v -1.537349 19.476475 -5.187880
v -1.543838 19.477737 -5.139608
v -1.528476 19.308987 -5.137445
v -1.522099 19.308929 -5.185733
v -1.683151 19.296839 -5.009114
v -1.702258 19.294781 -5.036259
v -1.473460 19.315155 -5.040462
v -1.458019 19.316114 -5.072771
v -1.324602 19.339247 -4.206951
v -1.284637 19.344175 -4.101935
v -1.663509 19.466467 -5.151521
v -1.676738 19.463350 -5.201756
v -1.717444 19.461628 -5.038397
v -1.698458 19.464987 -5.011269
v -1.603549 19.471943 -5.159135
v -1.606899 19.469727 -5.210624
v -1.340001 19.508398 -4.209119
v -1.299929 19.512184 -4.104088
v -1.514881 18.383713 -5.144263
v -1.574951 18.379593 -5.136667
v -1.648186 19.298143 -5.149364
v -1.588206 19.303400 -5.156975
v -1.399976 18.393490 -5.027722
v -1.455063 18.388206 -5.124718
v -1.528476 19.308987 -5.137445
v -1.473460 19.315155 -5.040462
v -1.250997 18.416033 -4.194190
v -1.324602 19.339247 -4.206951
v -1.661533 19.296301 -5.199615
v -1.702258 19.294781 -5.036259
v -1.717444 19.461628 -5.038397
v -1.676738 19.463350 -5.201756
v -1.591671 19.302423 -5.208480
v -1.606899 19.469727 -5.210624
v -1.458019 19.316114 -5.072771
v -1.522099 19.308929 -5.185733
v -1.537349 19.476475 -5.187880
v -1.473287 19.483849 -5.074920
v -1.284637 19.344175 -4.101935
v -1.299929 19.512184 -4.104088
v -1.698055 20.388615 -5.169672
v -1.757885 20.381887 -5.162044
v -1.771213 20.379858 -5.212294
v -1.701525 20.387691 -5.221179
v -1.603017 20.571117 -5.054872
v -1.587486 20.571373 -5.087175
v -1.651417 20.562750 -5.200121
v -1.657905 20.563713 -5.151841
v -1.638465 20.395590 -5.150159
v -1.632118 20.395817 -5.198450
v -1.792726 20.379362 -5.021780
v -1.811794 20.376915 -5.048920
v -1.583557 20.402826 -5.053188
v -1.568164 20.404245 -5.085503
v -1.434835 20.428267 -4.219693
v -1.394939 20.433876 -4.114686
v -1.777272 20.549547 -5.163722
v -1.790451 20.546253 -5.213959
v -1.831004 20.543074 -5.050583
v -1.812089 20.546814 -5.023456
v -1.717469 20.556511 -5.171352
v -1.720795 20.554363 -5.222847
v -1.454316 20.596739 -4.221378
v -1.414286 20.601215 -4.116360
v -1.603549 19.471943 -5.159135
v -1.663509 19.466467 -5.151521
v -1.757885 20.381887 -5.162044
v -1.698055 20.388615 -5.169672
v -1.488837 19.484070 -5.042627
v -1.543838 19.477737 -5.139608
v -1.638465 20.395590 -5.150159
v -1.583557 20.402826 -5.053188
v -1.340001 19.508398 -4.209119
v -1.434835 20.428267 -4.219693
v -1.771213 20.379858 -5.212294
v -1.811794 20.376915 -5.048920
v -1.831004 20.543074 -5.050583
v -1.790451 20.546253 -5.213959
v -1.701525 20.387691 -5.221179
v -1.720795 20.554363 -5.222847
v -1.568164 20.404245 -5.085503
v -1.632118 20.395817 -5.198450
v -1.651417 20.562750 -5.200121
v -1.587486 20.571373 -5.087175
v -1.394939 20.433876 -4.114686
v -1.414286 20.601215 -4.116360
v -1.835053 21.469236 -5.178974
v -1.894682 21.460922 -5.171331
v -1.907987 21.458708 -5.221579
v -1.838533 21.468391 -5.230480
v -1.744740 21.653582 -5.063627
v -1.729243 21.654352 -5.095938
v -1.793002 21.644411 -5.208872
v -1.799479 21.645044 -5.160586
v -1.775653 21.477707 -5.159472
v -1.769347 21.478256 -5.207767
v -1.929349 21.457029 -5.031056
v -1.948365 21.454172 -5.058192
v -1.720888 21.486061 -5.062511
v -1.705559 21.487989 -5.094830
v -1.572315 21.512680 -4.229026
v -1.532508 21.518993 -4.124025
v -1.918438 21.627768 -5.172442
v -1.931560 21.624290 -5.222682
v -1.971902 21.619505 -5.059293
v -1.953074 21.623657 -5.032165
v -1.858845 21.636335 -5.180086
v -1.862149 21.634268 -5.231584
v -1.596196 21.680403 -4.230143
v -1.556226 21.685591 -4.125134
v -1.717469 20.556513 -5.171353
v -1.777272 20.549549 -5.163722
v -1.894682 21.460922 -5.171331
v -1.835053 21.469236 -5.178974
v -1.603017 20.571119 -5.054872
v -1.657905 20.563715 -5.151841
v -1.775653 21.477707 -5.159472
v -1.720888 21.486061 -5.062511
v -1.454316 20.596739 -4.221379
v -1.572315 21.512680 -4.229026
v -1.907987 21.458708 -5.221579
v -1.948365 21.454172 -5.058192
v -1.971902 21.619505 -5.059293
v -1.931560 21.624290 -5.222682
v -1.838533 21.468391 -5.230480
v -1.862149 21.634268 -5.231584
v -1.705559 21.487989 -5.094830
v -1.769347 21.478256 -5.207767
v -1.793002 21.644411 -5.208872
v -1.729243 21.654352 -5.095938
v -1.532508 21.518993 -4.124025
v -1.556226 21.685591 -4.125134
v -2.000751 22.544401 -5.184702
v -2.060125 22.534433 -5.177051
v -2.073396 22.532001 -5.227298
v -2.004240 22.543612 -5.236209
v -1.915386 22.730648 -5.068870
v -1.899937 22.731936 -5.101188
v -1.963468 22.720562 -5.214116
v -1.969930 22.720882 -5.165824
v -1.941593 22.554438 -5.165209
v -1.935335 22.555304 -5.213505
v -2.094582 22.529177 -5.036768
v -2.113529 22.525881 -5.063902
v -1.887015 22.564005 -5.068254
v -1.871765 22.566448 -5.100576
v -1.738693 22.592230 -4.234778
v -1.699006 22.599321 -4.129781
v -2.088376 22.700375 -5.177664
v -2.101429 22.696678 -5.227906
v -2.141524 22.690329 -5.064510
v -2.122800 22.694921 -5.037381
v -2.029046 22.710600 -5.185316
v -2.032324 22.708586 -5.236818
v -1.767121 22.759207 -4.235395
v -1.727244 22.765194 -4.130393
v -1.858845 21.636337 -5.180086
v -1.918439 21.627769 -5.172442
v -2.060125 22.534433 -5.177051
v -2.000751 22.544401 -5.184702
v -1.744740 21.653584 -5.063627
v -1.799479 21.645046 -5.160587
v -1.941593 22.554438 -5.165209
v -1.887015 22.564005 -5.068254
v -1.596197 21.680405 -4.230143
v -1.738693 22.592230 -4.234778
v -2.073396 22.532001 -5.227298
v -2.113529 22.525881 -5.063902
v -2.141524 22.690329 -5.064510
v -2.101429 22.696678 -5.227906
v -2.004240 22.543612 -5.236209
v -2.032324 22.708586 -5.236818
v -1.871765 22.566448 -5.100576
v -1.935335 22.555304 -5.213505
v -1.963468 22.720562 -5.214116
v -1.899937 22.731936 -5.101188
v -1.699006 22.599321 -4.129781
v -1.727244 22.765194 -4.130393
v -2.195746 23.613441 -5.187787
v -2.254820 23.601831 -5.180131
v -2.268039 23.599119 -5.230377
v -2.199232 23.612642 -5.239294
v -2.115586 23.801603 -5.071698
v -2.100188 23.803362 -5.104019
v -2.163421 23.790400 -5.216943
v -2.169874 23.790472 -5.168649
v -2.136879 23.625071 -5.168298
v -2.130666 23.626186 -5.216595
v -2.289064 23.595404 -5.039845
v -2.307924 23.591631 -5.066978
v -2.082546 23.635981 -5.071347
v -2.067382 23.638893 -5.103671
v -1.934725 23.666925 -4.237878
v -1.895207 23.674936 -4.132884
v -2.287716 23.766735 -5.180480
v -2.300680 23.762754 -5.230724
v -2.340529 23.755087 -5.067324
v -2.321929 23.760151 -5.040194
v -2.228692 23.778595 -5.188136
v -2.231930 23.776567 -5.239641
v -1.967876 23.833105 -4.238230
v -1.928142 23.840048 -4.133234
v -2.029046 22.710598 -5.185316
v -2.088377 22.700373 -5.177664
v -2.254820 23.601831 -5.180131
v -2.195746 23.613441 -5.187787
v -1.915386 22.730646 -5.068870
v -1.969930 22.720881 -5.165824
v -2.136879 23.625071 -5.168298
v -2.082546 23.635981 -5.071347
v -1.767121 22.759207 -4.235395
v -1.934725 23.666925 -4.237878
v -2.268039 23.599119 -5.230377
v -2.307924 23.591631 -5.066978
v -2.340529 23.755087 -5.067324
v -2.300680 23.762754 -5.230724
v -2.199232 23.612642 -5.239294
v -2.231930 23.776567 -5.239641
v -2.067382 23.638893 -5.103671
v -2.130666 23.626186 -5.216595
v -2.163421 23.790400 -5.216943
v -2.100188 23.803362 -5.104019
v -1.895207 23.674936 -4.132884
v -1.928142 23.840048 -4.133234
v -2.420104 24.675537 -5.190087
v -2.478843 24.662338 -5.182428
v -2.491983 24.659250 -5.232673
v -2.423566 24.674625 -5.241593
v -2.344905 24.865734 -5.074090
v -2.329558 24.867882 -5.106410
v -2.392408 24.853142 -5.219330
v -2.398864 24.853077 -5.171037
v -2.361574 24.688763 -5.170602
v -2.355392 24.690027 -5.218899
v -2.512904 24.655037 -5.042140
v -2.531655 24.650745 -5.069271
v -2.307558 24.701172 -5.073654
v -2.292478 24.704481 -5.105978
v -2.160648 24.736404 -4.240194
v -2.121363 24.745520 -4.135202
v -2.516023 24.826166 -5.182861
v -2.528870 24.821800 -5.233103
v -2.568515 24.813175 -5.069701
v -2.550060 24.818760 -5.042572
v -2.457339 24.839607 -5.190521
v -2.460517 24.837454 -5.242024
v -2.198181 24.901785 -4.240633
v -2.158659 24.909864 -4.135637
v -2.228693 23.778597 -5.188137
v -2.287717 23.766737 -5.180481
v -2.478843 24.662338 -5.182428
v -2.420104 24.675537 -5.190087
v -2.115586 23.801605 -5.071699
v -2.169875 23.790474 -5.168649
v -2.361574 24.688763 -5.170602
v -2.307558 24.701172 -5.073654
v -1.967877 23.833107 -4.238231
v -2.160648 24.736404 -4.240194
v -2.491983 24.659250 -5.232673
v -2.531655 24.650745 -5.069271
v -2.568515 24.813175 -5.069701
v -2.528870 24.821800 -5.233103
v -2.423566 24.674625 -5.241593
v -2.460517 24.837454 -5.242024
v -2.292478 24.704481 -5.105978
v -2.355392 24.690027 -5.218899
v -2.392408 24.853142 -5.219330
v -2.329558 24.867882 -5.106410
v -2.121363 24.745520 -4.135202
v -2.158659 24.909864 -4.135637
v -2.457339 24.839607 -5.190521
v -2.516023 24.826166 -5.182861
v -2.730485 25.715645 -5.186381
v -2.672107 25.730354 -5.194046
v -2.344905 24.865734 -5.074090
v -2.398864 24.853077 -5.171037
v -2.613953 25.745155 -5.174566
v -2.560337 25.759233 -5.077625
v -2.198181 24.901785 -4.240633
v -2.414885 25.800541 -4.244188
vt 0.8821 0.8564
vt 0.9377 0.8103
vt 0.8821 0.8103
vt 0.8813 0.6770
vt 0.9369 0.7619
vt 0.9369 0.6770
vt 0.9377 0.7623
vt 0.8821 0.7623
vt 0.9377 0.9680
vt 0.9377 0.8564
vt 0.9377 0.6774
vt 0.8821 0.6774
vt 0.8821 0.0334
vt 0.9377 0.0334
vt 0.9369 0.8560
vt 0.8813 0.9676
vt 0.9369 0.9676
vt 0.8813 0.8099
vt 0.9369 0.8099
vt 0.8813 0.7619
vt 0.9369 0.0330
vt 0.7085 0.9439
vt 0.0113 0.9999
vt 0.0113 0.9439
vt 0.7085 0.7824
vt 0.0113 0.8856
vt 0.0113 0.7824
vt 0.7085 0.0001
vt 0.0113 0.0001
vt 0.7085 0.8856
vt 0.8386 0.8822
vt 0.7188 1.0000
vt 0.7188 0.8822
vt 0.8386 0.8327
vt 0.7188 0.8327
vt 0.8386 0.7813
vt 0.7188 0.6903
vt 0.8386 0.6903
vt 0.7188 0.7813
vt 0.7188 0.0000
vt 0.8386 0.0000
vt 0.8821 0.8564
vt 0.9377 0.8103
vt 0.8821 0.8103
vt 0.8813 0.6770
vt 0.9369 0.7619
vt 0.9369 0.6770
vt 0.9377 0.7623
vt 0.8821 0.7623
vt 0.9377 0.9680
vt 0.9377 0.8564
vt 0.9377 0.6774
vt 0.8821 0.6774
vt 0.8821 0.0334
vt 0.9377 0.0334
vt 0.9369 0.8560
vt 0.8813 0.9676
vt 0.9369 0.9676
vt 0.8813 0.8099
vt 0.9369 0.8099
vt 0.8813 0.7619
vt 0.9369 0.0330
vt 0.7085 0.9999
vt 0.0113 0.9439
vt 0.7085 0.9439
vt 0.7085 0.8856
vt 0.0113 0.7824
vt 0.7085 0.7824
vt 0.0113 0.0001
vt 0.7085 0.0001
vt 0.0113 0.8856
vt 0.8386 0.8822
vt 0.7188 1.0000
vt 0.7188 0.8822
vt 0.7188 0.8327
vt 0.8386 0.8327
vt 0.8386 0.7813
vt 0.7188 0.6903
vt 0.8386 0.6903
vt 0.7188 0.7813
vt 0.7188 0.0000
vt 0.8386 0.0000
vt 0.8821 0.8564
vt 0.9377 0.8103
vt 0.8821 0.8103
vt 0.8813 0.6770
vt 0.9369 0.7619
vt 0.9369 0.6770
vt 0.9377 0.7623
vt 0.8821 0.7623
vt 0.9377 0.9680
vt 0.9377 0.8564
vt 0.9377 0.6774
vt 0.8821 0.6774
vt 0.8821 0.0334
vt 0.9377 0.0334
vt 0.9369 0.8560
vt 0.8813 0.9676
vt 0.9369 0.9676
vt 0.8813 0.8099
vt 0.9369 0.8099
vt 0.8813 0.7619
vt 0.9369 0.0330
vt 0.7085 0.9439
vt 0.0113 0.9999
vt 0.0113 0.9439
vt 0.7085 0.8856
vt 0.0113 0.7824
vt 0.7085 0.7824
vt 0.0113 0.0001
vt 0.7085 0.0001
vt 0.0113 0.8856
vt 0.8386 0.8822
vt 0.7188 1.0000
vt 0.7188 0.8822
vt 0.8386 0.8327
vt 0.7188 0.8327
vt 0.8386 0.6903
vt 0.7188 0.7813
vt 0.7188 0.6903
vt 0.8386 0.7813
vt 0.8386 0.0000
vt 0.7188 0.0000
vt 0.8821 0.8564
vt 0.9377 0.8103
vt 0.8821 0.8103
vt 0.8813 0.6770
vt 0.9369 0.7619
vt 0.9369 0.6770
vt 0.9377 0.7623
vt 0.8821 0.7623
vt 0.9377 0.9680
vt 0.9377 0.8564
vt 0.9377 0.6774
vt 0.8821 0.6774
vt 0.8821 0.0334
vt 0.9377 0.0334
vt 0.9369 0.8560
vt 0.8813 0.9676
vt 0.9369 0.9676
vt 0.8813 0.8099
vt 0.9369 0.8099
vt 0.8813 0.7619
vt 0.9369 0.0330
vt 0.7085 0.9439
vt 0.0113 0.9999
vt 0.0113 0.9439
vt 0.7085 0.7824
vt 0.0113 0.8856
vt 0.0113 0.7824
vt 0.0113 0.0001
vt 0.7085 0.0001
vt 0.7085 0.8856
vt 0.8386 0.8822
vt 0.7188 1.0000
vt 0.7188 0.8822
vt 0.7188 0.8327
vt 0.8386 0.8327
vt 0.8386 0.7813
vt 0.7188 0.6903
vt 0.8386 0.6903
vt 0.7188 0.7813
vt 0.7188 0.0000
vt 0.8386 0.0000
vt 0.8821 0.8564
vt 0.9377 0.8103
vt 0.8821 0.8103
vt 0.8813 0.6770
vt 0.9369 0.7619
vt 0.9369 0.6770
vt 0.9377 0.7623
vt 0.8821 0.7623
vt 0.9377 0.9680
vt 0.9377 0.8564
vt 0.9377 0.6774
vt 0.8821 0.6774
vt 0.8821 0.0334
vt 0.9377 0.0334
vt 0.9369 0.8560
vt 0.8813 0.9676
vt 0.9369 0.9676
vt 0.8813 0.8099
vt 0.9369 0.8099
vt 0.8813 0.7619
vt 0.9369 0.0330
vt 0.7085 0.9999
vt 0.0113 0.9439
vt 0.7085 0.9439
vt 0.7085 0.8856
vt 0.0113 0.7824
vt 0.7085 0.7824
vt 0.0113 0.0001
vt 0.7085 0.0001
vt 0.0113 0.8856
vt 0.8386 0.8822
vt 0.7188 1.0000
vt 0.7188 0.8822
vt 0.7188 0.8327
vt 0.8386 0.8327
vt 0.8386 0.7813
vt 0.7188 0.6903
vt 0.8386 0.6903
vt 0.7188 0.7813
vt 0.7188 0.0000
vt 0.8386 0.0000
vt 0.8821 0.8564
vt 0.9377 0.8103
vt 0.8821 0.8103
vt 0.8813 0.6770
vt 0.9369 0.7619
vt 0.9369 0.6770
vt 0.9377 0.7623
vt 0.8821 0.7623
vt 0.9377 0.9680
vt 0.9377 0.8564
vt 0.9377 0.6774
vt 0.8821 0.6774
vt 0.8821 0.0334
vt 0.9377 0.0334
vt 0.9369 0.8560
vt 0.8813 0.9676
vt 0.9369 0.9676
vt 0.8813 0.8099
vt 0.9369 0.8099
vt 0.8813 0.7619
vt 0.9369 0.0330
vt 0.7085 0.9439
vt 0.0113 0.9999
vt 0.0113 0.9439
vt 0.7085 0.8856
vt 0.0113 0.7824
vt 0.7085 0.7824
vt 0.0113 0.0001
vt 0.7085 0.0001
vt 0.0113 0.8856
vt 0.8386 0.8822
vt 0.7188 1.0000
vt 0.7188 0.8822
vt 0.8386 0.8327
vt 0.7188 0.8327
vt 0.8386 0.6903
vt 0.7188 0.7813
vt 0.7188 0.6903
vt 0.8386 0.7813
vt 0.7188 0.0000
vt 0.8386 0.0000
vt 0.8821 0.8564
vt 0.9377 0.8103
vt 0.8821 0.8103
vt 0.8813 0.6770
vt 0.9369 0.7619
vt 0.9369 0.6770
vt 0.9377 0.7623
vt 0.8821 0.7623
vt 0.9377 0.9680
vt 0.9377 0.8564
vt 0.9377 0.6774
vt 0.8821 0.6774
vt 0.8821 0.0334
vt 0.9377 0.0334
vt 0.9369 0.8560
vt 0.8813 0.9676
vt 0.9369 0.9676
vt 0.8813 0.8099
vt 0.9369 0.8099
vt 0.8813 0.7619
vt 0.9369 0.0330
vt 0.7085 0.9439
vt 0.0113 0.9999
vt 0.0113 0.9439
vt 0.7085 0.7824
vt 0.0113 0.8856
vt 0.0113 0.7824
vt 0.0113 0.0001
vt 0.7085 0.0001
vt 0.7085 0.8856
vt 0.8386 0.8822
vt 0.7188 1.0000
vt 0.7188 0.8822
vt 0.8386 0.8327
vt 0.7188 0.8327
vt 0.8386 0.6903
vt 0.7188 0.7813
vt 0.7188 0.6903
vt 0.8386 0.7813
vt 0.7188 0.0000
vt 0.8386 0.0000
vt 0.8821 0.8564
vt 0.9377 0.8103
vt 0.8821 0.8103
vt 0.8813 0.6770
vt 0.9369 0.7619
vt 0.9369 0.6770
vt 0.9377 0.7623
vt 0.8821 0.7623
vt 0.9377 0.9680
vt 0.9377 0.8564
vt 0.9377 0.6774
vt 0.8821 0.6774
vt 0.8821 0.0334
vt 0.9377 0.0334
vt 0.9369 0.8560
vt 0.8813 0.9676
vt 0.9369 0.9676
vt 0.8813 0.8099
vt 0.9369 0.8099
vt 0.8813 0.7619
vt 0.9369 0.0330
vt 0.7085 0.9439
vt 0.0113 0.9999
vt 0.0113 0.9439
vt 0.7085 0.7824
vt 0.0113 0.8856
vt 0.0113 0.7824
vt 0.7085 0.0001
vt 0.0113 0.0001
vt 0.7085 0.8856
vt 0.8386 0.8822
vt 0.7188 1.0000
vt 0.7188 0.8822
vt 0.8386 0.8327
vt 0.7188 0.8327
vt 0.8386 0.6903
vt 0.7188 0.7813
vt 0.7188 0.6903
vt 0.8386 0.7813
vt 0.8386 0.0000
vt 0.7188 0.0000
vt 0.8821 0.8564
vt 0.9377 0.8103
vt 0.8821 0.8103
vt 0.8813 0.6770
vt 0.9369 0.7619
vt 0.9369 0.6770
vt 0.9377 0.7623
vt 0.8821 0.7623
vt 0.9377 0.9680
vt 0.9377 0.8564
vt 0.9377 0.6774
vt 0.8821 0.6774
vt 0.8821 0.0334
vt 0.9377 0.0334
vt 0.9369 0.8560
vt 0.8813 0.9676
vt 0.9369 0.9676
vt 0.8813 0.8099
vt 0.9369 0.8099
vt 0.8813 0.7619
vt 0.9369 0.0330
vt 0.7085 0.9439
vt 0.0113 0.9999
vt 0.0113 0.9439
vt 0.7085 0.7824
vt 0.0113 0.8856
vt 0.0113 0.7824
vt 0.7085 0.0001
vt 0.0113 0.0001
vt 0.7085 0.8856
vt 0.8386 0.8822
vt 0.7188 1.0000
vt 0.7188 0.8822
vt 0.8386 0.8327
vt 0.7188 0.8327
vt 0.8386 0.6903
vt 0.7188 0.7813
vt 0.7188 0.6903
vt 0.8386 0.7813
vt 0.8386 0.0000
vt 0.7188 0.0000
vt 0.8821 0.8564
vt 0.9377 0.8103
vt 0.8821 0.8103
vt 0.8813 0.6770
vt 0.9369 0.7619
vt 0.9369 0.6770
vt 0.9377 0.7623
vt 0.8821 0.7623
vt 0.9377 0.9680
vt 0.9377 0.8564
vt 0.9377 0.6774
vt 0.8821 0.6774
vt 0.8821 0.0334
vt 0.9377 0.0334
vt 0.9369 0.8560
vt 0.8813 0.9676
vt 0.9369 0.9676
vt 0.8813 0.8099
vt 0.9369 0.8099
vt 0.8813 0.7619
vt 0.9369 0.0330
vt 0.7085 0.9439
vt 0.0113 0.9999
vt 0.0113 0.9439
vt 0.7085 0.7824
vt 0.0113 0.8856
vt 0.0113 0.7824
vt 0.7085 0.0001
vt 0.0113 0.0001
vt 0.7085 0.8856
vt 0.8386 1.0000
vt 0.7188 0.8822
vt 0.8386 0.8822
vt 0.7188 0.8327
vt 0.8386 0.8327
vt 0.8386 0.7813
vt 0.7188 0.6903
vt 0.8386 0.6903
vt 0.7188 0.7813
vt 0.7188 0.0000
vt 0.8386 0.0000
vt 0.8821 0.8564
vt 0.9377 0.8103
vt 0.8821 0.8103
vt 0.8813 0.6770
vt 0.9369 0.7619
vt 0.9369 0.6770
vt 0.9377 0.7623
vt 0.8821 0.7623
vt 0.9377 0.9680
vt 0.9377 0.8564
vt 0.9377 0.6774
vt 0.8821 0.6774
vt 0.8821 0.0334
vt 0.9377 0.0334
vt 0.9369 0.8560
vt 0.8813 0.9676
vt 0.9369 0.9676
vt 0.8813 0.8099
vt 0.9369 0.8099
vt 0.8813 0.7619
vt 0.9369 0.0330
vt 0.7085 0.9999
vt 0.0113 0.9439
vt 0.7085 0.9439
vt 0.7085 0.7824
vt 0.0113 0.8856
vt 0.0113 0.7824
vt 0.7085 0.0001
vt 0.0113 0.0001
vt 0.7085 0.8856
vt 0.8386 1.0000
vt 0.7188 0.8822
vt 0.8386 0.8822
vt 0.8386 0.8327
vt 0.7188 0.8327
vt 0.8386 0.6903
vt 0.7188 0.7813
vt 0.7188 0.6903
vt 0.8386 0.7813
vt 0.8386 0.0000
vt 0.7188 0.0000
vt 0.7085 0.9999
vt 0.0113 0.9439
vt 0.7085 0.9439
vt 0.7085 0.7824
vt 0.0113 0.8856
vt 0.0113 0.7824
vt 0.7085 0.0001
vt 0.0113 0.0001
vt 0.7085 0.8856
vt 0.8821 0.9680
vt 0.8813 0.8560
vt 0.8813 0.0330
vt 0.7085 0.9999
vt 0.8386 1.0000
vt 0.8821 0.9680
vt 0.8813 0.8560
vt 0.8813 0.0330
vt 0.0113 0.9999
vt 0.8386 1.0000
vt 0.8821 0.9680
vt 0.8813 0.8560
vt 0.8813 0.0330
vt 0.7085 0.9999
vt 0.8386 1.0000
vt 0.8821 0.9680
vt 0.8813 0.8560
vt 0.8813 0.0330
vt 0.7085 0.9999
vt 0.8386 1.0000
vt 0.8821 0.9680
vt 0.8813 0.8560
vt 0.8813 0.0330
vt 0.0113 0.9999
vt 0.8386 1.0000
vt 0.8821 0.9680
vt 0.8813 0.8560
vt 0.8813 0.0330
vt 0.7085 0.9999
vt 0.8386 1.0000
vt 0.8821 0.9680
vt 0.8813 0.8560
vt 0.8813 0.0330
vt 0.7085 0.9999
vt 0.8386 1.0000
vt 0.8821 0.9680
vt 0.8813 0.8560
vt 0.8813 0.0330
vt 0.7085 0.9999
vt 0.8386 1.0000
vt 0.8821 0.9680
vt 0.8813 0.8560
vt 0.8813 0.0330
vt 0.7085 0.9999
vt 0.8386 1.0000
vt 0.8821 0.9680
vt 0.8813 0.8560
vt 0.8813 0.0330
vt 0.7085 0.9999
vt 0.7188 1.0000
vt 0.8821 0.9680
vt 0.8813 0.8560
vt 0.8813 0.0330
vt 0.0113 0.9999
vt 0.7188 1.0000
vt 0.0113 0.9999
vn -0.0042 -1.0000 0.0070
vn 0.0388 0.9988 -0.0289
vn -0.0463 0.9987 -0.0199
vn -0.0013 0.9995 -0.0320
vn 0.0099 0.9994 -0.0327
vn 0.0607 0.9980 -0.0183
vn 0.0964 -0.0054 -0.9953
vn -0.1242 -0.0030 -0.9923
vn 0.0966 -0.0054 -0.9953
vn 0.9404 -0.0119 -0.3398
vn 0.6337 -0.0104 -0.7735
vn 0.9843 -0.0116 -0.1763
vn 0.6336 -0.0104 -0.7736
vn -0.6630 -0.0036 -0.7486
vn -0.9700 0.0011 -0.2429
vn -0.6629 -0.0036 -0.7487
vn 0.0957 -0.0078 -0.9954
vn 0.6327 -0.0077 -0.7744
vn 0.9403 -0.0054 -0.3403
vn 0.9843 -0.0043 -0.1763
vn 0.0117 -0.9999 0.0114
vn 0.0228 0.9992 -0.0330
vn 0.0117 -0.9999 0.0113
vn -0.0624 0.9978 -0.0239
vn -0.0173 0.9992 -0.0360
vn -0.0061 0.9993 -0.0368
vn 0.0447 0.9987 -0.0224
vn -0.1242 -0.0105 -0.9922
vn 0.0965 -0.0094 -0.9953
vn 0.0966 -0.0094 -0.9953
vn 0.6337 -0.0043 -0.7736
vn 0.9404 0.0016 -0.3400
vn 0.9843 0.0034 -0.1764
vn 0.6335 -0.0043 -0.7737
vn -0.6628 -0.0175 -0.7486
vn -0.9700 -0.0156 -0.2428
vn -0.6629 -0.0175 -0.7485
vn 0.0957 -0.0105 -0.9954
vn 0.0958 -0.0105 -0.9953
vn 0.6327 -0.0008 -0.7744
vn 0.9402 0.0084 -0.3404
vn 0.6326 -0.0008 -0.7745
vn 0.9842 0.0109 -0.1765
vn 0.0286 -0.9995 0.0140
vn 0.0056 0.9994 -0.0354
vn 0.0287 -0.9995 0.0140
vn -0.0793 0.9965 -0.0262
vn -0.0344 0.9987 -0.0384
vn -0.0232 0.9990 -0.0391
vn 0.0275 0.9993 -0.0248
vn 0.0965 -0.0110 -0.9953
vn -0.1242 -0.0156 -0.9921
vn 0.0966 -0.0110 -0.9953
vn 0.6334 0.0033 -0.7738
vn 0.9402 0.0155 -0.3402
vn 0.9841 0.0185 -0.1766
vn 0.6335 0.0033 -0.7738
vn -0.6627 -0.0302 -0.7483
vn -0.9696 -0.0320 -0.2425
vn -0.6624 -0.0302 -0.7485
vn 0.0957 -0.0113 -0.9953
vn 0.0959 -0.0113 -0.9953
vn 0.9399 0.0229 -0.3406
vn 0.6325 0.0077 -0.7745
vn 0.6324 0.0077 -0.7746
vn 0.9839 0.0265 -0.1767
vn 0.0469 -0.9988 0.0150
vn -0.0129 0.9993 -0.0361
vn 0.0469 -0.9988 0.0151
vn 0.0470 -0.9988 0.0150
vn -0.0978 0.9948 -0.0271
vn -0.0529 0.9978 -0.0392
vn -0.0418 0.9983 -0.0400
vn 0.0090 0.9996 -0.0256
vn -0.1240 -0.0195 -0.9921
vn 0.0967 -0.0110 -0.9952
vn 0.9397 0.0313 -0.3405
vn 0.6332 0.0130 -0.7739
vn 0.9836 0.0355 -0.1768
vn 0.6331 0.0130 -0.7739
vn -0.6619 -0.0436 -0.7483
vn -0.9689 -0.0509 -0.2423
vn -0.6620 -0.0436 -0.7482
vn 0.0957 -0.0104 -0.9954
vn 0.0958 -0.0104 -0.9953
vn 0.6320 0.0191 -0.7747
vn 0.9392 0.0406 -0.3409
vn 0.6319 0.0191 -0.7748
vn 0.9832 0.0453 -0.1770
vn 0.0670 -0.9976 0.0146
vn -0.0333 0.9988 -0.0354
vn 0.0669 -0.9976 0.0147
vn -0.1180 0.9927 -0.0264
vn -0.0732 0.9966 -0.0385
vn -0.0621 0.9973 -0.0394
vn -0.0114 0.9996 -0.0250
vn -0.1239 -0.0222 -0.9920
vn 0.0966 -0.0093 -0.9953
vn 0.0967 -0.0093 -0.9953
vn 0.6326 0.0255 -0.7740
vn 0.9388 0.0500 -0.3408
vn 0.9826 0.0551 -0.1771
vn 0.6326 0.0255 -0.7741
vn -0.6611 -0.0565 -0.7481
vn -0.9677 -0.0702 -0.2420
vn -0.6612 -0.0565 -0.7481
vn 0.0956 -0.0080 -0.9954
vn 0.0957 -0.0079 -0.9954
vn 0.6313 0.0322 -0.7749
vn 0.9381 0.0596 -0.3412
vn 0.6312 0.0322 -0.7749
vn 0.9820 0.0651 -0.1773
vn 0.0889 -0.9960 0.0129
vn -0.0556 0.9979 -0.0336
vn 0.0889 -0.9960 0.0130
vn -0.1401 0.9898 -0.0245
vn -0.0955 0.9948 -0.0366
vn -0.0844 0.9957 -0.0375
vn -0.0338 0.9992 -0.0231
vn 0.0966 -0.0061 -0.9953
vn -0.1238 -0.0236 -0.9920
vn 0.6317 0.0397 -0.7742
vn 0.9374 0.0700 -0.3411
vn 0.9812 0.0758 -0.1774
vn -0.6601 -0.0697 -0.7480
vn -0.9661 -0.0910 -0.2417
vn -0.6600 -0.0697 -0.7480
vn 0.0953 -0.0041 -0.9954
vn 0.9364 0.0809 -0.3415
vn 0.6300 0.0474 -0.7751
vn 0.9803 0.0869 -0.1776
vn 0.1130 -0.9935 0.0101
vn -0.0802 0.9963 -0.0306
vn 0.1130 -0.9935 0.0102
vn 0.1129 -0.9936 0.0102
vn -0.1641 0.9862 -0.0215
vn -0.1198 0.9922 -0.0335
vn -0.1088 0.9935 -0.0344
vn -0.0585 0.9981 -0.0202
vn 0.0962 -0.0015 -0.9954
vn -0.1238 -0.0242 -0.9920
vn 0.0963 -0.0015 -0.9954
vn 0.9354 0.0925 -0.3414
vn 0.6303 0.0561 -0.7743
vn 0.9791 0.0989 -0.1777
vn 0.6302 0.0561 -0.7744
vn -0.6586 -0.0836 -0.7478
vn -0.9637 -0.1138 -0.2414
vn -0.6586 -0.0836 -0.7479
vn 0.0948 0.0010 -0.9955
vn 0.9340 0.1046 -0.3417
vn 0.6282 0.0649 -0.7753
vn 0.9777 0.1113 -0.1779
vn 0.1390 -0.9903 0.0069
vn -0.1065 0.9939 -0.0274
vn 0.1390 -0.9903 0.0068
vn -0.1902 0.9816 -0.0183
vn -0.1461 0.9888 -0.0303
vn -0.1351 0.9904 -0.0310
vn -0.0849 0.9962 -0.0169
vn 0.0957 0.0040 -0.9954
vn 0.0958 0.0040 -0.9954
vn 0.9325 0.1173 -0.3416
vn 0.6282 0.0745 -0.7744
vn 0.9762 0.1243 -0.1780
vn 0.6282 0.0745 -0.7745
vn -0.6566 -0.0985 -0.7477
vn -0.9606 -0.1384 -0.2412
vn -0.6566 -0.0985 -0.7478
vn 0.0941 0.0068 -0.9955
vn 0.9307 0.1302 -0.3420
vn 0.6258 0.0839 -0.7755
vn 0.9307 0.1302 -0.3419
vn 0.9744 0.1375 -0.1781
vn 0.1660 -0.9861 0.0038
vn -0.1338 0.9907 -0.0244
vn 0.1661 -0.9861 0.0038
vn -0.2172 0.9760 -0.0154
vn -0.1732 0.9845 -0.0274
vn -0.1622 0.9863 -0.0283
vn -0.1122 0.9936 -0.0141
vn 0.0950 0.0098 -0.9954
vn -0.1237 -0.0244 -0.9920
vn 0.9288 0.1434 -0.3418
vn 0.6256 0.0938 -0.7745
vn 0.9723 0.1510 -0.1782
vn 0.6255 0.0938 -0.7746
vn -0.6543 -0.1141 -0.7476
vn -0.9566 -0.1637 -0.2411
vn -0.6541 -0.1141 -0.7477
vn 0.0932 0.0122 -0.9956
vn 0.0933 0.0122 -0.9956
vn 0.9265 0.1565 -0.3421
vn 0.6228 0.1032 -0.7755
vn 0.9266 0.1565 -0.3421
vn 0.6227 0.1031 -0.7756
vn 0.9701 0.1645 -0.1782
vn 0.1931 -0.9812 0.0022
vn -0.1611 0.9867 -0.0231
vn 0.1931 -0.9812 0.0021
vn -0.2437 0.9697 -0.0140
vn -0.2002 0.9794 -0.0259
vn -0.1893 0.9815 -0.0269
vn -0.1397 0.9901 -0.0127
vn 0.0942 0.0147 -0.9954
vn -0.1235 -0.0255 -0.9920
vn 0.9243 0.1697 -0.3418
vn 0.6224 0.1128 -0.7745
vn 0.9677 0.1782 -0.1782
vn 0.6224 0.1128 -0.7746
vn -0.9517 -0.1903 -0.2410
vn -0.6511 -0.1315 -0.7475
vn -0.6509 -0.1314 -0.7477
vn 0.0925 0.0163 -0.9956
vn 0.0926 0.0164 -0.9956
vn 0.6194 0.1219 -0.7755
vn 0.9216 0.1831 -0.3421
vn 0.6193 0.1219 -0.7756
vn 0.9650 0.1921 -0.1783
vn 0.2195 -0.9756 0.0025
vn -0.1876 0.9820 -0.0238
vn 0.2196 -0.9756 0.0026
vn 0.2195 -0.9756 0.0026
vn 0.2196 -0.9756 0.0025
vn -0.2698 0.9628 -0.0146
vn -0.2265 0.9736 -0.0267
vn -0.2157 0.9761 -0.0275
vn -0.1662 0.9860 -0.0134
vn -0.1230 -0.0284 -0.9920
vn 0.0935 0.0178 -0.9955
vn 0.0936 0.0178 -0.9955
vn 0.9192 0.1954 -0.3418
vn 0.6189 0.1304 -0.7745
vn 0.9624 0.2050 -0.1783
vn 0.6190 0.1304 -0.7745
vn -0.9463 -0.2154 -0.2410
vn -0.6473 -0.1489 -0.7476
vn -0.6474 -0.1489 -0.7475
vn 0.0921 0.0183 -0.9956
vn 0.9165 0.2071 -0.3422
vn 0.6160 0.1377 -0.7756
vn 0.6159 0.1377 -0.7757
vn 0.9597 0.2173 -0.1783
vn -0.1218 -0.0333 -0.9920
vn 0.0933 0.0186 -0.9955
vn 0.9139 0.2190 -0.3418
vn 0.6156 0.1454 -0.7745
vn 0.9567 0.2300 -0.1784
vn -0.0463 0.9987 -0.0198
vn -0.0012 0.9995 -0.0319
vn 0.0610 0.9980 -0.0184
vn 0.0228 0.9992 -0.0329
vn -0.0061 0.9993 -0.0367
vn 0.0449 0.9987 -0.0225
vn 0.0287 -0.9995 0.0141
vn 0.0056 0.9994 -0.0352
vn 0.0287 -0.9995 0.0139
vn -0.0794 0.9965 -0.0263
vn 0.0277 0.9993 -0.0248
vn 0.0470 -0.9988 0.0151
vn -0.0529 0.9978 -0.0391
vn -0.0417 0.9983 -0.0399
vn 0.0091 0.9996 -0.0256
vn -0.0333 0.9988 -0.0356
vn 0.0669 -0.9977 0.0146
vn -0.0732 0.9966 -0.0384
vn -0.0621 0.9973 -0.0392
vn -0.0113 0.9996 -0.0250
vn 0.0889 -0.9960 0.0128
vn -0.1402 0.9898 -0.0245
vn -0.0844 0.9957 -0.0374
vn 0.1129 -0.9935 0.0102
vn -0.1642 0.9862 -0.0216
vn -0.1198 0.9922 -0.0337
vn 0.1389 -0.9903 0.0068
vn -0.1066 0.9939 -0.0273
vn 0.1389 -0.9903 0.0069
vn -0.1903 0.9816 -0.0182
vn -0.1460 0.9888 -0.0303
vn -0.1351 0.9903 -0.0311
vn -0.0848 0.9963 -0.0169
vn -0.1237 -0.0242 -0.9920
vn 0.1661 -0.9861 0.0039
vn -0.1338 0.9907 -0.0245
vn 0.1661 -0.9861 0.0040
vn -0.2172 0.9760 -0.0153
vn -0.1622 0.9863 -0.0282
vn -0.1120 0.9936 -0.0141
vn -0.1612 0.9867 -0.0230
vn -0.2437 0.9697 -0.0139
vn -0.2002 0.9794 -0.0260
vn -0.1893 0.9816 -0.0267
vn -0.1394 0.9902 -0.0127
vn 0.2196 -0.9756 0.0024
vn -0.2699 0.9628 -0.0147
vn -0.2265 0.9737 -0.0266
vn -0.2157 0.9761 -0.0274
vn -0.1659 0.9861 -0.0134
vn -0.1219 -0.0333 -0.9920
s off
f 2/1/1 4/2/1 1/3/1
f 6/4/2 8/5/2 5/6/2
f 1/3/1 10/7/1 9/8/1
f 2/1/1 12/9/1 3/10/1
f 9/8/1 14/11/1 13/12/1
f 15/13/1 14/11/1 16/14/1
f 17/15/3 19/16/3 20/17/3
f 22/18/4 17/15/4 21/19/4
f 7/20/5 21/19/5 8/5/5
f 23/21/6 6/4/6 5/6/6
s 1
f 25/22/7 27/23/8 28/24/9
f 29/25/10 31/26/11 32/27/10
f 33/28/12 32/27/10 34/29/12
f 30/30/13 28/24/9 31/26/11
f 35/31/14 37/32/15 38/33/16
f 39/34/17 38/33/16 40/35/17
f 42/36/18 44/37/19 41/38/19
f 42/36/18 40/35/17 43/39/18
f 41/38/19 46/40/20 45/41/20
s off
f 48/42/21 50/43/21 47/44/21
f 52/45/22 54/46/22 51/47/22
f 47/44/21 56/48/21 55/49/21
f 48/42/23 58/50/23 49/51/23
f 55/49/21 60/52/21 59/53/21
f 61/54/21 60/52/21 62/55/21
f 63/56/24 65/57/24 66/58/24
f 68/59/25 63/56/25 67/60/25
f 53/61/26 67/60/26 54/46/26
f 69/62/27 52/45/27 51/47/27
s 1
f 72/63/28 74/64/29 71/65/30
f 76/66/31 78/67/32 75/68/32
f 75/68/32 80/69/33 79/70/33
f 71/65/30 77/71/34 76/66/31
f 81/72/35 83/73/36 84/74/37
f 81/72/35 86/75/38 85/76/39
f 88/77/40 90/78/41 87/79/41
f 85/76/39 89/80/42 88/77/40
f 87/79/41 92/81/43 91/82/43
s off
f 94/83/44 96/84/44 93/85/44
f 98/86/45 100/87/45 97/88/45
f 93/85/44 102/89/44 101/90/44
f 94/83/46 104/91/46 95/92/46
f 101/90/46 106/93/46 105/94/46
f 107/95/46 106/93/46 108/96/46
f 109/97/47 111/98/47 112/99/47
f 114/100/48 109/97/48 113/101/48
f 99/102/49 113/101/49 100/87/49
f 115/103/50 98/86/50 97/88/50
s 1
f 117/104/51 119/105/52 120/106/53
f 122/107/54 124/108/55 121/109/55
f 121/109/55 126/110/56 125/111/56
f 122/107/54 120/106/53 123/112/57
f 127/113/58 129/114/59 130/115/60
f 131/116/61 130/115/60 132/117/62
f 133/118/63 135/119/64 136/120/63
f 134/121/65 132/117/62 135/119/64
f 137/122/66 136/120/63 138/123/66
s off
f 140/124/67 142/125/67 139/126/67
f 144/127/68 146/128/68 143/129/68
f 139/126/69 148/130/69 147/131/69
f 140/124/69 150/132/69 141/133/69
f 147/131/70 152/134/70 151/135/70
f 153/136/69 152/134/69 154/137/69
f 155/138/71 157/139/71 158/140/71
f 160/141/72 155/138/72 159/142/72
f 145/143/73 159/142/73 146/128/73
f 161/144/74 144/127/74 143/129/74
s 1
f 163/145/53 165/146/75 166/147/76
f 167/148/77 169/149/78 170/150/77
f 167/148/77 172/151/79 171/152/79
f 168/153/80 166/147/76 169/149/78
f 173/154/81 175/155/82 176/156/83
f 173/154/81 178/157/84 177/158/85
f 180/159/86 182/160/87 179/161/87
f 177/158/85 181/162/88 180/159/86
f 179/161/87 184/163/89 183/164/89
s off
f 186/165/90 188/166/90 185/167/90
f 190/168/91 192/169/91 189/170/91
f 185/167/92 194/171/92 193/172/92
f 186/165/90 196/173/90 187/174/90
f 193/172/90 198/175/90 197/176/90
f 199/177/90 198/175/90 200/178/90
f 201/179/93 203/180/93 204/181/93
f 206/182/94 201/179/94 205/183/94
f 191/184/95 205/183/95 192/169/95
f 207/185/96 190/168/96 189/170/96
s 1
f 210/186/97 212/187/98 209/188/99
f 214/189/100 216/190/101 213/191/101
f 213/191/101 218/192/102 217/193/102
f 209/188/99 215/194/103 214/189/100
f 219/195/104 221/196/105 222/197/106
f 219/195/104 224/198/107 223/199/108
f 226/200/109 228/201/110 225/202/110
f 223/199/108 227/203/111 226/200/109
f 225/202/110 230/204/112 229/205/112
s off
f 232/206/113 234/207/113 231/208/113
f 236/209/114 238/210/114 235/211/114
f 231/208/115 240/212/115 239/213/115
f 232/206/113 242/214/113 233/215/113
f 239/213/115 244/216/115 243/217/115
f 245/218/113 244/216/113 246/219/113
f 247/220/116 249/221/116 250/222/116
f 252/223/117 247/220/117 251/224/117
f 237/225/118 251/224/118 238/210/118
f 253/226/119 236/209/119 235/211/119
s 1
f 255/227/120 257/228/121 258/229/120
f 260/230/122 262/231/123 259/232/123
f 259/232/123 264/233/124 263/234/124
f 260/230/122 258/229/120 261/235/122
f 265/236/125 267/237/126 268/238/127
f 269/239/128 268/238/127 270/240/128
f 271/241/129 273/242/130 274/243/129
f 272/244/130 270/240/128 273/242/130
f 271/241/129 276/245/131 275/246/131
s off
f 278/247/132 280/248/132 277/249/132
f 282/250/133 284/251/133 281/252/133
f 277/249/134 286/253/134 285/254/134
f 278/247/132 288/255/132 279/256/132
f 285/254/134 290/257/134 289/258/134
f 291/259/135 290/257/135 292/260/135
f 293/261/136 295/262/136 296/263/136
f 298/264/137 293/261/137 297/265/137
f 283/266/138 297/265/138 284/251/138
f 299/267/139 282/250/139 281/252/139
s 1
f 301/268/140 303/269/141 304/270/142
f 305/271/143 307/272/144 308/273/143
f 305/271/143 310/274/145 309/275/145
f 306/276/146 304/270/142 307/272/144
f 311/277/147 313/278/148 314/279/149
f 315/280/150 314/279/149 316/281/150
f 317/282/151 319/283/152 320/284/151
f 318/285/152 316/281/150 319/283/152
f 317/282/151 322/286/153 321/287/153
s off
f 324/288/154 326/289/154 323/290/154
f 328/291/155 330/292/155 327/293/155
f 323/290/154 332/294/154 331/295/154
f 324/288/156 334/296/156 325/297/156
f 331/295/156 336/298/156 335/299/156
f 337/300/154 336/298/154 338/301/154
f 339/302/157 341/303/157 342/304/157
f 344/305/158 339/302/158 343/306/158
f 329/307/159 343/306/159 330/292/159
f 345/308/160 328/291/160 327/293/160
s 1
f 347/309/161 349/310/141 350/311/162
f 351/312/163 353/313/164 354/314/163
f 355/315/165 354/314/163 356/316/165
f 352/317/166 350/311/162 353/313/164
f 357/318/167 359/319/168 360/320/169
f 361/321/170 360/320/169 362/322/170
f 363/323/171 365/324/172 366/325/173
f 364/326/172 362/322/170 365/324/172
f 367/327/174 366/325/173 368/328/174
s off
f 370/329/175 372/330/175 369/331/175
f 374/332/176 376/333/176 373/334/176
f 369/331/175 378/335/175 377/336/175
f 370/329/177 380/337/177 371/338/177
f 377/336/177 382/339/177 381/340/177
f 383/341/175 382/339/175 384/342/175
f 385/343/178 387/344/178 388/345/178
f 390/346/179 385/343/179 389/347/179
f 375/348/180 389/347/180 376/333/180
f 391/349/181 374/332/181 373/334/181
s 1
f 393/350/182 395/351/183 396/352/182
f 397/353/184 399/354/185 400/355/184
f 401/356/186 400/355/184 402/357/186
f 398/358/187 396/352/182 399/354/185
f 403/359/188 405/360/189 406/361/190
f 407/362/191 406/361/190 408/363/192
f 409/364/193 411/365/194 412/366/195
f 410/367/196 408/363/192 411/365/194
f 413/368/197 412/366/195 414/369/197
s off
f 416/370/198 418/371/198 415/372/198
f 420/373/199 422/374/199 419/375/199
f 415/372/198 424/376/198 423/377/198
f 416/370/200 426/378/200 417/379/200
f 423/377/198 428/380/198 427/381/198
f 429/382/198 428/380/198 430/383/198
f 431/384/201 433/385/201 434/386/201
f 436/387/202 431/384/202 435/388/202
f 421/389/203 435/388/203 422/374/203
f 437/390/204 420/373/204 419/375/204
s 1
f 439/391/205 441/392/206 442/393/205
f 443/394/207 445/395/208 446/396/207
f 447/397/209 446/396/207 448/398/209
f 444/399/210 442/393/205 445/395/208
f 450/400/211 452/401/212 449/402/213
f 449/402/213 454/403/214 453/404/215
f 456/405/216 458/406/217 455/407/217
f 453/404/215 457/408/218 456/405/216
f 455/407/217 460/409/219 459/410/219
s off
f 462/411/220 464/412/220 461/413/220
f 466/414/221 468/415/221 465/416/221
f 461/413/222 470/417/222 469/418/222
f 462/411/222 472/419/222 463/420/222
f 469/418/223 474/421/223 473/422/223
f 475/423/224 474/421/224 476/424/224
f 477/425/225 479/426/225 480/427/225
f 482/428/226 477/425/226 481/429/226
f 467/430/227 481/429/227 468/415/227
f 483/431/228 466/414/228 465/416/228
s 1
f 486/432/229 488/433/230 485/434/231
f 489/435/232 491/436/233 492/437/232
f 493/438/234 492/437/232 494/439/234
f 485/434/231 491/436/233 490/440/235
f 496/441/236 498/442/237 495/443/238
f 499/444/239 498/442/237 500/445/239
f 501/446/240 503/447/241 504/448/240
f 502/449/242 500/445/239 503/447/241
f 505/450/243 504/448/240 506/451/243
f 508/452/244 510/453/245 507/454/245
f 511/455/246 513/456/247 514/457/246
f 515/458/248 514/457/246 516/459/248
f 507/454/245 513/456/247 512/460/247
s off
f 2/1/1 3/10/1 4/2/1
f 6/4/2 7/20/2 8/5/2
f 1/3/1 4/2/1 10/7/1
f 2/1/1 11/461/1 12/9/1
f 9/8/1 10/7/1 14/11/1
f 15/13/1 13/12/1 14/11/1
f 17/15/249 18/462/249 19/16/249
f 22/18/250 18/462/250 17/15/250
f 7/20/5 22/18/5 21/19/5
f 23/21/251 24/463/251 6/4/251
s 1
f 25/22/7 26/464/8 27/23/8
f 29/25/10 30/30/13 31/26/11
f 33/28/12 29/25/10 32/27/10
f 30/30/13 25/22/7 28/24/9
f 35/31/14 36/465/15 37/32/15
f 39/34/17 35/31/14 38/33/16
f 42/36/18 43/39/18 44/37/19
f 42/36/18 39/34/17 40/35/17
f 41/38/19 44/37/19 46/40/20
s off
f 48/42/21 49/51/21 50/43/21
f 52/45/252 53/61/252 54/46/252
f 47/44/21 50/43/21 56/48/21
f 48/42/21 57/466/21 58/50/21
f 55/49/23 56/48/23 60/52/23
f 61/54/23 59/53/23 60/52/23
f 63/56/24 64/467/24 65/57/24
f 68/59/25 64/467/25 63/56/25
f 53/61/253 68/59/253 67/60/253
f 69/62/254 70/468/254 52/45/254
s 1
f 72/63/28 73/469/28 74/64/29
f 76/66/31 77/71/34 78/67/32
f 75/68/32 78/67/32 80/69/33
f 71/65/30 74/64/29 77/71/34
f 81/72/35 82/470/36 83/73/36
f 81/72/35 84/74/37 86/75/38
f 88/77/40 89/80/42 90/78/41
f 85/76/39 86/75/38 89/80/42
f 87/79/41 90/78/41 92/81/43
s off
f 94/83/255 95/92/255 96/84/255
f 98/86/256 99/102/256 100/87/256
f 93/85/44 96/84/44 102/89/44
f 94/83/44 103/471/44 104/91/44
f 101/90/257 102/89/257 106/93/257
f 107/95/46 105/94/46 106/93/46
f 109/97/258 110/472/258 111/98/258
f 114/100/48 110/472/48 109/97/48
f 99/102/49 114/100/49 113/101/49
f 115/103/259 116/473/259 98/86/259
s 1
f 117/104/51 118/474/52 119/105/52
f 122/107/54 123/112/57 124/108/55
f 121/109/55 124/108/55 126/110/56
f 122/107/54 117/104/51 120/106/53
f 127/113/58 128/475/59 129/114/59
f 131/116/61 127/113/58 130/115/60
f 133/118/63 134/121/65 135/119/64
f 134/121/65 131/116/61 132/117/62
f 137/122/66 133/118/63 136/120/63
s off
f 140/124/69 141/133/69 142/125/69
f 144/127/68 145/143/68 146/128/68
f 139/126/67 142/125/67 148/130/67
f 140/124/260 149/476/260 150/132/260
f 147/131/69 148/130/69 152/134/69
f 153/136/70 151/135/70 152/134/70
f 155/138/71 156/477/71 157/139/71
f 160/141/261 156/477/261 155/138/261
f 145/143/262 160/141/262 159/142/262
f 161/144/263 162/478/263 144/127/263
s 1
f 163/145/53 164/479/75 165/146/75
f 167/148/77 168/153/80 169/149/78
f 167/148/77 170/150/77 172/151/79
f 168/153/80 163/145/53 166/147/76
f 173/154/81 174/480/82 175/155/82
f 173/154/81 176/156/83 178/157/84
f 180/159/86 181/162/88 182/160/87
f 177/158/85 178/157/84 181/162/88
f 179/161/87 182/160/87 184/163/89
s off
f 186/165/92 187/174/92 188/166/92
f 190/168/264 191/184/264 192/169/264
f 185/167/265 188/166/265 194/171/265
f 186/165/90 195/481/90 196/173/90
f 193/172/90 194/171/90 198/175/90
f 199/177/90 197/176/90 198/175/90
f 201/179/93 202/482/93 203/180/93
f 206/182/266 202/482/266 201/179/266
f 191/184/267 206/182/267 205/183/267
f 207/185/268 208/483/268 190/168/268
s 1
f 210/186/97 211/484/97 212/187/98
f 214/189/100 215/194/103 216/190/101
f 213/191/101 216/190/101 218/192/102
f 209/188/99 212/187/98 215/194/103
f 219/195/104 220/485/105 221/196/105
f 219/195/104 222/197/106 224/198/107
f 226/200/109 227/203/111 228/201/110
f 223/199/108 224/198/107 227/203/111
f 225/202/110 228/201/110 230/204/112
s off
f 232/206/113 233/215/113 234/207/113
f 236/209/114 237/225/114 238/210/114
f 231/208/113 234/207/113 240/212/113
f 232/206/113 241/486/113 242/214/113
f 239/213/269 240/212/269 244/216/269
f 245/218/113 243/217/113 244/216/113
f 247/220/270 248/487/270 249/221/270
f 252/223/117 248/487/117 247/220/117
f 237/225/271 252/223/271 251/224/271
f 253/226/119 254/488/119 236/209/119
s 1
f 255/227/120 256/489/121 257/228/121
f 260/230/122 261/235/122 262/231/123
f 259/232/123 262/231/123 264/233/124
f 260/230/122 255/227/120 258/229/120
f 265/236/125 266/490/126 267/237/126
f 269/239/128 265/236/125 268/238/127
f 271/241/129 272/244/130 273/242/130
f 272/244/130 269/239/128 270/240/128
f 271/241/129 274/243/129 276/245/131
s off
f 278/247/134 279/256/134 280/248/134
f 282/250/133 283/266/133 284/251/133
f 277/249/134 280/248/134 286/253/134
f 278/247/134 287/491/134 288/255/134
f 285/254/132 286/253/132 290/257/132
f 291/259/272 289/258/272 290/257/272
f 293/261/273 294/492/273 295/262/273
f 298/264/274 294/492/274 293/261/274
f 283/266/138 298/264/138 297/265/138
f 299/267/139 300/493/139 282/250/139
s 1
f 301/268/140 302/494/141 303/269/141
f 305/271/143 306/276/146 307/272/144
f 305/271/143 308/273/143 310/274/145
f 306/276/146 301/268/140 304/270/142
f 311/277/147 312/495/148 313/278/148
f 315/280/150 311/277/147 314/279/149
f 317/282/151 318/285/152 319/283/152
f 318/285/152 315/280/150 316/281/150
f 317/282/151 320/284/151 322/286/153
s off
f 324/288/275 325/297/275 326/289/275
f 328/291/276 329/307/276 330/292/276
f 323/290/277 326/289/277 332/294/277
f 324/288/154 333/496/154 334/296/154
f 331/295/277 332/294/277 336/298/277
f 337/300/156 335/299/156 336/298/156
f 339/302/278 340/497/278 341/303/278
f 344/305/279 340/497/279 339/302/279
f 329/307/280 344/305/280 343/306/280
f 345/308/281 346/498/281 328/291/281
s 1
f 347/309/161 348/499/282 349/310/141
f 351/312/163 352/317/166 353/313/164
f 355/315/165 351/312/163 354/314/163
f 352/317/166 347/309/161 350/311/162
f 357/318/167 358/500/168 359/319/168
f 361/321/170 357/318/167 360/320/169
f 363/323/171 364/326/172 365/324/172
f 364/326/172 361/321/170 362/322/170
f 367/327/174 363/323/171 366/325/173
s off
f 370/329/283 371/338/283 372/330/283
f 374/332/284 375/348/284 376/333/284
f 369/331/283 372/330/283 378/335/283
f 370/329/175 379/501/175 380/337/175
f 377/336/285 378/335/285 382/339/285
f 383/341/283 381/340/283 382/339/283
f 385/343/286 386/502/286 387/344/286
f 390/346/179 386/502/179 385/343/179
f 375/348/287 390/346/287 389/347/287
f 391/349/288 392/503/288 374/332/288
s 1
f 393/350/182 394/504/183 395/351/183
f 397/353/184 398/358/187 399/354/185
f 401/356/186 397/353/184 400/355/184
f 398/358/187 393/350/182 396/352/182
f 403/359/188 404/505/189 405/360/189
f 407/362/191 403/359/188 406/361/190
f 409/364/193 410/367/196 411/365/194
f 410/367/196 407/362/191 408/363/192
f 413/368/197 409/364/193 412/366/195
s off
f 416/370/198 417/379/198 418/371/198
f 420/373/289 421/389/289 422/374/289
f 415/372/198 418/371/198 424/376/198
f 416/370/198 425/506/198 426/378/198
f 423/377/200 424/376/200 428/380/200
f 429/382/198 427/381/198 428/380/198
f 431/384/290 432/507/290 433/385/290
f 436/387/291 432/507/291 431/384/291
f 421/389/292 436/387/292 435/388/292
f 437/390/293 438/508/293 420/373/293
s 1
f 439/391/205 440/509/206 441/392/206
f 443/394/207 444/399/210 445/395/208
f 447/397/209 443/394/207 446/396/207
f 444/399/210 439/391/205 442/393/205
f 450/400/211 451/510/211 452/401/212
f 449/402/213 452/401/212 454/403/214
f 456/405/216 457/408/218 458/406/217
f 453/404/215 454/403/214 457/408/218
f 455/407/217 458/406/217 460/409/219
s off
f 462/411/294 463/420/294 464/412/294
f 466/414/221 467/430/221 468/415/221
f 461/413/294 464/412/294 470/417/294
f 462/411/224 471/511/224 472/419/224
f 469/418/223 470/417/223 474/421/223
f 475/423/220 473/422/220 474/421/220
f 477/425/295 478/512/295 479/426/295
f 482/428/296 478/512/296 477/425/296
f 467/430/297 482/428/297 481/429/297
f 483/431/298 484/513/298 466/414/298
s 1
f 486/432/229 487/514/229 488/433/230
f 489/435/232 490/440/235 491/436/233
f 493/438/234 489/435/232 492/437/232
f 485/434/231 488/433/230 491/436/233
f 496/441/236 497/515/236 498/442/237
f 499/444/239 495/443/238 498/442/237
f 501/446/240 502/449/242 503/447/241
f 502/449/242 499/444/239 500/445/239
f 505/450/243 501/446/240 504/448/240
f 508/452/244 509/516/299 510/453/245
f 511/455/246 512/460/247 513/456/247
f 515/458/248 511/455/246 514/457/246
f 507/454/245 510/453/245 513/456/247
