# Blender v2.78 (sub 0) OBJ File: 'vtrack.blend'
# www.blender.org
o spectator_wall_source.004_Cube.032
v -3.857170 37.306293 -5.551001
v -3.801285 37.328114 -5.541843
v -3.786006 37.329453 -5.591557
v -3.851099 37.304035 -5.602223
v -3.910805 37.112740 -5.423717
v -3.923989 37.106289 -5.456419
v -3.857678 37.121456 -5.567284
v -3.853875 37.125763 -5.518899
v -3.914306 37.286400 -5.533111
v -3.917649 37.280865 -5.581387
v -3.776141 37.350037 -5.401196
v -3.756720 37.354984 -5.427739
v -3.971256 37.273426 -5.437932
v -3.983981 37.265755 -5.470527
v -4.156605 37.277016 -4.611427
v -4.199867 37.269936 -4.507851
v -3.740842 37.167450 -5.527628
v -3.726022 37.170010 -5.577451
v -3.696686 37.195408 -5.413620
v -3.715655 37.189259 -5.386972
v -3.796736 37.145653 -5.536788
v -3.791126 37.144623 -5.588120
v -4.095944 37.115772 -4.597161
v -4.139631 37.109821 -4.493684
v -4.186313 38.180248 -5.630186
v -4.130423 38.202057 -5.621027
v -3.801285 37.328114 -5.541843
v -3.857170 37.306293 -5.551001
v -4.300528 38.147720 -5.517148
v -4.243479 38.160431 -5.612303
v -3.914306 37.286400 -5.533111
v -3.971256 37.273426 -5.437932
v -4.486660 38.153393 -4.690831
v -4.156605 37.277016 -4.611427
v -3.786006 37.329453 -5.591557
v -3.756720 37.354984 -5.427739
v -3.696686 37.195408 -5.413620
v -3.726022 37.170010 -5.577451
v -3.851099 37.304035 -5.602223
v -3.791126 37.144623 -5.588120
v -3.983981 37.265755 -5.470527
v -3.917649 37.280865 -5.581387
v -3.857678 37.121456 -5.567284
v -3.923989 37.106289 -5.456419
v -4.199867 37.269936 -4.507851
v -4.139631 37.109821 -4.493684
v -3.468658 36.268734 -5.462020
v -3.412660 36.290253 -5.452837
v -3.397475 36.291840 -5.502573
v -3.462699 36.266777 -5.513268
v -3.522825 36.074326 -5.335846
v -3.536111 36.068161 -5.368564
v -3.469963 36.083763 -5.479465
v -3.466033 36.087719 -5.431060
v -3.525844 36.248974 -5.444141
v -3.529307 36.243763 -5.492445
v -3.387138 36.311165 -5.312104
v -3.367749 36.316196 -5.338654
v -3.582659 36.235641 -5.348932
v -3.595482 36.228230 -5.381549
v -3.766330 36.234741 -4.522044
v -3.809414 36.227184 -4.418427
v -3.352807 36.128887 -5.439746
v -3.338083 36.131714 -5.489582
v -3.308265 36.155823 -5.325644
v -3.327207 36.149586 -5.298997
v -3.408832 36.107441 -5.448935
v -3.403338 36.106735 -5.500285
v -3.706169 36.072544 -4.508887
v -3.749666 36.066097 -4.405360
v -3.796737 37.145657 -5.536788
v -3.740842 37.167450 -5.527628
v -3.412660 36.290253 -5.452837
v -3.468658 36.268734 -5.462020
v -3.910806 37.112743 -5.423717
v -3.853875 37.125763 -5.518900
v -3.525844 36.248974 -5.444141
v -3.582659 36.235641 -5.348932
v -4.095944 37.115772 -4.597161
v -3.766330 36.234741 -4.522044
v -3.397475 36.291840 -5.502573
v -3.367749 36.316196 -5.338654
v -3.308265 36.155823 -5.325644
v -3.338083 36.131714 -5.489582
v -3.462699 36.266777 -5.513268
v -3.403338 36.106735 -5.500285
v -3.595482 36.228230 -5.381549
v -3.529307 36.243763 -5.492445
v -3.469963 36.083763 -5.479465
v -3.536111 36.068161 -5.368564
v -3.809414 36.227184 -4.418427
v -3.749666 36.066097 -4.405360
v -3.086595 35.226368 -5.382602
v -3.030390 35.247322 -5.373375
v -3.015334 35.249260 -5.423138
v -3.080799 35.224857 -5.433884
v -3.142183 35.031063 -5.258316
v -3.155619 35.025349 -5.291051
v -3.089662 35.041477 -5.401992
v -3.085556 35.044910 -5.353563
v -3.143896 35.206921 -5.364747
v -3.147542 35.202206 -5.413089
v -3.004289 35.266651 -5.232523
v -2.984934 35.271778 -5.259080
v -3.200550 35.193150 -5.269505
v -3.213529 35.186165 -5.302154
v -3.381861 35.185806 -4.442128
v -3.424713 35.177612 -4.338463
v -2.971994 35.085155 -5.362181
v -2.957391 35.088352 -5.412030
v -2.926875 35.110550 -5.247949
v -2.945794 35.104210 -5.221310
v -3.028235 35.064301 -5.371414
v -3.022897 35.064064 -5.422783
v -3.323088 35.022594 -4.430861
v -3.366333 35.015491 -4.327271
v -3.408831 36.107437 -5.448935
v -3.352806 36.128883 -5.439746
v -3.030390 35.247322 -5.373375
v -3.086595 35.226368 -5.382602
v -3.522824 36.074318 -5.335845
v -3.466033 36.087715 -5.431060
v -3.143896 35.206921 -5.364747
v -3.200550 35.193150 -5.269505
v -3.706169 36.072540 -4.508887
v -3.381861 35.185806 -4.442128
v -3.015334 35.249260 -5.423138
v -2.984934 35.271778 -5.259080
v -2.926875 35.110550 -5.247949
v -2.957391 35.088352 -5.412030
v -3.080799 35.224857 -5.433884
v -3.022897 35.064064 -5.422783
v -3.213529 35.186165 -5.302154
v -3.147542 35.202206 -5.413089
v -3.089662 35.041477 -5.401992
v -3.155619 35.025349 -5.291051
v -3.424713 35.177612 -4.338463
v -3.366333 35.015491 -4.327271
v -2.714427 34.179836 -5.315813
v -2.657996 34.200153 -5.306546
v -2.643088 34.202511 -5.356335
v -2.708817 34.178848 -5.367128
v -2.771468 33.983837 -5.193507
v -2.785067 33.978622 -5.226258
v -2.719336 33.995388 -5.337238
v -2.715034 33.998234 -5.288788
v -2.771851 34.160736 -5.297980
v -2.775702 34.156597 -5.346359
v -2.631245 34.217655 -5.165576
v -2.611930 34.222897 -5.192141
v -2.828316 34.146431 -5.202703
v -2.841470 34.139935 -5.235384
v -3.006935 34.131519 -4.374844
v -3.049517 34.122570 -4.271131
v -2.601129 34.037510 -5.297346
v -2.586664 34.041134 -5.347206
v -2.555389 34.061188 -5.182992
v -2.574277 34.054722 -5.156360
v -2.657594 34.017288 -5.306618
v -2.652432 34.017582 -5.358005
v -2.949658 33.967701 -4.365578
v -2.992619 33.959839 -4.261924
v -3.028234 35.064297 -5.371415
v -2.971992 35.085152 -5.362182
v -2.657996 34.200153 -5.306546
v -2.714427 34.179836 -5.315813
v -3.142181 35.031059 -5.258316
v -3.085555 35.044907 -5.353564
v -2.771851 34.160736 -5.297980
v -2.828316 34.146431 -5.202703
v -3.323088 35.022594 -4.430861
v -3.006935 34.131519 -4.374844
v -2.643088 34.202511 -5.356335
v -2.611930 34.222897 -5.192141
v -2.555389 34.061188 -5.182992
v -2.586664 34.041134 -5.347206
v -2.708817 34.178848 -5.367128
v -2.652432 34.017582 -5.358005
v -2.841470 34.139935 -5.235384
v -2.775702 34.156597 -5.346359
v -2.719336 33.995388 -5.337238
v -2.785067 33.978622 -5.226258
v -3.049517 34.122570 -4.271131
v -2.992619 33.959839 -4.261924
v -2.351818 33.130665 -5.262167
v -2.295186 33.150402 -5.252870
v -2.280434 33.153206 -5.302682
v -2.346396 33.130219 -5.313510
v -2.410113 32.933968 -5.141920
v -2.423870 32.929237 -5.174680
v -2.358395 32.946747 -5.285697
v -2.353900 32.949001 -5.237233
v -2.409337 33.111835 -5.244349
v -2.413392 33.108288 -5.292757
v -2.267795 33.166050 -5.111806
v -2.248530 33.171436 -5.138377
v -2.465585 33.096909 -5.149040
v -2.478908 33.090900 -5.181745
v -2.641421 33.073940 -4.320768
v -2.683713 33.064152 -4.217012
v -2.239710 32.987450 -5.245749
v -2.225391 32.991531 -5.295616
v -2.193377 33.009434 -5.131297
v -2.212223 33.002815 -5.104673
v -2.296370 32.967793 -5.255049
v -2.291386 32.968636 -5.306448
v -2.585516 32.909729 -4.313592
v -2.628174 32.901016 -4.209882
v -2.657593 34.017288 -5.306618
v -2.601128 34.037510 -5.297346
v -2.295186 33.150402 -5.252870
v -2.351818 33.130665 -5.262167
v -2.771467 33.983837 -5.193507
v -2.715034 33.998234 -5.288788
v -2.409337 33.111835 -5.244349
v -2.465585 33.096909 -5.149040
v -2.949657 33.967701 -4.365578
v -2.641421 33.073940 -4.320768
v -2.280434 33.153206 -5.302682
v -2.248530 33.171436 -5.138377
v -2.193377 33.009434 -5.131297
v -2.225391 32.991531 -5.295616
v -2.346396 33.130219 -5.313510
v -2.291386 32.968636 -5.306448
v -2.478908 33.090900 -5.181745
v -2.413392 33.108288 -5.292757
v -2.358395 32.946747 -5.285697
v -2.423870 32.929237 -5.174680
v -2.683713 33.064152 -4.217012
v -2.628174 32.901016 -4.209882
v -1.997448 32.079765 -5.221891
v -1.940653 32.099022 -5.212575
v -1.926059 32.102295 -5.262405
v -1.992211 32.079868 -5.273255
v -2.056670 31.882320 -5.103670
v -2.070570 31.878044 -5.136431
v -2.005377 31.896391 -5.247478
v -2.000698 31.898075 -5.199008
v -2.055028 32.061119 -5.204080
v -2.059277 32.058151 -5.252511
v -1.912661 32.112888 -5.071443
v -1.893454 32.118446 -5.098021
v -2.111038 32.045483 -5.108744
v -2.124515 32.039936 -5.141468
v -2.284096 32.014278 -4.280158
v -2.326085 32.003590 -4.176367
v -1.886296 31.935892 -5.207501
v -1.872126 31.940441 -5.257370
v -1.839419 31.956284 -5.092976
v -1.858215 31.949493 -5.066361
v -1.943112 31.916702 -5.216819
v -1.938303 31.918089 -5.268222
v -2.229304 31.849846 -4.275043
v -2.271650 31.840229 -4.171285
v -2.296369 32.967793 -5.255050
v -2.239709 32.987450 -5.245749
v -1.940653 32.099022 -5.212575
v -1.997448 32.079765 -5.221891
v -2.410113 32.933968 -5.141920
v -2.353900 32.949001 -5.237233
v -2.055028 32.061119 -5.204080
v -2.111038 32.045483 -5.108744
v -2.585515 32.909729 -4.313593
v -2.284096 32.014278 -4.280158
v -1.926059 32.102295 -5.262405
v -1.893454 32.118446 -5.098021
v -1.839419 31.956284 -5.092976
v -1.872126 31.940441 -5.257370
v -1.992211 32.079868 -5.273255
v -1.938303 31.918089 -5.268222
v -2.124515 32.039936 -5.141468
v -2.059277 32.058151 -5.252511
v -2.005377 31.896391 -5.247478
v -2.070570 31.878044 -5.136431
v -2.326085 32.003590 -4.176367
v -2.271650 31.840229 -4.171285
v -1.649342 31.027845 -5.194457
v -1.592425 31.046732 -5.185132
v -1.577984 31.050470 -5.234974
v -1.644278 31.028471 -5.245835
v -1.709109 30.829586 -5.078115
v -1.723138 30.825714 -5.110873
v -1.658235 30.844944 -5.221942
v -1.653387 30.846098 -5.173473
v -1.706948 31.009279 -5.176648
v -1.711375 31.006845 -5.225092
v -1.563890 31.058958 -5.043956
v -1.544748 31.064711 -5.070539
v -1.762708 30.992886 -5.081293
v -1.776322 30.987751 -5.114027
v -1.933105 30.953642 -4.252496
v -1.974793 30.942041 -4.148682
v -1.538848 30.883501 -5.181956
v -1.524825 30.888510 -5.231822
v -1.491499 30.902477 -5.067382
v -1.510235 30.895491 -5.040776
v -1.595779 30.864658 -5.191282
v -1.591136 30.866564 -5.242684
v -1.879113 30.789145 -4.249296
v -1.921154 30.778620 -4.145502
v -1.943111 31.916698 -5.216819
v -1.886295 31.935888 -5.207502
v -1.592425 31.046732 -5.185132
v -1.649342 31.027845 -5.194457
v -2.056669 31.882317 -5.103670
v -2.000698 31.898071 -5.199009
v -1.706948 31.009279 -5.176648
v -1.762708 30.992886 -5.081293
v -2.229303 31.849842 -4.275043
v -1.933105 30.953642 -4.252496
v -1.577984 31.050470 -5.234974
v -1.544748 31.064711 -5.070539
v -1.491499 30.902477 -5.067382
v -1.524825 30.888510 -5.231822
v -1.644278 31.028471 -5.245835
v -1.591136 30.866564 -5.242684
v -1.776322 30.987751 -5.114027
v -1.711375 31.006845 -5.225092
v -1.658235 30.844944 -5.221942
v -1.723138 30.825714 -5.110873
v -1.974793 30.942041 -4.148682
v -1.921154 30.778620 -4.145502
v -1.305357 29.975115 -5.178827
v -1.248357 29.993748 -5.169498
v -1.234056 29.997913 -5.219347
v -1.300446 29.976210 -5.230212
v -1.365354 29.775963 -5.064214
v -1.379489 29.772430 -5.096963
v -1.314861 29.792503 -5.208043
v -1.309867 29.793196 -5.159580
v -1.362963 29.956551 -5.161018
v -1.367544 29.954586 -5.209470
v -1.219360 30.004562 -5.028301
v -1.200282 30.010509 -5.054887
v -1.418484 29.939423 -5.065652
v -1.432211 29.934637 -5.098392
v -1.586496 29.892879 -4.236746
v -1.627904 29.880424 -4.132919
v -1.195252 29.830368 -5.168060
v -1.181362 29.835798 -5.217919
v -1.147516 29.848171 -5.053457
v -1.166193 29.840988 -5.026862
v -1.252262 29.811766 -5.177389
v -1.247764 29.814131 -5.228785
v -1.533034 29.728401 -4.235298
v -1.574798 29.717041 -4.131480
v -1.595779 30.864656 -5.191282
v -1.538847 30.883499 -5.181956
v -1.248357 29.993748 -5.169498
v -1.305357 29.975115 -5.178827
v -1.709108 30.829584 -5.078116
v -1.653387 30.846096 -5.173473
v -1.362963 29.956551 -5.161018
v -1.418484 29.939423 -5.065652
v -1.879113 30.789145 -4.249296
v -1.586496 29.892879 -4.236746
v -1.234056 29.997913 -5.219347
v -1.200282 30.010509 -5.054887
v -1.147516 29.848171 -5.053457
v -1.181362 29.835798 -5.217919
v -1.300446 29.976210 -5.230212
v -1.247764 29.814131 -5.228785
v -1.432211 29.934637 -5.098392
v -1.367544 29.954586 -5.209470
v -1.314861 29.792503 -5.208043
v -1.379489 29.772430 -5.096963
v -1.627904 29.880424 -4.132919
v -1.574798 29.717041 -4.131480
v -0.963638 28.920893 -5.173270
v -0.906578 28.939339 -5.163940
v -0.892388 28.943850 -5.213791
v -0.958849 28.922363 -5.224658
v -1.023674 28.720795 -5.059940
v -1.037893 28.717531 -5.092682
v -0.973482 28.738274 -5.203764
v -0.968374 28.738602 -5.155310
v -1.021239 28.902309 -5.155461
v -1.025941 28.900721 -5.203915
v -0.877217 28.949030 -5.022738
v -0.858191 28.955137 -5.049324
v -1.076563 28.884577 -5.060092
v -1.090379 28.880064 -5.092833
v -1.242660 28.832127 -4.231153
v -1.283842 28.818975 -4.127322
v -0.853703 28.775600 -5.163789
v -0.839918 28.781368 -5.213640
v -0.805665 28.792484 -5.049173
v -0.824294 28.785143 -5.022586
v -0.910772 28.757183 -5.173119
v -0.906390 28.759914 -5.224507
v -1.189526 28.667587 -4.231001
v -1.231072 28.655565 -4.127170
v -1.252262 29.811766 -5.177390
v -1.195252 29.830368 -5.168060
v -0.906578 28.939339 -5.163940
v -0.963638 28.920893 -5.173270
v -1.365354 29.775963 -5.064214
v -1.309868 29.793196 -5.159581
v -1.021239 28.902309 -5.155461
v -1.076563 28.884577 -5.060092
v -1.533034 29.728401 -4.235299
v -1.242660 28.832127 -4.231153
v -0.892388 28.943850 -5.213791
v -0.858191 28.955137 -5.049324
v -0.805665 28.792484 -5.049173
v -0.839918 28.781368 -5.213640
v -0.958849 28.922363 -5.224658
v -0.906390 28.759914 -5.224507
v -1.090379 28.880064 -5.092833
v -1.025941 28.900721 -5.203915
v -0.973482 28.738274 -5.203764
v -1.037893 28.717531 -5.092682
v -1.283842 28.818975 -4.127322
v -1.231072 28.655565 -4.127170
vt 0.0551 0.7859
vt 0.0509 0.7876
vt 0.0519 0.7849
vt 0.7562 0.1791
vt 0.7583 0.1741
vt 0.7577 0.1804
vt 0.0479 0.7849
vt 0.0493 0.7826
vt 0.0604 0.7812
vt 0.0546 0.7888
vt 0.0472 0.7776
vt 0.0487 0.7763
vt 0.0600 0.7300
vt 0.0604 0.7236
vt 0.7641 0.1708
vt 0.7694 0.1754
vt 0.7690 0.1773
vt 0.7599 0.1690
vt 0.7609 0.1718
vt 0.7568 0.1718
vt 0.7690 0.2267
vt 0.1293 0.9038
vt 0.1260 0.9566
vt 0.1260 0.9038
vt 0.4652 0.3734
vt 0.4714 0.3214
vt 0.4714 0.3732
vt 0.5185 0.3747
vt 0.5185 0.3228
vt 0.1225 0.9566
vt 0.1225 0.9038
vt 0.7424 0.2977
vt 0.7330 0.2882
vt 0.7424 0.2882
vt 0.5012 0.9819
vt 0.5050 0.9723
vt 0.5050 0.9819
vt 0.8703 0.7112
vt 0.8604 0.7042
vt 0.8698 0.7040
vt 0.5091 0.9723
vt 0.5091 0.9819
vt 0.8703 0.6491
vt 0.8608 0.6493
vt 0.7642 0.7113
vt 0.7600 0.7131
vt 0.7610 0.7103
vt 0.7202 0.4847
vt 0.7223 0.4798
vt 0.7217 0.4860
vt 0.7570 0.7103
vt 0.7584 0.7080
vt 0.7695 0.7067
vt 0.7637 0.7142
vt 0.7563 0.7031
vt 0.7578 0.7017
vt 0.7691 0.6554
vt 0.7695 0.6491
vt 0.7282 0.4765
vt 0.7335 0.4811
vt 0.7331 0.4829
vt 0.7239 0.4747
vt 0.7249 0.4774
vt 0.7209 0.4774
vt 0.7331 0.5323
vt 0.3137 0.9517
vt 0.3170 0.8987
vt 0.3170 0.9516
vt 0.2849 0.3997
vt 0.2911 0.4514
vt 0.2849 0.4516
vt 0.2378 0.3981
vt 0.2378 0.4503
vt 0.3205 0.8988
vt 0.3205 0.9517
vt 0.7105 0.2977
vt 0.7010 0.2882
vt 0.7105 0.2882
vt 0.0472 0.9818
vt 0.0511 0.9722
vt 0.0511 0.9818
vt 0.8698 0.5285
vt 0.8608 0.5359
vt 0.8603 0.5287
vt 0.0551 0.9722
vt 0.0551 0.9818
vt 0.8702 0.4736
vt 0.8607 0.4738
vt 0.7282 0.6235
vt 0.7240 0.6253
vt 0.7250 0.6226
vt 0.6486 0.6599
vt 0.6507 0.6549
vt 0.6501 0.6612
vt 0.7210 0.6226
vt 0.7224 0.6202
vt 0.7335 0.6189
vt 0.7278 0.6264
vt 0.7203 0.6153
vt 0.7218 0.6140
vt 0.7332 0.5677
vt 0.7335 0.5614
vt 0.6565 0.6516
vt 0.6619 0.6563
vt 0.6615 0.6581
vt 0.6523 0.6499
vt 0.6533 0.6526
vt 0.6493 0.6526
vt 0.6615 0.7075
vt 0.4652 0.9496
vt 0.4685 0.8966
vt 0.4685 0.9496
vt 0.0927 0.3752
vt 0.0866 0.3233
vt 0.0927 0.3231
vt 0.1398 0.3767
vt 0.1398 0.3243
vt 0.4720 0.8966
vt 0.4720 0.9496
vt 0.7103 0.0208
vt 0.7008 0.0113
vt 0.7103 0.0113
vt 0.2776 0.9818
vt 0.2737 0.9722
vt 0.2776 0.9722
vt 0.8703 0.3835
vt 0.8604 0.3765
vt 0.8699 0.3763
vt 0.2816 0.9818
vt 0.2816 0.9722
vt 0.8607 0.3216
vt 0.8703 0.3214
vt 0.5847 0.7111
vt 0.5805 0.7129
vt 0.5815 0.7101
vt 0.3895 0.6492
vt 0.3916 0.6443
vt 0.3910 0.6505
vt 0.5775 0.7101
vt 0.5789 0.7078
vt 0.5901 0.7065
vt 0.5843 0.7140
vt 0.5768 0.7029
vt 0.5783 0.7015
vt 0.5897 0.6552
vt 0.5901 0.6489
vt 0.3974 0.6410
vt 0.4028 0.6456
vt 0.4024 0.6474
vt 0.3932 0.6392
vt 0.3942 0.6420
vt 0.3901 0.6420
vt 0.4024 0.6968
vt 0.5045 0.9497
vt 0.5012 0.8967
vt 0.5045 0.8967
vt 0.3198 0.3736
vt 0.3137 0.3216
vt 0.3198 0.3214
vt 0.3669 0.3225
vt 0.3669 0.3751
vt 0.5080 0.9497
vt 0.5080 0.8967
vt 0.7104 0.2655
vt 0.7009 0.2560
vt 0.7104 0.2560
vt 0.9551 0.9823
vt 0.9512 0.9727
vt 0.9551 0.9727
vt 0.0567 0.8662
vt 0.0476 0.8736
vt 0.0472 0.8664
vt 0.9591 0.9823
vt 0.9591 0.9727
vt 0.0475 0.8115
vt 0.0571 0.8113
vt 0.3216 0.7012
vt 0.3174 0.7030
vt 0.3184 0.7003
vt 0.4652 0.6481
vt 0.4673 0.6432
vt 0.4667 0.6494
vt 0.3143 0.7003
vt 0.3158 0.6979
vt 0.3269 0.6966
vt 0.3211 0.7041
vt 0.3137 0.6930
vt 0.3152 0.6917
vt 0.3266 0.6454
vt 0.3269 0.6391
vt 0.4732 0.6399
vt 0.4785 0.6445
vt 0.4782 0.6463
vt 0.4689 0.6381
vt 0.4700 0.6408
vt 0.4659 0.6409
vt 0.4782 0.6957
vt 0.9253 0.8987
vt 0.9287 0.9517
vt 0.9253 0.9516
vt 0.2441 0.3741
vt 0.2379 0.3221
vt 0.2441 0.3219
vt 0.2911 0.3756
vt 0.2911 0.3229
vt 0.9219 0.8987
vt 0.9219 0.9516
vt 0.7423 0.4499
vt 0.7328 0.4404
vt 0.7423 0.4405
vt 0.3933 0.9828
vt 0.3895 0.9732
vt 0.3933 0.9732
vt 0.4349 0.8680
vt 0.4258 0.8754
vt 0.4254 0.8682
vt 0.3974 0.9828
vt 0.3974 0.9732
vt 0.4353 0.8132
vt 0.4257 0.8134
vt 0.2458 0.7012
vt 0.2416 0.7030
vt 0.2426 0.7002
vt 0.5012 0.6483
vt 0.5033 0.6434
vt 0.5027 0.6496
vt 0.2385 0.7002
vt 0.2400 0.6979
vt 0.2511 0.6966
vt 0.2453 0.7041
vt 0.2378 0.6930
vt 0.2394 0.6917
vt 0.2508 0.6454
vt 0.2511 0.6391
vt 0.5092 0.6401
vt 0.5145 0.6447
vt 0.5142 0.6465
vt 0.5049 0.6383
vt 0.5059 0.6411
vt 0.5019 0.6411
vt 0.5142 0.6958
vt 0.7597 0.9029
vt 0.7631 0.9557
vt 0.7597 0.9557
vt 0.4365 0.0126
vt 0.4427 0.0647
vt 0.4365 0.0649
vt 0.3894 0.0113
vt 0.3894 0.0639
vt 0.7563 0.9029
vt 0.7563 0.9557
vt 0.7423 0.0539
vt 0.7328 0.0444
vt 0.7423 0.0445
vt 0.3535 0.9838
vt 0.3496 0.9742
vt 0.3535 0.9742
vt 0.3591 0.8688
vt 0.3499 0.8762
vt 0.3496 0.8690
vt 0.3575 0.9838
vt 0.3575 0.9742
vt 0.3594 0.8140
vt 0.3498 0.8142
vt 0.3576 0.7014
vt 0.3533 0.7032
vt 0.3543 0.7005
vt 0.5408 0.6598
vt 0.5430 0.6549
vt 0.5424 0.6611
vt 0.3503 0.7005
vt 0.3517 0.6981
vt 0.3629 0.6968
vt 0.3571 0.7043
vt 0.3496 0.6932
vt 0.3511 0.6919
vt 0.3626 0.6457
vt 0.3629 0.6394
vt 0.5488 0.6516
vt 0.5542 0.6562
vt 0.5538 0.6580
vt 0.5446 0.6498
vt 0.5456 0.6526
vt 0.5415 0.6526
vt 0.5538 0.7073
vt 0.5801 0.9566
vt 0.5768 0.9038
vt 0.5801 0.9038
vt 0.3607 0.3989
vt 0.3669 0.4510
vt 0.3607 0.4512
vt 0.3137 0.3976
vt 0.3137 0.4503
vt 0.5836 0.9565
vt 0.5836 0.9038
vt 0.7329 0.2655
vt 0.7424 0.2560
vt 0.7424 0.2655
vt 0.3137 0.9838
vt 0.3175 0.9742
vt 0.3175 0.9838
vt 0.6940 0.8739
vt 0.6848 0.8813
vt 0.6845 0.8741
vt 0.3216 0.9838
vt 0.3216 0.9742
vt 0.6943 0.8191
vt 0.6847 0.8192
vt 0.6925 0.7111
vt 0.6883 0.7128
vt 0.6893 0.7101
vt 0.0866 0.6617
vt 0.0887 0.6568
vt 0.0881 0.6630
vt 0.6852 0.7101
vt 0.6866 0.7078
vt 0.6979 0.7065
vt 0.6920 0.7139
vt 0.6845 0.7029
vt 0.6860 0.7015
vt 0.6975 0.6554
vt 0.6979 0.6491
vt 0.0946 0.6535
vt 0.0999 0.6581
vt 0.0996 0.6599
vt 0.0903 0.6517
vt 0.0913 0.6545
vt 0.0873 0.6545
vt 0.0996 0.7091
vt 0.0900 0.9040
vt 0.0934 0.9567
vt 0.0900 0.9567
vt 0.0866 0.4517
vt 0.0928 0.3993
vt 0.0928 0.4516
vt 0.1398 0.4001
vt 0.1398 0.4528
vt 0.0866 0.9040
vt 0.0866 0.9567
vt 0.7649 0.0444
vt 0.7743 0.0539
vt 0.7649 0.0539
vt 0.4293 0.9831
vt 0.4254 0.9734
vt 0.4293 0.9735
vt 0.0964 0.8813
vt 0.0866 0.8742
vt 0.0961 0.8741
vt 0.4333 0.9734
vt 0.4333 0.9830
vt 0.0868 0.8194
vt 0.0964 0.8192
vt 0.7283 0.2299
vt 0.7240 0.2316
vt 0.7250 0.2289
vt 0.7561 0.5724
vt 0.7582 0.5675
vt 0.7576 0.5737
vt 0.7210 0.2289
vt 0.7224 0.2266
vt 0.7336 0.2253
vt 0.7278 0.2327
vt 0.7203 0.2217
vt 0.7218 0.2204
vt 0.7333 0.1742
vt 0.7336 0.1679
vt 0.7641 0.5642
vt 0.7694 0.5688
vt 0.7691 0.5706
vt 0.7598 0.5625
vt 0.7608 0.5652
vt 0.7568 0.5652
vt 0.7691 0.6198
vt 0.6878 0.9566
vt 0.6845 0.9038
vt 0.6878 0.9039
vt 0.4651 0.2974
vt 0.4713 0.2449
vt 0.4713 0.2972
vt 0.5184 0.2458
vt 0.5184 0.2984
vt 0.6913 0.9038
vt 0.6913 0.9565
vt 0.7423 0.0113
vt 0.7328 0.0208
vt 0.7328 0.0113
vt 0.1703 0.9723
vt 0.1664 0.9819
vt 0.1664 0.9723
vt 0.5866 0.8811
vt 0.5768 0.8740
vt 0.5863 0.8739
vt 0.1624 0.9819
vt 0.1624 0.9723
vt 0.5770 0.8192
vt 0.5866 0.8191
vt 0.0600 0.7794
vt 0.7636 0.1679
vt 0.7694 0.2330
vt 0.1293 0.9566
vt 0.4652 0.3216
vt 0.7330 0.2977
vt 0.5012 0.9723
vt 0.8608 0.7114
vt 0.7691 0.7048
vt 0.7277 0.4736
vt 0.7335 0.5386
vt 0.3137 0.8987
vt 0.2911 0.3995
vt 0.7010 0.2977
vt 0.0472 0.9722
vt 0.8702 0.5357
vt 0.7332 0.6171
vt 0.6561 0.6488
vt 0.6619 0.7138
vt 0.4652 0.8966
vt 0.0866 0.3753
vt 0.7008 0.0208
vt 0.2737 0.9819
vt 0.8608 0.3837
vt 0.5897 0.7046
vt 0.3969 0.6381
vt 0.4028 0.7031
vt 0.5012 0.9497
vt 0.3137 0.3738
vt 0.7009 0.2655
vt 0.9512 0.9823
vt 0.0571 0.8734
vt 0.3266 0.6948
vt 0.4727 0.6370
vt 0.4785 0.7020
vt 0.9287 0.8987
vt 0.2379 0.3743
vt 0.7328 0.4499
vt 0.3895 0.9828
vt 0.4353 0.8752
vt 0.2508 0.6947
vt 0.5087 0.6372
vt 0.5145 0.7021
vt 0.7631 0.9029
vt 0.4427 0.0125
vt 0.7328 0.0539
vt 0.3496 0.9838
vt 0.3594 0.8761
vt 0.3626 0.6950
vt 0.5484 0.6487
vt 0.5542 0.7136
vt 0.5768 0.9565
vt 0.3669 0.3988
vt 0.7329 0.2560
vt 0.3137 0.9742
vt 0.6943 0.8811
vt 0.6975 0.7046
vt 0.0941 0.6506
vt 0.0999 0.7154
vt 0.0934 0.9040
vt 0.0866 0.3994
vt 0.7743 0.0444
vt 0.4254 0.9830
vt 0.0868 0.8814
vt 0.7333 0.2234
vt 0.7636 0.5614
vt 0.7694 0.6261
vt 0.6845 0.9565
vt 0.4651 0.2450
vt 0.7423 0.0208
vt 0.1703 0.9819
vt 0.5771 0.8813
vn -0.3507 0.9328 -0.0827
vn 0.3160 -0.9469 0.0594
vn -0.3508 0.9328 -0.0827
vn -0.3506 0.9328 -0.0828
vn -0.3506 0.9329 -0.0827
vn 0.3964 -0.9153 0.0710
vn 0.3545 -0.9333 0.0574
vn 0.3439 -0.9373 0.0565
vn 0.2942 -0.9532 0.0694
vn 0.1711 -0.0248 -0.9849
vn -0.0341 -0.1029 -0.9941
vn -0.0343 -0.1030 -0.9941
vn -0.5485 -0.2780 -0.7886
vn -0.8601 -0.3569 -0.3646
vn -0.8600 -0.3569 -0.3646
vn -0.9102 -0.3612 -0.2026
vn -0.5483 -0.2780 -0.7887
vn 0.9201 0.3271 -0.2155
vn 0.6611 0.1843 -0.7273
vn 0.6608 0.1842 -0.7276
vn -0.0348 -0.1011 -0.9943
vn -0.0349 -0.1011 -0.9943
vn -0.5489 -0.2763 -0.7889
vn -0.8604 -0.3560 -0.3648
vn -0.5488 -0.2763 -0.7890
vn -0.9105 -0.3605 -0.2026
vn -0.3468 0.9349 -0.0762
vn 0.3114 -0.9488 0.0523
vn -0.3468 0.9349 -0.0760
vn -0.3467 0.9349 -0.0760
vn -0.3468 0.9348 -0.0761
vn 0.3919 -0.9178 0.0636
vn 0.3498 -0.9355 0.0503
vn 0.3393 -0.9394 0.0491
vn 0.2899 -0.9550 0.0622
vn 0.1695 -0.0206 -0.9853
vn -0.0356 -0.0981 -0.9945
vn -0.0358 -0.0982 -0.9945
vn -0.8614 -0.3534 -0.3648
vn -0.5500 -0.2731 -0.7892
vn -0.9113 -0.3582 -0.2028
vn -0.5501 -0.2731 -0.7892
vn 0.9212 0.3242 -0.2152
vn 0.6606 0.1860 -0.7273
vn 0.6603 0.1859 -0.7277
vn -0.0372 -0.0945 -0.9948
vn -0.0373 -0.0945 -0.9948
vn -0.8627 -0.3496 -0.3653
vn -0.5516 -0.2687 -0.7896
vn -0.5517 -0.2687 -0.7896
vn -0.9126 -0.3550 -0.2031
vn -0.3390 0.9385 -0.0660
vn 0.3031 -0.9520 0.0418
vn -0.3391 0.9384 -0.0660
vn 0.3839 -0.9218 0.0532
vn 0.3416 -0.9390 0.0399
vn 0.3310 -0.9428 0.0388
vn 0.2815 -0.9582 0.0517
vn 0.1668 -0.0132 -0.9859
vn -0.0388 -0.0891 -0.9953
vn -0.8650 -0.3439 -0.3655
vn -0.5540 -0.2621 -0.7901
vn -0.9145 -0.3498 -0.2035
vn 0.6601 0.1875 -0.7274
vn 0.9235 0.3177 -0.2147
vn 0.6599 0.1874 -0.7276
vn -0.0412 -0.0836 -0.9957
vn -0.0413 -0.0836 -0.9956
vn -0.5566 -0.2550 -0.7906
vn -0.8672 -0.3375 -0.3662
vn -0.5567 -0.2550 -0.7906
vn -0.9165 -0.3441 -0.2039
vn -0.3303 0.9423 -0.0543
vn 0.2942 -0.9553 0.0301
vn -0.3303 0.9423 -0.0545
vn -0.3304 0.9423 -0.0543
vn -0.3304 0.9423 -0.0542
vn 0.3755 -0.9259 0.0415
vn 0.3329 -0.9425 0.0280
vn 0.3223 -0.9463 0.0268
vn 0.2725 -0.9613 0.0400
vn -0.0428 -0.0778 -0.9960
vn 0.1634 -0.0040 -0.9865
vn -0.0429 -0.0778 -0.9960
vn -0.8694 -0.3315 -0.3663
vn -0.5591 -0.2481 -0.7911
vn -0.9185 -0.3387 -0.2043
vn 0.6593 0.1894 -0.7276
vn 0.9257 0.3116 -0.2144
vn 0.6593 0.1893 -0.7277
vn -0.0452 -0.0722 -0.9964
vn -0.0453 -0.0722 -0.9964
vn -0.8715 -0.3255 -0.3669
vn -0.5616 -0.2411 -0.7915
vn -0.9203 -0.3334 -0.2046
vn -0.3226 0.9456 -0.0422
vn 0.2866 -0.9579 0.0179
vn -0.3225 0.9456 -0.0422
vn -0.3226 0.9456 -0.0423
vn -0.3225 0.9456 -0.0423
vn 0.3681 -0.9293 0.0295
vn 0.3254 -0.9455 0.0161
vn 0.3146 -0.9491 0.0151
vn 0.2650 -0.9639 0.0279
vn -0.0470 -0.0662 -0.9967
vn 0.1600 0.0057 -0.9871
vn -0.8736 -0.3197 -0.3670
vn -0.5641 -0.2342 -0.7918
vn -0.9221 -0.3283 -0.2049
vn -0.5640 -0.2342 -0.7918
vn 0.6583 0.1923 -0.7278
vn 0.9275 0.3064 -0.2141
vn -0.0493 -0.0604 -0.9970
vn -0.0494 -0.0604 -0.9970
vn -0.8754 -0.3141 -0.3675
vn -0.5664 -0.2274 -0.7922
vn -0.5663 -0.2274 -0.7922
vn -0.9238 -0.3235 -0.2051
vn -0.3165 0.9481 -0.0303
vn 0.2807 -0.9598 0.0062
vn -0.3164 0.9481 -0.0303
vn -0.3164 0.9481 -0.0304
vn -0.3164 0.9481 -0.0302
vn -0.3165 0.9481 -0.0304
vn 0.3619 -0.9320 0.0178
vn 0.3194 -0.9476 0.0043
vn 0.3087 -0.9512 0.0032
vn 0.2591 -0.9657 0.0161
vn -0.0511 -0.0544 -0.9972
vn 0.1566 0.0158 -0.9875
vn -0.8772 -0.3090 -0.3674
vn -0.5687 -0.2210 -0.7923
vn -0.9252 -0.3191 -0.2053
vn -0.5686 -0.2210 -0.7923
vn 0.6569 0.1963 -0.7280
vn 0.9287 0.3028 -0.2140
vn 0.6569 0.1962 -0.7280
vn -0.0533 -0.0488 -0.9974
vn -0.8787 -0.3042 -0.3679
vn -0.5706 -0.2148 -0.7926
vn -0.9266 -0.3151 -0.2054
vn -0.3121 0.9499 -0.0191
vn 0.2765 -0.9610 -0.0049
vn -0.3121 0.9499 -0.0192
vn 0.3578 -0.9338 0.0067
vn 0.3152 -0.9490 -0.0067
vn 0.3045 -0.9525 -0.0078
vn 0.2549 -0.9669 0.0051
vn -0.0549 -0.0432 -0.9976
vn 0.1533 0.0258 -0.9878
vn -0.0549 -0.0433 -0.9976
vn -0.8802 -0.3002 -0.3677
vn -0.5727 -0.2092 -0.7926
vn -0.9277 -0.3118 -0.2055
vn 0.9294 0.3009 -0.2139
vn 0.6553 0.2009 -0.7281
vn 0.6553 0.2009 -0.7282
vn -0.0568 -0.0381 -0.9977
vn -0.8813 -0.2964 -0.3681
vn -0.5742 -0.2039 -0.7929
vn -0.9286 -0.3088 -0.2055
vn -0.3093 0.9509 -0.0093
vn 0.2738 -0.9617 -0.0145
vn -0.3094 0.9509 -0.0093
vn 0.3554 -0.9347 -0.0029
vn 0.3126 -0.9498 -0.0164
vn 0.3019 -0.9532 -0.0175
vn 0.2522 -0.9677 -0.0045
vn -0.0584 -0.0330 -0.9977
vn 0.1502 0.0352 -0.9880
vn -0.5760 -0.1992 -0.7928
vn -0.8824 -0.2933 -0.3679
vn -0.8824 -0.2933 -0.3678
vn -0.9295 -0.3063 -0.2056
vn 0.6537 0.2061 -0.7282
vn 0.9296 0.3003 -0.2139
vn 0.6536 0.2060 -0.7283
vn -0.0600 -0.0283 -0.9978
vn -0.5773 -0.1946 -0.7930
vn -0.8833 -0.2903 -0.3682
vn -0.8833 -0.2903 -0.3681
vn -0.5772 -0.1946 -0.7930
vn -0.9302 -0.3042 -0.2056
vn -0.3074 0.9516 -0.0014
vn 0.2717 -0.9621 -0.0220
vn -0.3074 0.9516 -0.0015
vn 0.3537 -0.9353 -0.0104
vn 0.3106 -0.9502 -0.0241
vn 0.2999 -0.9537 -0.0252
vn 0.2501 -0.9681 -0.0121
vn -0.0612 -0.0244 -0.9978
vn 0.1476 0.0432 -0.9881
vn -0.5786 -0.1911 -0.7929
vn -0.8841 -0.2881 -0.3680
vn -0.8841 -0.2881 -0.3679
vn -0.9307 -0.3025 -0.2056
vn 0.9296 0.3000 -0.2139
vn 0.6523 0.2100 -0.7283
vn -0.0624 -0.0211 -0.9978
vn -0.5794 -0.1879 -0.7931
vn -0.8847 -0.2860 -0.3682
vn -0.5794 -0.1878 -0.7931
vn -0.9312 -0.3009 -0.2056
vn 0.3160 -0.9469 0.0595
vn -0.3507 0.9328 -0.0826
vn -0.3507 0.9328 -0.0828
vn 0.3965 -0.9153 0.0709
vn 0.3439 -0.9373 0.0562
vn -0.3468 0.9349 -0.0759
vn -0.3467 0.9349 -0.0761
vn -0.3469 0.9348 -0.0761
vn 0.3918 -0.9178 0.0637
vn 0.3393 -0.9394 0.0493
vn 0.2895 -0.9552 0.0621
vn -0.3390 0.9385 -0.0661
vn -0.3391 0.9385 -0.0660
vn -0.3391 0.9384 -0.0659
vn 0.3838 -0.9219 0.0535
vn 0.3416 -0.9390 0.0397
vn 0.3310 -0.9428 0.0386
vn 0.2812 -0.9583 0.0517
vn 0.9235 0.3177 -0.2148
vn -0.3303 0.9423 -0.0542
vn 0.2943 -0.9553 0.0298
vn -0.3304 0.9423 -0.0544
vn 0.3753 -0.9260 0.0415
vn 0.3329 -0.9425 0.0281
vn 0.3223 -0.9463 0.0270
vn 0.2720 -0.9615 0.0398
vn 0.9257 0.3116 -0.2143
vn -0.3226 0.9456 -0.0424
vn 0.2866 -0.9579 0.0180
vn -0.3226 0.9456 -0.0421
vn -0.3227 0.9456 -0.0422
vn -0.3227 0.9456 -0.0423
vn 0.3679 -0.9294 0.0296
vn 0.3254 -0.9454 0.0161
vn 0.3147 -0.9491 0.0149
vn 0.2645 -0.9640 0.0278
vn 0.1601 0.0057 -0.9871
vn -0.3164 0.9481 -0.0306
vn -0.3164 0.9481 -0.0305
vn 0.3087 -0.9512 0.0033
vn 0.2587 -0.9658 0.0160
vn 0.2765 -0.9610 -0.0048
vn 0.3578 -0.9338 0.0068
vn 0.2545 -0.9671 0.0050
vn 0.2738 -0.9617 -0.0144
vn -0.3093 0.9509 -0.0094
vn 0.3553 -0.9347 -0.0028
vn 0.3126 -0.9498 -0.0163
vn 0.3019 -0.9532 -0.0174
vn 0.2519 -0.9677 -0.0046
vn 0.2717 -0.9621 -0.0222
vn -0.3075 0.9516 -0.0014
vn 0.3536 -0.9353 -0.0104
vn 0.2998 -0.9537 -0.0251
vn 0.2498 -0.9682 -0.0122
s off
f 2/1/1 4/2/1 1/3/1
f 6/4/2 8/5/2 5/6/2
f 1/3/1 10/7/1 9/8/1
f 2/1/3 12/9/3 3/10/3
f 9/8/4 14/11/4 13/12/4
f 15/13/5 14/11/5 16/14/5
f 17/15/6 19/16/6 20/17/6
f 22/18/7 17/15/7 21/19/7
f 7/20/8 21/19/8 8/5/8
f 23/21/9 6/4/9 5/6/9
s 1
f 26/22/10 28/23/11 25/24/12
f 30/25/13 32/26/14 29/27/15
f 33/28/16 32/26/14 34/29/16
f 25/24/12 31/30/17 30/31/13
f 36/32/18 38/33/19 35/34/20
f 35/35/20 40/36/21 39/37/22
f 42/38/23 44/39/24 41/40/24
f 39/37/22 43/41/25 42/42/23
f 45/43/26 44/39/24 46/44/26
s off
f 48/45/27 50/46/27 47/47/27
f 52/48/28 54/49/28 51/50/28
f 47/47/29 56/51/29 55/52/29
f 48/45/30 58/53/30 49/54/30
f 55/52/31 60/55/31 59/56/31
f 61/57/29 60/55/29 62/58/29
f 63/59/32 65/60/32 66/61/32
f 68/62/33 63/59/33 67/63/33
f 53/64/34 67/63/34 54/49/34
f 69/65/35 52/48/35 51/50/35
s 1
f 72/66/36 74/67/37 71/68/38
f 75/69/39 77/70/40 78/71/39
f 79/72/41 78/71/39 80/73/41
f 71/68/38 77/74/40 76/75/42
f 82/76/43 84/77/44 81/78/45
f 81/79/45 86/80/46 85/81/47
f 87/82/48 89/83/49 90/84/48
f 85/81/47 89/85/49 88/86/50
f 91/87/51 90/84/48 92/88/51
s off
f 94/89/52 96/90/52 93/91/52
f 98/92/53 100/93/53 97/94/53
f 93/91/54 102/95/54 101/96/54
f 94/89/52 104/97/52 95/98/52
f 101/96/52 106/99/52 105/100/52
f 107/101/52 106/99/52 108/102/52
f 109/103/55 111/104/55 112/105/55
f 114/106/56 109/103/56 113/107/56
f 99/108/57 113/107/57 100/93/57
f 115/109/58 98/92/58 97/94/58
s 1
f 118/110/59 120/111/60 117/112/60
f 121/113/61 123/114/62 124/115/61
f 125/116/63 124/115/61 126/117/63
f 117/112/60 123/118/62 122/119/62
f 127/120/64 129/121/65 130/122/66
f 131/123/67 130/124/66 132/125/68
f 134/126/69 136/127/70 133/128/70
f 134/129/69 132/125/68 135/130/71
f 133/128/70 138/131/72 137/132/72
s off
f 140/133/73 142/134/73 139/135/73
f 144/136/74 146/137/74 143/138/74
f 139/135/75 148/139/75 147/140/75
f 140/133/76 150/141/76 141/142/76
f 147/140/77 152/143/77 151/144/77
f 153/145/73 152/143/73 154/146/73
f 155/147/78 157/148/78 158/149/78
f 160/150/79 155/147/79 159/151/79
f 145/152/80 159/151/80 146/137/80
f 161/153/81 144/136/81 143/138/81
s 1
f 163/154/82 165/155/83 166/156/84
f 167/157/85 169/158/86 170/159/85
f 167/157/85 172/160/87 171/161/87
f 168/162/86 166/156/84 169/163/86
f 173/164/88 175/165/89 176/166/90
f 177/167/91 176/168/90 178/169/92
f 179/170/93 181/171/94 182/172/93
f 180/173/94 178/169/92 181/174/94
f 179/170/93 184/175/95 183/176/95
s off
f 186/177/96 188/178/96 185/179/96
f 190/180/97 192/181/97 189/182/97
f 185/179/96 194/183/96 193/184/96
f 186/177/98 196/185/98 187/186/98
f 193/184/99 198/187/99 197/188/99
f 199/189/100 198/187/100 200/190/100
f 201/191/101 203/192/101 204/193/101
f 206/194/102 201/191/102 205/195/102
f 191/196/103 205/195/103 192/181/103
f 207/197/104 190/180/104 189/182/104
s 1
f 209/198/105 211/199/106 212/200/105
f 213/201/107 215/202/108 216/203/107
f 217/204/109 216/203/107 218/205/109
f 214/206/110 212/200/105 215/207/108
f 219/208/111 221/209/112 222/210/111
f 223/211/113 222/212/111 224/213/114
f 225/214/115 227/215/116 228/216/115
f 226/217/117 224/213/114 227/218/116
f 229/219/118 228/216/115 230/220/118
s off
f 232/221/119 234/222/119 231/223/119
f 236/224/120 238/225/120 235/226/120
f 231/223/121 240/227/121 239/228/121
f 232/221/122 242/229/122 233/230/122
f 239/228/123 244/231/123 243/232/123
f 245/233/124 244/231/124 246/234/124
f 247/235/125 249/236/125 250/237/125
f 252/238/126 247/235/126 251/239/126
f 237/240/127 251/239/127 238/225/127
f 253/241/128 236/224/128 235/226/128
s 1
f 255/242/129 257/243/130 258/244/129
f 259/245/131 261/246/132 262/247/131
f 263/248/133 262/247/131 264/249/133
f 260/250/134 258/244/129 261/251/132
f 265/252/135 267/253/136 268/254/137
f 269/255/138 268/256/137 270/257/138
f 271/258/139 273/259/140 274/260/139
f 272/261/140 270/257/138 273/262/140
f 275/263/141 274/260/139 276/264/141
s off
f 278/265/142 280/266/142 277/267/142
f 282/268/143 284/269/143 281/270/143
f 277/267/144 286/271/144 285/272/144
f 278/265/144 288/273/144 279/274/144
f 285/272/144 290/275/144 289/276/144
f 291/277/142 290/275/142 292/278/142
f 293/279/145 295/280/145 296/281/145
f 298/282/146 293/279/146 297/283/146
f 283/284/147 297/283/147 284/269/147
f 299/285/148 282/268/148 281/270/148
s 1
f 301/286/149 303/287/150 304/288/151
f 305/289/152 307/290/153 308/291/152
f 309/292/154 308/291/152 310/293/154
f 306/294/153 304/288/151 307/295/153
f 312/296/155 314/297/156 311/298/157
f 311/299/157 316/300/158 315/301/158
f 317/302/159 319/303/160 320/304/159
f 318/305/160 316/300/158 319/306/160
f 321/307/161 320/304/159 322/308/161
s off
f 324/309/162 326/310/162 323/311/162
f 328/312/163 330/313/163 327/314/163
f 323/311/162 332/315/162 331/316/162
f 324/309/164 334/317/164 325/318/164
f 331/316/162 336/319/162 335/320/162
f 337/321/164 336/319/164 338/322/164
f 339/323/165 341/324/165 342/325/165
f 344/326/166 339/323/166 343/327/166
f 329/328/167 343/327/167 330/313/167
f 345/329/168 328/312/168 327/314/168
s 1
f 347/330/169 349/331/170 350/332/169
f 352/333/171 354/334/172 351/335/173
f 351/335/173 356/336/174 355/337/174
f 352/338/171 350/332/169 353/339/171
f 357/340/175 359/341/176 360/342/177
f 361/343/178 360/344/177 362/345/178
f 364/346/179 366/347/180 363/348/181
f 361/343/178 365/349/182 364/350/179
f 363/348/181 368/351/183 367/352/183
s off
f 370/353/184 372/354/184 369/355/184
f 374/356/185 376/357/185 373/358/185
f 369/355/184 378/359/184 377/360/184
f 370/353/184 380/361/184 371/362/184
f 377/360/186 382/363/186 381/364/186
f 383/365/184 382/363/184 384/366/184
f 385/367/187 387/368/187 388/369/187
f 390/370/188 385/367/188 389/371/188
f 375/372/189 389/371/189 376/357/189
f 391/373/190 374/356/190 373/358/190
s 1
f 393/374/191 395/375/192 396/376/191
f 398/377/193 400/378/194 397/379/195
f 397/379/195 402/380/196 401/381/196
f 393/374/191 399/382/193 398/383/193
f 404/384/197 406/385/198 403/386/198
f 403/387/198 408/388/199 407/389/199
f 410/390/200 412/391/201 409/392/201
f 407/389/199 411/393/202 410/394/200
f 409/392/201 414/395/203 413/396/203
s off
f 2/1/1 3/10/1 4/2/1
f 6/4/204 7/20/204 8/5/204
f 1/3/1 4/2/1 10/7/1
f 2/1/205 11/397/205 12/9/205
f 9/8/206 10/7/206 14/11/206
f 15/13/5 13/12/5 14/11/5
f 17/15/207 18/398/207 19/16/207
f 22/18/7 18/398/7 17/15/7
f 7/20/208 22/18/208 21/19/208
f 23/21/9 24/399/9 6/4/9
s 1
f 26/22/10 27/400/10 28/23/11
f 30/25/13 31/401/17 32/26/14
f 33/28/16 29/27/15 32/26/14
f 25/24/12 28/23/11 31/30/17
f 36/32/18 37/402/18 38/33/19
f 35/35/20 38/403/19 40/36/21
f 42/38/23 43/404/25 44/39/24
f 39/37/22 40/36/21 43/41/25
f 45/43/26 41/40/24 44/39/24
s off
f 48/45/29 49/54/29 50/46/29
f 52/48/28 53/64/28 54/49/28
f 47/47/209 50/46/209 56/51/209
f 48/45/210 57/405/210 58/53/210
f 55/52/209 56/51/209 60/55/209
f 61/57/211 59/56/211 60/55/211
f 63/59/212 64/406/212 65/60/212
f 68/62/33 64/406/33 63/59/33
f 53/64/213 68/62/213 67/63/213
f 69/65/214 70/407/214 52/48/214
s 1
f 72/66/36 73/408/36 74/67/37
f 75/69/39 76/409/42 77/70/40
f 79/72/41 75/69/39 78/71/39
f 71/68/38 74/67/37 77/74/40
f 82/76/43 83/410/43 84/77/44
f 81/79/45 84/411/44 86/80/46
f 87/82/48 88/412/50 89/83/49
f 85/81/47 86/80/46 89/85/49
f 91/87/51 87/82/48 90/84/48
s off
f 94/89/215 95/98/215 96/90/215
f 98/92/53 99/108/53 100/93/53
f 93/91/216 96/90/216 102/95/216
f 94/89/54 103/413/54 104/97/54
f 101/96/52 102/95/52 106/99/52
f 107/101/217 105/100/217 106/99/217
f 109/103/218 110/414/218 111/104/218
f 114/106/219 110/414/219 109/103/219
f 99/108/220 114/106/220 113/107/220
f 115/109/221 116/415/221 98/92/221
s 1
f 118/110/59 119/416/59 120/111/60
f 121/113/61 122/417/62 123/114/62
f 125/116/63 121/113/61 124/115/61
f 117/112/60 120/111/60 123/118/62
f 127/120/64 128/418/222 129/121/65
f 131/123/67 127/419/64 130/124/66
f 134/126/69 135/420/71 136/127/70
f 134/129/69 131/123/67 132/125/68
f 133/128/70 136/127/70 138/131/72
s off
f 140/133/223 141/142/223 142/134/223
f 144/136/224 145/152/224 146/137/224
f 139/135/223 142/134/223 148/139/223
f 140/133/76 149/421/76 150/141/76
f 147/140/225 148/139/225 152/143/225
f 153/145/225 151/144/225 152/143/225
f 155/147/226 156/422/226 157/148/226
f 160/150/227 156/422/227 155/147/227
f 145/152/228 160/150/228 159/151/228
f 161/153/229 162/423/229 144/136/229
s 1
f 163/154/82 164/424/83 165/155/83
f 167/157/85 168/425/86 169/158/86
f 167/157/85 170/159/85 172/160/87
f 168/162/86 163/154/82 166/156/84
f 173/164/88 174/426/230 175/165/89
f 177/167/91 173/427/88 176/168/90
f 179/170/93 180/428/94 181/171/94
f 180/173/94 177/167/91 178/169/92
f 179/170/93 182/172/93 184/175/95
s off
f 186/177/231 187/186/231 188/178/231
f 190/180/232 191/196/232 192/181/232
f 185/179/233 188/178/233 194/183/233
f 186/177/234 195/429/234 196/185/234
f 193/184/96 194/183/96 198/187/96
f 199/189/235 197/188/235 198/187/235
f 201/191/236 202/430/236 203/192/236
f 206/194/237 202/430/237 201/191/237
f 191/196/238 206/194/238 205/195/238
f 207/197/239 208/431/239 190/180/239
s 1
f 209/198/105 210/432/240 211/199/106
f 213/201/107 214/433/110 215/202/108
f 217/204/109 213/201/107 216/203/107
f 214/206/110 209/198/105 212/200/105
f 219/208/111 220/434/112 221/209/112
f 223/211/113 219/435/111 222/212/111
f 225/214/115 226/436/117 227/215/116
f 226/217/117 223/211/113 224/213/114
f 229/219/118 225/214/115 228/216/115
s off
f 232/221/241 233/230/241 234/222/241
f 236/224/120 237/240/120 238/225/120
f 231/223/122 234/222/122 240/227/122
f 232/221/242 241/437/242 242/229/242
f 239/228/242 240/227/242 244/231/242
f 245/233/121 243/232/121 244/231/121
f 247/235/125 248/438/125 249/236/125
f 252/238/126 248/438/126 247/235/126
f 237/240/243 252/238/243 251/239/243
f 253/241/244 254/439/244 236/224/244
s 1
f 255/242/129 256/440/130 257/243/130
f 259/245/131 260/441/134 261/246/132
f 263/248/133 259/245/131 262/247/131
f 260/250/134 255/242/129 258/244/129
f 265/252/135 266/442/136 267/253/136
f 269/255/138 265/443/135 268/256/137
f 271/258/139 272/444/140 273/259/140
f 272/261/140 269/255/138 270/257/138
f 275/263/141 271/258/139 274/260/139
s off
f 278/265/142 279/274/142 280/266/142
f 282/268/245 283/284/245 284/269/245
f 277/267/144 280/266/144 286/271/144
f 278/265/142 287/445/142 288/273/142
f 285/272/144 286/271/144 290/275/144
f 291/277/144 289/276/144 290/275/144
f 293/279/246 294/446/246 295/280/246
f 298/282/146 294/446/146 293/279/146
f 283/284/147 298/282/147 297/283/147
f 299/285/247 300/447/247 282/268/247
s 1
f 301/286/149 302/448/150 303/287/150
f 305/289/152 306/449/153 307/290/153
f 309/292/154 305/289/152 308/291/152
f 306/294/153 301/286/149 304/288/151
f 312/296/155 313/450/155 314/297/156
f 311/299/157 314/451/156 316/300/158
f 317/302/159 318/452/160 319/303/160
f 318/305/160 315/301/158 316/300/158
f 321/307/161 317/302/159 320/304/159
s off
f 324/309/162 325/318/162 326/310/162
f 328/312/248 329/328/248 330/313/248
f 323/311/249 326/310/249 332/315/249
f 324/309/164 333/453/164 334/317/164
f 331/316/162 332/315/162 336/319/162
f 337/321/249 335/320/249 336/319/249
f 339/323/250 340/454/250 341/324/250
f 344/326/251 340/454/251 339/323/251
f 329/328/252 344/326/252 343/327/252
f 345/329/253 346/455/253 328/312/253
s 1
f 347/330/169 348/456/170 349/331/170
f 352/333/171 353/457/171 354/334/172
f 351/335/173 354/334/172 356/336/174
f 352/338/171 347/330/169 350/332/169
f 357/340/175 358/458/176 359/341/176
f 361/343/178 357/459/175 360/344/177
f 364/346/179 365/460/182 366/347/180
f 361/343/178 362/345/178 365/349/182
f 363/348/181 366/347/180 368/351/183
s off
f 370/353/184 371/362/184 372/354/184
f 374/356/254 375/372/254 376/357/254
f 369/355/186 372/354/186 378/359/186
f 370/353/184 379/461/184 380/361/184
f 377/360/184 378/359/184 382/363/184
f 383/365/255 381/364/255 382/363/255
f 385/367/256 386/462/256 387/368/256
f 390/370/188 386/462/188 385/367/188
f 375/372/257 390/370/257 389/371/257
f 391/373/258 392/463/258 374/356/258
s 1
f 393/374/191 394/464/192 395/375/192
f 398/377/193 399/465/193 400/378/194
f 397/379/195 400/378/194 402/380/196
f 393/374/191 396/376/191 399/382/193
f 404/384/197 405/466/197 406/385/198
f 403/387/198 406/467/198 408/388/199
f 410/390/200 411/468/202 412/391/201
f 407/389/199 408/388/199 411/393/202
f 409/392/201 412/391/201 414/395/203
