# Blender v2.78 (sub 0) OBJ File: 'vtrack.blend'
# www.blender.org
o spectator_wall_source.009_Cube.037
v -6.243653 36.079262 -5.600081
v -6.299953 36.058002 -5.592243
v -6.311674 36.050442 -5.642365
v -6.246098 36.075203 -5.651495
v -6.199997 36.287701 -5.493944
v -6.184573 36.290325 -5.526193
v -6.242836 36.261009 -5.638728
v -6.250019 36.262531 -5.590561
v -6.188010 36.101917 -5.580819
v -6.181287 36.101593 -5.629059
v -6.334884 36.053005 -5.452068
v -6.352359 36.044621 -5.479095
v -6.137983 36.127075 -5.484201
v -6.123019 36.130894 -5.516523
v -6.011505 36.226265 -4.652551
v -5.975702 36.246429 -4.547854
v -6.361966 36.218624 -5.601986
v -6.373227 36.209869 -5.652035
v -6.413919 36.204071 -5.488766
v -6.396903 36.213646 -5.461812
v -6.305665 36.239883 -5.609824
v -6.307649 36.234631 -5.661164
v -6.073551 36.386978 -4.662299
v -6.037293 36.405960 -4.557530
v -5.906128 35.204868 -5.547493
v -5.962434 35.183620 -5.539656
v -6.299953 36.058002 -5.592243
v -6.243653 36.079262 -5.600081
v -5.800406 35.252544 -5.431605
v -5.850469 35.227482 -5.528228
v -6.188010 36.101917 -5.580819
v -6.137983 36.127075 -5.484201
v -5.673636 35.350983 -4.599909
v -6.011505 36.226265 -4.652551
v -6.311674 36.050442 -5.642365
v -6.352359 36.044621 -5.479095
v -6.413919 36.204071 -5.488766
v -6.373227 36.209869 -5.652035
v -6.246098 36.075203 -5.651495
v -6.307649 36.234631 -5.661164
v -6.123019 36.130894 -5.516523
v -6.181287 36.101593 -5.629059
v -6.242836 36.261009 -5.638728
v -6.184573 36.290325 -5.526193
v -5.975702 36.246429 -4.547854
v -6.037293 36.405960 -4.557530
v -6.643479 37.115967 -5.663223
v -6.699803 37.094769 -5.655389
v -6.711520 37.087196 -5.705510
v -6.645916 37.111885 -5.714635
v -6.599716 37.324684 -5.557180
v -6.584280 37.327274 -5.589427
v -6.642556 37.297989 -5.701963
v -6.649749 37.299541 -5.653799
v -6.587818 37.138569 -5.643958
v -6.581083 37.138214 -5.692195
v -6.734773 37.089874 -5.515220
v -6.752250 37.081497 -5.542247
v -6.537788 37.163723 -5.547340
v -6.522811 37.167511 -5.579659
v -6.411409 37.263172 -4.715705
v -6.375611 37.283348 -4.611009
v -6.761751 37.255779 -5.665232
v -6.773010 37.247017 -5.715281
v -6.813747 37.241333 -5.552019
v -6.796726 37.250900 -5.525064
v -6.705420 37.276958 -5.673066
v -6.707398 37.271687 -5.724404
v -6.473330 37.424118 -4.725544
v -6.437071 37.443089 -4.620775
v -6.305665 36.239883 -5.609824
v -6.361966 36.218624 -5.601986
v -6.699803 37.094769 -5.655389
v -6.643479 37.115967 -5.663223
v -6.199997 36.287701 -5.493944
v -6.250019 36.262531 -5.590561
v -6.587818 37.138569 -5.643958
v -6.537788 37.163723 -5.547340
v -6.073551 36.386978 -4.662299
v -6.411409 37.263172 -4.715705
v -6.711520 37.087196 -5.705510
v -6.752250 37.081497 -5.542247
v -6.813747 37.241333 -5.552019
v -6.773010 37.247017 -5.715281
v -6.645916 37.111885 -5.714635
v -6.707398 37.271687 -5.724404
v -6.522811 37.167511 -5.579659
v -6.581083 37.138214 -5.692195
v -6.642556 37.297989 -5.701963
v -6.584280 37.327274 -5.589427
v -6.375611 37.283348 -4.611009
v -6.437071 37.443089 -4.620775
v -7.042087 38.155548 -5.726789
v -7.098475 38.134518 -5.718965
v -7.110205 38.126980 -5.769088
v -7.044526 38.151478 -5.778201
v -6.997824 38.364468 -5.620746
v -6.982371 38.367001 -5.652989
v -7.040725 38.337917 -5.765539
v -7.047924 38.339497 -5.717375
v -6.986362 38.177990 -5.707513
v -6.979620 38.177616 -5.755750
v -7.133482 38.129723 -5.578802
v -7.150980 38.121395 -5.605833
v -6.936274 38.202988 -5.610886
v -6.921281 38.206734 -5.643203
v -6.809743 38.302040 -4.779227
v -6.773903 38.322105 -4.674524
v -7.160068 38.296108 -5.728831
v -7.171345 38.287380 -5.778882
v -7.212128 38.281815 -5.615628
v -7.195082 38.291332 -5.588669
v -7.103665 38.317101 -5.736653
v -7.105650 38.311832 -5.787992
v -6.871246 38.463398 -4.789079
v -6.834940 38.482235 -4.684301
v -6.705420 37.276958 -5.673066
v -6.761751 37.255779 -5.665233
v -7.098475 38.134518 -5.718965
v -7.042087 38.155548 -5.726789
v -6.599716 37.324684 -5.557181
v -6.649749 37.299541 -5.653799
v -6.986362 38.177990 -5.707513
v -6.936274 38.202988 -5.610886
v -6.473330 37.424118 -4.725544
v -6.809743 38.302040 -4.779227
v -7.110205 38.126980 -5.769088
v -7.150980 38.121395 -5.605833
v -7.212128 38.281815 -5.615628
v -7.171345 38.287380 -5.778882
v -7.044526 38.151478 -5.778201
v -7.105650 38.311832 -5.787992
v -6.921281 38.206734 -5.643203
v -6.979620 38.177616 -5.755750
v -7.040725 38.337917 -5.765539
v -6.982371 38.367001 -5.652989
v -6.773903 38.322105 -4.674524
v -6.834940 38.482235 -4.684301
v -7.437382 39.199383 -5.790316
v -7.493886 39.178658 -5.782510
v -7.505649 39.171211 -5.832639
v -7.439836 39.195351 -5.841731
v -7.392118 39.408424 -5.684188
v -7.376646 39.410889 -5.716428
v -7.435152 39.382214 -5.829002
v -7.442348 39.383804 -5.780838
v -7.381537 39.221512 -5.771020
v -7.374790 39.221123 -5.819256
v -7.528942 39.173988 -5.642354
v -7.546480 39.165771 -5.669392
v -7.331330 39.246189 -5.674375
v -7.316311 39.249870 -5.706687
v -7.204391 39.344166 -4.842649
v -7.168458 39.363983 -4.737932
v -7.554746 39.341084 -5.792335
v -7.566068 39.332455 -5.842393
v -7.606909 39.327045 -5.679148
v -7.589810 39.336441 -5.652181
v -7.498219 39.361748 -5.800137
v -7.500227 39.356525 -5.851480
v -7.265090 39.506165 -4.852449
v -7.228691 39.524734 -4.747656
v -7.103665 38.317101 -5.736653
v -7.160068 38.296108 -5.728831
v -7.493886 39.178658 -5.782510
v -7.437382 39.199383 -5.790316
v -6.997824 38.364468 -5.620746
v -7.047923 38.339497 -5.717375
v -7.381537 39.221512 -5.771020
v -7.331330 39.246189 -5.674375
v -6.871246 38.463398 -4.789079
v -7.204391 39.344166 -4.842649
v -7.505649 39.171211 -5.832639
v -7.546480 39.165771 -5.669392
v -7.606909 39.327045 -5.679148
v -7.566068 39.332455 -5.842393
v -7.439836 39.195351 -5.841731
v -7.500227 39.356525 -5.851480
v -7.316311 39.249870 -5.706687
v -7.374790 39.221123 -5.819256
v -7.435152 39.382214 -5.829002
v -7.376646 39.410889 -5.716428
v -7.168458 39.363983 -4.737932
v -7.228691 39.524734 -4.747656
v -7.826622 40.249290 -5.853415
v -7.883307 40.229057 -5.845638
v -7.895125 40.221756 -5.895776
v -7.829101 40.245327 -5.904833
v -7.779706 40.458359 -5.747123
v -7.764204 40.460705 -5.779357
v -7.822951 40.432682 -5.891970
v -7.830144 40.434299 -5.843807
v -7.770590 40.270905 -5.834089
v -7.763836 40.270500 -5.882324
v -7.918432 40.224575 -5.705494
v -7.936036 40.216534 -5.732542
v -7.720188 40.295067 -5.737411
v -7.705131 40.298641 -5.769718
v -7.592567 40.391201 -4.905576
v -7.556484 40.410614 -4.800834
v -7.942934 40.392647 -5.855368
v -7.954323 40.384163 -5.905436
v -7.995250 40.378986 -5.742204
v -7.978072 40.388203 -5.715226
v -7.886214 40.412788 -5.863139
v -7.888259 40.407623 -5.914486
v -7.651954 40.554131 -4.915267
v -7.615405 40.572258 -4.810448
v -7.498219 39.361748 -5.800138
v -7.554746 39.341084 -5.792336
v -7.883307 40.229057 -5.845638
v -7.826622 40.249290 -5.853415
v -7.392118 39.408424 -5.684188
v -7.442348 39.383804 -5.780838
v -7.770590 40.270905 -5.834089
v -7.720188 40.295067 -5.737411
v -7.265091 39.506165 -4.852449
v -7.592567 40.391201 -4.905576
v -7.895125 40.221756 -5.895776
v -7.936036 40.216534 -5.732542
v -7.995250 40.378986 -5.742204
v -7.954323 40.384163 -5.905436
v -7.829101 40.245327 -5.904833
v -7.888259 40.407623 -5.914486
v -7.705131 40.298641 -5.769718
v -7.763836 40.270500 -5.882324
v -7.822951 40.432682 -5.891970
v -7.764204 40.460705 -5.779357
v -7.556484 40.410614 -4.800834
v -7.615405 40.572258 -4.810448
v -8.205860 41.307777 -5.915732
v -8.262810 41.288280 -5.907999
v -8.274707 41.281200 -5.958150
v -8.208374 41.303909 -5.967156
v -8.156342 41.516815 -5.809192
v -8.140793 41.518978 -5.841416
v -8.199887 41.491932 -5.954086
v -8.207077 41.493595 -5.905924
v -8.149555 41.328629 -5.896361
v -8.142791 41.328194 -5.944595
v -8.298038 41.284084 -5.767872
v -8.315738 41.276314 -5.794936
v -8.098870 41.351997 -5.799637
v -8.083756 41.355412 -5.831934
v -7.970269 41.445389 -4.967640
v -7.933968 41.464195 -4.862863
v -8.320436 41.453541 -5.917579
v -8.331921 41.445274 -5.967661
v -8.372974 41.440456 -5.804451
v -8.355682 41.449402 -5.777455
v -8.263436 41.472893 -5.925303
v -8.265532 41.467819 -5.976658
v -8.027560 41.609692 -4.977165
v -7.990796 41.627163 -4.872309
v -7.886214 40.412788 -5.863139
v -7.942934 40.392647 -5.855368
v -8.262810 41.288280 -5.907999
v -8.205860 41.307777 -5.915732
v -7.779706 40.458359 -5.747124
v -7.830144 40.434299 -5.843807
v -8.149555 41.328629 -5.896361
v -8.098870 41.351997 -5.799637
v -7.651954 40.554131 -4.915267
v -7.970269 41.445389 -4.967640
v -8.274707 41.281200 -5.958150
v -8.315738 41.276314 -5.794936
v -8.372974 41.440456 -5.804451
v -8.331921 41.445274 -5.967661
v -8.208374 41.303909 -5.967156
v -8.265532 41.467819 -5.976658
v -8.083756 41.355412 -5.831934
v -8.142791 41.328194 -5.944595
v -8.199887 41.491932 -5.954086
v -8.140793 41.518978 -5.841416
v -7.933968 41.464195 -4.862863
v -7.990796 41.627163 -4.872309
v -8.569877 42.377819 -5.976970
v -8.627190 42.359390 -5.969298
v -8.639190 42.352615 -6.019467
v -8.572434 42.374081 -6.028402
v -8.516714 42.586544 -5.870112
v -8.501106 42.588451 -5.902325
v -8.560660 42.562771 -6.015073
v -8.567845 42.564499 -5.966912
v -8.513197 42.397568 -5.957536
v -8.506416 42.397083 -6.005767
v -8.662566 42.355637 -5.829196
v -8.680395 42.348244 -5.856282
v -8.462132 42.419815 -5.860749
v -8.446939 42.422997 -5.893033
v -8.332242 42.509415 -5.028535
v -8.295649 42.527359 -4.923708
v -8.681973 42.526730 -5.978696
v -8.693589 42.518776 -6.028799
v -8.734827 42.514503 -5.865620
v -8.717378 42.523064 -5.838599
v -8.624594 42.544956 -5.986357
v -8.626758 42.540009 -6.037722
v -8.386600 42.675453 -5.037860
v -8.349555 42.692013 -4.932956
v -8.263436 41.472893 -5.925304
v -8.320436 41.453541 -5.917579
v -8.627190 42.359390 -5.969298
v -8.569877 42.377819 -5.976970
v -8.156342 41.516815 -5.809192
v -8.207077 41.493595 -5.905925
v -8.513197 42.397568 -5.957536
v -8.462132 42.419815 -5.860749
v -8.027560 41.609692 -4.977165
v -8.332242 42.509415 -5.028535
v -8.639190 42.352615 -6.019467
v -8.680395 42.348244 -5.856282
v -8.734827 42.514503 -5.865620
v -8.693589 42.518776 -6.028799
v -8.572434 42.374081 -6.028402
v -8.626758 42.540009 -6.037722
v -8.446939 42.422997 -5.893033
v -8.506416 42.397083 -6.005767
v -8.560660 42.562771 -6.015073
v -8.501106 42.588451 -5.902325
v -8.295649 42.527359 -4.923708
v -8.349555 42.692013 -4.932956
v -8.912470 43.462234 -6.036939
v -8.970246 43.445282 -6.029349
v -8.982376 43.438915 -6.079540
v -8.915081 43.458664 -6.088380
v -8.854232 43.670383 -5.929690
v -8.838545 43.671913 -5.961885
v -8.898671 43.648079 -6.074734
v -8.905854 43.649921 -6.026577
v -8.855315 43.480473 -6.017422
v -8.848508 43.479904 -6.065648
v -9.005828 43.442177 -5.889283
v -9.023819 43.435299 -5.916397
v -8.803775 43.501213 -5.920551
v -8.788477 43.504063 -5.952816
v -8.672317 43.585835 -5.088062
v -8.635361 43.602623 -4.983171
v -9.020951 43.615280 -6.038533
v -9.032729 43.607723 -6.088660
v -9.074213 43.604248 -5.925525
v -9.056568 43.612297 -5.898473
v -8.963094 43.631966 -6.046109
v -8.965341 43.627159 -6.097484
v -8.722502 43.754089 -5.097152
v -8.685114 43.769421 -4.992183
v -8.624595 42.544956 -5.986357
v -8.681973 42.526730 -5.978696
v -8.970246 43.445282 -6.029349
v -8.912470 43.462234 -6.036939
v -8.516714 42.586544 -5.870112
v -8.567845 42.564499 -5.966912
v -8.855315 43.480473 -6.017422
v -8.803775 43.501213 -5.920551
v -8.386600 42.675453 -5.037860
v -8.672317 43.585835 -5.088062
v -8.982376 43.438915 -6.079540
v -9.023819 43.435299 -5.916397
v -9.074213 43.604248 -5.925525
v -9.032729 43.607723 -6.088660
v -8.915081 43.458664 -6.088380
v -8.965341 43.627159 -6.097484
v -8.788477 43.504063 -5.952816
v -8.848508 43.479904 -6.065648
v -8.898671 43.648079 -6.074734
v -8.838545 43.671913 -5.961885
v -8.635361 43.602623 -4.983171
v -8.685114 43.769421 -4.992183
v -9.114404 44.601086 -5.978489
v -9.098986 44.603512 -6.010733
v -8.980844 44.678207 -5.145607
v -8.943421 44.693340 -5.040629
v -8.963094 43.631966 -6.046109
v -9.020951 43.615280 -6.038533
v -9.282623 44.551365 -6.087615
v -9.224284 44.566322 -6.095100
v -8.854232 43.670383 -5.929690
v -8.905854 43.649921 -6.026577
v -9.166546 44.582493 -6.075473
v -9.114404 44.601086 -5.978489
v -8.722502 43.754089 -5.097152
v -8.980844 44.678207 -5.145607
vt 0.3936 0.7678
vt 0.3895 0.7696
vt 0.3905 0.7669
vt 0.2361 0.7185
vt 0.2382 0.7137
vt 0.2377 0.7198
vt 0.3865 0.7669
vt 0.3879 0.7646
vt 0.3989 0.7633
vt 0.3932 0.7706
vt 0.3858 0.7599
vt 0.3873 0.7586
vt 0.3985 0.7133
vt 0.3989 0.7072
vt 0.2439 0.7105
vt 0.2492 0.7151
vt 0.2488 0.7168
vt 0.2398 0.7088
vt 0.2408 0.7114
vt 0.2368 0.7114
vt 0.2488 0.7651
vt 0.7547 0.4615
vt 0.7514 0.5132
vt 0.7514 0.4615
vt 0.0111 0.3649
vt 0.0173 0.3140
vt 0.0173 0.3647
vt 0.0637 0.3156
vt 0.0637 0.3664
vt 0.7480 0.5132
vt 0.7480 0.4615
vt 0.8479 0.1800
vt 0.8572 0.1707
vt 0.8572 0.1800
vt 0.9732 0.8848
vt 0.9770 0.8754
vt 0.9770 0.8849
vt 0.1710 0.8537
vt 0.1613 0.8469
vt 0.1706 0.8466
vt 0.9810 0.8848
vt 0.9810 0.8754
vt 0.1617 0.7934
vt 0.1710 0.7932
vt 0.6137 0.7677
vt 0.6095 0.7695
vt 0.6105 0.7668
vt 0.1968 0.7182
vt 0.1989 0.7134
vt 0.1983 0.7194
vt 0.6065 0.7668
vt 0.6079 0.7645
vt 0.6189 0.7632
vt 0.6132 0.7706
vt 0.6058 0.7598
vt 0.6073 0.7585
vt 0.6186 0.7132
vt 0.6189 0.7071
vt 0.2046 0.7102
vt 0.2098 0.7147
vt 0.2095 0.7165
vt 0.2004 0.7084
vt 0.2014 0.7111
vt 0.1975 0.7111
vt 0.2095 0.7647
vt 0.7837 0.5130
vt 0.7870 0.4612
vt 0.7870 0.5130
vt 0.2361 0.3647
vt 0.2423 0.3137
vt 0.2423 0.3645
vt 0.2887 0.3154
vt 0.2887 0.3662
vt 0.7904 0.4612
vt 0.7904 0.5129
vt 0.7951 0.2150
vt 0.7858 0.2057
vt 0.7951 0.2057
vt 0.8263 0.9580
vt 0.8225 0.9674
vt 0.8225 0.9580
vt 0.8634 0.7674
vt 0.8536 0.7606
vt 0.8630 0.7603
vt 0.8185 0.9675
vt 0.8185 0.9580
vt 0.8540 0.7071
vt 0.8634 0.7069
vt 0.4684 0.7676
vt 0.4642 0.7694
vt 0.4652 0.7667
vt 0.5347 0.7179
vt 0.5368 0.7131
vt 0.5362 0.7192
vt 0.4613 0.7668
vt 0.4627 0.7645
vt 0.4736 0.7631
vt 0.4679 0.7705
vt 0.4606 0.7597
vt 0.4621 0.7584
vt 0.4733 0.7131
vt 0.4736 0.7070
vt 0.5425 0.7099
vt 0.5477 0.7144
vt 0.5474 0.7162
vt 0.5384 0.7082
vt 0.5394 0.7108
vt 0.5354 0.7108
vt 0.5474 0.7645
vt 0.6442 0.4618
vt 0.6409 0.5137
vt 0.6409 0.4618
vt 0.3638 0.0887
vt 0.3577 0.1398
vt 0.3577 0.0889
vt 0.3113 0.1381
vt 0.3113 0.0872
vt 0.6375 0.5137
vt 0.6375 0.4618
vt 0.7660 0.3246
vt 0.7567 0.3339
vt 0.7566 0.3246
vt 0.7831 0.9675
vt 0.7870 0.9580
vt 0.7870 0.9675
vt 0.8634 0.1478
vt 0.8536 0.1409
vt 0.8630 0.1407
vt 0.7910 0.9580
vt 0.7910 0.9675
vt 0.8540 0.0875
vt 0.8634 0.0872
vt 0.7561 0.1479
vt 0.7519 0.1497
vt 0.7529 0.1470
vt 0.7478 0.7177
vt 0.7499 0.7129
vt 0.7493 0.7190
vt 0.7489 0.1470
vt 0.7503 0.1447
vt 0.7613 0.1434
vt 0.7556 0.1507
vt 0.7482 0.1399
vt 0.7497 0.1386
vt 0.7610 0.0934
vt 0.7613 0.0872
vt 0.7556 0.7097
vt 0.7609 0.7142
vt 0.7605 0.7160
vt 0.7515 0.7079
vt 0.7525 0.7106
vt 0.7485 0.7106
vt 0.7605 0.7643
vt 0.6152 0.4617
vt 0.6119 0.5137
vt 0.6119 0.4617
vt 0.3110 0.2900
vt 0.3171 0.2388
vt 0.3171 0.2898
vt 0.3635 0.2404
vt 0.3635 0.2914
vt 0.6085 0.5137
vt 0.6085 0.4617
vt 0.7542 0.1734
vt 0.7636 0.1827
vt 0.7542 0.1827
vt 0.6058 0.9675
vt 0.6097 0.9580
vt 0.6097 0.9675
vt 0.8634 0.4364
vt 0.8536 0.4296
vt 0.8630 0.4294
vt 0.6137 0.9580
vt 0.6137 0.9675
vt 0.8540 0.3762
vt 0.8634 0.3759
vt 0.7207 0.1479
vt 0.7165 0.1497
vt 0.7175 0.1470
vt 0.7480 0.5461
vt 0.7501 0.5413
vt 0.7495 0.5474
vt 0.7135 0.1470
vt 0.7149 0.1447
vt 0.7260 0.1434
vt 0.7202 0.1508
vt 0.7128 0.1399
vt 0.7144 0.1386
vt 0.7256 0.0934
vt 0.7260 0.0872
vt 0.7558 0.5381
vt 0.7611 0.5426
vt 0.7607 0.5444
vt 0.7516 0.5363
vt 0.7526 0.5390
vt 0.7487 0.5390
vt 0.7607 0.5927
vt 0.6839 0.4614
vt 0.6806 0.5135
vt 0.6806 0.4614
vt 0.0864 0.2910
vt 0.0925 0.2395
vt 0.0925 0.2908
vt 0.1389 0.2411
vt 0.1389 0.2923
vt 0.6772 0.5135
vt 0.6772 0.4614
vt 0.7541 0.2151
vt 0.7635 0.2057
vt 0.7635 0.2151
vt 0.5347 0.9675
vt 0.5386 0.9580
vt 0.5386 0.9675
vt 0.8634 0.6818
vt 0.8535 0.6750
vt 0.8630 0.6748
vt 0.5425 0.9580
vt 0.5425 0.9675
vt 0.8539 0.6215
vt 0.8634 0.6213
vt 0.1298 0.6832
vt 0.1256 0.6849
vt 0.1266 0.6823
vt 0.0864 0.6334
vt 0.0885 0.6286
vt 0.0879 0.6347
vt 0.1226 0.6823
vt 0.1240 0.6800
vt 0.1350 0.6787
vt 0.1293 0.6860
vt 0.1219 0.6752
vt 0.1234 0.6739
vt 0.1347 0.6286
vt 0.1350 0.6225
vt 0.0942 0.6254
vt 0.0995 0.6299
vt 0.0991 0.6317
vt 0.0901 0.6236
vt 0.0911 0.6263
vt 0.0871 0.6263
vt 0.0991 0.6800
vt 0.7674 0.0635
vt 0.7707 0.0110
vt 0.7707 0.0635
vt 0.2887 0.2400
vt 0.2825 0.2917
vt 0.2825 0.2402
vt 0.2361 0.2902
vt 0.2361 0.2388
vt 0.7741 0.0111
vt 0.7741 0.0634
vt 0.7225 0.1734
vt 0.7319 0.1828
vt 0.7225 0.1828
vt 0.9744 0.0426
vt 0.9783 0.0522
vt 0.9744 0.0522
vt 0.3560 0.8462
vt 0.3469 0.8535
vt 0.3465 0.8465
vt 0.9704 0.0426
vt 0.9704 0.0522
vt 0.3564 0.7928
vt 0.3469 0.7930
vt 0.5040 0.6822
vt 0.4998 0.6839
vt 0.5008 0.6812
vt 0.6058 0.6323
vt 0.6080 0.6275
vt 0.6074 0.6336
vt 0.4968 0.6812
vt 0.4982 0.6789
vt 0.5093 0.6777
vt 0.5036 0.6850
vt 0.4961 0.6741
vt 0.4977 0.6728
vt 0.5089 0.6276
vt 0.5093 0.6214
vt 0.6137 0.6242
vt 0.6190 0.6287
vt 0.6186 0.6305
vt 0.6095 0.6225
vt 0.6105 0.6252
vt 0.6065 0.6252
vt 0.6186 0.6789
vt 0.7384 0.0638
vt 0.7417 0.0111
vt 0.7417 0.0637
vt 0.2891 0.0121
vt 0.2830 0.0642
vt 0.2830 0.0123
vt 0.2365 0.0627
vt 0.2365 0.0110
vt 0.7451 0.0111
vt 0.7451 0.0637
vt 0.7003 0.1734
vt 0.6909 0.1829
vt 0.6909 0.1734
vt 0.7124 0.9646
vt 0.7162 0.9549
vt 0.7162 0.9646
vt 0.3958 0.8532
vt 0.3858 0.8463
vt 0.3954 0.8461
vt 0.7202 0.9549
vt 0.7202 0.9646
vt 0.3862 0.7929
vt 0.3958 0.7927
vt 0.6848 0.6821
vt 0.6806 0.6838
vt 0.6816 0.6811
vt 0.6774 0.0982
vt 0.6795 0.0933
vt 0.6789 0.0994
vt 0.6776 0.6811
vt 0.6790 0.6788
vt 0.6901 0.6776
vt 0.6843 0.6849
vt 0.6769 0.6740
vt 0.6784 0.6727
vt 0.6898 0.6275
vt 0.6901 0.6213
vt 0.6853 0.0901
vt 0.6906 0.0946
vt 0.6902 0.0963
vt 0.6811 0.0884
vt 0.6821 0.0910
vt 0.6781 0.0910
vt 0.6902 0.1447
vt 0.6871 0.0110
vt 0.6838 0.0641
vt 0.6838 0.0110
vt 0.2887 0.1642
vt 0.2826 0.2167
vt 0.2826 0.1644
vt 0.2361 0.2155
vt 0.2361 0.1633
vt 0.6803 0.0640
vt 0.6803 0.0111
vt 0.6617 0.3343
vt 0.6710 0.3246
vt 0.6710 0.3343
vt 0.3109 0.9622
vt 0.3148 0.9525
vt 0.3148 0.9622
vt 0.3209 0.8532
vt 0.3109 0.8463
vt 0.3206 0.8461
vt 0.3188 0.9525
vt 0.3188 0.9622
vt 0.3113 0.7928
vt 0.3209 0.7926
vt 0.6187 0.5419
vt 0.6058 0.5884
vt 0.6191 0.5357
vt 0.6000 0.0110
vt 0.5967 0.0645
vt 0.5967 0.0111
vt 0.1390 0.1643
vt 0.1328 0.2175
vt 0.1328 0.1645
vt 0.0864 0.2164
vt 0.0864 0.1638
vt 0.5933 0.0645
vt 0.5933 0.0111
vt 0.3985 0.7615
vt 0.2435 0.7077
vt 0.2492 0.7712
vt 0.7547 0.5132
vt 0.0111 0.3142
vt 0.8479 0.1707
vt 0.9732 0.8754
vt 0.1617 0.8540
vt 0.6186 0.7614
vt 0.2041 0.7074
vt 0.2098 0.7709
vt 0.7837 0.4612
vt 0.2361 0.3139
vt 0.7858 0.2150
vt 0.8263 0.9675
vt 0.8540 0.7677
vt 0.4733 0.7613
vt 0.5421 0.7071
vt 0.5477 0.7706
vt 0.6442 0.5137
vt 0.3638 0.1396
vt 0.7660 0.3339
vt 0.7831 0.9580
vt 0.8540 0.1480
vt 0.7610 0.1416
vt 0.7552 0.7069
vt 0.7609 0.7704
vt 0.6152 0.5137
vt 0.3110 0.2389
vt 0.7636 0.1734
vt 0.6058 0.9580
vt 0.8540 0.4367
vt 0.7256 0.1416
vt 0.7553 0.5353
vt 0.7611 0.5988
vt 0.6839 0.5136
vt 0.0864 0.2397
vt 0.7541 0.2057
vt 0.5347 0.9580
vt 0.8539 0.6821
vt 0.1347 0.6769
vt 0.0938 0.6225
vt 0.0995 0.6861
vt 0.7674 0.0110
vt 0.2887 0.2916
vt 0.7319 0.1734
vt 0.9783 0.0426
vt 0.3564 0.8533
vt 0.5089 0.6759
vt 0.6132 0.6214
vt 0.6190 0.6850
vt 0.7384 0.0110
vt 0.2891 0.0640
vt 0.7003 0.1829
vt 0.7124 0.9549
vt 0.3861 0.8534
vt 0.6898 0.6758
vt 0.6848 0.0872
vt 0.6906 0.1509
vt 0.6871 0.0641
vt 0.2887 0.2166
vt 0.6617 0.3246
vt 0.3109 0.9525
vt 0.3112 0.8533
vt 0.6074 0.5872
vt 0.6000 0.0646
vt 0.1390 0.2174
vn 0.3596 -0.9314 0.0564
vn -0.3237 0.9429 -0.0781
vn 0.3597 -0.9314 0.0565
vn 0.3595 -0.9314 0.0564
vn -0.4047 0.9119 -0.0685
vn -0.3619 0.9287 -0.0812
vn -0.3513 0.9327 -0.0819
vn -0.3028 0.9507 -0.0674
vn -0.1007 -0.0984 -0.9900
vn 0.1044 -0.0195 -0.9943
vn 0.1045 -0.0195 -0.9943
vn 0.6021 0.1857 -0.7766
vn 0.8825 0.3199 -0.3447
vn 0.8825 0.3199 -0.3446
vn 0.9211 0.3446 -0.1812
vn 0.6020 0.1857 -0.7766
vn -0.6071 -0.2795 -0.7439
vn -0.9013 -0.3624 -0.2375
vn 0.1046 -0.0199 -0.9943
vn 0.6021 0.1854 -0.7766
vn 0.8826 0.3198 -0.3447
vn 0.6021 0.1853 -0.7766
vn 0.3586 -0.9317 0.0572
vn -0.3224 0.9434 -0.0784
vn 0.3586 -0.9317 0.0569
vn 0.3586 -0.9318 0.0570
vn 0.3585 -0.9318 0.0571
vn -0.4036 0.9123 -0.0689
vn -0.3607 0.9291 -0.0815
vn -0.3500 0.9331 -0.0822
vn -0.3014 0.9511 -0.0679
vn -0.1004 -0.0991 -0.9900
vn 0.1046 -0.0203 -0.9943
vn 0.1047 -0.0202 -0.9943
vn 0.6022 0.1849 -0.7766
vn 0.8827 0.3194 -0.3447
vn 0.8827 0.3194 -0.3446
vn 0.9213 0.3442 -0.1812
vn 0.6022 0.1849 -0.7767
vn -0.9016 -0.3614 -0.2376
vn -0.6073 -0.2791 -0.7439
vn -0.6072 -0.2791 -0.7439
vn 0.1048 -0.0205 -0.9943
vn 0.6025 0.1843 -0.7766
vn 0.8830 0.3187 -0.3446
vn 0.6024 0.1843 -0.7766
vn 0.9215 0.3435 -0.1811
vn 0.3558 -0.9328 0.0571
vn -0.3190 0.9445 -0.0787
vn 0.3559 -0.9328 0.0571
vn 0.3559 -0.9328 0.0570
vn 0.3558 -0.9328 0.0570
vn -0.4009 0.9135 -0.0690
vn -0.3576 0.9303 -0.0817
vn -0.3468 0.9343 -0.0825
vn -0.2978 0.9522 -0.0679
vn -0.1004 -0.0990 -0.9900
vn 0.1047 -0.0207 -0.9943
vn 0.6026 0.1834 -0.7766
vn 0.8834 0.3175 -0.3446
vn 0.8835 0.3175 -0.3446
vn 0.9220 0.3422 -0.1810
vn 0.6026 0.1834 -0.7767
vn -0.6080 -0.2772 -0.7440
vn -0.9027 -0.3586 -0.2377
vn -0.6081 -0.2772 -0.7439
vn 0.1048 -0.0207 -0.9943
vn 0.1049 -0.0207 -0.9943
vn 0.6031 0.1825 -0.7765
vn 0.8840 0.3159 -0.3445
vn 0.8840 0.3159 -0.3444
vn 0.9226 0.3406 -0.1809
vn 0.3507 -0.9348 0.0565
vn -0.3135 0.9464 -0.0781
vn 0.3508 -0.9347 0.0567
vn 0.3507 -0.9348 0.0566
vn 0.3506 -0.9348 0.0566
vn -0.3952 0.9160 -0.0685
vn -0.3521 0.9325 -0.0811
vn -0.3414 0.9363 -0.0820
vn -0.2924 0.9539 -0.0675
vn -0.1007 -0.0983 -0.9900
vn 0.1046 -0.0209 -0.9943
vn 0.1047 -0.0209 -0.9943
vn 0.6034 0.1810 -0.7766
vn 0.8848 0.3137 -0.3444
vn 0.9235 0.3383 -0.1808
vn 0.6033 0.1810 -0.7767
vn -0.6095 -0.2734 -0.7442
vn -0.9047 -0.3534 -0.2381
vn -0.6095 -0.2734 -0.7441
vn 0.1049 -0.0209 -0.9943
vn 0.1049 -0.0208 -0.9943
vn 0.6043 0.1795 -0.7763
vn 0.8859 0.3111 -0.3442
vn 0.6042 0.1794 -0.7764
vn 0.9246 0.3355 -0.1806
vn 0.3424 -0.9379 0.0559
vn -0.3045 0.9494 -0.0774
vn 0.3425 -0.9379 0.0558
vn 0.3425 -0.9379 0.0557
vn -0.3869 0.9196 -0.0679
vn -0.3433 0.9358 -0.0805
vn -0.3325 0.9396 -0.0811
vn -0.2833 0.9567 -0.0667
vn -0.1012 -0.0969 -0.9901
vn 0.1044 -0.0211 -0.9943
vn 0.1045 -0.0210 -0.9943
vn 0.6047 0.1771 -0.7765
vn 0.8871 0.3076 -0.3441
vn 0.9259 0.3318 -0.1804
vn 0.6045 0.1771 -0.7766
vn -0.9078 -0.3451 -0.2385
vn -0.6119 -0.2673 -0.7444
vn -0.6118 -0.2673 -0.7445
vn 0.1048 -0.0209 -0.9943
vn 0.6060 0.1747 -0.7761
vn 0.8887 0.3035 -0.3438
vn 0.8887 0.3035 -0.3437
vn 0.6059 0.1747 -0.7761
vn 0.9276 0.3274 -0.1801
vn 0.3301 -0.9424 0.0546
vn -0.2909 0.9537 -0.0762
vn 0.3301 -0.9423 0.0549
vn 0.3300 -0.9424 0.0547
vn 0.3300 -0.9424 0.0549
vn 0.3302 -0.9423 0.0547
vn -0.3742 0.9249 -0.0669
vn -0.3301 0.9406 -0.0797
vn -0.3192 0.9443 -0.0803
vn -0.2695 0.9608 -0.0656
vn -0.1021 -0.0946 -0.9903
vn 0.1042 -0.0212 -0.9943
vn 0.1043 -0.0212 -0.9943
vn 0.6066 0.1710 -0.7764
vn 0.8906 0.2979 -0.3436
vn 0.9297 0.3215 -0.1798
vn 0.6065 0.1710 -0.7765
vn -0.6153 -0.2577 -0.7450
vn -0.9124 -0.3320 -0.2393
vn 0.1048 -0.0211 -0.9943
vn 0.1049 -0.0211 -0.9943
vn 0.8929 0.2915 -0.3430
vn 0.6086 0.1672 -0.7757
vn 0.6085 0.1672 -0.7757
vn 0.9321 0.3146 -0.1794
vn 0.3122 -0.9485 0.0535
vn -0.2718 0.9594 -0.0749
vn 0.3121 -0.9486 0.0533
vn 0.3121 -0.9485 0.0534
vn -0.3558 0.9322 -0.0656
vn -0.3113 0.9471 -0.0780
vn -0.3003 0.9506 -0.0789
vn -0.2503 0.9660 -0.0641
vn -0.1032 -0.0915 -0.9904
vn 0.1040 -0.0216 -0.9943
vn 0.1040 -0.0215 -0.9943
vn 0.6093 0.1620 -0.7762
vn 0.8955 0.2837 -0.3429
vn 0.9349 0.3064 -0.1789
vn 0.6092 0.1620 -0.7763
vn -0.9184 -0.3142 -0.2403
vn -0.6198 -0.2448 -0.7456
vn -0.6197 -0.2448 -0.7457
vn 0.1049 -0.0215 -0.9943
vn 0.1050 -0.0215 -0.9942
vn 0.6120 0.1568 -0.7751
vn 0.8985 0.2750 -0.3421
vn 0.6120 0.1568 -0.7752
vn 0.9380 0.2971 -0.1784
vn 0.2874 -0.9564 0.0517
vn -0.2452 0.9667 -0.0735
vn 0.2875 -0.9564 0.0517
vn 0.2875 -0.9564 0.0520
vn 0.2873 -0.9564 0.0518
vn -0.3311 0.9414 -0.0641
vn -0.2856 0.9553 -0.0769
vn -0.2742 0.9585 -0.0776
vn -0.2231 0.9728 -0.0624
vn -0.1045 -0.0874 -0.9907
vn 0.1037 -0.0223 -0.9944
vn 0.1039 -0.0222 -0.9943
vn 0.6130 0.1496 -0.7758
vn 0.9018 0.2642 -0.3419
vn 0.9019 0.2642 -0.3419
vn 0.9417 0.2857 -0.1777
vn 0.6128 0.1495 -0.7760
vn -0.9262 -0.2893 -0.2417
vn -0.6255 -0.2269 -0.7465
vn -0.6254 -0.2269 -0.7466
vn 0.1051 -0.0224 -0.9942
vn 0.6166 0.1421 -0.7744
vn 0.9058 0.2518 -0.3409
vn 0.6165 0.1420 -0.7744
vn 0.9457 0.2725 -0.1770
vn 0.2539 -0.9660 0.0488
vn -0.1062 -0.0817 -0.9910
vn 0.1035 -0.0232 -0.9944
vn 0.1036 -0.0232 -0.9944
vn 0.6176 0.1320 -0.7753
vn 0.9100 0.2365 -0.3406
vn 0.9100 0.2365 -0.3405
vn 0.9504 0.2564 -0.1762
vn 0.6174 0.1319 -0.7755
vn -0.3237 0.9429 -0.0782
vn 0.3597 -0.9314 0.0564
vn -0.3619 0.9287 -0.0810
vn -0.3028 0.9507 -0.0675
vn 0.3586 -0.9318 0.0568
vn -0.3224 0.9433 -0.0786
vn 0.3587 -0.9317 0.0569
vn 0.3586 -0.9318 0.0569
vn 0.3585 -0.9318 0.0569
vn -0.4036 0.9123 -0.0690
vn -0.3607 0.9291 -0.0814
vn -0.3500 0.9331 -0.0825
vn -0.3190 0.9445 -0.0786
vn 0.3559 -0.9328 0.0569
vn 0.3557 -0.9329 0.0568
vn -0.4008 0.9135 -0.0690
vn -0.3576 0.9303 -0.0816
vn -0.3469 0.9343 -0.0824
vn -0.2980 0.9521 -0.0679
vn -0.3135 0.9464 -0.0780
vn 0.3508 -0.9347 0.0565
vn 0.3506 -0.9348 0.0565
vn 0.3508 -0.9347 0.0566
vn -0.3521 0.9324 -0.0812
vn -0.3413 0.9364 -0.0818
vn -0.2926 0.9539 -0.0674
vn -0.3045 0.9494 -0.0773
vn 0.3425 -0.9378 0.0559
vn 0.3425 -0.9379 0.0559
vn 0.3424 -0.9379 0.0558
vn -0.3869 0.9196 -0.0678
vn -0.3325 0.9396 -0.0814
vn -0.2834 0.9567 -0.0666
vn 0.3300 -0.9424 0.0548
vn -0.2909 0.9537 -0.0764
vn 0.3301 -0.9424 0.0547
vn 0.3300 -0.9424 0.0545
vn -0.3742 0.9249 -0.0668
vn -0.3302 0.9406 -0.0795
vn -0.3192 0.9443 -0.0804
vn -0.2697 0.9607 -0.0655
vn -0.2718 0.9594 -0.0750
vn 0.3122 -0.9485 0.0534
vn 0.3120 -0.9486 0.0534
vn -0.3558 0.9323 -0.0655
vn -0.3113 0.9471 -0.0782
vn -0.2505 0.9660 -0.0640
vn 0.2875 -0.9564 0.0518
vn -0.2451 0.9667 -0.0736
vn 0.2874 -0.9564 0.0519
vn 0.2875 -0.9564 0.0519
vn -0.2856 0.9553 -0.0770
vn -0.2743 0.9585 -0.0776
vn -0.2236 0.9727 -0.0625
vn 0.2539 -0.9660 0.0487
vn -0.1062 -0.0816 -0.9910
s off
f 2/1/1 4/2/1 1/3/1
f 6/4/2 8/5/2 5/6/2
f 1/3/3 10/7/3 9/8/3
f 2/1/1 12/9/1 3/10/1
f 9/8/4 14/11/4 13/12/4
f 15/13/3 14/11/3 16/14/3
f 17/15/5 19/16/5 20/17/5
f 22/18/6 17/15/6 21/19/6
f 7/20/7 21/19/7 8/5/7
f 23/21/8 6/4/8 5/6/8
s 1
f 26/22/9 28/23/10 25/24/11
f 30/25/12 32/26/13 29/27/14
f 29/27/14 34/28/15 33/29/15
f 25/24/11 31/30/16 30/31/12
f 35/32/17 37/33/18 38/34/17
f 35/35/17 40/36/19 39/37/19
f 42/38/20 44/39/21 41/40/21
f 42/41/20 40/36/19 43/42/22
f 41/40/21 46/43/15 45/44/15
s off
f 48/45/23 50/46/23 47/47/23
f 52/48/24 54/49/24 51/50/24
f 47/47/25 56/51/25 55/52/25
f 48/45/26 58/53/26 49/54/26
f 55/52/27 60/55/27 59/56/27
f 61/57/25 60/55/25 62/58/25
f 63/59/28 65/60/28 66/61/28
f 68/62/29 63/59/29 67/63/29
f 53/64/30 67/63/30 54/49/30
f 69/65/31 52/48/31 51/50/31
s 1
f 72/66/32 74/67/33 71/68/34
f 76/69/35 78/70/36 75/71/37
f 75/71/37 80/72/38 79/73/38
f 71/68/34 77/74/39 76/75/35
f 82/76/40 84/77/41 81/78/42
f 81/79/42 86/80/43 85/81/43
f 88/82/44 90/83/45 87/84/45
f 85/81/43 89/85/46 88/86/44
f 87/84/45 92/87/47 91/88/47
s off
f 94/89/48 96/90/48 93/91/48
f 98/92/49 100/93/49 97/94/49
f 93/91/50 102/95/50 101/96/50
f 94/89/51 104/97/51 95/98/51
f 101/96/52 106/99/52 105/100/52
f 107/101/52 106/99/52 108/102/52
f 109/103/53 111/104/53 112/105/53
f 114/106/54 109/103/54 113/107/54
f 99/108/55 113/107/55 100/93/55
f 115/109/56 98/92/56 97/94/56
s 1
f 118/110/57 120/111/58 117/112/58
f 122/113/59 124/114/60 121/115/61
f 121/115/61 126/116/62 125/117/62
f 117/112/58 123/118/63 122/119/59
f 127/120/64 129/121/65 130/122/66
f 127/123/64 132/124/67 131/125/68
f 134/126/69 136/127/70 133/128/71
f 131/125/68 135/129/69 134/130/69
f 133/128/71 138/131/72 137/132/72
s off
f 140/133/73 142/134/73 139/135/73
f 144/136/74 146/137/74 143/138/74
f 139/135/75 148/139/75 147/140/75
f 140/133/76 150/141/76 141/142/76
f 147/140/76 152/143/76 151/144/76
f 153/145/77 152/143/77 154/146/77
f 155/147/78 157/148/78 158/149/78
f 160/150/79 155/147/79 159/151/79
f 145/152/80 159/151/80 146/137/80
f 161/153/81 144/136/81 143/138/81
s 1
f 164/154/82 166/155/83 163/156/84
f 168/157/85 170/158/86 167/159/86
f 167/159/86 172/160/87 171/161/87
f 163/156/84 169/162/88 168/163/85
f 173/164/89 175/165/90 176/166/91
f 173/167/89 178/168/92 177/169/93
f 180/170/94 182/171/95 179/172/95
f 177/169/93 181/173/96 180/174/94
f 179/172/95 184/175/97 183/176/97
s off
f 186/177/98 188/178/98 185/179/98
f 190/180/99 192/181/99 189/182/99
f 185/179/100 194/183/100 193/184/100
f 186/177/101 196/185/101 187/186/101
f 193/184/101 198/187/101 197/188/101
f 199/189/100 198/187/100 200/190/100
f 201/191/102 203/192/102 204/193/102
f 206/194/103 201/191/103 205/195/103
f 191/196/104 205/195/104 192/181/104
f 207/197/105 190/180/105 189/182/105
s 1
f 210/198/106 212/199/107 209/200/108
f 214/201/109 216/202/110 213/203/110
f 213/203/110 218/204/111 217/205/111
f 209/200/108 215/206/112 214/207/109
f 220/208/113 222/209/114 219/210/115
f 219/211/115 224/212/116 223/213/92
f 226/214/117 228/215/118 225/216/119
f 223/213/92 227/217/120 226/218/117
f 225/216/119 230/219/121 229/220/121
s off
f 232/221/122 234/222/122 231/223/122
f 236/224/123 238/225/123 235/226/123
f 231/223/124 240/227/124 239/228/124
f 232/221/125 242/229/125 233/230/125
f 239/228/126 244/231/126 243/232/126
f 245/233/127 244/231/127 246/234/127
f 247/235/128 249/236/128 250/237/128
f 252/238/129 247/235/129 251/239/129
f 237/240/130 251/239/130 238/225/130
f 253/241/131 236/224/131 235/226/131
s 1
f 256/242/132 258/243/133 255/244/134
f 260/245/135 262/246/136 259/247/136
f 259/247/136 264/248/137 263/249/137
f 255/244/134 261/250/138 260/251/135
f 265/252/139 267/253/140 268/254/139
f 269/255/141 268/256/139 270/257/142
f 271/258/143 273/259/144 274/260/143
f 272/261/145 270/257/142 273/262/144
f 275/263/146 274/260/143 276/264/146
s off
f 278/265/147 280/266/147 277/267/147
f 282/268/148 284/269/148 281/270/148
f 277/267/147 286/271/147 285/272/147
f 278/265/147 288/273/147 279/274/147
f 285/272/149 290/275/149 289/276/149
f 291/277/150 290/275/150 292/278/150
f 293/279/151 295/280/151 296/281/151
f 298/282/152 293/279/152 297/283/152
f 283/284/153 297/283/153 284/269/153
f 299/285/154 282/268/154 281/270/154
s 1
f 302/286/155 304/287/156 301/288/157
f 306/289/158 308/290/159 305/291/159
f 305/291/159 310/292/160 309/293/160
f 301/288/157 307/294/161 306/295/158
f 312/296/162 314/297/163 311/298/164
f 311/299/164 316/300/165 315/301/166
f 318/302/167 320/303/168 317/304/168
f 315/301/166 319/305/169 318/306/167
f 317/304/168 322/307/170 321/308/170
s off
f 324/309/171 326/310/171 323/311/171
f 328/312/172 330/313/172 327/314/172
f 323/311/173 332/315/173 331/316/173
f 324/309/174 334/317/174 325/318/174
f 331/316/174 336/319/174 335/320/174
f 337/321/175 336/319/175 338/322/175
f 339/323/176 341/324/176 342/325/176
f 344/326/177 339/323/177 343/327/177
f 329/328/178 343/327/178 330/313/178
f 345/329/179 328/312/179 327/314/179
s 1
f 348/330/180 350/331/181 347/332/182
f 352/333/183 354/334/184 351/335/185
f 351/335/185 356/336/186 355/337/186
f 347/332/182 353/338/187 352/339/183
f 358/340/188 360/341/189 357/342/190
f 357/343/190 362/344/191 361/345/191
f 364/346/192 366/347/193 363/348/193
f 361/345/191 365/349/194 364/350/192
f 363/348/193 368/351/195 367/352/195
s off
f 371/353/196 370/354/196 372/355/196
s 1
f 374/356/197 376/357/198 373/358/199
f 378/359/200 380/360/201 377/361/202
f 377/361/202 382/362/203 381/363/203
f 373/358/199 379/364/204 378/365/200
s off
f 2/1/1 3/10/1 4/2/1
f 6/4/205 7/20/205 8/5/205
f 1/3/206 4/2/206 10/7/206
f 2/1/1 11/366/1 12/9/1
f 9/8/4 10/7/4 14/11/4
f 15/13/4 13/12/4 14/11/4
f 17/15/5 18/367/5 19/16/5
f 22/18/207 18/367/207 17/15/207
f 7/20/7 22/18/7 21/19/7
f 23/21/208 24/368/208 6/4/208
s 1
f 26/22/9 27/369/9 28/23/10
f 30/25/12 31/370/16 32/26/13
f 29/27/14 32/26/13 34/28/15
f 25/24/11 28/23/10 31/30/16
f 35/32/17 36/371/18 37/33/18
f 35/35/17 38/372/17 40/36/19
f 42/38/20 43/373/22 44/39/21
f 42/41/20 39/37/19 40/36/19
f 41/40/21 44/39/21 46/43/15
s off
f 48/45/209 49/54/209 50/46/209
f 52/48/210 53/64/210 54/49/210
f 47/47/211 50/46/211 56/51/211
f 48/45/212 57/374/212 58/53/212
f 55/52/213 56/51/213 60/55/213
f 61/57/26 59/56/26 60/55/26
f 63/59/214 64/375/214 65/60/214
f 68/62/215 64/375/215 63/59/215
f 53/64/216 68/62/216 67/63/216
f 69/65/31 70/376/31 52/48/31
s 1
f 72/66/32 73/377/32 74/67/33
f 76/69/35 77/378/39 78/70/36
f 75/71/37 78/70/36 80/72/38
f 71/68/34 74/67/33 77/74/39
f 82/76/40 83/379/40 84/77/41
f 81/79/42 84/380/41 86/80/43
f 88/82/44 89/381/46 90/83/45
f 85/81/43 86/80/43 89/85/46
f 87/84/45 90/83/45 92/87/47
s off
f 94/89/48 95/98/48 96/90/48
f 98/92/217 99/108/217 100/93/217
f 93/91/218 96/90/218 102/95/218
f 94/89/218 103/382/218 104/97/218
f 101/96/219 102/95/219 106/99/219
f 107/101/52 105/100/52 106/99/52
f 109/103/220 110/383/220 111/104/220
f 114/106/221 110/383/221 109/103/221
f 99/108/222 114/106/222 113/107/222
f 115/109/223 116/384/223 98/92/223
s 1
f 118/110/57 119/385/57 120/111/58
f 122/113/59 123/386/63 124/114/60
f 121/115/61 124/114/60 126/116/62
f 117/112/58 120/111/58 123/118/63
f 127/120/64 128/387/65 129/121/65
f 127/123/64 130/388/66 132/124/67
f 134/126/69 135/389/69 136/127/70
f 131/125/68 132/124/67 135/129/69
f 133/128/71 136/127/70 138/131/72
s off
f 140/133/73 141/142/73 142/134/73
f 144/136/224 145/152/224 146/137/224
f 139/135/225 142/134/225 148/139/225
f 140/133/76 149/390/76 150/141/76
f 147/140/226 148/139/226 152/143/226
f 153/145/227 151/144/227 152/143/227
f 155/147/78 156/391/78 157/148/78
f 160/150/228 156/391/228 155/147/228
f 145/152/229 160/150/229 159/151/229
f 161/153/230 162/392/230 144/136/230
s 1
f 164/154/82 165/393/82 166/155/83
f 168/157/85 169/394/88 170/158/86
f 167/159/86 170/158/86 172/160/87
f 163/156/84 166/155/83 169/162/88
f 173/164/89 174/395/90 175/165/90
f 173/167/89 176/396/91 178/168/92
f 180/170/94 181/397/96 182/171/95
f 177/169/93 178/168/92 181/173/96
f 179/172/95 182/171/95 184/175/97
s off
f 186/177/101 187/186/101 188/178/101
f 190/180/231 191/196/231 192/181/231
f 185/179/100 188/178/100 194/183/100
f 186/177/232 195/398/232 196/185/232
f 193/184/233 194/183/233 198/187/233
f 199/189/234 197/188/234 198/187/234
f 201/191/235 202/399/235 203/192/235
f 206/194/103 202/399/103 201/191/103
f 191/196/236 206/194/236 205/195/236
f 207/197/237 208/400/237 190/180/237
s 1
f 210/198/106 211/401/106 212/199/107
f 214/201/109 215/402/112 216/202/110
f 213/203/110 216/202/110 218/204/111
f 209/200/108 212/199/107 215/206/112
f 220/208/113 221/403/113 222/209/114
f 219/211/115 222/404/114 224/212/116
f 226/214/117 227/405/120 228/215/118
f 223/213/92 224/212/116 227/217/120
f 225/216/119 228/215/118 230/219/121
s off
f 232/221/238 233/230/238 234/222/238
f 236/224/239 237/240/239 238/225/239
f 231/223/240 234/222/240 240/227/240
f 232/221/238 241/406/238 242/229/238
f 239/228/241 240/227/241 244/231/241
f 245/233/238 243/232/238 244/231/238
f 247/235/242 248/407/242 249/236/242
f 252/238/243 248/407/243 247/235/243
f 237/240/244 252/238/244 251/239/244
f 253/241/245 254/408/245 236/224/245
s 1
f 256/242/132 257/409/132 258/243/133
f 260/245/135 261/410/138 262/246/136
f 259/247/136 262/246/136 264/248/137
f 255/244/134 258/243/133 261/250/138
f 265/252/139 266/411/140 267/253/140
f 269/255/141 265/412/139 268/256/139
f 271/258/143 272/413/145 273/259/144
f 272/261/145 269/255/141 270/257/142
f 275/263/146 271/258/143 274/260/143
s off
f 278/265/150 279/274/150 280/266/150
f 282/268/246 283/284/246 284/269/246
f 277/267/247 280/266/247 286/271/247
f 278/265/247 287/414/247 288/273/247
f 285/272/248 286/271/248 290/275/248
f 291/277/150 289/276/150 290/275/150
f 293/279/249 294/415/249 295/280/249
f 298/282/250 294/415/250 293/279/250
f 283/284/153 298/282/153 297/283/153
f 299/285/251 300/416/251 282/268/251
s 1
f 302/286/155 303/417/155 304/287/156
f 306/289/158 307/418/161 308/290/159
f 305/291/159 308/290/159 310/292/160
f 301/288/157 304/287/156 307/294/161
f 312/296/162 313/419/162 314/297/163
f 311/299/164 314/420/163 316/300/165
f 318/302/167 319/421/169 320/303/168
f 315/301/166 316/300/165 319/305/169
f 317/304/168 320/303/168 322/307/170
s off
f 324/309/252 325/318/252 326/310/252
f 328/312/253 329/328/253 330/313/253
f 323/311/254 326/310/254 332/315/254
f 324/309/173 333/422/173 334/317/173
f 331/316/255 332/315/255 336/319/255
f 337/321/254 335/320/254 336/319/254
f 339/323/176 340/423/176 341/324/176
f 344/326/256 340/423/256 339/323/256
f 329/328/257 344/326/257 343/327/257
f 345/329/258 346/424/258 328/312/258
s 1
f 348/330/180 349/425/180 350/331/181
f 352/333/183 353/426/187 354/334/184
f 351/335/185 354/334/184 356/336/186
f 347/332/182 350/331/181 353/338/187
f 358/340/188 359/427/188 360/341/189
f 357/343/190 360/428/189 362/344/191
f 364/346/192 365/429/194 366/347/193
f 361/345/191 362/344/191 365/349/194
f 363/348/193 366/347/193 368/351/195
s off
f 371/353/259 369/430/259 370/354/259
s 1
f 374/356/197 375/431/260 376/357/198
f 378/359/200 379/432/204 380/360/201
f 377/361/202 380/360/201 382/362/203
f 373/358/199 376/357/198 379/364/204
