# Blender v2.78 (sub 0) OBJ File: 'spectator_part.blend'
# www.blender.org
mtllib spectator_part.mtl
o Cube
v -0.926987 0.849595 0.575780
v -0.926986 -0.566376 -0.620983
v 0.926986 0.849596 0.575780
v 0.926987 -0.566375 -0.620982
v 1.000000 -0.604789 -0.688642
v 0.999999 0.922711 0.602383
v -1.000000 0.922710 0.602382
v -1.000000 -0.604789 -0.688643
v -0.891845 0.707723 0.726254
v -0.891845 -0.598105 -0.347025
v 0.891844 0.707723 0.726254
v 0.891845 -0.598104 -0.347025
v 1.000000 -0.619994 -0.842241
v -1.000000 -0.619994 -0.842241
v 1.000000 -0.677475 -0.885240
v -1.000000 -0.677476 -0.885240
v -1.000000 -0.450851 -0.394856
v 1.000000 -0.450851 -0.394856
v 1.000000 -0.677475 -0.885240
v -1.000000 -0.677476 -0.885240
v 1.000000 -0.870620 -0.885240
v -1.000000 -0.870620 -0.885240
v 1.000000 -0.684867 -0.394856
v -1.000000 -0.684867 -0.394856
v -1.000000 -0.450851 -0.223075
v 1.000000 -0.450851 -0.223075
v 1.000000 -0.450851 -0.308965
v -1.000000 -0.450851 -0.308966
v -1.000000 -0.309545 -0.394856
v 1.000000 -0.309545 -0.394856
v 1.000000 -0.255874 -0.308965
v -1.000000 -0.255874 -0.308966
v -1.000000 -0.172893 -0.148664
v 1.000000 -0.172893 -0.148664
v 1.000000 -0.406909 -0.148664
v -1.000000 -0.406909 -0.148664
v -1.000000 -0.172893 0.023117
v 1.000000 -0.172893 0.023118
v 1.000000 -0.172893 -0.062773
v -1.000000 -0.172893 -0.062773
v -1.000000 -0.031587 -0.148664
v 1.000000 -0.031586 -0.148664
v 1.000000 0.022084 -0.062773
v -1.000000 0.022084 -0.062773
v -1.000000 0.099544 0.085938
v 1.000000 0.099545 0.085938
v 1.000000 -0.134471 0.085938
v -1.000000 -0.134472 0.085938
v -1.000000 0.099544 0.257719
v 1.000000 0.099545 0.257720
v 1.000000 0.099545 0.171829
v -1.000000 0.099544 0.171829
v -1.000000 0.240851 0.085938
v 1.000000 0.240851 0.085938
v 1.000000 0.294522 0.171829
v -1.000000 0.294521 0.171829
v -1.000000 0.364513 0.298114
v 1.000000 0.364513 0.298114
v 1.000000 0.130497 0.298114
v -1.000000 0.130497 0.298114
v -1.000000 0.364513 0.469895
v 1.000000 0.364513 0.469896
v 1.000000 0.364513 0.384005
v -1.000000 0.364513 0.384005
v -1.000000 0.505819 0.298114
v 1.000000 0.505819 0.298114
v 1.000000 0.559490 0.384005
v -1.000000 0.559490 0.384005
v -1.000000 0.635795 0.507106
v 1.000000 0.635795 0.507106
v 1.000000 0.401779 0.507106
v -1.000000 0.401779 0.507106
v -1.000000 0.635795 0.678888
v 1.000000 0.635795 0.678888
v 1.000000 0.635795 0.592997
v -1.000000 0.635795 0.592997
v -1.000000 0.777101 0.507106
v 1.000000 0.777101 0.507106
v 1.000000 0.830772 0.592997
v -1.000000 0.830771 0.592997
v -0.926987 2.619595 2.045780
v -0.926986 1.203624 0.849017
v 0.926986 2.619596 2.045780
v 0.926987 1.203624 0.849018
v 1.000000 1.165211 0.781358
v 0.999999 2.692711 2.072383
v -1.000000 2.692710 2.072382
v -1.000000 1.165211 0.781357
v -0.891845 2.477723 2.196254
v -0.891845 1.171895 1.122975
v 0.891844 2.477723 2.196254
v 0.891845 1.171896 1.122975
v 1.000000 1.150006 0.627759
v -1.000000 1.150006 0.627759
v 1.000000 1.092525 0.584760
v -1.000000 1.092524 0.584760
v -1.000000 1.319149 1.075144
v 1.000000 1.319149 1.075144
v 1.000000 1.092525 0.584760
v -1.000000 1.092524 0.584760
v 1.000000 0.899380 0.584760
v -1.000000 0.899380 0.584760
v 1.000000 1.085133 1.075144
v -1.000000 1.085133 1.075144
v -1.000000 1.319149 1.246925
v 1.000000 1.319149 1.246925
v 1.000000 1.319149 1.161035
v -1.000000 1.319149 1.161034
v -1.000000 1.460455 1.075144
v 1.000000 1.460455 1.075144
v 1.000000 1.514126 1.161035
v -1.000000 1.514126 1.161034
v -1.000000 1.597107 1.321336
v 1.000000 1.597107 1.321336
v 1.000000 1.363091 1.321336
v -1.000000 1.363091 1.321336
v -1.000000 1.597107 1.493117
v 1.000000 1.597107 1.493118
v 1.000000 1.597107 1.407227
v -1.000000 1.597107 1.407227
v -1.000000 1.738413 1.321336
v 1.000000 1.738413 1.321336
v 1.000000 1.792084 1.407227
v -1.000000 1.792084 1.407227
v -1.000000 1.869544 1.555938
v 1.000000 1.869545 1.555938
v 1.000000 1.635529 1.555938
v -1.000000 1.635528 1.555938
v -1.000000 1.869544 1.727719
v 1.000000 1.869545 1.727720
v 1.000000 1.869545 1.641829
v -1.000000 1.869544 1.641829
v -1.000000 2.010850 1.555938
v 1.000000 2.010851 1.555938
v 1.000000 2.064522 1.641829
v -1.000000 2.064521 1.641829
v -1.000000 2.134513 1.768114
v 1.000000 2.134513 1.768114
v 1.000000 1.900497 1.768114
v -1.000000 1.900497 1.768114
v -1.000000 2.134513 1.939896
v 1.000000 2.134513 1.939896
v 1.000000 2.134513 1.854005
v -1.000000 2.134513 1.854005
v -1.000000 2.275819 1.768114
v 1.000000 2.275819 1.768114
v 1.000000 2.329490 1.854005
v -1.000000 2.329490 1.854005
v -1.000000 2.405795 1.977106
v 1.000000 2.405795 1.977107
v 1.000000 2.171779 1.977107
v -1.000000 2.171778 1.977106
v -1.000000 2.405795 2.148888
v 1.000000 2.405795 2.148888
v 1.000000 2.405795 2.062997
v -1.000000 2.405795 2.062997
v -1.000000 2.547101 1.977106
v 1.000000 2.547101 1.977107
v 1.000000 2.600772 2.062997
v -1.000000 2.600771 2.062997
v -0.926987 4.389595 3.515780
v -0.926986 2.973624 2.319017
v 0.926986 4.389596 3.515780
v 0.926987 2.973624 2.319018
v 1.000000 2.935211 2.251358
v 0.999999 4.462711 3.542383
v -1.000000 4.462710 3.542382
v -1.000000 2.935211 2.251357
v -0.891845 4.247723 3.666254
v -0.891845 2.941895 2.592975
v 0.891844 4.247723 3.666254
v 0.891845 2.941895 2.592975
v 1.000000 2.920006 2.097759
v -1.000000 2.920006 2.097759
v 1.000000 2.862525 2.054760
v -1.000000 2.862525 2.054760
v -1.000000 3.089149 2.545144
v 1.000000 3.089149 2.545144
v 1.000000 2.862525 2.054760
v -1.000000 2.862525 2.054760
v 1.000000 2.669380 2.054760
v -1.000000 2.669379 2.054760
v 1.000000 2.855133 2.545144
v -1.000000 2.855133 2.545144
v -1.000000 3.089149 2.716925
v 1.000000 3.089149 2.716926
v 1.000000 3.089149 2.631035
v -1.000000 3.089149 2.631034
v -1.000000 3.230455 2.545144
v 1.000000 3.230455 2.545144
v 1.000000 3.284126 2.631035
v -1.000000 3.284126 2.631034
v -1.000000 3.367107 2.791336
v 1.000000 3.367107 2.791336
v 1.000000 3.133091 2.791336
v -1.000000 3.133091 2.791336
v -1.000000 3.367107 2.963117
v 1.000000 3.367107 2.963118
v 1.000000 3.367107 2.877227
v -1.000000 3.367107 2.877227
v -1.000000 3.508413 2.791336
v 1.000000 3.508414 2.791336
v 1.000000 3.562084 2.877227
v -1.000000 3.562084 2.877227
v -1.000000 3.639544 3.025938
v 1.000000 3.639545 3.025938
v 1.000000 3.405529 3.025938
v -1.000000 3.405528 3.025938
v -1.000000 3.639544 3.197719
v 1.000000 3.639545 3.197720
v 1.000000 3.639545 3.111829
v -1.000000 3.639544 3.111829
v -1.000000 3.780850 3.025938
v 1.000000 3.780851 3.025938
v 1.000000 3.834522 3.111829
v -1.000000 3.834521 3.111829
v -1.000000 3.904513 3.238114
v 1.000000 3.904513 3.238114
v 1.000000 3.670497 3.238114
v -1.000000 3.670497 3.238114
v -1.000000 3.904513 3.409895
v 1.000000 3.904513 3.409896
v 1.000000 3.904513 3.324005
v -1.000000 3.904513 3.324005
v -1.000000 4.045819 3.238114
v 1.000000 4.045819 3.238114
v 1.000000 4.099490 3.324005
v -1.000000 4.099490 3.324005
v -1.000000 4.175795 3.447106
v 1.000000 4.175795 3.447107
v 1.000000 3.941779 3.447107
v -1.000000 3.941778 3.447106
v -1.000000 4.175795 3.618888
v 1.000000 4.175795 3.618888
v 1.000000 4.175795 3.532997
v -1.000000 4.175795 3.532997
v -1.000000 4.317101 3.447106
v 1.000000 4.317101 3.447107
v 1.000000 4.370772 3.532997
v -1.000000 4.370771 3.532997
v -0.926987 6.159595 4.985780
v -0.926986 4.743624 3.789017
v 0.926986 6.159595 4.985780
v 0.926987 4.743625 3.789018
v 1.000000 4.705211 3.721357
v 0.999999 6.232711 5.012383
v -1.000000 6.232710 5.012382
v -1.000000 4.705211 3.721357
v -0.891845 6.017723 5.136253
v -0.891845 4.711895 4.062975
v 0.891844 6.017723 5.136254
v 0.891845 4.711895 4.062975
v 1.000000 4.690006 3.567759
v -1.000000 4.690006 3.567759
v 1.000000 4.632524 3.524760
v -1.000000 4.632524 3.524760
v -1.000000 4.859149 4.015143
v 1.000000 4.859149 4.015144
v 1.000000 4.632524 3.524760
v -1.000000 4.632524 3.524760
v 1.000000 4.439380 3.524760
v -1.000000 4.439380 3.524760
v 1.000000 4.625133 4.015144
v -1.000000 4.625133 4.015143
v -1.000000 4.859149 4.186925
v 1.000000 4.859149 4.186925
v 1.000000 4.859149 4.101035
v -1.000000 4.859149 4.101034
v -1.000000 5.000455 4.015143
v 1.000000 5.000455 4.015144
v 1.000000 5.054126 4.101035
v -1.000000 5.054126 4.101034
v -1.000000 5.137107 4.261335
v 1.000000 5.137107 4.261336
v 1.000000 4.903091 4.261336
v -1.000000 4.903091 4.261335
v -1.000000 5.137107 4.433117
v 1.000000 5.137107 4.433117
v 1.000000 5.137107 4.347227
v -1.000000 5.137107 4.347226
v -1.000000 5.278413 4.261335
v 1.000000 5.278413 4.261336
v 1.000000 5.332084 4.347227
v -1.000000 5.332084 4.347226
v -1.000000 5.409544 4.495938
v 1.000000 5.409544 4.495938
v 1.000000 5.175529 4.495938
v -1.000000 5.175528 4.495938
v -1.000000 5.409544 4.667719
v 1.000000 5.409544 4.667719
v 1.000000 5.409544 4.581829
v -1.000000 5.409544 4.581829
v -1.000000 5.550850 4.495938
v 1.000000 5.550851 4.495938
v 1.000000 5.604522 4.581829
v -1.000000 5.604521 4.581829
v -1.000000 5.674513 4.708114
v 1.000000 5.674513 4.708114
v 1.000000 5.440497 4.708114
v -1.000000 5.440496 4.708114
v -1.000000 5.674513 4.879895
v 1.000000 5.674513 4.879896
v 1.000000 5.674513 4.794005
v -1.000000 5.674513 4.794004
v -1.000000 5.815819 4.708114
v 1.000000 5.815819 4.708114
v 1.000000 5.869490 4.794005
v -1.000000 5.869490 4.794004
v -1.000000 5.945795 4.917106
v 1.000000 5.945795 4.917106
v 1.000000 5.711779 4.917106
v -1.000000 5.711779 4.917106
v -1.000000 5.945795 5.088888
v 1.000000 5.945795 5.088888
v 1.000000 5.945795 5.002997
v -1.000000 5.945795 5.002997
v -1.000000 6.087101 4.917106
v 1.000000 6.087101 4.917106
v 1.000000 6.140772 5.002997
v -1.000000 6.140771 5.002997
v -0.926987 7.929595 6.455780
v -0.926986 6.513624 5.259017
v 0.926986 7.929596 6.455781
v 0.926987 6.513624 5.259018
v 1.000000 6.475211 5.191358
v 0.999999 8.002710 6.482383
v -1.000000 8.002710 6.482382
v -1.000000 6.475211 5.191357
v -0.891845 7.787723 6.606254
v -0.891845 6.481895 5.532975
v 0.891844 7.787723 6.606255
v 0.891845 6.481895 5.532975
v 1.000000 6.460006 5.037759
v -1.000000 6.460006 5.037759
v 1.000000 6.402525 4.994761
v -1.000000 6.402524 4.994760
v -1.000000 6.629149 5.485144
v 1.000000 6.629149 5.485144
v 1.000000 6.402525 4.994761
v -1.000000 6.402524 4.994760
v 1.000000 6.209380 4.994761
v -1.000000 6.209380 4.994760
v 1.000000 6.395133 5.485144
v -1.000000 6.395133 5.485144
v -1.000000 6.629149 5.656925
v 1.000000 6.629149 5.656926
v 1.000000 6.629149 5.571035
v -1.000000 6.629149 5.571034
v -1.000000 6.770455 5.485144
v 1.000000 6.770455 5.485144
v 1.000000 6.824126 5.571035
v -1.000000 6.824126 5.571034
v -1.000000 6.907107 5.731336
v 1.000000 6.907107 5.731336
v 1.000000 6.673091 5.731336
v -1.000000 6.673091 5.731336
v -1.000000 6.907107 5.903117
v 1.000000 6.907107 5.903118
v 1.000000 6.907107 5.817227
v -1.000000 6.907107 5.817226
v -1.000000 7.048413 5.731336
v 1.000000 7.048413 5.731336
v 1.000000 7.102084 5.817227
v -1.000000 7.102084 5.817226
v -1.000000 7.179544 5.965938
v 1.000000 7.179544 5.965938
v 1.000000 6.945529 5.965938
v -1.000000 6.945528 5.965938
v -1.000000 7.179544 6.137720
v 1.000000 7.179544 6.137720
v 1.000000 7.179544 6.051829
v -1.000000 7.179544 6.051829
v -1.000000 7.320850 5.965938
v 1.000000 7.320851 5.965938
v 1.000000 7.374522 6.051829
v -1.000000 7.374521 6.051829
v -1.000000 7.444513 6.178114
v 1.000000 7.444513 6.178114
v 1.000000 7.210497 6.178114
v -1.000000 7.210496 6.178114
v -1.000000 7.444513 6.349895
v 1.000000 7.444513 6.349896
v 1.000000 7.444513 6.264005
v -1.000000 7.444513 6.264005
v -1.000000 7.585819 6.178114
v 1.000000 7.585819 6.178114
v 1.000000 7.639490 6.264005
v -1.000000 7.639490 6.264005
v -1.000000 7.715795 6.387106
v 1.000000 7.715795 6.387106
v 1.000000 7.481779 6.387106
v -1.000000 7.481779 6.387106
v -1.000000 7.715795 6.558888
v 1.000000 7.715795 6.558888
v 1.000000 7.715795 6.472997
v -1.000000 7.715795 6.472997
v -1.000000 7.857100 6.387106
v 1.000000 7.857101 6.387106
v 1.000000 7.910772 6.472997
v -1.000000 7.910771 6.472997
vt 0.0042 0.0039
vt 0.9998 0.0047
vt 0.9631 0.0222
vt 0.0379 0.0217
vt 0.8910 0.0465
vt 0.8875 0.4733
vt 0.1017 0.4736
vt 0.1044 0.0478
vt 0.0001 0.5162
vt 0.0378 0.4983
vt 0.9999 0.5162
vt 0.9638 0.4990
vt 1.0001 0.5995
vt 0.0003 0.5995
vt -0.0006 0.5815
vt 1.0004 0.5815
vt -0.0008 0.5681
vt 1.0001 0.5681
vt 0.9973 0.6571
vt 0.0025 0.6571
vt 0.0025 0.6119
vt 0.9973 0.6119
vt 1.0001 0.5681
vt -0.0008 0.5681
vt -0.0008 0.5418
vt 1.0001 0.5418
vt 0.6540 0.6484
vt 0.3403 0.6484
vt 0.3403 0.6416
vt 0.6540 0.6416
vt 0.6540 0.6551
vt 0.3403 0.6551
vt 0.0025 0.7040
vt 0.9973 0.7040
vt 0.9973 0.7522
vt 0.0025 0.7522
vt 0.9973 0.6881
vt 0.0025 0.6881
vt 0.9973 0.6571
vt 0.0025 0.6571
vt 0.0025 0.6119
vt 0.9973 0.6119
vt 0.6540 0.6484
vt 0.3403 0.6484
vt 0.3403 0.6416
vt 0.6540 0.6416
vt 0.6540 0.6551
vt 0.3403 0.6551
vt -0.3540 0.7040
vt 0.6408 0.7040
vt 0.6408 0.7522
vt -0.3540 0.7522
vt 0.9973 0.6881
vt 0.0025 0.6881
vt 0.9973 0.6571
vt 0.0025 0.6571
vt 0.0025 0.6119
vt 0.9973 0.6119
vt 0.6540 0.6484
vt 0.3403 0.6484
vt 0.3403 0.6416
vt 0.6540 0.6416
vt 0.6540 0.6551
vt 0.3403 0.6551
vt 0.4056 0.7040
vt 1.4004 0.7040
vt 1.4004 0.7522
vt 0.4056 0.7522
vt 0.9973 0.6881
vt 0.0025 0.6881
vt 0.9973 0.6571
vt 0.0025 0.6571
vt 0.0025 0.6119
vt 0.9973 0.6119
vt 0.6540 0.6484
vt 0.3403 0.6484
vt 0.3403 0.6416
vt 0.6540 0.6416
vt 0.6540 0.6551
vt 0.3403 0.6551
vt -0.0564 0.7040
vt 0.9384 0.7040
vt 0.9384 0.7522
vt -0.0564 0.7522
vt 0.9973 0.6881
vt 0.0025 0.6881
vt 0.9973 0.6571
vt 0.0025 0.6571
vt 0.0025 0.6119
vt 0.9973 0.6119
vt 0.6540 0.6484
vt 0.3403 0.6484
vt 0.3403 0.6416
vt 0.6540 0.6416
vt 0.6540 0.6551
vt 0.3403 0.6551
vt 0.3002 0.7040
vt 1.2950 0.7040
vt 1.2950 0.7522
vt 0.3002 0.7522
vt 0.9973 0.6881
vt 0.0025 0.6881
vt 0.0042 0.0039
vt 0.9998 0.0047
vt 0.9631 0.0222
vt 0.0379 0.0217
vt 0.8910 0.0465
vt 0.8875 0.4733
vt 0.1017 0.4736
vt 0.1044 0.0478
vt 0.0001 0.5162
vt 0.0378 0.4983
vt 0.9999 0.5162
vt 0.9638 0.4990
vt 1.0001 0.5995
vt 0.0003 0.5995
vt -0.0006 0.5815
vt 1.0004 0.5815
vt -0.0008 0.5681
vt 1.0001 0.5681
vt 0.9973 0.6571
vt 0.0025 0.6571
vt 0.0025 0.6119
vt 0.9973 0.6119
vt 1.0001 0.5681
vt -0.0008 0.5681
vt -0.0008 0.5418
vt 1.0001 0.5418
vt 0.6540 0.6484
vt 0.3403 0.6484
vt 0.3403 0.6416
vt 0.6540 0.6416
vt 0.6540 0.6551
vt 0.3403 0.6551
vt 0.0025 0.7040
vt 0.9973 0.7040
vt 0.9973 0.7522
vt 0.0025 0.7522
vt 0.9973 0.6881
vt 0.0025 0.6881
vt 0.9973 0.6571
vt 0.0025 0.6571
vt 0.0025 0.6119
vt 0.9973 0.6119
vt 0.6540 0.6484
vt 0.3403 0.6484
vt 0.3403 0.6416
vt 0.6540 0.6416
vt 0.6540 0.6551
vt 0.3403 0.6551
vt -0.3540 0.7040
vt 0.6408 0.7040
vt 0.6408 0.7522
vt -0.3540 0.7522
vt 0.9973 0.6881
vt 0.0025 0.6881
vt 0.9973 0.6571
vt 0.0025 0.6571
vt 0.0025 0.6119
vt 0.9973 0.6119
vt 0.6540 0.6484
vt 0.3403 0.6484
vt 0.3403 0.6416
vt 0.6540 0.6416
vt 0.6540 0.6551
vt 0.3403 0.6551
vt 0.4056 0.7040
vt 1.4004 0.7040
vt 1.4004 0.7522
vt 0.4056 0.7522
vt 0.9973 0.6881
vt 0.0025 0.6881
vt 0.9973 0.6571
vt 0.0025 0.6571
vt 0.0025 0.6119
vt 0.9973 0.6119
vt 0.6540 0.6484
vt 0.3403 0.6484
vt 0.3403 0.6416
vt 0.6540 0.6416
vt 0.6540 0.6551
vt 0.3403 0.6551
vt -0.0564 0.7040
vt 0.9384 0.7040
vt 0.9384 0.7522
vt -0.0564 0.7522
vt 0.9973 0.6881
vt 0.0025 0.6881
vt 0.9973 0.6571
vt 0.0025 0.6571
vt 0.0025 0.6119
vt 0.9973 0.6119
vt 0.6540 0.6484
vt 0.3403 0.6484
vt 0.3403 0.6416
vt 0.6540 0.6416
vt 0.6540 0.6551
vt 0.3403 0.6551
vt 0.3002 0.7040
vt 1.2950 0.7040
vt 1.2950 0.7522
vt 0.3002 0.7522
vt 0.9973 0.6881
vt 0.0025 0.6881
vt 0.0042 0.0039
vt 0.9998 0.0047
vt 0.9631 0.0222
vt 0.0379 0.0217
vt 0.8910 0.0465
vt 0.8875 0.4733
vt 0.1017 0.4736
vt 0.1044 0.0478
vt 0.0001 0.5162
vt 0.0378 0.4983
vt 0.9999 0.5162
vt 0.9638 0.4990
vt 1.0001 0.5995
vt 0.0003 0.5995
vt -0.0006 0.5815
vt 1.0004 0.5815
vt -0.0008 0.5681
vt 1.0001 0.5681
vt 0.9973 0.6571
vt 0.0025 0.6571
vt 0.0025 0.6119
vt 0.9973 0.6119
vt 1.0001 0.5681
vt -0.0008 0.5681
vt -0.0008 0.5418
vt 1.0001 0.5418
vt 0.6540 0.6484
vt 0.3403 0.6484
vt 0.3403 0.6416
vt 0.6540 0.6416
vt 0.6540 0.6551
vt 0.3403 0.6551
vt 0.0025 0.7040
vt 0.9973 0.7040
vt 0.9973 0.7522
vt 0.0025 0.7522
vt 0.9973 0.6881
vt 0.0025 0.6881
vt 0.9973 0.6571
vt 0.0025 0.6571
vt 0.0025 0.6119
vt 0.9973 0.6119
vt 0.6540 0.6484
vt 0.3403 0.6484
vt 0.3403 0.6416
vt 0.6540 0.6416
vt 0.6540 0.6551
vt 0.3403 0.6551
vt -0.3540 0.7040
vt 0.6408 0.7040
vt 0.6408 0.7522
vt -0.3540 0.7522
vt 0.9973 0.6881
vt 0.0025 0.6881
vt 0.9973 0.6571
vt 0.0025 0.6571
vt 0.0025 0.6119
vt 0.9973 0.6119
vt 0.6540 0.6484
vt 0.3403 0.6484
vt 0.3403 0.6416
vt 0.6540 0.6416
vt 0.6540 0.6551
vt 0.3403 0.6551
vt 0.4056 0.7040
vt 1.4004 0.7040
vt 1.4004 0.7522
vt 0.4056 0.7522
vt 0.9973 0.6881
vt 0.0025 0.6881
vt 0.9973 0.6571
vt 0.0025 0.6571
vt 0.0025 0.6119
vt 0.9973 0.6119
vt 0.6540 0.6484
vt 0.3403 0.6484
vt 0.3403 0.6416
vt 0.6540 0.6416
vt 0.6540 0.6551
vt 0.3403 0.6551
vt -0.0564 0.7040
vt 0.9384 0.7040
vt 0.9384 0.7522
vt -0.0564 0.7522
vt 0.9973 0.6881
vt 0.0025 0.6881
vt 0.9973 0.6571
vt 0.0025 0.6571
vt 0.0025 0.6119
vt 0.9973 0.6119
vt 0.6540 0.6484
vt 0.3403 0.6484
vt 0.3403 0.6416
vt 0.6540 0.6416
vt 0.6540 0.6551
vt 0.3403 0.6551
vt 0.3002 0.7040
vt 1.2950 0.7040
vt 1.2950 0.7522
vt 0.3002 0.7522
vt 0.9973 0.6881
vt 0.0025 0.6881
vt 0.0042 0.0039
vt 0.9998 0.0047
vt 0.9631 0.0222
vt 0.0379 0.0217
vt 0.8910 0.0465
vt 0.8875 0.4733
vt 0.1017 0.4736
vt 0.1044 0.0478
vt 0.0001 0.5162
vt 0.0378 0.4983
vt 0.9999 0.5162
vt 0.9638 0.4990
vt 1.0001 0.5995
vt 0.0003 0.5995
vt -0.0006 0.5815
vt 1.0004 0.5815
vt -0.0008 0.5681
vt 1.0001 0.5681
vt 0.9973 0.6571
vt 0.0025 0.6571
vt 0.0025 0.6119
vt 0.9973 0.6119
vt 1.0001 0.5681
vt -0.0008 0.5681
vt -0.0008 0.5418
vt 1.0001 0.5418
vt 0.6540 0.6484
vt 0.3403 0.6484
vt 0.3403 0.6416
vt 0.6540 0.6416
vt 0.6540 0.6551
vt 0.3403 0.6551
vt 0.0025 0.7040
vt 0.9973 0.7040
vt 0.9973 0.7522
vt 0.0025 0.7522
vt 0.9973 0.6881
vt 0.0025 0.6881
vt 0.9973 0.6571
vt 0.0025 0.6571
vt 0.0025 0.6119
vt 0.9973 0.6119
vt 0.6540 0.6484
vt 0.3403 0.6484
vt 0.3403 0.6416
vt 0.6540 0.6416
vt 0.6540 0.6551
vt 0.3403 0.6551
vt -0.3540 0.7040
vt 0.6408 0.7040
vt 0.6408 0.7522
vt -0.3540 0.7522
vt 0.9973 0.6881
vt 0.0025 0.6881
vt 0.9973 0.6571
vt 0.0025 0.6571
vt 0.0025 0.6119
vt 0.9973 0.6119
vt 0.6540 0.6484
vt 0.3403 0.6484
vt 0.3403 0.6416
vt 0.6540 0.6416
vt 0.6540 0.6551
vt 0.3403 0.6551
vt 0.4056 0.7040
vt 1.4004 0.7040
vt 1.4004 0.7522
vt 0.4056 0.7522
vt 0.9973 0.6881
vt 0.0025 0.6881
vt 0.9973 0.6571
vt 0.0025 0.6571
vt 0.0025 0.6119
vt 0.9973 0.6119
vt 0.6540 0.6484
vt 0.3403 0.6484
vt 0.3403 0.6416
vt 0.6540 0.6416
vt 0.6540 0.6551
vt 0.3403 0.6551
vt -0.0564 0.7040
vt 0.9384 0.7040
vt 0.9384 0.7522
vt -0.0564 0.7522
vt 0.9973 0.6881
vt 0.0025 0.6881
vt 0.9973 0.6571
vt 0.0025 0.6571
vt 0.0025 0.6119
vt 0.9973 0.6119
vt 0.6540 0.6484
vt 0.3403 0.6484
vt 0.3403 0.6416
vt 0.6540 0.6416
vt 0.6540 0.6551
vt 0.3403 0.6551
vt 0.3002 0.7040
vt 1.2950 0.7040
vt 1.2950 0.7522
vt 0.3002 0.7522
vt 0.9973 0.6881
vt 0.0025 0.6881
vt 0.0042 0.0039
vt 0.9998 0.0047
vt 0.9631 0.0222
vt 0.0379 0.0217
vt 0.8910 0.0465
vt 0.8875 0.4733
vt 0.1017 0.4736
vt 0.1044 0.0478
vt 0.0001 0.5162
vt 0.0378 0.4983
vt 0.9999 0.5162
vt 0.9638 0.4990
vt 1.0001 0.5995
vt 0.0003 0.5995
vt -0.0006 0.5815
vt 1.0004 0.5815
vt -0.0008 0.5681
vt 1.0001 0.5681
vt 0.9973 0.6571
vt 0.0025 0.6571
vt 0.0025 0.6119
vt 0.9973 0.6119
vt 1.0001 0.5681
vt -0.0008 0.5681
vt -0.0008 0.5418
vt 1.0001 0.5418
vt 0.6540 0.6484
vt 0.3403 0.6484
vt 0.3403 0.6416
vt 0.6540 0.6416
vt 0.6540 0.6551
vt 0.3403 0.6551
vt 0.0025 0.7040
vt 0.9973 0.7040
vt 0.9973 0.7522
vt 0.0025 0.7522
vt 0.9973 0.6881
vt 0.0025 0.6881
vt 0.9973 0.6571
vt 0.0025 0.6571
vt 0.0025 0.6119
vt 0.9973 0.6119
vt 0.6540 0.6484
vt 0.3403 0.6484
vt 0.3403 0.6416
vt 0.6540 0.6416
vt 0.6540 0.6551
vt 0.3403 0.6551
vt -0.3540 0.7040
vt 0.6408 0.7040
vt 0.6408 0.7522
vt -0.3540 0.7522
vt 0.9973 0.6881
vt 0.0025 0.6881
vt 0.9973 0.6571
vt 0.0025 0.6571
vt 0.0025 0.6119
vt 0.9973 0.6119
vt 0.6540 0.6484
vt 0.3403 0.6484
vt 0.3403 0.6416
vt 0.6540 0.6416
vt 0.6540 0.6551
vt 0.3403 0.6551
vt 0.4056 0.7040
vt 1.4004 0.7040
vt 1.4004 0.7522
vt 0.4056 0.7522
vt 0.9973 0.6881
vt 0.0025 0.6881
vt 0.9973 0.6571
vt 0.0025 0.6571
vt 0.0025 0.6119
vt 0.9973 0.6119
vt 0.6540 0.6484
vt 0.3403 0.6484
vt 0.3403 0.6416
vt 0.6540 0.6416
vt 0.6540 0.6551
vt 0.3403 0.6551
vt -0.0564 0.7040
vt 0.9384 0.7040
vt 0.9384 0.7522
vt -0.0564 0.7522
vt 0.9973 0.6881
vt 0.0025 0.6881
vt 0.9973 0.6571
vt 0.0025 0.6571
vt 0.0025 0.6119
vt 0.9973 0.6119
vt 0.6540 0.6484
vt 0.3403 0.6484
vt 0.3403 0.6416
vt 0.6540 0.6416
vt 0.6540 0.6551
vt 0.3403 0.6551
vt 0.3002 0.7040
vt 1.2950 0.7040
vt 1.2950 0.7522
vt 0.3002 0.7522
vt 0.9973 0.6881
vt 0.0025 0.6881
vn -0.3455 0.6058 -0.7167
vn 0.0000 0.6350 -0.7725
vn 0.0000 0.3419 -0.9397
vn -0.0000 0.8696 -0.4937
vn 0.3455 0.6058 -0.7167
vn -0.0000 0.9934 0.1150
vn 0.9873 0.1017 -0.1219
vn -0.9873 0.1017 -0.1219
vn 0.0000 -0.7276 -0.6860
vn -0.0000 0.9951 -0.0985
vn 0.0000 0.5990 -0.8007
vn 0.0000 0.0000 -1.0000
vn -0.0000 1.0000 0.0000
vn -0.0000 0.5990 -0.8008
usemtl Material
s off
f 6/1/1 5/2/1 4/3/1 3/4/1
f 12/5/2 10/6/2 9/7/2 11/8/2
f 7/9/3 6/1/3 3/4/3 1/10/3
f 5/2/4 8/11/4 2/12/4 4/3/4
f 8/11/5 7/9/5 1/10/5 2/12/5
f 4/3/6 2/12/6 10/6/6 12/5/6
f 2/12/7 1/10/7 9/7/7 10/6/7
f 3/4/8 4/3/8 12/5/8 11/8/8
f 1/10/9 3/4/9 11/8/9 9/7/9
f 8/13/10 5/14/10 13/15/10 14/16/10
f 14/16/11 13/15/11 15/17/11 16/18/11
f 17/19/12 18/20/12 23/21/12 24/22/12
f 20/23/12 19/24/12 21/25/12 22/26/12
f 27/27/13 28/28/13 25/29/13 26/30/13
f 18/31/13 17/32/13 28/28/13 27/27/13
f 27/33/12 28/34/12 32/35/12 31/36/12
f 17/19/12 29/37/12 30/38/12 18/20/12
f 33/39/12 34/40/12 35/41/12 36/42/12
f 39/43/13 40/44/13 37/45/13 38/46/13
f 34/47/13 33/48/13 40/44/13 39/43/13
f 39/49/12 40/50/12 44/51/12 43/52/12
f 33/39/12 41/53/12 42/54/12 34/40/12
f 45/55/12 46/56/12 47/57/12 48/58/12
f 51/59/13 52/60/13 49/61/13 50/62/13
f 46/63/13 45/64/13 52/60/13 51/59/13
f 51/65/12 52/66/12 56/67/12 55/68/12
f 45/55/12 53/69/12 54/70/12 46/56/12
f 57/71/12 58/72/12 59/73/12 60/74/12
f 63/75/13 64/76/13 61/77/13 62/78/13
f 58/79/13 57/80/13 64/76/13 63/75/13
f 63/81/12 64/82/12 68/83/12 67/84/12
f 57/71/12 65/85/12 66/86/12 58/72/12
f 69/87/12 70/88/12 71/89/12 72/90/12
f 75/91/13 76/92/13 73/93/13 74/94/13
f 70/95/13 69/96/13 76/92/13 75/91/13
f 75/97/12 76/98/12 80/99/12 79/100/12
f 69/87/12 77/101/12 78/102/12 70/88/12
f 86/103/1 85/104/1 84/105/1 83/106/1
f 92/107/2 90/108/2 89/109/2 91/110/2
f 87/111/3 86/103/3 83/106/3 81/112/3
f 85/104/4 88/113/4 82/114/4 84/105/4
f 88/113/5 87/111/5 81/112/5 82/114/5
f 84/105/6 82/114/6 90/108/6 92/107/6
f 82/114/7 81/112/7 89/109/7 90/108/7
f 83/106/8 84/105/8 92/107/8 91/110/8
f 81/112/9 83/106/9 91/110/9 89/109/9
f 88/115/10 85/116/10 93/117/10 94/118/10
f 94/118/11 93/117/11 95/119/11 96/120/11
f 97/121/12 98/122/12 103/123/12 104/124/12
f 100/125/12 99/126/12 101/127/12 102/128/12
f 107/129/13 108/130/13 105/131/13 106/132/13
f 98/133/13 97/134/13 108/130/13 107/129/13
f 107/135/12 108/136/12 112/137/12 111/138/12
f 97/121/12 109/139/12 110/140/12 98/122/12
f 113/141/12 114/142/12 115/143/12 116/144/12
f 119/145/13 120/146/13 117/147/13 118/148/13
f 114/149/13 113/150/13 120/146/13 119/145/13
f 119/151/12 120/152/12 124/153/12 123/154/12
f 113/141/12 121/155/12 122/156/12 114/142/12
f 125/157/12 126/158/12 127/159/12 128/160/12
f 131/161/13 132/162/13 129/163/13 130/164/13
f 126/165/13 125/166/13 132/162/13 131/161/13
f 131/167/12 132/168/12 136/169/12 135/170/12
f 125/157/12 133/171/12 134/172/12 126/158/12
f 137/173/12 138/174/12 139/175/12 140/176/12
f 143/177/13 144/178/13 141/179/13 142/180/13
f 138/181/13 137/182/13 144/178/13 143/177/13
f 143/183/12 144/184/12 148/185/12 147/186/12
f 137/173/12 145/187/12 146/188/12 138/174/12
f 149/189/12 150/190/12 151/191/12 152/192/12
f 155/193/13 156/194/13 153/195/13 154/196/13
f 150/197/13 149/198/13 156/194/13 155/193/13
f 155/199/12 156/200/12 160/201/12 159/202/12
f 149/189/12 157/203/12 158/204/12 150/190/12
f 166/205/1 165/206/1 164/207/1 163/208/1
f 172/209/2 170/210/2 169/211/2 171/212/2
f 167/213/3 166/205/3 163/208/3 161/214/3
f 165/206/4 168/215/4 162/216/4 164/207/4
f 168/215/5 167/213/5 161/214/5 162/216/5
f 164/207/6 162/216/6 170/210/6 172/209/6
f 162/216/7 161/214/7 169/211/7 170/210/7
f 163/208/8 164/207/8 172/209/8 171/212/8
f 161/214/9 163/208/9 171/212/9 169/211/9
f 168/217/10 165/218/10 173/219/10 174/220/10
f 174/220/11 173/219/11 175/221/11 176/222/11
f 177/223/12 178/224/12 183/225/12 184/226/12
f 180/227/12 179/228/12 181/229/12 182/230/12
f 187/231/13 188/232/13 185/233/13 186/234/13
f 178/235/13 177/236/13 188/232/13 187/231/13
f 187/237/12 188/238/12 192/239/12 191/240/12
f 177/223/12 189/241/12 190/242/12 178/224/12
f 193/243/12 194/244/12 195/245/12 196/246/12
f 199/247/13 200/248/13 197/249/13 198/250/13
f 194/251/13 193/252/13 200/248/13 199/247/13
f 199/253/12 200/254/12 204/255/12 203/256/12
f 193/243/12 201/257/12 202/258/12 194/244/12
f 205/259/12 206/260/12 207/261/12 208/262/12
f 211/263/13 212/264/13 209/265/13 210/266/13
f 206/267/13 205/268/13 212/264/13 211/263/13
f 211/269/12 212/270/12 216/271/12 215/272/12
f 205/259/12 213/273/12 214/274/12 206/260/12
f 217/275/12 218/276/12 219/277/12 220/278/12
f 223/279/13 224/280/13 221/281/13 222/282/13
f 218/283/13 217/284/13 224/280/13 223/279/13
f 223/285/12 224/286/12 228/287/12 227/288/12
f 217/275/12 225/289/12 226/290/12 218/276/12
f 229/291/12 230/292/12 231/293/12 232/294/12
f 235/295/13 236/296/13 233/297/13 234/298/13
f 230/299/13 229/300/13 236/296/13 235/295/13
f 235/301/12 236/302/12 240/303/12 239/304/12
f 229/291/12 237/305/12 238/306/12 230/292/12
f 246/307/1 245/308/1 244/309/1 243/310/1
f 252/311/2 250/312/2 249/313/2 251/314/2
f 247/315/3 246/307/3 243/310/3 241/316/3
f 245/308/4 248/317/4 242/318/4 244/309/4
f 248/317/5 247/315/5 241/316/5 242/318/5
f 244/309/6 242/318/6 250/312/6 252/311/6
f 242/318/7 241/316/7 249/313/7 250/312/7
f 243/310/8 244/309/8 252/311/8 251/314/8
f 241/316/9 243/310/9 251/314/9 249/313/9
f 248/319/10 245/320/10 253/321/10 254/322/10
f 254/322/14 253/321/14 255/323/14 256/324/14
f 257/325/12 258/326/12 263/327/12 264/328/12
f 260/329/12 259/330/12 261/331/12 262/332/12
f 267/333/13 268/334/13 265/335/13 266/336/13
f 258/337/13 257/338/13 268/334/13 267/333/13
f 267/339/12 268/340/12 272/341/12 271/342/12
f 257/325/12 269/343/12 270/344/12 258/326/12
f 273/345/12 274/346/12 275/347/12 276/348/12
f 279/349/13 280/350/13 277/351/13 278/352/13
f 274/353/13 273/354/13 280/350/13 279/349/13
f 279/355/12 280/356/12 284/357/12 283/358/12
f 273/345/12 281/359/12 282/360/12 274/346/12
f 285/361/12 286/362/12 287/363/12 288/364/12
f 291/365/13 292/366/13 289/367/13 290/368/13
f 286/369/13 285/370/13 292/366/13 291/365/13
f 291/371/12 292/372/12 296/373/12 295/374/12
f 285/361/12 293/375/12 294/376/12 286/362/12
f 297/377/12 298/378/12 299/379/12 300/380/12
f 303/381/13 304/382/13 301/383/13 302/384/13
f 298/385/13 297/386/13 304/382/13 303/381/13
f 303/387/12 304/388/12 308/389/12 307/390/12
f 297/377/12 305/391/12 306/392/12 298/378/12
f 309/393/12 310/394/12 311/395/12 312/396/12
f 315/397/13 316/398/13 313/399/13 314/400/13
f 310/401/13 309/402/13 316/398/13 315/397/13
f 315/403/12 316/404/12 320/405/12 319/406/12
f 309/393/12 317/407/12 318/408/12 310/394/12
f 326/409/1 325/410/1 324/411/1 323/412/1
f 332/413/2 330/414/2 329/415/2 331/416/2
f 327/417/3 326/409/3 323/412/3 321/418/3
f 325/410/4 328/419/4 322/420/4 324/411/4
f 328/419/5 327/417/5 321/418/5 322/420/5
f 324/411/6 322/420/6 330/414/6 332/413/6
f 322/420/7 321/418/7 329/415/7 330/414/7
f 323/412/8 324/411/8 332/413/8 331/416/8
f 321/418/9 323/412/9 331/416/9 329/415/9
f 328/421/10 325/422/10 333/423/10 334/424/10
f 334/424/11 333/423/11 335/425/11 336/426/11
f 337/427/12 338/428/12 343/429/12 344/430/12
f 340/431/12 339/432/12 341/433/12 342/434/12
f 347/435/13 348/436/13 345/437/13 346/438/13
f 338/439/13 337/440/13 348/436/13 347/435/13
f 347/441/12 348/442/12 352/443/12 351/444/12
f 337/427/12 349/445/12 350/446/12 338/428/12
f 353/447/12 354/448/12 355/449/12 356/450/12
f 359/451/13 360/452/13 357/453/13 358/454/13
f 354/455/13 353/456/13 360/452/13 359/451/13
f 359/457/12 360/458/12 364/459/12 363/460/12
f 353/447/12 361/461/12 362/462/12 354/448/12
f 365/463/12 366/464/12 367/465/12 368/466/12
f 371/467/13 372/468/13 369/469/13 370/470/13
f 366/471/13 365/472/13 372/468/13 371/467/13
f 371/473/12 372/474/12 376/475/12 375/476/12
f 365/463/12 373/477/12 374/478/12 366/464/12
f 377/479/12 378/480/12 379/481/12 380/482/12
f 383/483/13 384/484/13 381/485/13 382/486/13
f 378/487/13 377/488/13 384/484/13 383/483/13
f 383/489/12 384/490/12 388/491/12 387/492/12
f 377/479/12 385/493/12 386/494/12 378/480/12
f 389/495/12 390/496/12 391/497/12 392/498/12
f 395/499/13 396/500/13 393/501/13 394/502/13
f 390/503/13 389/504/13 396/500/13 395/499/13
f 395/505/12 396/506/12 400/507/12 399/508/12
f 389/495/12 397/509/12 398/510/12 390/496/12
