# Blender v2.78 (sub 0) OBJ File: 'vtrack.blend'
# www.blender.org
o spectator_source_part2.006_Cube.014
v 12.707623 11.881070 -11.108864
v 11.490844 11.478766 -9.592476
v 11.345620 11.428761 -9.577194
v 11.304794 11.415343 -9.519695
v 11.304172 11.417445 -9.326563
v 14.102707 12.341942 -12.879496
v 12.885928 11.939638 -11.363108
v 12.740705 11.889634 -11.347827
v 12.699879 11.876216 -11.290327
v 12.699879 11.876216 -11.290327
v 15.497791 12.802814 -14.650127
v 14.281013 12.400511 -13.133740
v 14.135789 12.350507 -13.118458
v 14.094963 12.337089 -13.060959
v 14.094963 12.337089 -13.060959
v 16.892876 13.263687 -16.420759
v 15.676095 12.861382 -14.904372
v 15.530873 12.811378 -14.889090
v 15.490047 12.797959 -14.831591
v 18.296326 13.727310 -18.203060
v 17.071180 13.322256 -16.675003
v 16.925957 13.272251 -16.659721
v 16.885132 13.258833 -16.602222
v 23.954647 11.554500 -9.326563
vt 4.0019 -1.0827
vt 4.1247 -1.2653
vt 4.1367 -1.1398
vt 4.9745 -2.3652
vt -4.5159 -2.4410
vt 5.1043 -2.5580
vt 3.0391 0.1870
vt 3.1607 0.0062
vt 3.1726 0.1310
vt 2.2062 1.2650
vt 2.0858 1.4441
vt 2.2181 1.3891
vt 1.2611 2.5113
vt 1.2730 2.6348
vt 1.1420 2.6888
vt 0.3198 3.7535
vt 4.1085 -1.0985
vt 4.1367 -1.1398
vt 5.1105 -2.4234
vt 5.0821 -2.3817
vt 3.1447 0.1719
vt 3.1726 0.1310
vt 2.1905 1.4296
vt 1.2457 2.6749
vn 0.0774 -0.9805 -0.1809
vn 0.0662 -0.9783 -0.1966
vn 0.2736 -0.7916 0.5464
vn 0.0792 -0.9808 -0.1784
vn 0.0111 -0.9698 -0.2438
vn 0.1385 -0.9819 -0.1292
vn 0.0760 -0.9801 -0.1834
vn 0.0649 -0.9785 -0.1959
vn 0.2736 -0.7916 0.5463
vn 0.0629 -0.9787 -0.1954
vn 0.0751 -0.9797 -0.1858
vn 0.3266 -0.9451 0.0113
vn 0.0604 -0.9789 -0.1953
vn 0.3266 -0.9451 0.0114
vn 0.0748 -0.9794 -0.1878
vn 0.0137 -0.9692 -0.2460
vn 0.0000 0.0000 1.0000
s 1
f 7/1/1 1/2/2 10/3/3
f 2/4/4 24/5/5 5/6/6
f 12/7/7 6/8/8 15/9/9
f 7/1/1 6/8/8 24/5/5
f 12/7/7 11/10/10 24/5/5
f 17/11/11 11/10/10 19/12/12
f 17/11/11 16/13/13 24/5/5
f 16/13/13 23/14/14 21/15/15
f 21/15/15 20/16/16 24/5/5
f 8/17/14 7/1/1 10/3/3
f 24/5/5 1/2/2 7/1/1
f 10/3/3 9/18/17 8/17/14
f 5/6/6 4/19/12 2/4/4
f 2/4/4 1/2/2 24/5/5
f 4/19/12 3/20/12 2/4/4
f 13/21/12 12/7/7 15/9/9
f 24/5/5 6/8/8 12/7/7
f 15/9/9 14/22/17 13/21/12
f 19/12/12 18/23/12 17/11/11
f 17/11/11 24/5/5 11/10/10
f 22/24/14 21/15/15 23/14/14
f 24/5/5 16/13/13 21/15/15
