# Blender v2.78 (sub 0) OBJ File: 'vtrack.blend'
# www.blender.org
o spectator_wall_source.001_Cube.009
v -9.224284 44.566322 -6.095100
v -9.282623 44.551365 -6.087615
v -9.294921 44.545601 -6.137837
v -9.226971 44.563019 -6.146555
v -9.159218 44.773720 -5.987144
v -9.143456 44.774803 -6.019321
v -9.204315 44.753635 -6.132308
v -9.211470 44.755547 -6.084149
v -9.166546 44.582493 -6.075473
v -9.159719 44.581852 -6.123696
v -9.318420 44.549019 -5.947588
v -9.336616 44.542870 -5.974741
v -9.114404 44.601086 -5.978489
v -9.098986 44.603512 -6.010733
v -9.327742 44.725174 -6.096328
v -9.339743 44.718250 -6.146493
v -9.381465 44.715626 -5.983402
v -9.363564 44.722919 -5.956306
v -9.269309 44.739765 -6.103795
v -9.271683 44.735252 -6.155190
v -9.025230 44.849190 -5.154179
v -8.987398 44.862724 -5.049121
v -9.294921 44.545601 -6.137837
v -9.336616 44.542870 -5.974741
v -9.381465 44.715626 -5.983402
v -9.339743 44.718250 -6.146493
v -9.226971 44.563019 -6.146555
v -9.271683 44.735252 -6.155190
v -9.098986 44.603512 -6.010733
v -9.159719 44.581852 -6.123696
v -9.204315 44.753635 -6.132308
v -9.143456 44.774803 -6.019321
v -8.943421 44.693340 -5.040629
v -8.987398 44.862724 -5.049121
v -9.495887 45.696407 -6.147532
v -9.554837 45.684006 -6.140165
v -9.567382 45.679287 -6.190435
v -9.498719 45.693729 -6.199016
v -9.422023 45.901592 -6.037599
v -9.406232 45.902287 -6.069773
v -9.468030 45.885193 -6.182941
v -9.475081 45.886917 -6.134759
v -9.437483 45.709785 -6.127778
v -9.430693 45.709309 -6.176008
v -9.590698 45.681908 -6.000152
v -9.609151 45.676842 -6.027353
v -9.384555 45.725082 -6.030642
v -9.369045 45.727127 -6.062867
v -9.247646 45.788052 -5.197114
v -9.209580 45.800472 -5.092011
v -9.592631 45.862061 -6.147182
v -9.604946 45.856232 -6.197411
v -9.646702 45.853722 -6.034327
v -9.628481 45.859905 -6.007167
v -9.533590 45.874035 -6.154532
v -9.536179 45.870182 -6.205972
v -9.284483 45.961567 -5.203953
v -9.246037 45.972176 -5.098782
v -9.269309 44.739765 -6.103795
v -9.327743 44.725174 -6.096328
v -9.554837 45.684006 -6.140165
v -9.495887 45.696407 -6.147532
v -9.159218 44.773720 -5.987144
v -9.211469 44.755547 -6.084150
v -9.437483 45.709785 -6.127778
v -9.384555 45.725082 -6.030642
v -9.025231 44.849190 -5.154179
v -9.247646 45.788052 -5.197114
v -9.567382 45.679287 -6.190435
v -9.609151 45.676842 -6.027353
v -9.646702 45.853722 -6.034327
v -9.604946 45.856232 -6.197411
v -9.498719 45.693729 -6.199016
v -9.536179 45.870182 -6.205972
v -9.369045 45.727127 -6.062867
v -9.430693 45.709309 -6.176008
v -9.468030 45.885193 -6.182941
v -9.406232 45.902287 -6.069773
v -9.209580 45.800472 -5.092011
v -9.246037 45.972176 -5.098782
v -9.714562 46.849945 -6.183385
v -9.774034 46.840282 -6.176104
v -9.786875 46.837132 -6.226423
v -9.717606 46.848389 -6.234903
v -9.630497 47.049690 -6.069591
v -9.614751 47.050266 -6.101788
v -9.677507 47.038456 -6.215103
v -9.684378 47.039555 -6.166877
v -9.655544 46.860100 -6.163529
v -9.648864 46.860210 -6.211777
v -9.809727 46.837265 -6.036065
v -9.828449 46.833618 -6.063311
v -9.601780 46.870956 -6.066257
v -9.586242 46.872860 -6.098477
v -9.460626 46.911350 -5.232037
v -9.421831 46.919910 -5.126816
v -9.803011 47.020638 -6.179469
v -9.815685 47.016415 -6.229769
v -9.857214 47.012619 -6.066652
v -9.838666 47.017376 -6.039424
v -9.743476 47.029900 -6.186742
v -9.746342 47.027210 -6.238241
v -9.488702 47.086105 -5.235296
v -9.449600 47.092720 -5.130040
v -9.533590 45.874035 -6.154533
v -9.592631 45.862061 -6.147182
v -9.774034 46.840282 -6.176104
v -9.714562 46.849945 -6.183385
v -9.422023 45.901592 -6.037599
v -9.475080 45.886917 -6.134759
v -9.655544 46.860100 -6.163529
v -9.601780 46.870956 -6.066257
v -9.284484 45.961567 -5.203953
v -9.460626 46.911350 -5.232037
v -9.786875 46.837132 -6.226423
v -9.828449 46.833618 -6.063311
v -9.857214 47.012619 -6.066652
v -9.815685 47.016415 -6.229769
v -9.717606 46.848389 -6.234903
v -9.746342 47.027210 -6.238241
v -9.586242 46.872860 -6.098477
v -9.648864 46.860210 -6.211777
v -9.677507 47.038456 -6.215103
v -9.614751 47.050266 -6.101788
v -9.421831 46.919910 -5.126816
v -9.449600 47.092720 -5.130040
v -9.879680 48.010166 -6.193144
v -9.939483 48.002811 -6.185885
v -9.952572 48.001404 -6.236218
v -9.882916 48.009972 -6.244673
v -9.787148 48.202095 -6.074927
v -9.771475 48.202843 -6.107157
v -9.834949 48.196281 -6.220499
v -9.841644 48.196468 -6.172236
v -9.820241 48.017376 -6.173262
v -9.813684 48.018368 -6.221515
v -9.974913 47.997917 -6.045831
v -9.993839 47.995708 -6.073090
v -9.765822 48.023659 -6.075949
v -9.750300 48.025684 -6.108170
v -9.620976 48.038124 -5.241509
v -9.581591 48.042538 -5.136252
v -9.960970 48.182598 -6.184855
v -9.973934 48.180122 -6.235197
v -10.015156 48.174042 -6.072071
v -9.996361 48.177376 -6.044804
v -9.901132 48.189659 -6.192116
v -9.904238 48.188347 -6.243654
v -9.641834 48.212654 -5.240510
v -9.602225 48.215172 -5.135266
v -9.743476 47.029900 -6.186742
v -9.803011 47.020638 -6.179469
v -9.939483 48.002811 -6.185885
v -9.879680 48.010166 -6.193144
v -9.630497 47.049690 -6.069591
v -9.684378 47.039555 -6.166877
v -9.820241 48.017376 -6.173262
v -9.765822 48.023659 -6.075949
v -9.488703 47.086105 -5.235296
v -9.620976 48.038124 -5.241509
v -9.952572 48.001404 -6.236218
v -9.993839 47.995708 -6.073090
v -10.015156 48.174042 -6.072071
v -9.973934 48.180122 -6.235197
v -9.882916 48.009972 -6.244673
v -9.904238 48.188347 -6.243654
v -9.750300 48.025684 -6.108170
v -9.813684 48.018368 -6.221515
v -9.834949 48.196281 -6.220499
v -9.771475 48.202843 -6.107157
v -9.581591 48.042538 -5.136252
v -9.602225 48.215172 -5.135266
v -10.002461 49.163471 -6.175251
v -10.062438 49.157738 -6.167967
v -10.075694 49.157887 -6.218277
v -10.005835 49.164562 -6.226760
v -9.903913 49.347881 -6.053035
v -9.888309 49.348934 -6.085289
v -9.952229 49.346722 -6.198549
v -9.958791 49.345985 -6.150273
v -9.942781 49.168446 -6.155402
v -9.936323 49.170357 -6.203641
v -10.097638 49.150673 -6.027948
v -10.116693 49.149658 -6.055189
v -9.887949 49.170845 -6.058149
v -9.872457 49.173153 -6.090364
v -9.740587 49.161709 -5.224074
v -9.700815 49.162514 -5.118873
v -10.078491 49.335758 -6.162825
v -10.091650 49.334805 -6.213169
v -10.132614 49.326199 -6.050092
v -10.113662 49.328365 -6.022816
v -10.018497 49.341301 -6.170114
v -10.021770 49.341259 -6.221658
v -9.756257 49.335499 -5.219054
v -9.716330 49.334538 -5.113906
v -9.901132 48.189659 -6.192116
v -9.960970 48.182598 -6.184855
v -10.062438 49.157738 -6.167967
v -10.002461 49.163471 -6.175251
v -9.787148 48.202095 -6.074927
v -9.841643 48.196468 -6.172236
v -9.942781 49.168446 -6.155402
v -9.887949 49.170845 -6.058149
v -9.641835 48.212654 -5.240510
v -9.740587 49.161709 -5.224074
v -10.075694 49.157887 -6.218277
v -10.116693 49.149658 -6.055189
v -10.132614 49.326199 -6.050092
v -10.091650 49.334805 -6.213169
v -10.005835 49.164562 -6.226760
v -10.021770 49.341259 -6.221658
v -9.872457 49.173153 -6.090364
v -9.936323 49.170357 -6.203641
v -9.952229 49.346722 -6.198549
v -9.888309 49.348934 -6.085289
v -9.700815 49.162514 -5.118873
v -9.716330 49.334538 -5.113906
v -10.095020 50.305225 -6.132096
v -10.155081 50.300503 -6.124776
v -10.168436 50.301865 -6.175041
v -10.098480 50.307369 -6.183567
v -9.992682 50.483772 -6.006723
v -9.977127 50.485153 -6.038989
v -10.041302 50.486172 -6.152120
v -10.047779 50.484650 -6.103851
v -10.035215 50.308674 -6.112303
v -10.028822 50.311382 -6.160513
v -10.190117 50.291439 -5.984831
v -10.209245 50.291309 -6.012039
v -9.980144 50.308174 -6.015156
v -9.964677 50.310799 -6.047360
v -9.831241 50.280293 -5.181771
v -9.791242 50.278324 -5.076672
v -10.167667 50.476788 -6.116310
v -10.180943 50.477009 -6.166631
v -10.221727 50.466125 -6.003645
v -10.202683 50.467438 -5.976379
v -10.107599 50.481392 -6.123636
v -10.110977 50.482376 -6.175163
v -9.843598 50.453381 -5.173458
v -9.803484 50.449776 -5.068438
v -10.018497 49.341301 -6.170114
v -10.078491 49.335758 -6.162825
v -10.155081 50.300503 -6.124776
v -10.095020 50.305225 -6.132096
v -9.903913 49.347881 -6.053035
v -9.958791 49.345985 -6.150274
v -10.035215 50.308674 -6.112303
v -9.980144 50.308174 -6.015156
v -9.756258 49.335499 -5.219054
v -9.831241 50.280293 -5.181771
v -10.168436 50.301865 -6.175041
v -10.209245 50.291309 -6.012039
v -10.221727 50.466125 -6.003645
v -10.180943 50.477009 -6.166631
v -10.098480 50.307369 -6.183567
v -10.110977 50.482376 -6.175163
v -9.964677 50.310799 -6.047360
v -10.028822 50.311382 -6.160513
v -10.041302 50.486172 -6.152120
v -9.977127 50.485153 -6.038989
v -9.791242 50.278324 -5.076672
v -9.803484 50.449776 -5.068438
v -10.169903 51.437649 -6.070444
v -10.230005 51.433552 -6.063090
v -10.243422 51.435844 -6.113304
v -10.173417 51.440617 -6.121870
v -10.065119 51.611832 -5.942558
v -10.049599 51.613506 -5.974826
v -10.113929 51.616913 -6.087823
v -10.120349 51.614758 -6.039571
v -10.110027 51.440063 -6.050707
v -10.103678 51.443428 -6.098881
v -10.264929 51.422787 -5.923238
v -10.284099 51.423306 -5.950410
v -10.054813 51.437405 -5.953676
v -10.039367 51.440331 -5.985864
v -9.904944 51.395000 -5.121078
v -9.864806 51.390942 -5.016091
v -10.240338 51.608448 -6.051942
v -10.253687 51.609562 -6.102232
v -10.294348 51.596756 -5.939355
v -10.275248 51.597450 -5.912105
v -10.180231 51.612473 -6.059300
v -10.183677 51.614254 -6.110803
v -9.915137 51.567543 -5.110077
v -9.874908 51.561939 -5.005189
v -10.107599 50.481392 -6.123636
v -10.167668 50.476788 -6.116310
v -10.230005 51.433552 -6.063090
v -10.169903 51.437649 -6.070444
v -9.992682 50.483772 -6.006723
v -10.047779 50.484650 -6.103852
v -10.110027 51.440063 -6.050707
v -10.054813 51.437405 -5.953676
v -9.843599 50.453381 -5.173458
v -9.904944 51.395000 -5.121078
v -10.243422 51.435844 -6.113304
v -10.284099 51.423306 -5.950410
v -10.294348 51.596756 -5.939355
v -10.253687 51.609562 -6.102232
v -10.173417 51.440617 -6.121870
v -10.183677 51.614254 -6.110803
v -10.039367 51.440331 -5.985864
v -10.103678 51.443428 -6.098881
v -10.113929 51.616913 -6.087823
v -10.049599 51.613506 -5.974826
v -9.864806 51.390942 -5.016091
v -9.874908 51.561939 -5.005189
v -10.233061 52.562668 -5.993680
v -10.293184 52.558945 -5.986300
v -10.306641 52.561935 -6.036468
v -10.236611 52.566273 -6.045062
v -10.126806 52.733749 -5.863939
v -10.111309 52.735687 -5.896204
v -10.175736 52.740849 -6.009079
v -10.182120 52.738186 -5.960848
v -10.173147 52.564381 -5.973989
v -10.166827 52.568268 -6.022128
v -10.328030 52.546787 -5.846542
v -10.347226 52.547779 -5.873683
v -10.117843 52.560146 -5.877066
v -10.102411 52.563335 -5.909236
v -9.967350 52.506699 -5.045216
v -9.927123 52.501080 -4.940335
v -10.302164 52.732876 -5.973149
v -10.315559 52.734665 -6.023408
v -10.356133 52.720287 -5.860640
v -10.337000 52.720531 -5.833405
v -10.242039 52.736557 -5.980532
v -10.245527 52.738949 -6.032006
v -9.976237 52.678864 -5.032197
v -9.935935 52.671768 -4.927427
v -10.180232 51.612473 -6.059300
v -10.240338 51.608448 -6.051942
v -10.293184 52.558945 -5.986300
v -10.233061 52.562668 -5.993680
v -10.065119 51.611832 -5.942558
v -10.120349 51.614758 -6.039571
v -10.173147 52.564381 -5.973989
v -10.117843 52.560146 -5.877066
v -9.915137 51.567543 -5.110077
v -9.967350 52.506699 -5.045216
v -10.306641 52.561935 -6.036468
v -10.347226 52.547779 -5.873683
v -10.356133 52.720287 -5.860640
v -10.315559 52.734665 -6.023408
v -10.236611 52.566273 -6.045062
v -10.245527 52.738949 -6.032006
v -10.102411 52.563335 -5.909236
v -10.166827 52.568268 -6.022128
v -10.175736 52.740849 -6.009079
v -10.111309 52.735687 -5.896204
v -9.927123 52.501080 -4.940335
v -9.935935 52.671768 -4.927427
vt 0.6138 0.5966
vt 0.6096 0.5983
vt 0.6106 0.5956
vt 0.0467 0.5490
vt 0.0488 0.5441
vt 0.0482 0.5502
vt 0.6065 0.5956
vt 0.6080 0.5933
vt 0.6191 0.5921
vt 0.6133 0.5994
vt 0.6058 0.5884
vt 0.6074 0.5872
vt 0.0546 0.5408
vt 0.0599 0.5453
vt 0.0596 0.5471
vt 0.0504 0.5391
vt 0.0514 0.5418
vt 0.0474 0.5418
vt 0.0596 0.5955
vt 0.6276 0.1734
vt 0.6369 0.1832
vt 0.6276 0.1832
vt 0.3937 0.9521
vt 0.3898 0.9619
vt 0.3898 0.9521
vt 0.8285 0.8532
vt 0.8185 0.8462
vt 0.8283 0.8461
vt 0.3858 0.9619
vt 0.3858 0.9521
vt 0.8188 0.7927
vt 0.8285 0.7926
vt 0.5788 0.1481
vt 0.5745 0.1498
vt 0.5755 0.1471
vt 0.3858 0.5467
vt 0.3879 0.5418
vt 0.3874 0.5480
vt 0.5715 0.1471
vt 0.5729 0.1448
vt 0.5841 0.1437
vt 0.5783 0.1509
vt 0.5708 0.1400
vt 0.5723 0.1387
vt 0.5837 0.0934
vt 0.5841 0.0872
vt 0.3938 0.5385
vt 0.3991 0.5430
vt 0.3987 0.5448
vt 0.3895 0.5368
vt 0.3905 0.5395
vt 0.3865 0.5396
vt 0.3987 0.5932
vt 0.8190 0.5131
vt 0.8224 0.4589
vt 0.8224 0.5131
vt 0.2143 0.0112
vt 0.2081 0.0651
vt 0.2081 0.0113
vt 0.1617 0.0641
vt 0.1617 0.0110
vt 0.8258 0.4589
vt 0.8258 0.5130
vt 0.6053 0.1833
vt 0.5959 0.1734
vt 0.6053 0.1734
vt 0.0190 0.9501
vt 0.0151 0.9600
vt 0.0151 0.9501
vt 0.6159 0.8531
vt 0.6058 0.8461
vt 0.6158 0.8461
vt 0.0111 0.9600
vt 0.0111 0.9501
vt 0.6062 0.7926
vt 0.6159 0.7926
vt 0.5430 0.2996
vt 0.5388 0.3013
vt 0.5398 0.2987
vt 0.5706 0.2498
vt 0.5728 0.2449
vt 0.5722 0.2510
vt 0.5358 0.2986
vt 0.5372 0.2963
vt 0.5484 0.2952
vt 0.5426 0.3025
vt 0.5351 0.2915
vt 0.5366 0.2902
vt 0.5480 0.2449
vt 0.5484 0.2388
vt 0.5786 0.2416
vt 0.5839 0.2460
vt 0.5836 0.2478
vt 0.5744 0.2399
vt 0.5754 0.2426
vt 0.5713 0.2426
vt 0.5836 0.2963
vt 0.4248 0.8755
vt 0.4281 0.9302
vt 0.4248 0.9301
vt 0.1390 0.0872
vt 0.1328 0.1417
vt 0.1328 0.0874
vt 0.0864 0.1408
vt 0.0864 0.0876
vt 0.4214 0.8755
vt 0.4214 0.9301
vt 0.5959 0.2057
vt 0.6053 0.2157
vt 0.5959 0.2157
vt 0.1258 0.9590
vt 0.1219 0.9490
vt 0.1258 0.9490
vt 0.8608 0.8461
vt 0.8508 0.8532
vt 0.8508 0.8461
vt 0.1297 0.9590
vt 0.1297 0.9491
vt 0.8608 0.7926
vt 0.8511 0.7926
vt 0.5427 0.5965
vt 0.5384 0.5982
vt 0.5394 0.5956
vt 0.1968 0.5475
vt 0.1989 0.5426
vt 0.1983 0.5487
vt 0.5354 0.5955
vt 0.5368 0.5932
vt 0.5480 0.5921
vt 0.5422 0.5994
vt 0.5347 0.5884
vt 0.5362 0.5871
vt 0.5476 0.5419
vt 0.5480 0.5357
vt 0.2047 0.5393
vt 0.2101 0.5438
vt 0.2097 0.5456
vt 0.2005 0.5376
vt 0.2015 0.5403
vt 0.1975 0.5404
vt 0.2097 0.5939
vt 0.3892 0.8755
vt 0.3926 0.9300
vt 0.3892 0.9300
vt 0.0576 0.0876
vt 0.0637 0.1418
vt 0.0576 0.1417
vt 0.0111 0.0882
vt 0.0111 0.1411
vt 0.3858 0.8756
vt 0.3858 0.9299
vt 0.5983 0.3246
vt 0.6077 0.3345
vt 0.5983 0.3345
vt 0.9681 0.4908
vt 0.9719 0.5007
vt 0.9681 0.5007
vt 0.5447 0.8462
vt 0.5347 0.8532
vt 0.5347 0.8462
vt 0.9641 0.4908
vt 0.9641 0.5006
vt 0.5347 0.7927
vt 0.5444 0.7927
vt 0.6143 0.1479
vt 0.6101 0.1496
vt 0.6111 0.1470
vt 0.6772 0.3868
vt 0.6793 0.3820
vt 0.6787 0.3881
vt 0.6071 0.1469
vt 0.6085 0.1446
vt 0.6197 0.1435
vt 0.6139 0.1507
vt 0.6064 0.1398
vt 0.6079 0.1385
vt 0.6193 0.0934
vt 0.6197 0.0872
vt 0.6852 0.3787
vt 0.6905 0.3832
vt 0.6901 0.3850
vt 0.6809 0.3770
vt 0.6819 0.3797
vt 0.6779 0.3798
vt 0.6901 0.4332
vt 0.5386 0.0649
vt 0.5353 0.0110
vt 0.5386 0.0110
vt 0.2077 0.1634
vt 0.2139 0.2171
vt 0.2077 0.2170
vt 0.1613 0.2167
vt 0.1613 0.1642
vt 0.5420 0.0649
vt 0.5420 0.0111
vt 0.6300 0.3246
vt 0.6394 0.3344
vt 0.6300 0.3344
vt 0.4254 0.9523
vt 0.4292 0.9620
vt 0.4254 0.9621
vt 0.1968 0.8000
vt 0.2067 0.7930
vt 0.2066 0.8000
vt 0.4214 0.9523
vt 0.4214 0.9620
vt 0.1971 0.8535
vt 0.2067 0.8535
vt 0.4293 0.6819
vt 0.4251 0.6836
vt 0.4261 0.6810
vt 0.3109 0.6326
vt 0.3131 0.6278
vt 0.3125 0.6339
vt 0.4221 0.6809
vt 0.4235 0.6787
vt 0.4347 0.6775
vt 0.4289 0.6848
vt 0.4214 0.6739
vt 0.4229 0.6726
vt 0.4343 0.6275
vt 0.4347 0.6214
vt 0.3189 0.6246
vt 0.3242 0.6290
vt 0.3239 0.6308
vt 0.3147 0.6229
vt 0.3157 0.6255
vt 0.3116 0.6256
vt 0.3239 0.6789
vt 0.6546 0.0642
vt 0.6513 0.0110
vt 0.6546 0.0110
vt 0.2829 0.0873
vt 0.2890 0.1404
vt 0.2829 0.1403
vt 0.2364 0.0881
vt 0.2364 0.1403
vt 0.6581 0.0642
vt 0.6581 0.0111
vt 0.6686 0.1734
vt 0.6592 0.1830
vt 0.6592 0.1734
vt 0.4644 0.9636
vt 0.4606 0.9540
vt 0.4644 0.9539
vt 0.2717 0.8002
vt 0.2815 0.7932
vt 0.2814 0.8002
vt 0.4684 0.9636
vt 0.4684 0.9540
vt 0.2720 0.8537
vt 0.2815 0.8537
vt 0.2047 0.6825
vt 0.2005 0.6842
vt 0.2015 0.6816
vt 0.7124 0.5466
vt 0.7145 0.5418
vt 0.7139 0.5479
vt 0.1975 0.6815
vt 0.1989 0.6793
vt 0.2100 0.6781
vt 0.2043 0.6853
vt 0.1968 0.6745
vt 0.1983 0.6732
vt 0.2097 0.6282
vt 0.2100 0.6221
vt 0.7204 0.5386
vt 0.7257 0.5430
vt 0.7253 0.5448
vt 0.7161 0.5369
vt 0.7171 0.5395
vt 0.7131 0.5395
vt 0.7253 0.5927
vt 0.7128 0.0111
vt 0.7161 0.0638
vt 0.7128 0.0638
vt 0.1674 0.2919
vt 0.1613 0.2392
vt 0.1674 0.2393
vt 0.2139 0.2912
vt 0.2139 0.2392
vt 0.7094 0.0110
vt 0.7093 0.0637
vt 0.6908 0.2152
vt 0.7002 0.2057
vt 0.7002 0.2153
vt 0.5741 0.9650
vt 0.5703 0.9555
vt 0.5741 0.9555
vt 0.0111 0.8017
vt 0.0209 0.7947
vt 0.0208 0.8018
vt 0.5781 0.9651
vt 0.5781 0.9555
vt 0.0114 0.8552
vt 0.0209 0.8553
vt 0.7207 0.4362
vt 0.7165 0.4379
vt 0.7175 0.4353
vt 0.4961 0.7178
vt 0.4983 0.7131
vt 0.4977 0.7191
vt 0.7135 0.4353
vt 0.7149 0.4330
vt 0.7260 0.4318
vt 0.7203 0.4390
vt 0.7128 0.4282
vt 0.7143 0.4269
vt 0.7257 0.3820
vt 0.7260 0.3759
vt 0.5041 0.7098
vt 0.5094 0.7142
vt 0.5091 0.7160
vt 0.4999 0.7081
vt 0.5009 0.7108
vt 0.4968 0.7108
vt 0.5091 0.7639
vt 0.7998 0.0111
vt 0.8031 0.0634
vt 0.7998 0.0634
vt 0.3574 0.1633
vt 0.3636 0.2158
vt 0.3574 0.2157
vt 0.3110 0.1640
vt 0.3110 0.2159
vt 0.7964 0.0110
vt 0.7964 0.0633
vt 0.6933 0.3341
vt 0.7027 0.3246
vt 0.7027 0.3341
vt 0.9744 0.0111
vt 0.9783 0.0205
vt 0.9744 0.0206
vt 0.8856 0.6284
vt 0.8954 0.6214
vt 0.8953 0.6284
vt 0.9704 0.0110
vt 0.9704 0.0205
vt 0.8858 0.6819
vt 0.8954 0.6819
vt 0.6187 0.5903
vt 0.0541 0.5380
vt 0.0599 0.6017
vt 0.6369 0.1734
vt 0.3937 0.9619
vt 0.8187 0.8533
vt 0.5837 0.1419
vt 0.3933 0.5357
vt 0.3991 0.5994
vt 0.8190 0.4588
vt 0.2143 0.0651
vt 0.5959 0.1833
vt 0.0190 0.9600
vt 0.6059 0.8532
vt 0.5480 0.2934
vt 0.5781 0.2388
vt 0.5839 0.3024
vt 0.4281 0.8754
vt 0.1390 0.1417
vt 0.6053 0.2057
vt 0.1219 0.9590
vt 0.8609 0.8532
vt 0.5476 0.5903
vt 0.2043 0.5365
vt 0.2101 0.6001
vt 0.3926 0.8754
vt 0.0637 0.0875
vt 0.6077 0.3246
vt 0.9719 0.4907
vt 0.5447 0.8532
vt 0.6193 0.1417
vt 0.6847 0.3759
vt 0.6905 0.4393
vt 0.5353 0.0650
vt 0.2139 0.1633
vt 0.6394 0.3246
vt 0.4292 0.9522
vt 0.1968 0.7929
vt 0.4343 0.6757
vt 0.3184 0.6217
vt 0.3242 0.6850
vt 0.6513 0.0643
vt 0.2890 0.0872
vt 0.6686 0.1830
vt 0.4606 0.9637
vt 0.2718 0.7931
vt 0.2097 0.6763
vt 0.7199 0.5357
vt 0.7257 0.5988
vt 0.7161 0.0110
vt 0.1613 0.2919
vt 0.6908 0.2057
vt 0.5703 0.9651
vt 0.0112 0.7946
vt 0.7257 0.4300
vt 0.5036 0.7070
vt 0.5094 0.7700
vt 0.8031 0.0110
vt 0.3636 0.1634
vt 0.6933 0.3246
vt 0.9783 0.0110
vt 0.8857 0.6213
vn 0.2539 -0.9660 0.0488
vn -0.2096 0.9753 -0.0698
vn 0.2538 -0.9660 0.0488
vn 0.2539 -0.9660 0.0487
vn -0.2967 0.9531 -0.0605
vn -0.2504 0.9654 -0.0730
vn -0.2390 0.9682 -0.0742
vn -0.1873 0.9806 -0.0587
vn -0.6326 -0.2017 -0.7477
vn -0.9357 -0.2551 -0.2435
vn 0.1050 -0.0226 -0.9942
vn 0.1051 -0.0226 -0.9942
vn 0.6218 0.1227 -0.7735
vn 0.9145 0.2204 -0.3393
vn 0.6217 0.1226 -0.7736
vn 0.9550 0.2392 -0.1753
vn 0.2104 -0.9768 0.0394
vn -0.1639 0.9847 -0.0592
vn 0.2105 -0.9768 0.0393
vn 0.2103 -0.9768 0.0393
vn 0.2103 -0.9768 0.0392
vn 0.2104 -0.9768 0.0393
vn -0.2533 0.9661 -0.0501
vn -0.2059 0.9766 -0.0628
vn -0.1941 0.9789 -0.0634
vn -0.1410 0.9888 -0.0479
vn -0.1090 -0.0711 -0.9915
vn 0.1022 -0.0213 -0.9945
vn 0.1025 -0.0212 -0.9945
vn 0.6221 0.1119 -0.7749
vn 0.9187 0.2021 -0.3394
vn 0.9188 0.2021 -0.3391
vn 0.9599 0.2194 -0.1743
vn 0.6216 0.1118 -0.7753
vn -0.6410 -0.1656 -0.7494
vn -0.9462 -0.2106 -0.2455
vn -0.6412 -0.1657 -0.7493
vn 0.1036 -0.0172 -0.9945
vn 0.1038 -0.0172 -0.9944
vn 0.6265 0.1026 -0.7726
vn 0.9233 0.1827 -0.3377
vn 0.9234 0.1827 -0.3376
vn 0.6262 0.1025 -0.7729
vn 0.9647 0.1980 -0.1734
vn 0.1627 -0.9865 0.0203
vn -0.1162 0.9925 -0.0393
vn 0.1629 -0.9864 0.0201
vn 0.1628 -0.9865 0.0203
vn 0.1628 -0.9864 0.0202
vn -0.2069 0.9779 -0.0299
vn -0.1587 0.9864 -0.0427
vn -0.1468 0.9882 -0.0434
vn -0.0929 0.9953 -0.0276
vn 0.0999 -0.0109 -0.9949
vn -0.1133 -0.0503 -0.9923
vn 0.1001 -0.0109 -0.9949
vn 0.6251 0.0930 -0.7750
vn 0.9271 0.1619 -0.3381
vn 0.9694 0.1747 -0.1725
vn 0.6252 0.0930 -0.7749
vn -0.6498 -0.1184 -0.7508
vn -0.9560 -0.1582 -0.2471
vn -0.6496 -0.1184 -0.7510
vn 0.1009 -0.0024 -0.9949
vn 0.1011 -0.0023 -0.9949
vn 0.9307 0.1433 -0.3365
vn 0.6294 0.0867 -0.7722
vn 0.6293 0.0867 -0.7724
vn 0.9731 0.1531 -0.1721
vn 0.1216 -0.9926 -0.0039
vn -0.0772 0.9969 -0.0146
vn 0.1217 -0.9926 -0.0039
vn 0.1215 -0.9926 -0.0039
vn -0.1670 0.9859 -0.0053
vn -0.1193 0.9927 -0.0181
vn -0.1075 0.9940 -0.0186
vn -0.0542 0.9985 -0.0032
vn 0.0974 0.0070 -0.9952
vn -0.1177 -0.0228 -0.9928
vn 0.0977 0.0071 -0.9952
vn 0.9327 0.1274 -0.3375
vn 0.6273 0.0821 -0.7744
vn 0.9759 0.1345 -0.1717
vn 0.6270 0.0821 -0.7746
vn -0.6558 -0.0741 -0.7513
vn -0.9622 -0.1136 -0.2474
vn -0.6556 -0.0741 -0.7514
vn 0.0984 0.0174 -0.9950
vn 0.9349 0.1137 -0.3363
vn 0.6305 0.0798 -0.7721
vn 0.6304 0.0798 -0.7721
vn 0.9780 0.1179 -0.1718
vn 0.0919 -0.9954 -0.0269
vn -0.0497 0.9987 0.0087
vn 0.0920 -0.9954 -0.0272
vn 0.0918 -0.9954 -0.0270
vn 0.0918 -0.9954 -0.0272
vn 0.0919 -0.9954 -0.0271
vn -0.1384 0.9902 0.0175
vn -0.0914 0.9958 0.0049
vn -0.0797 0.9968 0.0043
vn -0.0269 0.9994 0.0196
vn 0.0957 0.0272 -0.9950
vn -0.1210 0.0046 -0.9926
vn 0.0959 0.0272 -0.9950
vn 0.9357 0.1032 -0.3374
vn 0.6284 0.0788 -0.7739
vn 0.9795 0.1049 -0.1719
vn 0.6283 0.0788 -0.7740
vn -0.6594 -0.0378 -0.7508
vn -0.9658 -0.0800 -0.2468
vn -0.6593 -0.0378 -0.7509
vn 0.0964 0.0374 -0.9946
vn 0.0965 0.0374 -0.9946
vn 0.9369 0.0942 -0.3366
vn 0.6307 0.0792 -0.7720
vn 0.9369 0.0942 -0.3365
vn 0.6306 0.0792 -0.7721
vn 0.9806 0.0934 -0.1722
vn 0.0727 -0.9963 -0.0463
vn -0.0321 0.9991 0.0274
vn 0.0728 -0.9963 -0.0463
vn 0.0726 -0.9963 -0.0463
vn -0.1202 0.9921 0.0362
vn -0.0735 0.9970 0.0241
vn -0.0620 0.9978 0.0230
vn -0.0096 0.9992 0.0382
vn 0.0945 0.0467 -0.9944
vn -0.1232 0.0293 -0.9919
vn 0.0949 0.0468 -0.9944
vn 0.9372 0.0877 -0.3377
vn 0.6293 0.0804 -0.7730
vn 0.9373 0.0877 -0.3374
vn 0.9814 0.0847 -0.1725
vn 0.6287 0.0804 -0.7735
vn -0.9676 -0.0573 -0.2460
vn -0.6614 -0.0112 -0.7500
vn -0.6615 -0.0112 -0.7499
vn 0.0951 0.0545 -0.9940
vn 0.0952 0.0545 -0.9940
vn 0.9378 0.0831 -0.3370
vn 0.6306 0.0821 -0.7717
vn 0.9379 0.0831 -0.3369
vn 0.6305 0.0821 -0.7719
vn 0.9818 0.0784 -0.1728
vn 0.0604 -0.9963 -0.0616
vn -0.0207 0.9989 0.0419
vn 0.0605 -0.9963 -0.0615
vn 0.0603 -0.9963 -0.0616
vn -0.1087 0.9928 0.0508
vn -0.0620 0.9973 0.0387
vn -0.0506 0.9980 0.0379
vn 0.0020 0.9986 0.0527
vn 0.0940 0.0614 -0.9937
vn -0.1245 0.0470 -0.9911
vn 0.0941 0.0614 -0.9937
vn 0.9378 0.0799 -0.3377
vn 0.6294 0.0840 -0.7725
vn 0.9379 0.0799 -0.3377
vn 0.9822 0.0736 -0.1730
vn 0.6292 0.0840 -0.7727
vn -0.9686 -0.0416 -0.2451
vn -0.6627 0.0086 -0.7489
vn -0.6627 0.0086 -0.7488
vn 0.0942 0.0689 -0.9932
vn 0.0944 0.0689 -0.9931
vn 0.9382 0.0769 -0.3373
vn 0.6306 0.0864 -0.7713
vn 0.9383 0.0769 -0.3371
vn 0.6302 0.0864 -0.7716
vn 0.9824 0.0691 -0.1733
vn 0.0526 -0.9959 -0.0735
vn -0.0136 0.9985 0.0535
vn 0.0525 -0.9959 -0.0734
vn -0.1015 0.9929 0.0624
vn -0.0549 0.9972 0.0500
vn -0.0433 0.9978 0.0492
vn 0.0089 0.9979 0.0642
vn 0.0935 0.0738 -0.9929
vn -0.1253 0.0614 -0.9902
vn 0.0937 0.0738 -0.9929
vn 0.9382 0.0755 -0.3378
vn 0.6296 0.0883 -0.7719
vn 0.9826 0.0666 -0.1735
vn 0.6294 0.0883 -0.7721
vn -0.9692 -0.0316 -0.2444
vn -0.6635 0.0223 -0.7479
vn -0.6634 0.0223 -0.7479
vn 0.0936 0.0799 -0.9924
vn 0.0938 0.0799 -0.9924
vn 0.9384 0.0740 -0.3375
vn 0.6304 0.0908 -0.7709
vn 0.9385 0.0740 -0.3373
vn 0.6300 0.0908 -0.7713
vn 0.9827 0.0639 -0.1737
vn 0.2539 -0.9660 0.0489
vn 0.2538 -0.9660 0.0487
vn -0.2505 0.9653 -0.0733
vn -0.2391 0.9682 -0.0738
vn -0.1880 0.9804 -0.0586
vn 0.2104 -0.9768 0.0391
vn 0.2104 -0.9768 0.0392
vn 0.2103 -0.9769 0.0392
vn -0.2534 0.9661 -0.0500
vn -0.2059 0.9765 -0.0629
vn -0.1941 0.9789 -0.0637
vn -0.1424 0.9887 -0.0476
vn -0.1161 0.9925 -0.0391
vn 0.1629 -0.9864 0.0202
vn 0.1627 -0.9865 0.0202
vn 0.1626 -0.9865 0.0200
vn 0.1628 -0.9865 0.0201
vn -0.2070 0.9779 -0.0298
vn -0.1588 0.9864 -0.0429
vn -0.1468 0.9882 -0.0435
vn -0.0946 0.9951 -0.0273
vn -0.1133 -0.0504 -0.9923
vn -0.0771 0.9969 -0.0144
vn 0.1217 -0.9926 -0.0038
vn 0.1215 -0.9926 -0.0040
vn -0.1671 0.9859 -0.0056
vn -0.1193 0.9927 -0.0180
vn -0.1075 0.9940 -0.0187
vn -0.0555 0.9985 -0.0030
vn 0.0918 -0.9954 -0.0274
vn -0.0496 0.9987 0.0085
vn 0.0920 -0.9954 -0.0270
vn 0.0917 -0.9954 -0.0270
vn -0.1386 0.9902 0.0174
vn -0.0914 0.9958 0.0050
vn -0.0280 0.9994 0.0198
vn 0.0727 -0.9963 -0.0465
vn -0.0321 0.9991 0.0272
vn 0.0727 -0.9963 -0.0464
vn -0.1204 0.9921 0.0361
vn -0.0736 0.9970 0.0236
vn -0.0620 0.9978 0.0233
vn -0.0105 0.9992 0.0383
vn -0.9676 -0.0573 -0.2459
vn 0.0604 -0.9963 -0.0618
vn 0.0605 -0.9963 -0.0618
vn 0.0604 -0.9963 -0.0617
vn 0.0603 -0.9963 -0.0617
vn 0.0603 -0.9963 -0.0615
vn -0.1089 0.9928 0.0509
vn -0.0621 0.9973 0.0386
vn -0.0505 0.9980 0.0380
vn 0.0012 0.9986 0.0529
vn 0.0527 -0.9959 -0.0734
vn -0.0135 0.9985 0.0532
vn 0.0526 -0.9959 -0.0734
vn 0.0525 -0.9959 -0.0735
vn 0.0526 -0.9959 -0.0736
vn -0.0548 0.9972 0.0502
vn -0.0434 0.9978 0.0493
vn 0.0085 0.9979 0.0644
s off
f 2/1/1 4/2/1 1/3/1
f 6/4/2 8/5/2 5/6/2
f 1/3/1 10/7/1 9/8/1
f 2/1/3 12/9/3 3/10/3
f 9/8/4 14/11/4 13/12/4
f 15/13/5 17/14/5 18/15/5
f 20/16/6 15/13/6 19/17/6
f 7/18/7 19/17/7 8/5/7
f 21/19/8 6/4/8 5/6/8
s 1
f 23/20/9 25/21/10 26/22/9
f 23/23/9 28/24/11 27/25/12
f 30/26/13 32/27/14 29/28/14
f 27/25/12 31/29/15 30/30/13
f 29/28/14 34/31/16 33/32/16
s off
f 36/33/17 38/34/17 35/35/17
f 40/36/18 42/37/18 39/38/18
f 35/35/19 44/39/19 43/40/19
f 36/33/20 46/41/20 37/42/20
f 43/40/21 48/43/21 47/44/21
f 49/45/22 48/43/22 50/46/22
f 51/47/23 53/48/23 54/49/23
f 56/50/24 51/47/24 55/51/24
f 41/52/25 55/51/25 42/37/25
f 57/53/26 40/36/26 39/38/26
s 1
f 60/54/27 62/55/28 59/56/29
f 64/57/30 66/58/31 63/59/32
f 63/59/32 68/60/33 67/61/33
f 59/56/29 65/62/34 64/63/30
f 69/64/35 71/65/36 72/66/37
f 69/67/35 74/68/38 73/69/39
f 76/70/40 78/71/41 75/72/42
f 73/69/39 77/73/43 76/74/40
f 75/72/42 80/75/44 79/76/44
s off
f 82/77/45 84/78/45 81/79/45
f 86/80/46 88/81/46 85/82/46
f 81/79/47 90/83/47 89/84/47
f 82/77/48 92/85/48 83/86/48
f 89/84/45 94/87/45 93/88/45
f 95/89/49 94/87/49 96/90/49
f 97/91/50 99/92/50 100/93/50
f 102/94/51 97/91/51 101/95/51
f 87/96/52 101/95/52 88/81/52
f 103/97/53 86/80/53 85/82/53
s 1
f 105/98/54 107/99/55 108/100/56
f 110/101/57 112/102/58 109/103/58
f 109/103/58 114/104/59 113/105/59
f 110/106/57 108/100/56 111/107/60
f 115/108/61 117/109/62 118/110/63
f 119/111/64 118/112/63 120/113/65
f 121/114/66 123/115/67 124/116/66
f 122/117/68 120/113/65 123/118/67
f 125/119/69 124/116/66 126/120/69
s off
f 128/121/70 130/122/70 127/123/70
f 132/124/71 134/125/71 131/126/71
f 127/123/72 136/127/72 135/128/72
f 128/121/72 138/129/72 129/130/72
f 135/128/73 140/131/73 139/132/73
f 141/133/72 140/131/72 142/134/72
f 143/135/74 145/136/74 146/137/74
f 148/138/75 143/135/75 147/139/75
f 133/140/76 147/139/76 134/125/76
f 149/141/77 132/124/77 131/126/77
s 1
f 151/142/78 153/143/79 154/144/80
f 155/145/81 157/146/82 158/147/81
f 159/148/83 158/147/81 160/149/83
f 156/150/84 154/144/80 157/151/82
f 161/152/85 163/153/86 164/154/87
f 165/155/88 164/156/87 166/157/88
f 167/158/89 169/159/90 170/160/89
f 168/161/91 166/157/88 169/162/90
f 167/158/89 172/163/92 171/164/92
s off
f 174/165/93 176/166/93 173/167/93
f 178/168/94 180/169/94 177/170/94
f 173/167/95 182/171/95 181/172/95
f 174/165/96 184/173/96 175/174/96
f 181/172/97 186/175/97 185/176/97
f 187/177/98 186/175/98 188/178/98
f 189/179/99 191/180/99 192/181/99
f 194/182/100 189/179/100 193/183/100
f 179/184/101 193/183/101 180/169/101
f 195/185/102 178/168/102 177/170/102
s 1
f 197/186/103 199/187/104 200/188/105
f 201/189/106 203/190/107 204/191/106
f 201/189/106 206/192/108 205/193/108
f 202/194/109 200/188/105 203/195/107
f 207/196/110 209/197/111 210/198/112
f 211/199/113 210/200/112 212/201/114
f 213/202/115 215/203/116 216/204/117
f 214/205/118 212/201/114 215/206/116
f 217/207/119 216/204/117 218/208/119
s off
f 220/209/120 222/210/120 219/211/120
f 224/212/121 226/213/121 223/214/121
f 219/211/122 228/215/122 227/216/122
f 220/209/120 230/217/120 221/218/120
f 227/216/123 232/219/123 231/220/123
f 233/221/120 232/219/120 234/222/120
f 235/223/124 237/224/124 238/225/124
f 240/226/125 235/223/125 239/227/125
f 225/228/126 239/227/126 226/213/126
f 241/229/127 224/212/127 223/214/127
s 1
f 243/230/128 245/231/129 246/232/130
f 247/233/131 249/234/132 250/235/133
f 251/236/134 250/235/133 252/237/134
f 248/238/135 246/232/130 249/239/132
f 254/240/136 256/241/137 253/242/138
f 257/243/139 256/244/137 258/245/140
f 259/246/141 261/247/142 262/248/143
f 260/249/144 258/245/140 261/250/142
f 263/251/145 262/248/143 264/252/145
s off
f 266/253/146 268/254/146 265/255/146
f 270/256/147 272/257/147 269/258/147
f 265/255/148 274/259/148 273/260/148
f 266/253/146 276/261/146 267/262/146
f 273/260/149 278/263/149 277/264/149
f 279/265/146 278/263/146 280/266/146
f 281/267/150 283/268/150 284/269/150
f 286/270/151 281/267/151 285/271/151
f 271/272/152 285/271/152 272/257/152
f 287/273/153 270/256/153 269/258/153
s 1
f 289/274/154 291/275/155 292/276/156
f 293/277/157 295/278/158 296/279/159
f 297/280/160 296/279/159 298/281/160
f 294/282/161 292/276/156 295/283/158
f 300/284/162 302/285/163 299/286/164
f 303/287/165 302/288/163 304/289/166
f 305/290/167 307/291/168 308/292/169
f 306/293/170 304/289/166 307/294/168
f 309/295/171 308/292/169 310/296/171
s off
f 312/297/172 314/298/172 311/299/172
f 316/300/173 318/301/173 315/302/173
f 311/299/172 320/303/172 319/304/172
f 312/297/172 322/305/172 313/306/172
f 319/304/172 324/307/172 323/308/172
f 325/309/174 324/307/174 326/310/174
f 327/311/175 329/312/175 330/313/175
f 332/314/176 327/311/176 331/315/176
f 317/316/177 331/315/177 318/301/177
f 333/317/178 316/300/178 315/302/178
s 1
f 335/318/179 337/319/180 338/320/181
f 339/321/182 341/322/183 342/323/182
f 343/324/184 342/323/182 344/325/184
f 340/326/185 338/320/181 341/327/183
f 346/328/186 348/329/187 345/330/188
f 349/331/189 348/332/187 350/333/190
f 351/334/191 353/335/192 354/336/193
f 352/337/194 350/333/190 353/338/192
f 355/339/195 354/336/193 356/340/195
s off
f 2/1/4 3/10/4 4/2/4
f 6/4/2 7/18/2 8/5/2
f 1/3/196 4/2/196 10/7/196
f 2/1/197 11/341/197 12/9/197
f 9/8/3 10/7/3 14/11/3
f 15/13/5 16/342/5 17/14/5
f 20/16/198 16/342/198 15/13/198
f 7/18/199 20/16/199 19/17/199
f 21/19/200 22/343/200 6/4/200
s 1
f 23/20/9 24/344/10 25/21/10
f 23/23/9 26/345/9 28/24/11
f 30/26/13 31/346/15 32/27/14
f 27/25/12 28/24/11 31/29/15
f 29/28/14 32/27/14 34/31/16
s off
f 36/33/201 37/42/201 38/34/201
f 40/36/18 41/52/18 42/37/18
f 35/35/202 38/34/202 44/39/202
f 36/33/20 45/347/20 46/41/20
f 43/40/203 44/39/203 48/43/203
f 49/45/20 47/44/20 48/43/20
f 51/47/204 52/348/204 53/48/204
f 56/50/205 52/348/205 51/47/205
f 41/52/206 56/50/206 55/51/206
f 57/53/207 58/349/207 40/36/207
s 1
f 60/54/27 61/350/27 62/55/28
f 64/57/30 65/351/34 66/58/31
f 63/59/32 66/58/31 68/60/33
f 59/56/29 62/55/28 65/62/34
f 69/64/35 70/352/36 71/65/36
f 69/67/35 72/353/37 74/68/38
f 76/70/40 77/354/43 78/71/41
f 73/69/39 74/68/38 77/73/43
f 75/72/42 78/71/41 80/75/44
s off
f 82/77/48 83/86/48 84/78/48
f 86/80/208 87/96/208 88/81/208
f 81/79/209 84/78/209 90/83/209
f 82/77/210 91/355/210 92/85/210
f 89/84/211 90/83/211 94/87/211
f 95/89/212 93/88/212 94/87/212
f 97/91/213 98/356/213 99/92/213
f 102/94/214 98/356/214 97/91/214
f 87/96/215 102/94/215 101/95/215
f 103/97/216 104/357/216 86/80/216
s 1
f 105/98/54 106/358/217 107/99/55
f 110/101/57 111/359/60 112/102/58
f 109/103/58 112/102/58 114/104/59
f 110/106/57 105/98/54 108/100/56
f 115/108/61 116/360/62 117/109/62
f 119/111/64 115/361/61 118/112/63
f 121/114/66 122/362/68 123/115/67
f 122/117/68 119/111/64 120/113/65
f 125/119/69 121/114/66 124/116/66
s off
f 128/121/70 129/130/70 130/122/70
f 132/124/218 133/140/218 134/125/218
f 127/123/219 130/122/219 136/127/219
f 128/121/73 137/363/73 138/129/73
f 135/128/220 136/127/220 140/131/220
f 141/133/73 139/132/73 140/131/73
f 143/135/221 144/364/221 145/136/221
f 148/138/222 144/364/222 143/135/222
f 133/140/223 148/138/223 147/139/223
f 149/141/224 150/365/224 132/124/224
s 1
f 151/142/78 152/366/79 153/143/79
f 155/145/81 156/367/84 157/146/82
f 159/148/83 155/145/81 158/147/81
f 156/150/84 151/142/78 154/144/80
f 161/152/85 162/368/86 163/153/86
f 165/155/88 161/369/85 164/156/87
f 167/158/89 168/370/91 169/159/90
f 168/161/91 165/155/88 166/157/88
f 167/158/89 170/160/89 172/163/92
s off
f 174/165/225 175/174/225 176/166/225
f 178/168/226 179/184/226 180/169/226
f 173/167/227 176/166/227 182/171/227
f 174/165/97 183/371/97 184/173/97
f 181/172/228 182/171/228 186/175/228
f 187/177/98 185/176/98 186/175/98
f 189/179/229 190/372/229 191/180/229
f 194/182/230 190/372/230 189/179/230
f 179/184/101 194/182/101 193/183/101
f 195/185/231 196/373/231 178/168/231
s 1
f 197/186/103 198/374/104 199/187/104
f 201/189/106 202/375/109 203/190/107
f 201/189/106 204/191/106 206/192/108
f 202/194/109 197/186/103 200/188/105
f 207/196/110 208/376/111 209/197/111
f 211/199/113 207/377/110 210/200/112
f 213/202/115 214/378/118 215/203/116
f 214/205/118 211/199/113 212/201/114
f 217/207/119 213/202/115 216/204/117
s off
f 220/209/232 221/218/232 222/210/232
f 224/212/233 225/228/233 226/213/233
f 219/211/232 222/210/232 228/215/232
f 220/209/234 229/379/234 230/217/234
f 227/216/120 228/215/120 232/219/120
f 233/221/123 231/220/123 232/219/123
f 235/223/235 236/380/235 237/224/235
f 240/226/236 236/380/236 235/223/236
f 225/228/237 240/226/237 239/227/237
f 241/229/238 242/381/238 224/212/238
s 1
f 243/230/128 244/382/129 245/231/129
f 247/233/131 248/383/135 249/234/132
f 251/236/134 247/233/131 250/235/133
f 248/238/135 243/230/128 246/232/130
f 254/240/136 255/384/239 256/241/137
f 257/243/139 253/385/138 256/244/137
f 259/246/141 260/386/144 261/247/142
f 260/249/144 257/243/139 258/245/140
f 263/251/145 259/246/141 262/248/143
s off
f 266/253/240 267/262/240 268/254/240
f 270/256/147 271/272/147 272/257/147
f 265/255/241 268/254/241 274/259/241
f 266/253/242 275/387/242 276/261/242
f 273/260/243 274/259/243 278/263/243
f 279/265/244 277/264/244 278/263/244
f 281/267/245 282/388/245 283/268/245
f 286/270/246 282/388/246 281/267/246
f 271/272/247 286/270/247 285/271/247
f 287/273/248 288/389/248 270/256/248
s 1
f 289/274/154 290/390/155 291/275/155
f 293/277/157 294/391/161 295/278/158
f 297/280/160 293/277/157 296/279/159
f 294/282/161 289/274/154 292/276/156
f 300/284/162 301/392/162 302/285/163
f 303/287/165 299/393/164 302/288/163
f 305/290/167 306/394/170 307/291/168
f 306/293/170 303/287/165 304/289/166
f 309/295/171 305/290/167 308/292/169
s off
f 312/297/249 313/306/249 314/298/249
f 316/300/250 317/316/250 318/301/250
f 311/299/251 314/298/251 320/303/251
f 312/297/252 321/395/252 322/305/252
f 319/304/253 320/303/253 324/307/253
f 325/309/172 323/308/172 324/307/172
f 327/311/175 328/396/175 329/312/175
f 332/314/254 328/396/254 327/311/254
f 317/316/255 332/314/255 331/315/255
f 333/317/256 334/397/256 316/300/256
s 1
f 335/318/179 336/398/180 337/319/180
f 339/321/182 340/399/185 341/322/183
f 343/324/184 339/321/182 342/323/182
f 340/326/185 335/318/179 338/320/181
f 346/328/186 347/400/186 348/329/187
f 349/331/189 345/401/188 348/332/187
f 351/334/191 352/402/194 353/335/192
f 352/337/194 349/331/189 350/333/190
f 355/339/195 351/334/191 354/336/193
