# Blender v2.78 (sub 0) OBJ File: 'vtrack.blend'
# www.blender.org
o spectator_source_part.001_Cube.015
v -10.027356 10.766438 -11.644424
v -8.773138 10.499955 -10.128592
v -8.640498 10.468033 -10.113386
v -8.615594 10.459097 -10.055904
v -8.615594 10.459096 -9.862760
v -11.465260 11.071945 -13.414424
v -10.211042 10.805464 -11.898590
v -10.060798 10.773542 -11.883386
v -10.018738 10.764606 -11.825904
v -12.903162 11.377455 -15.184425
v -11.648944 11.110973 -13.668591
v -11.498701 11.079051 -13.653386
v -11.456640 11.070115 -13.595905
v -14.341064 11.682962 -16.954426
v -13.086848 11.416480 -15.438592
v -12.936603 11.384559 -15.423387
v -12.894543 11.375623 -15.365905
v -25.037674 9.331057 -9.862760
v -15.787587 11.990302 -18.736092
v -14.524751 11.721990 -17.208593
v -14.374506 11.690068 -17.193388
v -14.332446 11.681131 -17.135904
vt -5.6120 -2.2275
vt -5.6100 -2.3617
vt -5.4927 -2.1733
vt 6.7924 -2.4922
vt -4.5840 -1.1077
vt -4.4527 -0.9312
vt -3.5636 0.1112
vt -3.5714 0.2348
vt -3.4351 0.2841
vt -2.5649 1.3042
vt -2.4391 1.4736
vt -1.5873 2.4719
vt -1.5946 2.5933
vt -1.4641 2.6381
vt -0.6243 3.6229
vt -5.5927 -2.1868
vt -4.5620 -0.9431
vt -4.5921 -0.9830
vt -3.5420 0.2739
vt -2.5436 1.4649
vt -2.5725 1.4266
vt -1.5663 2.6309
vn -0.2450 -0.9694 -0.0139
vn -0.0425 -0.9910 -0.1271
vn -0.0056 -0.9871 -0.1603
vn 0.0663 -0.9729 -0.2217
vn 0.0191 -0.9834 -0.1805
vn 0.0095 -0.9861 -0.1659
vn 0.0198 -0.9835 -0.1800
vn -0.2078 -0.9782 0.0000
vn 0.0105 -0.9858 -0.1677
vn 0.0209 -0.9835 -0.1795
vn 0.0113 -0.9855 -0.1693
vn 0.0222 -0.9835 -0.1793
vn 0.0118 -0.9852 -0.1709
vn 0.0645 -0.9724 -0.2242
vn -0.2280 -0.9723 -0.0523
s 1
f 4/1/1 5/2/2 2/3/3
f 2/3/3 18/4/4 1/5/5
f 1/5/5 18/4/4 7/6/6
f 7/6/6 18/4/4 6/7/7
f 13/8/8 6/7/7 11/9/9
f 11/9/9 18/4/4 10/10/10
f 10/10/10 18/4/4 15/11/11
f 15/11/11 18/4/4 14/12/12
f 22/13/8 14/12/12 20/14/13
f 20/14/13 18/4/4 19/15/14
f 18/4/4 2/3/3 5/2/2
f 3/16/15 4/1/1 2/3/3
f 7/6/6 8/17/8 9/18/8
f 9/18/8 1/5/5 7/6/6
f 18/4/4 11/9/9 6/7/7
f 12/19/8 13/8/8 11/9/9
f 15/11/11 16/20/8 17/21/8
f 17/21/8 10/10/10 15/11/11
f 18/4/4 20/14/13 14/12/12
f 21/22/8 22/13/8 20/14/13
