# Blender v2.78 (sub 0) OBJ File: 'vtrack.blend'
# www.blender.org
o spectator_wall_source.003_Cube.031
v -0.623441 27.863228 -5.175098
v -0.566309 27.881451 -5.165768
v -0.552191 27.886185 -5.215619
v -0.618736 27.864960 -5.226485
v -0.683743 27.662117 -5.062731
v -0.698027 27.659067 -5.095465
v -0.633722 27.680140 -5.206547
v -0.628534 27.680208 -5.158100
v -0.681067 27.844725 -5.157289
v -0.685858 27.843409 -5.205742
v -0.536676 27.890297 -5.024567
v -0.517677 27.896488 -5.051153
v -0.736281 27.826651 -5.061920
v -0.750168 27.822355 -5.094660
v -0.901114 27.770273 -4.232985
v -0.942158 27.756691 -4.129156
v -0.513750 27.716852 -5.166580
v -0.500027 27.722822 -5.216424
v -0.465472 27.733002 -5.051960
v -0.484082 27.725590 -5.025379
v -0.570897 27.698679 -5.175910
v -0.566589 27.701654 -5.227291
v -0.848452 27.605354 -4.233799
v -0.889874 27.592957 -4.129963
v -0.910771 28.757181 -5.173119
v -0.853702 28.775599 -5.163789
v -0.566309 27.881451 -5.165768
v -0.623441 27.863228 -5.175098
v -1.023673 28.720793 -5.059941
v -0.968373 28.738600 -5.155311
v -0.681067 27.844725 -5.157289
v -0.736281 27.826651 -5.061920
v -1.189526 28.667587 -4.231001
v -0.901114 27.770273 -4.232985
v -0.552191 27.886185 -5.215619
v -0.517677 27.896488 -5.051153
v -0.465472 27.733002 -5.051960
v -0.500027 27.722822 -5.216424
v -0.618736 27.864960 -5.226485
v -0.566589 27.701654 -5.227291
v -0.750168 27.822355 -5.094660
v -0.685858 27.843409 -5.205742
v -0.633722 27.680140 -5.206547
v -0.698027 27.659067 -5.095465
v -0.942158 27.756691 -4.129156
v -0.889874 27.592957 -4.129963
v -0.286445 26.798512 -5.181919
v -0.229177 26.816305 -5.172592
v -0.215078 26.821096 -5.222442
v -0.281780 26.800371 -5.233305
v -0.347787 26.596476 -5.070075
v -0.362128 26.593643 -5.102804
v -0.297762 26.614517 -5.213887
v -0.292525 26.614397 -5.165445
v -0.344182 26.780359 -5.164107
v -0.349030 26.779226 -5.212559
v -0.199339 26.824503 -5.031394
v -0.180324 26.830645 -5.057981
v -0.399424 26.762375 -5.068737
v -0.413374 26.758280 -5.101476
v -0.563803 26.704573 -4.239811
v -0.604835 26.690956 -4.135982
v -0.177461 26.650152 -5.173932
v -0.163741 26.656166 -5.223772
v -0.128953 26.665606 -5.059312
v -0.147594 26.658257 -5.032735
v -0.234760 26.632458 -5.183258
v -0.230479 26.635555 -5.234634
v -0.512172 26.538694 -4.241149
v -0.553596 26.526342 -4.137309
v -0.570896 27.698677 -5.175910
v -0.513749 27.716850 -5.166580
v -0.229177 26.816305 -5.172592
v -0.286445 26.798512 -5.181919
v -0.683742 27.662113 -5.062731
v -0.628534 27.680206 -5.158101
v -0.344182 26.780359 -5.164107
v -0.399424 26.762375 -5.068737
v -0.848451 27.605352 -4.233799
v -0.563803 26.704573 -4.239811
v -0.215078 26.821096 -5.222442
v -0.180324 26.830645 -5.057981
v -0.128953 26.665606 -5.059312
v -0.163741 26.656166 -5.223772
v -0.281780 26.800371 -5.233305
v -0.230479 26.635555 -5.234634
v -0.413374 26.758280 -5.101476
v -0.349030 26.779226 -5.212559
v -0.297762 26.614517 -5.213887
v -0.362128 26.593643 -5.102804
v -0.604835 26.690956 -4.135982
v -0.553596 26.526342 -4.137309
v 0.041982 25.721636 -5.191365
v 0.099510 25.738573 -5.182046
v 0.113653 25.743223 -5.231897
v 0.046646 25.723495 -5.242752
v -0.021959 25.518986 -5.079750
v -0.036362 25.516430 -5.112474
v 0.028280 25.536388 -5.223567
v 0.033540 25.536119 -5.175127
v -0.016006 25.704311 -5.173546
v -0.020896 25.703316 -5.221997
v 0.129541 25.746141 -5.040854
v 0.148630 25.752037 -5.067443
v -0.071456 25.687012 -5.078170
v -0.085482 25.683167 -5.110907
v -0.236229 25.630518 -4.249232
v -0.277402 25.617365 -4.145398
v 0.149163 25.570021 -5.183630
v 0.162951 25.575878 -5.233470
v 0.197965 25.584570 -5.069017
v 0.179224 25.577484 -5.042439
v 0.091581 25.553265 -5.192948
v 0.095884 25.556360 -5.244322
v -0.186862 25.462934 -4.250808
v -0.228432 25.451141 -4.146960
v -0.234759 26.632460 -5.183258
v -0.177460 26.650152 -5.173932
v 0.099510 25.738573 -5.182046
v 0.041982 25.721636 -5.191365
v -0.347786 26.596476 -5.070075
v -0.292525 26.614397 -5.165445
v -0.016006 25.704311 -5.173546
v -0.071456 25.687012 -5.078170
v -0.512172 26.538694 -4.241149
v -0.236229 25.630518 -4.249232
v 0.113653 25.743223 -5.231897
v 0.148630 25.752037 -5.067443
v 0.197965 25.584570 -5.069017
v 0.162951 25.575878 -5.233470
v 0.046646 25.723495 -5.242752
v 0.095884 25.556360 -5.244322
v -0.085482 25.683167 -5.110907
v -0.020896 25.703316 -5.221997
v 0.028280 25.536388 -5.223567
v -0.036362 25.516430 -5.112474
v -0.277402 25.617365 -4.145398
v -0.228432 25.451141 -4.146960
v 0.352151 24.628407 -5.201728
v 0.410075 24.643942 -5.192422
v 0.424314 24.648249 -5.242277
v 0.356847 24.630154 -5.253115
v 0.283571 24.426004 -5.090098
v 0.269097 24.423826 -5.122820
v 0.334208 24.442101 -5.233928
v 0.339472 24.441692 -5.185490
v 0.293764 24.612492 -5.183896
v 0.288840 24.611616 -5.232346
v 0.440314 24.650776 -5.051238
v 0.459534 24.656208 -5.077831
v 0.237933 24.596540 -5.088507
v 0.223810 24.593037 -5.121241
v 0.072035 24.544039 -4.259531
v 0.030580 24.531885 -4.155687
v 0.455925 24.472612 -5.194021
v 0.469846 24.478121 -5.243865
v 0.505104 24.485939 -5.079420
v 0.486197 24.479324 -5.052838
v 0.397931 24.457340 -5.203325
v 0.402297 24.460329 -5.254701
v 0.117449 24.374340 -4.261115
v 0.075608 24.363642 -4.157258
v 0.091582 25.553261 -5.192948
v 0.149164 25.570017 -5.183630
v 0.410075 24.643942 -5.192422
v 0.352151 24.628407 -5.201728
v -0.021958 25.518982 -5.079750
v 0.033541 25.536116 -5.175128
v 0.293764 24.612492 -5.183896
v 0.237933 24.596540 -5.088507
v -0.186861 25.462931 -4.250808
v 0.072035 24.544039 -4.259531
v 0.424314 24.648249 -5.242277
v 0.459534 24.656208 -5.077831
v 0.505104 24.485939 -5.079420
v 0.469846 24.478121 -5.243865
v 0.356847 24.630154 -5.253115
v 0.402297 24.460329 -5.254701
v 0.223810 24.593037 -5.121241
v 0.288840 24.611616 -5.232346
v 0.334208 24.442101 -5.233928
v 0.269097 24.423826 -5.122820
v 0.030580 24.531885 -4.155687
v 0.075608 24.363642 -4.157258
v 0.633189 23.518074 -5.211597
v 0.691587 23.531734 -5.202309
v 0.705956 23.535524 -5.252168
v 0.637937 23.519613 -5.262987
v 0.558214 23.317129 -5.099746
v 0.543675 23.315399 -5.132465
v 0.609359 23.331352 -5.243593
v 0.614608 23.330824 -5.195154
v 0.574317 23.504078 -5.193748
v 0.569365 23.503313 -5.242197
v 0.722036 23.537737 -5.061131
v 0.741421 23.542515 -5.087730
v 0.518002 23.490047 -5.098342
v 0.503772 23.486969 -5.131072
v 0.350519 23.443834 -4.269311
v 0.308696 23.433144 -4.165454
v 0.732029 23.357822 -5.203720
v 0.746125 23.362806 -5.253570
v 0.781627 23.369638 -5.089133
v 0.762510 23.363689 -5.062543
v 0.673557 23.344486 -5.213006
v 0.678019 23.347269 -5.264386
v 0.390468 23.272051 -4.270705
v 0.348294 23.262884 -4.166836
v 0.397931 24.457340 -5.203325
v 0.455926 24.472612 -5.194021
v 0.691587 23.531734 -5.202309
v 0.633189 23.518074 -5.211597
v 0.283571 24.426004 -5.090098
v 0.339472 24.441692 -5.185490
v 0.574317 23.504078 -5.193748
v 0.518002 23.490047 -5.098342
v 0.117449 24.374340 -4.261115
v 0.350519 23.443834 -4.269311
v 0.705956 23.535524 -5.252168
v 0.741421 23.542515 -5.087730
v 0.781627 23.369638 -5.089133
v 0.746125 23.362806 -5.253570
v 0.637937 23.519613 -5.262987
v 0.678019 23.347269 -5.264386
v 0.503772 23.486969 -5.131072
v 0.569365 23.503313 -5.242197
v 0.609359 23.331352 -5.243593
v 0.543675 23.315399 -5.132465
v 0.308696 23.433144 -4.165454
v 0.348294 23.262884 -4.166836
v 0.876021 22.392965 -5.219841
v 0.934889 22.404442 -5.210567
v 0.949394 22.407598 -5.260431
v 0.880827 22.394232 -5.271232
v 0.793579 22.194723 -5.107632
v 0.778986 22.193487 -5.140350
v 0.845238 22.206724 -5.251497
v 0.850460 22.206085 -5.203057
v 0.816664 22.381222 -5.201975
v 0.811690 22.380554 -5.250423
v 0.965530 22.409552 -5.069397
v 0.985084 22.413551 -5.096002
v 0.759854 22.369486 -5.106552
v 0.745521 22.366886 -5.139278
v 0.590688 22.331091 -4.277463
v 0.548484 22.322165 -4.173594
v 0.968823 22.228588 -5.211654
v 0.983102 22.232941 -5.261511
v 1.018822 22.238731 -5.097082
v 0.999492 22.233559 -5.070484
v 0.909887 22.217464 -5.220925
v 0.914456 22.219982 -5.272309
v 0.624165 22.157612 -4.278535
v 0.581662 22.150249 -4.174656
v 0.673558 23.344484 -5.213007
v 0.732030 23.357821 -5.203721
v 0.934889 22.404442 -5.210567
v 0.876021 22.392965 -5.219841
v 0.558215 23.317127 -5.099746
v 0.614608 23.330822 -5.195155
v 0.816664 22.381222 -5.201975
v 0.759854 22.369486 -5.106552
v 0.390469 23.272049 -4.270706
v 0.590688 22.331091 -4.277463
v 0.949394 22.407598 -5.260431
v 0.985084 22.413551 -5.096002
v 1.018822 22.238731 -5.097082
v 0.983102 22.232941 -5.261511
v 0.880827 22.394232 -5.271232
v 0.914456 22.219982 -5.272309
v 0.745521 22.366886 -5.139278
v 0.811690 22.380554 -5.250423
v 0.845238 22.206724 -5.251497
v 0.778986 22.193487 -5.140350
v 0.548484 22.322165 -4.173594
v 0.581662 22.150249 -4.174656
v 1.075552 21.257959 -5.225810
v 1.134820 21.267168 -5.216548
v 1.149442 21.269657 -5.266416
v 1.080410 21.258932 -5.277203
v 0.985453 21.063446 -5.113204
v 0.970828 21.062708 -5.145923
v 1.037555 21.073153 -5.257083
v 1.042742 21.072411 -5.208642
v 1.015783 21.248560 -5.207932
v 1.010794 21.247984 -5.256379
v 1.165619 21.271381 -5.075383
v 1.185315 21.274565 -5.101992
v 0.958551 21.239231 -5.112496
v 0.944132 21.237118 -5.145220
v 0.787925 21.209133 -4.283364
v 0.745395 21.202063 -4.179484
v 1.161885 21.090319 -5.217261
v 1.176327 21.094019 -5.267123
v 1.212224 21.098768 -5.102700
v 1.192705 21.094397 -5.076096
v 1.102566 21.081455 -5.226521
v 1.107234 21.083691 -5.277908
v 0.814635 21.034607 -4.284067
v 0.771868 21.029108 -4.180181
v 0.909888 22.217464 -5.220925
v 0.968824 22.228588 -5.211654
v 1.134820 21.267168 -5.216548
v 1.075552 21.257959 -5.225810
v 0.793578 22.194723 -5.107632
v 0.850460 22.206085 -5.203057
v 1.015783 21.248560 -5.207932
v 0.958551 21.239231 -5.112496
v 0.624165 22.157612 -4.278535
v 0.787925 21.209133 -4.283364
v 1.149442 21.269657 -5.266416
v 1.185315 21.274565 -5.101992
v 1.212224 21.098768 -5.102700
v 1.176327 21.094019 -5.267123
v 1.080410 21.258932 -5.277203
v 1.107234 21.083691 -5.277908
v 0.944132 21.237118 -5.145220
v 1.010794 21.247984 -5.256379
v 1.037555 21.073153 -5.257083
v 0.970828 21.062708 -5.145923
v 0.745395 21.202063 -4.179484
v 0.771868 21.029108 -4.180181
v 1.231796 20.119104 -5.229452
v 1.291355 20.126192 -5.220198
v 1.306063 20.128063 -5.270067
v 1.236691 20.119806 -5.280846
v 1.134703 19.928850 -5.116503
v 1.120065 19.928560 -5.149223
v 1.187130 19.936449 -5.260392
v 1.192282 19.935619 -5.211946
v 1.171726 20.111889 -5.211567
v 1.166724 20.111403 -5.260014
v 1.322271 20.129559 -5.079034
v 1.342072 20.131983 -5.105646
v 1.114184 20.104805 -5.116124
v 1.099702 20.103151 -5.148847
v 0.942497 20.082409 -4.286967
v 0.899729 20.077065 -4.183082
v 1.311983 19.949305 -5.220579
v 1.326553 19.952393 -5.270446
v 1.362578 19.956169 -5.106025
v 1.342913 19.952547 -5.079416
v 1.252389 19.942520 -5.229833
v 1.257140 19.944487 -5.281224
v 0.962890 19.907536 -4.287344
v 0.919947 19.903725 -4.183456
v 1.102566 21.081455 -5.226521
v 1.161886 21.090319 -5.217261
v 1.291355 20.126192 -5.220198
v 1.231796 20.119104 -5.229452
v 0.985453 21.063446 -5.113204
v 1.042742 21.072411 -5.208642
v 1.171726 20.111889 -5.211567
v 1.114184 20.104805 -5.116124
v 0.814635 21.034607 -4.284068
v 0.942497 20.082409 -4.286967
v 1.306063 20.128063 -5.270067
v 1.342072 20.131983 -5.105646
v 1.362578 19.956169 -5.106025
v 1.326553 19.952393 -5.270446
v 1.236691 20.119806 -5.280846
v 1.257140 19.944487 -5.281224
v 1.099702 20.103151 -5.148847
v 1.166724 20.111403 -5.260014
v 1.187130 19.936449 -5.260392
v 1.120065 19.928560 -5.149223
v 0.899729 20.077065 -4.183082
v 0.919947 19.903725 -4.183456
v 1.349493 18.981741 -5.231246
v 1.409238 18.987036 -5.221994
v 1.423999 18.988396 -5.271864
v 1.354410 18.982229 -5.282640
v 1.246600 18.795679 -5.118069
v 1.231963 18.795773 -5.150790
v 1.299236 18.801567 -5.261961
v 1.304357 18.800655 -5.213515
v 1.289231 18.976368 -5.213358
v 1.284220 18.975971 -5.261805
v 1.440232 18.989645 -5.080832
v 1.460099 18.991436 -5.107445
v 1.231494 18.971153 -5.117912
v 1.216971 18.969896 -5.150634
v 1.059154 18.955029 -4.288745
v 1.016237 18.951115 -4.184858
v 1.424408 18.810829 -5.222152
v 1.439065 18.813423 -5.272021
v 1.475176 18.816341 -5.107602
v 1.455411 18.813334 -5.080990
v 1.364641 18.805777 -5.231403
v 1.369452 18.807535 -5.282796
v 1.074190 18.780359 -4.288901
v 1.031148 18.777922 -4.185012
v 1.252389 19.942520 -5.229833
v 1.311983 19.949305 -5.220579
v 1.409238 18.987036 -5.221994
v 1.349493 18.981741 -5.231246
v 1.134703 19.928850 -5.116503
v 1.192281 19.935619 -5.211947
v 1.289231 18.976368 -5.213358
v 1.231494 18.971153 -5.117912
v 0.962891 19.907536 -4.287344
v 1.059154 18.955029 -4.288745
v 1.423999 18.988396 -5.271864
v 1.460099 18.991436 -5.107445
v 1.475176 18.816341 -5.107602
v 1.439065 18.813423 -5.272021
v 1.354410 18.982229 -5.282640
v 1.369452 18.807535 -5.282796
v 1.216971 18.969896 -5.150634
v 1.284220 18.975971 -5.261805
v 1.299236 18.801567 -5.261961
v 1.231963 18.795773 -5.150790
v 1.016237 18.951115 -4.184858
v 1.031148 18.777922 -4.185012
v 1.435995 17.849222 -5.231971
v 1.495847 17.853136 -5.222721
v 1.510637 17.854126 -5.272591
v 1.440924 17.849567 -5.283365
v 1.328981 17.666656 -5.118707
v 1.314350 17.667048 -5.151427
v 1.381736 17.671303 -5.262600
v 1.386835 17.670309 -5.214153
v 1.375624 17.845263 -5.214082
v 1.370606 17.844955 -5.262529
v 1.526890 17.855108 -5.081559
v 1.546794 17.856422 -5.108172
v 1.317781 17.841434 -5.118636
v 1.303233 17.840496 -5.151357
v 1.145095 17.829771 -4.289465
v 1.102097 17.826912 -4.185577
v 1.507081 17.677822 -5.222792
v 1.521793 17.680058 -5.272661
v 1.557957 17.682253 -5.108243
v 1.538130 17.679707 -5.081630
v 1.447218 17.674088 -5.232042
v 1.452067 17.675705 -5.283436
v 1.156260 17.655537 -4.289536
v 1.113173 17.654091 -4.185647
v 1.364641 18.805777 -5.231403
v 1.424408 18.810829 -5.222152
v 1.495847 17.853136 -5.222721
v 1.435995 17.849222 -5.231971
v 1.246600 18.795679 -5.118069
v 1.304357 18.800655 -5.213515
v 1.375624 17.845263 -5.214082
v 1.317781 17.841434 -5.118636
v 1.074190 18.780359 -4.288901
v 1.145095 17.829771 -4.289465
v 1.510637 17.854126 -5.272591
v 1.546794 17.856422 -5.108172
v 1.557957 17.682253 -5.108243
v 1.521793 17.680058 -5.272661
v 1.440924 17.849567 -5.283365
v 1.452067 17.675705 -5.283436
v 1.303233 17.840496 -5.151357
v 1.370606 17.844955 -5.262529
v 1.381736 17.671303 -5.262600
v 1.314350 17.667048 -5.151427
v 1.102097 17.826912 -4.185577
v 1.113173 17.654091 -4.185647
v 1.499538 16.722075 -5.232399
v 1.559447 16.724991 -5.223149
v 1.574251 16.725733 -5.273020
v 1.504472 16.722338 -5.283793
v 1.389479 16.542130 -5.119137
v 1.374856 16.542755 -5.151858
v 1.442300 16.545950 -5.263030
v 1.447384 16.544872 -5.214584
v 1.439110 16.719118 -5.214510
v 1.434087 16.718893 -5.262958
v 1.590520 16.726446 -5.081987
v 1.610442 16.727428 -5.108601
v 1.381211 16.716261 -5.119063
v 1.366649 16.715565 -5.151784
v 1.208359 16.707487 -4.289892
v 1.165320 16.705347 -4.186004
v 1.567733 16.550488 -5.223224
v 1.582479 16.552494 -5.273093
v 1.618674 16.554110 -5.108674
v 1.598809 16.551872 -5.082062
v 1.507818 16.547697 -5.232474
v 1.512692 16.549244 -5.283867
v 1.216612 16.533695 -4.289966
v 1.173508 16.532930 -4.186077
v 1.447218 17.674088 -5.232043
v 1.507082 17.677822 -5.222792
v 1.559447 16.724991 -5.223149
v 1.499538 16.722075 -5.232399
v 1.328981 17.666656 -5.118707
v 1.386835 17.670309 -5.214153
v 1.439110 16.719118 -5.214510
v 1.381211 16.716261 -5.119063
v 1.156260 17.655537 -4.289537
v 1.208359 16.707487 -4.289892
v 1.574251 16.725733 -5.273020
v 1.610442 16.727428 -5.108601
v 1.618674 16.554110 -5.108674
v 1.582479 16.552494 -5.273093
v 1.504472 16.722338 -5.283793
v 1.512692 16.549244 -5.283867
v 1.366649 16.715565 -5.151784
v 1.434087 16.718893 -5.262958
v 1.442300 16.545950 -5.263030
v 1.374856 16.542755 -5.151858
v 1.165320 16.705347 -4.186004
v 1.173508 16.532930 -4.186077
v 1.547233 15.599210 -5.233002
v 1.607172 15.601415 -5.223752
v 1.621983 15.601996 -5.273623
v 1.552168 15.599428 -5.284396
v 1.435138 15.421117 -5.119792
v 1.420523 15.421914 -5.152513
v 1.487996 15.424391 -5.263686
v 1.493068 15.423243 -5.215240
v 1.486774 15.596963 -5.215112
v 1.481748 15.596812 -5.263559
v 1.638262 15.602461 -5.082591
v 1.658195 15.603215 -5.109204
v 1.428847 15.594760 -5.119665
v 1.414278 15.594245 -5.152386
v 1.255918 15.587786 -4.290493
v 1.212858 15.586122 -4.186604
v 1.613473 15.427513 -5.223880
v 1.628239 15.429367 -5.273750
v 1.664453 15.430522 -5.109331
v 1.644565 15.428505 -5.082718
v 1.553530 15.425398 -5.233130
v 1.558420 15.426902 -5.284523
v 1.262202 15.414348 -4.290620
v 1.219095 15.414028 -4.186731
v 1.507818 16.547697 -5.232474
v 1.567734 16.550488 -5.223224
v 1.607172 15.601415 -5.223752
v 1.547233 15.599210 -5.233002
v 1.389479 16.542130 -5.119137
v 1.447383 16.544872 -5.214584
v 1.486774 15.596963 -5.215112
v 1.428847 15.594760 -5.119665
v 1.216612 16.533695 -4.289966
v 1.255918 15.587786 -4.290493
v 1.621983 15.601996 -5.273623
v 1.658195 15.603215 -5.109204
v 1.664453 15.430522 -5.109331
v 1.628239 15.429367 -5.273750
v 1.552168 15.599428 -5.284396
v 1.558420 15.426902 -5.284523
v 1.414278 15.594245 -5.152386
v 1.481748 15.596812 -5.263559
v 1.487996 15.424391 -5.263686
v 1.420523 15.421914 -5.152513
v 1.212858 15.586122 -4.186604
v 1.219095 15.414028 -4.186731
v 1.435138 15.421117 -5.119792
v 1.465106 14.476116 -5.120713
v 1.262203 15.414348 -4.290620
v 1.292143 14.470180 -4.291540
vt 0.7284 0.7110
vt 0.7241 0.7128
vt 0.7251 0.7100
vt 0.7562 0.0901
vt 0.7584 0.0852
vt 0.7578 0.0914
vt 0.7211 0.7100
vt 0.7225 0.7077
vt 0.7337 0.7064
vt 0.7279 0.7139
vt 0.7204 0.7028
vt 0.7219 0.7015
vt 0.7334 0.6554
vt 0.7337 0.6491
vt 0.7642 0.0819
vt 0.7696 0.0865
vt 0.7693 0.0883
vt 0.7600 0.0802
vt 0.7610 0.0829
vt 0.7569 0.0829
vt 0.7693 0.1375
vt 0.3496 0.9516
vt 0.3529 0.8988
vt 0.3529 0.9516
vt 0.4427 0.3986
vt 0.4365 0.4512
vt 0.4365 0.3987
vt 0.3895 0.4503
vt 0.3895 0.3976
vt 0.3564 0.8988
vt 0.3564 0.9516
vt 0.7103 0.0540
vt 0.7008 0.0444
vt 0.7103 0.0444
vt 0.4652 0.9818
vt 0.4691 0.9722
vt 0.4691 0.9818
vt 0.7661 0.8802
vt 0.7563 0.8731
vt 0.7659 0.8730
vt 0.4731 0.9721
vt 0.4731 0.9818
vt 0.7565 0.8183
vt 0.7661 0.8181
vt 0.1305 0.7126
vt 0.1262 0.7144
vt 0.1272 0.7116
vt 0.7203 0.0901
vt 0.7224 0.0852
vt 0.7218 0.0914
vt 0.1232 0.7116
vt 0.1246 0.7093
vt 0.1359 0.7080
vt 0.1300 0.7155
vt 0.1225 0.7044
vt 0.1240 0.7031
vt 0.1355 0.6570
vt 0.1359 0.6507
vt 0.7283 0.0819
vt 0.7337 0.0865
vt 0.7333 0.0883
vt 0.7241 0.0802
vt 0.7251 0.0829
vt 0.7210 0.0829
vt 0.7333 0.1375
vt 0.1624 0.9497
vt 0.1657 0.8966
vt 0.1657 0.9497
vt 0.3138 0.1436
vt 0.3200 0.0907
vt 0.3200 0.1435
vt 0.3671 0.0916
vt 0.3671 0.1445
vt 0.1692 0.8966
vt 0.1692 0.9497
vt 0.6464 0.2882
vt 0.6369 0.2978
vt 0.6369 0.2882
vt 0.9542 0.5156
vt 0.9580 0.5059
vt 0.9580 0.5156
vt 0.4751 0.8739
vt 0.4652 0.8668
vt 0.4749 0.8667
vt 0.9621 0.5059
vt 0.9621 0.5156
vt 0.4655 0.8120
vt 0.4751 0.8119
vt 0.2064 0.6991
vt 0.2021 0.7008
vt 0.2031 0.6981
vt 0.2737 0.6501
vt 0.2758 0.6452
vt 0.2752 0.6514
vt 0.1991 0.6981
vt 0.2005 0.6958
vt 0.2117 0.6945
vt 0.2059 0.7019
vt 0.1984 0.6908
vt 0.1999 0.6895
vt 0.2114 0.6434
vt 0.2117 0.6371
vt 0.2817 0.6419
vt 0.2871 0.6465
vt 0.2867 0.6483
vt 0.2774 0.6402
vt 0.2785 0.6429
vt 0.2744 0.6429
vt 0.2867 0.6975
vt 0.0113 0.9495
vt 0.0146 0.8961
vt 0.0146 0.9496
vt 0.1398 0.2471
vt 0.1336 0.3005
vt 0.1336 0.2473
vt 0.0866 0.2996
vt 0.0866 0.2464
vt 0.0181 0.8960
vt 0.0181 0.9495
vt 0.6048 0.0210
vt 0.6143 0.0113
vt 0.6143 0.0210
vt 0.9599 0.0113
vt 0.9561 0.0211
vt 0.9561 0.0113
vt 0.8675 0.7987
vt 0.8575 0.7917
vt 0.8673 0.7915
vt 0.9520 0.0211
vt 0.9520 0.0113
vt 0.8578 0.7368
vt 0.8675 0.7367
vt 0.6566 0.6233
vt 0.6523 0.6251
vt 0.6533 0.6224
vt 0.6487 0.3325
vt 0.6509 0.3276
vt 0.6503 0.3338
vt 0.6493 0.6223
vt 0.6507 0.6200
vt 0.6620 0.6188
vt 0.6561 0.6262
vt 0.6486 0.6151
vt 0.6501 0.6138
vt 0.6616 0.5677
vt 0.6620 0.5614
vt 0.6567 0.3243
vt 0.6621 0.3288
vt 0.6618 0.3306
vt 0.6525 0.3225
vt 0.6535 0.3252
vt 0.6494 0.3253
vt 0.6618 0.3799
vt 0.9248 0.5276
vt 0.9282 0.4737
vt 0.9282 0.5277
vt 0.2913 0.1684
vt 0.2851 0.2223
vt 0.2851 0.1685
vt 0.2381 0.2215
vt 0.2381 0.1679
vt 0.9316 0.4736
vt 0.9316 0.5276
vt 0.5824 0.2560
vt 0.5729 0.2658
vt 0.5729 0.2560
vt 0.9295 0.0113
vt 0.9256 0.0211
vt 0.9256 0.0113
vt 0.8378 0.2300
vt 0.8278 0.2228
vt 0.8377 0.2227
vt 0.9216 0.0212
vt 0.9216 0.0113
vt 0.8280 0.1680
vt 0.8378 0.1679
vt 0.3975 0.6127
vt 0.3932 0.6144
vt 0.3942 0.6117
vt 0.3137 0.5629
vt 0.3158 0.5579
vt 0.3152 0.5641
vt 0.3902 0.6117
vt 0.3916 0.6093
vt 0.4029 0.6081
vt 0.3970 0.6156
vt 0.3895 0.6044
vt 0.3910 0.6031
vt 0.4025 0.5570
vt 0.4029 0.5507
vt 0.3217 0.5545
vt 0.3271 0.5591
vt 0.3267 0.5609
vt 0.3174 0.5528
vt 0.3184 0.5555
vt 0.3144 0.5556
vt 0.3267 0.6103
vt 0.9222 0.7912
vt 0.9255 0.7368
vt 0.9255 0.7912
vt 0.1398 0.1695
vt 0.1336 0.2239
vt 0.1336 0.1696
vt 0.0866 0.2233
vt 0.0866 0.1693
vt 0.9290 0.7368
vt 0.9290 0.7911
vt 0.5823 0.0444
vt 0.5728 0.0544
vt 0.5728 0.0444
vt 0.8928 0.4410
vt 0.8889 0.4509
vt 0.8889 0.4410
vt 0.8379 0.6234
vt 0.8279 0.6162
vt 0.8378 0.6162
vt 0.8849 0.4510
vt 0.8849 0.4411
vt 0.8280 0.5614
vt 0.8379 0.5614
vt 0.5490 0.1412
vt 0.5448 0.1429
vt 0.5458 0.1402
vt 0.1624 0.5607
vt 0.1645 0.5557
vt 0.1639 0.5620
vt 0.5417 0.1401
vt 0.5431 0.1378
vt 0.5544 0.1366
vt 0.5486 0.1441
vt 0.5410 0.1329
vt 0.5425 0.1316
vt 0.5541 0.0854
vt 0.5544 0.0791
vt 0.1704 0.5523
vt 0.1758 0.5569
vt 0.1755 0.5587
vt 0.1662 0.5506
vt 0.1672 0.5533
vt 0.1631 0.5534
vt 0.1755 0.6081
vt 0.9219 0.8762
vt 0.9252 0.8215
vt 0.9252 0.8762
vt 0.1623 0.1454
vt 0.1685 0.0907
vt 0.1685 0.1453
vt 0.2156 0.0911
vt 0.2156 0.1453
vt 0.9287 0.8215
vt 0.9287 0.8761
vt 0.5504 0.2884
vt 0.5409 0.2984
vt 0.5409 0.2884
vt 0.8607 0.0213
vt 0.8645 0.0113
vt 0.8645 0.0213
vt 0.8704 0.6234
vt 0.8604 0.6162
vt 0.8704 0.6162
vt 0.8686 0.0113
vt 0.8686 0.0212
vt 0.8605 0.5614
vt 0.8704 0.5614
vt 0.1305 0.5375
vt 0.1263 0.5392
vt 0.1273 0.5365
vt 0.5410 0.3326
vt 0.5432 0.3277
vt 0.5426 0.3339
vt 0.1232 0.5365
vt 0.1246 0.5341
vt 0.1359 0.5330
vt 0.1301 0.5404
vt 0.1225 0.5292
vt 0.1240 0.5279
vt 0.1356 0.4817
vt 0.1359 0.4753
vt 0.5490 0.3243
vt 0.5544 0.3288
vt 0.5541 0.3306
vt 0.5448 0.3226
vt 0.5458 0.3253
vt 0.5417 0.3254
vt 0.5541 0.3801
vt 0.9252 0.0791
vt 0.9286 0.1339
vt 0.9252 0.1338
vt 0.2092 0.0113
vt 0.2154 0.0660
vt 0.2092 0.0660
vt 0.1622 0.0116
vt 0.1622 0.0658
vt 0.9218 0.0792
vt 0.9218 0.1338
vt 0.5504 0.2558
vt 0.5409 0.2658
vt 0.5409 0.2558
vt 0.8875 0.4176
vt 0.8836 0.4076
vt 0.8875 0.4077
vt 0.8571 0.0791
vt 0.8670 0.0863
vt 0.8571 0.0863
vt 0.8916 0.4076
vt 0.8916 0.4175
vt 0.8671 0.1411
vt 0.8572 0.1411
vt 0.0946 0.5376
vt 0.0903 0.5393
vt 0.0913 0.5366
vt 0.5768 0.1792
vt 0.5790 0.1742
vt 0.5784 0.1805
vt 0.0873 0.5365
vt 0.0887 0.5342
vt 0.1000 0.5330
vt 0.0941 0.5405
vt 0.0866 0.5292
vt 0.0881 0.5279
vt 0.0996 0.4817
vt 0.1000 0.4753
vt 0.5848 0.1708
vt 0.5902 0.1754
vt 0.5899 0.1772
vt 0.5806 0.1691
vt 0.5816 0.1718
vt 0.5775 0.1719
vt 0.5899 0.2267
vt 0.9255 0.2226
vt 0.9222 0.1679
vt 0.9255 0.1680
vt 0.2094 0.1679
vt 0.2156 0.2225
vt 0.2094 0.2224
vt 0.1623 0.1685
vt 0.1623 0.2226
vt 0.9290 0.2225
vt 0.9290 0.1680
vt 0.5823 0.4504
vt 0.5728 0.4404
vt 0.5823 0.4404
vt 0.8951 0.0444
vt 0.8990 0.0544
vt 0.8951 0.0544
vt 0.8278 0.4808
vt 0.8378 0.4736
vt 0.8377 0.4809
vt 0.8911 0.0445
vt 0.8911 0.0544
vt 0.8280 0.5356
vt 0.8378 0.5357
vt 0.5489 0.2302
vt 0.5447 0.2319
vt 0.5457 0.2292
vt 0.1984 0.5607
vt 0.2005 0.5558
vt 0.1999 0.5620
vt 0.5416 0.2291
vt 0.5430 0.2268
vt 0.5543 0.2257
vt 0.5485 0.2331
vt 0.5409 0.2218
vt 0.5424 0.2205
vt 0.5539 0.1743
vt 0.5543 0.1679
vt 0.2063 0.5523
vt 0.2117 0.5569
vt 0.2114 0.5587
vt 0.2021 0.5506
vt 0.2031 0.5534
vt 0.1991 0.5534
vt 0.2114 0.6083
vt 0.9256 0.6157
vt 0.9222 0.5614
vt 0.9256 0.5615
vt 0.2850 0.0113
vt 0.2912 0.0655
vt 0.2850 0.0654
vt 0.2379 0.0120
vt 0.2379 0.0658
vt 0.9290 0.6156
vt 0.9290 0.5614
vt 0.5823 0.0212
vt 0.5728 0.0113
vt 0.5823 0.0113
vt 0.9255 0.0544
vt 0.9216 0.0444
vt 0.9255 0.0445
vt 0.8278 0.3286
vt 0.8378 0.3215
vt 0.8377 0.3287
vt 0.9295 0.0543
vt 0.9295 0.0444
vt 0.8281 0.3834
vt 0.8378 0.3835
vt 0.0552 0.6106
vt 0.0509 0.6123
vt 0.0519 0.6096
vt 0.2378 0.5627
vt 0.2400 0.5577
vt 0.2394 0.5640
vt 0.0479 0.6095
vt 0.0493 0.6072
vt 0.0606 0.6060
vt 0.0547 0.6135
vt 0.0472 0.6022
vt 0.0487 0.6009
vt 0.0602 0.5546
vt 0.0606 0.5483
vt 0.2458 0.5543
vt 0.2512 0.5588
vt 0.2508 0.5607
vt 0.2416 0.5526
vt 0.2426 0.5553
vt 0.2385 0.5554
vt 0.2508 0.6102
vt 0.9282 0.3754
vt 0.9248 0.3214
vt 0.9282 0.3215
vt 0.2851 0.0907
vt 0.2913 0.1445
vt 0.2851 0.1444
vt 0.2381 0.0916
vt 0.2381 0.1451
vt 0.9316 0.3753
vt 0.9316 0.3214
vt 0.6143 0.4404
vt 0.6048 0.4502
vt 0.6048 0.4404
vt 0.9520 0.0542
vt 0.9559 0.0445
vt 0.9559 0.0543
vt 0.8281 0.6491
vt 0.8376 0.6564
vt 0.8279 0.6563
vt 0.9599 0.0444
vt 0.9599 0.0542
vt 0.8379 0.7112
vt 0.8282 0.7111
vt 0.5091 0.6118
vt 0.5049 0.6135
vt 0.5059 0.6108
vt 0.6128 0.4849
vt 0.6149 0.4799
vt 0.6143 0.4862
vt 0.5019 0.6107
vt 0.5033 0.6084
vt 0.5145 0.6072
vt 0.5087 0.6147
vt 0.5012 0.6034
vt 0.5027 0.6021
vt 0.5141 0.5558
vt 0.5145 0.5495
vt 0.6207 0.4765
vt 0.6261 0.4811
vt 0.6257 0.4829
vt 0.6165 0.4748
vt 0.6175 0.4775
vt 0.6135 0.4776
vt 0.6257 0.5325
vt 0.9256 0.2451
vt 0.9290 0.2988
vt 0.9256 0.2987
vt 0.2093 0.2451
vt 0.2155 0.2985
vt 0.2093 0.2984
vt 0.1623 0.2461
vt 0.1623 0.2992
vt 0.9222 0.2452
vt 0.9222 0.2988
vt 0.6049 0.2560
vt 0.6144 0.2657
vt 0.6049 0.2657
vt 0.9580 0.6589
vt 0.9541 0.6491
vt 0.9580 0.6492
vt 0.8604 0.1752
vt 0.8703 0.1681
vt 0.8700 0.1753
vt 0.9620 0.6588
vt 0.9620 0.6491
vt 0.8606 0.2300
vt 0.8703 0.2301
vt 0.3576 0.6140
vt 0.3533 0.6157
vt 0.3543 0.6130
vt 0.6128 0.5726
vt 0.6149 0.5676
vt 0.6143 0.5739
vt 0.3503 0.6129
vt 0.3517 0.6106
vt 0.3629 0.6094
vt 0.3571 0.6169
vt 0.3496 0.6056
vt 0.3511 0.6043
vt 0.3626 0.5580
vt 0.3629 0.5517
vt 0.6207 0.5643
vt 0.6260 0.5688
vt 0.6257 0.5706
vt 0.6165 0.5625
vt 0.6175 0.5653
vt 0.6135 0.5653
vt 0.6257 0.6202
vt 0.2771 0.8962
vt 0.2805 0.9497
vt 0.2771 0.9496
vt 0.3607 0.2449
vt 0.3669 0.2980
vt 0.3607 0.2979
vt 0.3137 0.2459
vt 0.3137 0.2989
vt 0.2737 0.8963
vt 0.2737 0.9496
vt 0.6049 0.2981
vt 0.6144 0.2884
vt 0.6144 0.2981
vt 0.9542 0.4833
vt 0.9581 0.4736
vt 0.9581 0.4833
vt 0.0116 0.8113
vt 0.0209 0.8187
vt 0.0113 0.8185
vt 0.9621 0.4736
vt 0.9621 0.4833
vt 0.0212 0.8735
vt 0.0116 0.8733
vt 0.3137 0.0124
vt 0.3607 0.0640
vt 0.3137 0.0651
vt 0.7334 0.7046
vt 0.7638 0.0791
vt 0.7696 0.1438
vt 0.3496 0.8988
vt 0.4427 0.4511
vt 0.7008 0.0540
vt 0.4652 0.9721
vt 0.7565 0.8803
vt 0.1355 0.7062
vt 0.7278 0.0791
vt 0.7337 0.1438
vt 0.1624 0.8966
vt 0.3138 0.0908
vt 0.6464 0.2978
vt 0.9542 0.5059
vt 0.4655 0.8740
vt 0.2114 0.6927
vt 0.2812 0.6390
vt 0.2871 0.7038
vt 0.0113 0.8960
vt 0.1398 0.3004
vt 0.6048 0.0113
vt 0.9599 0.0211
vt 0.8577 0.7989
vt 0.6616 0.6169
vt 0.6563 0.3214
vt 0.6621 0.3862
vt 0.9248 0.4736
vt 0.2913 0.2223
vt 0.5824 0.2659
vt 0.9295 0.0212
vt 0.8280 0.2301
vt 0.4025 0.6063
vt 0.3212 0.5517
vt 0.3271 0.6166
vt 0.9222 0.7367
vt 0.1398 0.2239
vt 0.5823 0.0544
vt 0.8928 0.4510
vt 0.8279 0.6234
vt 0.5541 0.1348
vt 0.1700 0.5495
vt 0.1758 0.6144
vt 0.9219 0.8214
vt 0.1623 0.0907
vt 0.5504 0.2984
vt 0.8607 0.0113
vt 0.8604 0.6234
vt 0.1356 0.5311
vt 0.5486 0.3214
vt 0.5544 0.3864
vt 0.9286 0.0791
vt 0.2154 0.0113
vt 0.5504 0.2659
vt 0.8836 0.4176
vt 0.8671 0.0791
vt 0.0996 0.5312
vt 0.5844 0.1679
vt 0.5902 0.2330
vt 0.9222 0.2226
vt 0.2156 0.1679
vt 0.5728 0.4504
vt 0.8990 0.0445
vt 0.8279 0.4736
vt 0.5539 0.2238
vt 0.2059 0.5495
vt 0.2117 0.6146
vt 0.9222 0.6157
vt 0.2912 0.0113
vt 0.5728 0.0212
vt 0.9216 0.0543
vt 0.8280 0.3214
vt 0.0602 0.6042
vt 0.2453 0.5514
vt 0.2512 0.6166
vt 0.9248 0.3754
vt 0.2913 0.0908
vt 0.6143 0.4502
vt 0.9520 0.0444
vt 0.8379 0.6492
vt 0.5141 0.6054
vt 0.6203 0.4736
vt 0.6261 0.5388
vt 0.9290 0.2452
vt 0.2155 0.2452
vt 0.6144 0.2560
vt 0.9541 0.6588
vt 0.8606 0.1679
vt 0.3626 0.6076
vt 0.6203 0.5614
vt 0.6260 0.6265
vt 0.2805 0.8963
vt 0.3669 0.2450
vt 0.6049 0.2884
vt 0.9542 0.4736
vt 0.0212 0.8114
vt 0.3607 0.0113
vn -0.3045 0.9525 0.0042
vn 0.2683 -0.9629 -0.0275
vn 0.3505 -0.9364 -0.0157
vn 0.3073 -0.9512 -0.0293
vn 0.2965 -0.9545 -0.0304
vn 0.2466 -0.9690 -0.0173
vn 0.1457 0.0490 -0.9881
vn -0.0632 -0.0181 -0.9978
vn -0.5805 -0.1848 -0.7930
vn -0.8854 -0.2838 -0.3681
vn -0.9318 -0.2990 -0.2056
vn -0.5804 -0.1848 -0.7931
vn 0.6518 0.2117 -0.7283
vn 0.9303 0.2981 -0.2139
vn 0.6517 0.2117 -0.7283
vn -0.0641 -0.0156 -0.9978
vn -0.5814 -0.1817 -0.7931
vn -0.8862 -0.2812 -0.3682
vn -0.5813 -0.1817 -0.7931
vn -0.9325 -0.2968 -0.2056
vn -0.2978 0.9546 0.0075
vn 0.2603 -0.9651 -0.0304
vn -0.2978 0.9546 0.0074
vn 0.3435 -0.9390 -0.0187
vn 0.2997 -0.9535 -0.0325
vn 0.2888 -0.9568 -0.0335
vn 0.2384 -0.9710 -0.0204
vn 0.1447 0.0523 -0.9881
vn -0.0643 -0.0136 -0.9978
vn -0.0644 -0.0137 -0.9978
vn -0.5821 -0.1787 -0.7932
vn -0.8872 -0.2779 -0.3682
vn -0.9335 -0.2936 -0.2056
vn -0.5819 -0.1786 -0.7934
vn 0.9322 0.2919 -0.2139
vn 0.6527 0.2090 -0.7282
vn 0.6526 0.2090 -0.7283
vn -0.0651 -0.0122 -0.9978
vn -0.5833 -0.1752 -0.7931
vn -0.8886 -0.2736 -0.3682
vn -0.9349 -0.2893 -0.2056
vn -0.2838 0.9589 0.0089
vn 0.2444 -0.9691 -0.0319
vn -0.2837 0.9589 0.0088
vn -0.2837 0.9589 0.0090
vn -0.2838 0.9589 0.0090
vn 0.3286 -0.9443 -0.0200
vn 0.2843 -0.9581 -0.0340
vn 0.2732 -0.9613 -0.0350
vn 0.2223 -0.9747 -0.0217
vn 0.1445 0.0527 -0.9881
vn -0.0646 -0.0108 -0.9979
vn -0.0649 -0.0108 -0.9978
vn -0.5841 -0.1704 -0.7936
vn -0.8904 -0.2673 -0.3684
vn -0.8905 -0.2673 -0.3683
vn -0.9369 -0.2828 -0.2055
vn -0.5839 -0.1703 -0.7938
vn 0.9365 0.2779 -0.2141
vn 0.6556 0.2000 -0.7282
vn 0.6555 0.1999 -0.7283
vn -0.0656 -0.0100 -0.9978
vn -0.0657 -0.0100 -0.9978
vn -0.5863 -0.1653 -0.7931
vn -0.8928 -0.2596 -0.3681
vn -0.5862 -0.1652 -0.7932
vn -0.9393 -0.2748 -0.2054
vn -0.2604 0.9655 0.0090
vn 0.2191 -0.9752 -0.0319
vn -0.2604 0.9655 0.0091
vn -0.2604 0.9654 0.0090
vn 0.3049 -0.9522 -0.0201
vn 0.2596 -0.9651 -0.0341
vn 0.2484 -0.9680 -0.0352
vn 0.1966 -0.9803 -0.0216
vn 0.1452 0.0503 -0.9881
vn -0.0647 -0.0087 -0.9979
vn -0.0648 -0.0088 -0.9979
vn -0.5871 -0.1579 -0.7940
vn -0.8958 -0.2489 -0.3684
vn -0.8958 -0.2489 -0.3683
vn -0.9425 -0.2636 -0.2053
vn -0.5869 -0.1578 -0.7941
vn 0.9431 0.2544 -0.2143
vn 0.6603 0.1835 -0.7282
vn 0.6602 0.1835 -0.7283
vn -0.0660 -0.0083 -0.9978
vn -0.0661 -0.0084 -0.9978
vn -0.5903 -0.1506 -0.7930
vn -0.8991 -0.2372 -0.3679
vn -0.5902 -0.1505 -0.7931
vn -0.9459 -0.2512 -0.2052
vn -0.2290 0.9734 0.0080
vn 0.1863 -0.9820 -0.0309
vn -0.2289 0.9734 0.0080
vn 0.2729 -0.9618 -0.0190
vn 0.2272 -0.9733 -0.0330
vn 0.2159 -0.9758 -0.0341
vn 0.1636 -0.9863 -0.0205
vn 0.1466 0.0454 -0.9882
vn -0.0646 -0.0074 -0.9979
vn -0.0647 -0.0074 -0.9979
vn -0.5910 -0.1410 -0.7942
vn -0.9026 -0.2228 -0.3683
vn -0.9026 -0.2228 -0.3682
vn -0.9498 -0.2361 -0.2051
vn -0.5909 -0.1410 -0.7943
vn 0.9509 0.2229 -0.2146
vn 0.6661 0.1608 -0.7284
vn 0.6660 0.1608 -0.7284
vn -0.0662 -0.0073 -0.9978
vn -0.0663 -0.0073 -0.9978
vn -0.5949 -0.1319 -0.7929
vn -0.9064 -0.2078 -0.3677
vn -0.5948 -0.1319 -0.7930
vn -0.9537 -0.2201 -0.2049
vn -0.1923 0.9813 0.0061
vn 0.1488 -0.9884 -0.0290
vn -0.1923 0.9813 0.0064
vn -0.1922 0.9813 0.0062
vn -0.1923 0.9813 0.0062
vn 0.2364 -0.9715 -0.0171
vn 0.1901 -0.9813 -0.0312
vn 0.1786 -0.9834 -0.0322
vn 0.1259 -0.9919 -0.0187
vn 0.1482 0.0386 -0.9882
vn -0.0645 -0.0066 -0.9979
vn -0.5953 -0.1210 -0.7943
vn -0.9100 -0.1910 -0.3681
vn -0.9577 -0.2023 -0.2048
vn -0.5952 -0.1209 -0.7944
vn 0.9587 0.1864 -0.2148
vn 0.6718 0.1341 -0.7285
vn 0.6717 0.1341 -0.7286
vn -0.0663 -0.0066 -0.9978
vn -0.0664 -0.0066 -0.9978
vn -0.5993 -0.1108 -0.7928
vn -0.9136 -0.1740 -0.3675
vn -0.5993 -0.1108 -0.7929
vn -0.9613 -0.1843 -0.2047
vn -0.1542 0.9880 0.0041
vn 0.1105 -0.9935 -0.0269
vn -0.1541 0.9880 0.0041
vn -0.1542 0.9880 0.0042
vn 0.1989 -0.9799 -0.0151
vn 0.1522 -0.9879 -0.0291
vn 0.1406 -0.9896 -0.0302
vn 0.0875 -0.9960 -0.0166
vn -0.0645 -0.0061 -0.9979
vn 0.1496 0.0309 -0.9883
vn -0.0646 -0.0061 -0.9979
vn -0.9166 -0.1564 -0.3679
vn -0.5994 -0.0994 -0.7943
vn -0.9648 -0.1655 -0.2045
vn -0.5993 -0.0994 -0.7943
vn 0.9652 0.1486 -0.2150
vn 0.6765 0.1065 -0.7287
vn -0.0665 -0.0062 -0.9978
vn -0.0664 -0.0062 -0.9978
vn -0.6030 -0.0891 -0.7927
vn -0.9196 -0.1393 -0.3673
vn -0.9677 -0.1473 -0.2045
vn -0.1185 0.9929 0.0023
vn 0.0757 -0.9968 -0.0250
vn -0.1186 0.9929 0.0022
vn -0.1185 0.9930 0.0023
vn 0.1638 -0.9864 -0.0132
vn 0.1172 -0.9927 -0.0272
vn 0.1057 -0.9940 -0.0282
vn 0.0527 -0.9985 -0.0147
vn -0.0648 -0.0057 -0.9979
vn 0.1508 0.0233 -0.9883
vn -0.0649 -0.0057 -0.9979
vn -0.9218 -0.1227 -0.3677
vn -0.6028 -0.0785 -0.7940
vn -0.9703 -0.1297 -0.2044
vn -0.6027 -0.0785 -0.7941
vn 0.6799 0.0809 -0.7288
vn 0.9700 0.1136 -0.2151
vn 0.6799 0.0809 -0.7289
vn -0.0665 -0.0056 -0.9978
vn -0.0666 -0.0056 -0.9978
vn -0.9240 -0.1070 -0.3672
vn -0.6058 -0.0689 -0.7926
vn -0.9724 -0.1130 -0.2044
vn -0.0884 0.9961 0.0010
vn 0.0468 -0.9986 -0.0238
vn -0.0885 0.9961 0.0010
vn 0.1346 -0.9908 -0.0120
vn 0.0882 -0.9958 -0.0258
vn 0.0767 -0.9967 -0.0269
vn 0.0238 -0.9996 -0.0135
vn -0.0652 -0.0051 -0.9979
vn 0.1516 0.0168 -0.9883
vn -0.0653 -0.0051 -0.9979
vn -0.9253 -0.0930 -0.3675
vn -0.6054 -0.0600 -0.7937
vn -0.9254 -0.0930 -0.3675
vn -0.9740 -0.0981 -0.2043
vn -0.6052 -0.0600 -0.7938
vn 0.6821 0.0594 -0.7289
vn 0.9730 0.0840 -0.2152
vn 0.6819 0.0594 -0.7291
vn -0.0666 -0.0048 -0.9978
vn -0.0668 -0.0049 -0.9978
vn -0.9268 -0.0795 -0.3671
vn -0.6077 -0.0516 -0.7925
vn -0.6075 -0.0516 -0.7926
vn -0.9753 -0.0838 -0.2043
vn -0.0653 0.9979 0.0004
vn 0.0250 -0.9994 -0.0231
vn 0.1123 -0.9936 -0.0115
vn 0.0661 -0.9975 -0.0251
vn 0.0547 -0.9982 -0.0263
vn 0.0022 -0.9999 -0.0130
vn -0.0657 -0.0043 -0.9978
vn 0.1520 0.0119 -0.9883
vn -0.0658 -0.0043 -0.9978
vn -0.9275 -0.0690 -0.3674
vn -0.6072 -0.0448 -0.7933
vn -0.9762 -0.0727 -0.2043
vn -0.6070 -0.0448 -0.7934
vn 0.9746 0.0625 -0.2152
vn 0.6831 0.0441 -0.7290
vn 0.6830 0.0441 -0.7291
vn -0.0668 -0.0039 -0.9978
vn -0.0669 -0.0039 -0.9978
vn -0.6087 -0.0387 -0.7925
vn -0.9283 -0.0593 -0.3671
vn -0.9769 -0.0625 -0.2043
vn -0.0487 0.9988 0.0004
vn 0.0091 -0.9997 -0.0231
vn -0.0486 0.9988 0.0005
vn 0.0967 -0.9952 -0.0116
vn 0.0504 -0.9984 -0.0253
vn 0.0389 -0.9989 -0.0264
vn -0.0137 -0.9998 -0.0130
vn -0.0661 -0.0033 -0.9978
vn 0.1522 0.0087 -0.9883
vn -0.0663 -0.0033 -0.9978
vn -0.9287 -0.0509 -0.3673
vn -0.6084 -0.0331 -0.7930
vn -0.9287 -0.0509 -0.3672
vn -0.9774 -0.0536 -0.2043
vn -0.6082 -0.0331 -0.7931
vn 0.6836 0.0328 -0.7291
vn 0.9755 0.0464 -0.2152
vn 0.6835 0.0328 -0.7292
vn -0.0670 -0.0028 -0.9978
vn -0.0670 -0.0028 -0.9977
vn -0.9292 -0.0440 -0.3670
vn -0.6094 -0.0286 -0.7924
vn -0.6093 -0.0286 -0.7924
vn -0.9778 -0.0463 -0.2043
vn -0.0369 0.9993 0.0007
vn -0.0020 -0.9997 -0.0234
vn 0.0853 -0.9963 -0.0118
vn 0.0392 -0.9989 -0.0256
vn 0.0278 -0.9993 -0.0267
vn -0.0247 -0.9996 -0.0133
vn -0.0665 -0.0022 -0.9978
vn 0.1523 0.0069 -0.9883
vn -0.9294 -0.0384 -0.3672
vn -0.6090 -0.0249 -0.7928
vn -0.9781 -0.0405 -0.2043
vn -0.6089 -0.0249 -0.7928
vn 0.9759 0.0355 -0.2152
vn 0.6838 0.0253 -0.7292
vn -0.0671 -0.0017 -0.9977
vn -0.6097 -0.0215 -0.7924
vn -0.9296 -0.0334 -0.3670
vn -0.9783 -0.0353 -0.2043
vn -0.9784 -0.0308 -0.2043
vn 0.2683 -0.9630 -0.0274
vn -0.3045 0.9525 0.0043
vn -0.3046 0.9525 0.0042
vn 0.2465 -0.9690 -0.0174
vn 0.2603 -0.9651 -0.0306
vn -0.2978 0.9546 0.0076
vn 0.3434 -0.9390 -0.0188
vn 0.2998 -0.9535 -0.0326
vn 0.2888 -0.9568 -0.0336
vn 0.2444 -0.9692 -0.0318
vn -0.2837 0.9589 0.0089
vn 0.2732 -0.9613 -0.0351
vn 0.2224 -0.9747 -0.0217
vn 0.1446 0.0527 -0.9881
vn 0.2191 -0.9752 -0.0321
vn 0.3048 -0.9522 -0.0201
vn 0.2597 -0.9651 -0.0341
vn 0.2484 -0.9680 -0.0351
vn 0.1969 -0.9802 -0.0216
vn 0.1453 0.0503 -0.9881
vn 0.1862 -0.9820 -0.0309
vn 0.2730 -0.9618 -0.0190
vn 0.2273 -0.9733 -0.0330
vn 0.2159 -0.9758 -0.0340
vn 0.1640 -0.9863 -0.0205
vn 0.1465 0.0454 -0.9882
vn 0.1487 -0.9885 -0.0291
vn 0.2363 -0.9715 -0.0172
vn 0.1786 -0.9834 -0.0323
vn 0.1264 -0.9918 -0.0186
vn 0.1481 0.0386 -0.9882
vn 0.1105 -0.9935 -0.0271
vn -0.1541 0.9880 0.0042
vn -0.1542 0.9880 0.0040
vn 0.1522 -0.9879 -0.0293
vn 0.1406 -0.9896 -0.0303
vn 0.0879 -0.9960 -0.0166
vn 0.0756 -0.9968 -0.0251
vn -0.1186 0.9929 0.0023
vn -0.1185 0.9930 0.0022
vn 0.1638 -0.9864 -0.0133
vn 0.1173 -0.9927 -0.0272
vn 0.1057 -0.9940 -0.0283
vn 0.0531 -0.9985 -0.0146
vn 0.0468 -0.9986 -0.0237
vn 0.0882 -0.9958 -0.0259
vn 0.0767 -0.9967 -0.0268
vn 0.0241 -0.9996 -0.0134
vn -0.0653 0.9979 0.0005
vn 0.0250 -0.9994 -0.0230
vn 0.1123 -0.9936 -0.0114
vn 0.0662 -0.9975 -0.0252
vn 0.0547 -0.9982 -0.0262
vn 0.0024 -0.9999 -0.0129
vn 0.9746 0.0626 -0.2152
vn 0.0091 -0.9997 -0.0233
vn -0.0488 0.9988 0.0005
vn -0.0486 0.9988 0.0003
vn 0.0966 -0.9953 -0.0115
vn 0.0504 -0.9984 -0.0252
vn -0.0136 -0.9998 -0.0130
vn -0.0020 -0.9997 -0.0235
vn -0.0368 0.9993 0.0007
vn 0.0392 -0.9989 -0.0255
vn 0.0278 -0.9993 -0.0266
s off
f 2/1/1 4/2/1 1/3/1
f 6/4/2 8/5/2 5/6/2
f 1/3/1 10/7/1 9/8/1
f 2/1/1 12/9/1 3/10/1
f 9/8/1 14/11/1 13/12/1
f 15/13/1 14/11/1 16/14/1
f 17/15/3 19/16/3 20/17/3
f 22/18/4 17/15/4 21/19/4
f 7/20/5 21/19/5 8/5/5
f 23/21/6 6/4/6 5/6/6
s 1
f 26/22/7 28/23/8 25/24/8
f 30/25/9 32/26/10 29/27/10
f 29/27/10 34/28/11 33/29/11
f 25/24/8 31/30/12 30/31/9
f 35/32/13 37/33/14 38/34/15
f 35/35/13 40/36/16 39/37/16
f 42/38/17 44/39/18 41/40/18
f 39/37/16 43/41/19 42/42/17
f 41/40/18 46/43/20 45/44/20
s off
f 48/45/21 50/46/21 47/47/21
f 52/48/22 54/49/22 51/50/22
f 47/47/23 56/51/23 55/52/23
f 48/45/21 58/53/21 49/54/21
f 55/52/21 60/55/21 59/56/21
f 61/57/21 60/55/21 62/58/21
f 63/59/24 65/60/24 66/61/24
f 68/62/25 63/59/25 67/63/25
f 53/64/26 67/63/26 54/49/26
f 69/65/27 52/48/27 51/50/27
s 1
f 72/66/28 74/67/29 71/68/30
f 76/69/31 78/70/32 75/71/32
f 75/71/32 80/72/33 79/73/33
f 71/68/30 77/74/34 76/75/31
f 82/76/35 84/77/36 81/78/37
f 81/79/37 86/80/38 85/81/38
f 88/82/39 90/83/40 87/84/40
f 85/81/38 89/85/39 88/86/39
f 87/84/40 92/87/41 91/88/41
s off
f 94/89/42 96/90/42 93/91/42
f 98/92/43 100/93/43 97/94/43
f 93/91/44 102/95/44 101/96/44
f 94/89/45 104/97/45 95/98/45
f 101/96/46 106/99/46 105/100/46
f 107/101/42 106/99/42 108/102/42
f 109/103/47 111/104/47 112/105/47
f 114/106/48 109/103/48 113/107/48
f 99/108/49 113/107/49 100/93/49
f 115/109/50 98/92/50 97/94/50
s 1
f 118/110/51 120/111/52 117/112/53
f 122/113/54 124/114/55 121/115/56
f 121/115/56 126/116/57 125/117/57
f 117/112/53 123/118/58 122/119/54
f 128/120/59 130/121/60 127/122/61
f 127/123/61 132/124/62 131/125/63
f 134/126/64 136/127/65 133/128/65
f 131/125/63 135/129/66 134/130/64
f 133/128/65 138/131/67 137/132/67
s off
f 140/133/68 142/134/68 139/135/68
f 144/136/69 146/137/69 143/138/69
f 139/135/68 148/139/68 147/140/68
f 140/133/68 150/141/68 141/142/68
f 147/140/70 152/143/70 151/144/70
f 153/145/71 152/143/71 154/146/71
f 155/147/72 157/148/72 158/149/72
f 160/150/73 155/147/73 159/151/73
f 145/152/74 159/151/74 146/137/74
f 161/153/75 144/136/75 143/138/75
s 1
f 164/154/76 166/155/77 163/156/78
f 168/157/79 170/158/80 167/159/81
f 167/159/81 172/160/82 171/161/82
f 163/156/78 169/162/83 168/163/79
f 174/164/84 176/165/85 173/166/86
f 173/167/86 178/168/87 177/169/88
f 180/170/89 182/171/90 179/172/90
f 177/169/88 181/173/91 180/174/89
f 179/172/90 184/175/92 183/176/92
s off
f 186/177/93 188/178/93 185/179/93
f 190/180/94 192/181/94 189/182/94
f 185/179/93 194/183/93 193/184/93
f 186/177/93 196/185/93 187/186/93
f 193/184/93 198/187/93 197/188/93
f 199/189/95 198/187/95 200/190/95
f 201/191/96 203/192/96 204/193/96
f 206/194/97 201/191/97 205/195/97
f 191/196/98 205/195/98 192/181/98
f 207/197/99 190/180/99 189/182/99
s 1
f 210/198/100 212/199/101 209/200/102
f 214/201/103 216/202/104 213/203/105
f 213/203/105 218/204/106 217/205/106
f 209/200/102 215/206/107 214/207/103
f 220/208/108 222/209/109 219/210/110
f 219/211/110 224/212/111 223/213/112
f 226/214/113 228/215/114 225/216/114
f 223/213/112 227/217/115 226/218/113
f 225/216/114 230/219/116 229/220/116
s off
f 232/221/117 234/222/117 231/223/117
f 236/224/118 238/225/118 235/226/118
f 231/223/119 240/227/119 239/228/119
f 232/221/120 242/229/120 233/230/120
f 239/228/120 244/231/120 243/232/120
f 245/233/121 244/231/121 246/234/121
f 247/235/122 249/236/122 250/237/122
f 252/238/123 247/235/123 251/239/123
f 237/240/124 251/239/124 238/225/124
f 253/241/125 236/224/125 235/226/125
s 1
f 256/242/126 258/243/127 255/244/127
f 260/245/128 262/246/129 259/247/129
f 259/247/129 264/248/130 263/249/130
f 255/244/127 261/250/131 260/251/128
f 266/252/132 268/253/133 265/254/134
f 265/255/134 270/256/135 269/257/136
f 272/258/137 274/259/138 271/260/138
f 269/257/136 273/261/139 272/262/137
f 271/260/138 276/263/140 275/264/140
s off
f 278/265/141 280/266/141 277/267/141
f 282/268/142 284/269/142 281/270/142
f 277/267/143 286/271/143 285/272/143
f 278/265/143 288/273/143 279/274/143
f 285/272/144 290/275/144 289/276/144
f 291/277/143 290/275/143 292/278/143
f 293/279/145 295/280/145 296/281/145
f 298/282/146 293/279/146 297/283/146
f 283/284/147 297/283/147 284/269/147
f 299/285/148 282/268/148 281/270/148
s 1
f 301/286/149 303/287/150 304/288/151
f 305/289/152 307/290/153 308/291/152
f 309/292/154 308/291/152 310/293/154
f 306/294/155 304/288/151 307/295/153
f 312/296/156 314/297/157 311/298/157
f 315/299/158 314/300/157 316/301/159
f 318/302/160 320/303/161 317/304/161
f 315/299/158 319/305/160 318/306/160
f 317/304/161 322/307/162 321/308/162
s off
f 324/309/163 326/310/163 323/311/163
f 328/312/164 330/313/164 327/314/164
f 323/311/165 332/315/165 331/316/165
f 324/309/163 334/317/163 325/318/163
f 331/316/166 336/319/166 335/320/166
f 337/321/165 336/319/165 338/322/165
f 339/323/167 341/324/167 342/325/167
f 344/326/168 339/323/168 343/327/168
f 329/328/169 343/327/169 330/313/169
f 345/329/170 328/312/170 327/314/170
s 1
f 347/330/171 349/331/172 350/332/173
f 351/333/174 353/334/175 354/335/174
f 355/336/176 354/335/174 356/337/176
f 352/338/177 350/332/173 353/339/175
f 357/340/178 359/341/179 360/342/180
f 361/343/181 360/344/180 362/345/182
f 363/346/183 365/347/184 366/348/183
f 364/349/184 362/345/182 365/350/184
f 367/351/185 366/348/183 368/352/185
s off
f 370/353/186 372/354/186 369/355/186
f 374/356/187 376/357/187 373/358/187
f 369/355/188 378/359/188 377/360/188
f 370/353/186 380/361/186 371/362/186
f 377/360/186 382/363/186 381/364/186
f 383/365/186 382/363/186 384/366/186
f 385/367/189 387/368/189 388/369/189
f 390/370/190 385/367/190 389/371/190
f 375/372/191 389/371/191 376/357/191
f 391/373/192 374/356/192 373/358/192
s 1
f 393/374/193 395/375/194 396/376/195
f 397/377/196 399/378/197 400/379/198
f 401/380/199 400/379/198 402/381/199
f 398/382/200 396/376/195 399/383/197
f 403/384/201 405/385/202 406/386/203
f 407/387/204 406/388/203 408/389/205
f 409/390/206 411/391/207 412/392/206
f 410/393/208 408/389/205 411/394/207
f 413/395/209 412/392/206 414/396/209
s off
f 416/397/210 418/398/210 415/399/210
f 420/400/211 422/401/211 419/402/211
f 415/399/210 424/403/210 423/404/210
f 416/397/210 426/405/210 417/406/210
f 423/404/210 428/407/210 427/408/210
f 429/409/210 428/407/210 430/410/210
f 431/411/212 433/412/212 434/413/212
f 436/414/213 431/411/213 435/415/213
f 421/416/214 435/415/214 422/401/214
f 437/417/215 420/400/215 419/402/215
s 1
f 439/418/216 441/419/217 442/420/218
f 443/421/219 445/422/220 446/423/219
f 447/424/221 446/423/219 448/425/221
f 444/426/222 442/420/218 445/427/220
f 450/428/223 452/429/224 449/430/225
f 449/431/225 454/432/226 453/433/227
f 456/434/228 458/435/229 455/436/229
f 453/433/227 457/437/228 456/438/228
f 455/436/229 460/439/230 459/440/230
s off
f 462/441/231 464/442/231 461/443/231
f 466/444/232 468/445/232 465/446/232
f 461/443/231 470/447/231 469/448/231
f 462/441/231 472/449/231 463/450/231
f 469/448/233 474/451/233 473/452/233
f 475/453/233 474/451/233 476/454/233
f 477/455/234 479/456/234 480/457/234
f 482/458/235 477/455/235 481/459/235
f 467/460/236 481/459/236 468/445/236
f 483/461/237 466/444/237 465/446/237
s 1
f 485/462/238 487/463/239 488/464/240
f 489/465/241 491/466/242 492/467/243
f 493/468/244 492/467/243 494/469/244
f 490/470/245 488/464/240 491/471/242
f 495/472/246 497/473/247 498/474/248
f 499/475/249 498/476/248 500/477/250
f 501/478/251 503/479/252 504/480/251
f 502/481/253 500/477/250 503/482/252
f 505/483/254 504/480/251 506/484/254
s off
f 508/485/255 510/486/255 507/487/255
f 512/488/256 514/489/256 511/490/256
f 507/487/255 516/491/255 515/492/255
f 508/485/255 518/493/255 509/494/255
f 515/492/255 520/495/255 519/496/255
f 521/497/255 520/495/255 522/498/255
f 523/499/257 525/500/257 526/501/257
f 528/502/258 523/499/258 527/503/258
f 513/504/259 527/503/259 514/489/259
f 529/505/260 512/488/260 511/490/260
s 1
f 531/506/261 533/507/262 534/508/261
f 535/509/263 537/510/264 538/511/263
f 539/512/265 538/511/263 540/513/265
f 536/514/266 534/508/261 537/515/264
f 542/516/267 544/517/268 541/518/268
f 541/519/268 546/520/269 545/521/269
f 548/522/270 550/523/271 547/524/271
f 545/521/269 549/525/270 548/526/270
f 547/524/271 552/527/272 551/528/272
f 555/529/273 554/530/273 556/531/273
s off
f 2/1/1 3/10/1 4/2/1
f 6/4/274 7/20/274 8/5/274
f 1/3/1 4/2/1 10/7/1
f 2/1/275 11/532/275 12/9/275
f 9/8/1 10/7/1 14/11/1
f 15/13/276 13/12/276 14/11/276
f 17/15/3 18/533/3 19/16/3
f 22/18/4 18/533/4 17/15/4
f 7/20/5 22/18/5 21/19/5
f 23/21/277 24/534/277 6/4/277
s 1
f 26/22/7 27/535/7 28/23/8
f 30/25/9 31/536/12 32/26/10
f 29/27/10 32/26/10 34/28/11
f 25/24/8 28/23/8 31/30/12
f 35/32/13 36/537/14 37/33/14
f 35/35/13 38/538/15 40/36/16
f 42/38/17 43/539/19 44/39/18
f 39/37/16 40/36/16 43/41/19
f 41/40/18 44/39/18 46/43/20
s off
f 48/45/21 49/54/21 50/46/21
f 52/48/278 53/64/278 54/49/278
f 47/47/279 50/46/279 56/51/279
f 48/45/21 57/540/21 58/53/21
f 55/52/21 56/51/21 60/55/21
f 61/57/21 59/56/21 60/55/21
f 63/59/280 64/541/280 65/60/280
f 68/62/281 64/541/281 63/59/281
f 53/64/282 68/62/282 67/63/282
f 69/65/27 70/542/27 52/48/27
s 1
f 72/66/28 73/543/28 74/67/29
f 76/69/31 77/544/34 78/70/32
f 75/71/32 78/70/32 80/72/33
f 71/68/30 74/67/29 77/74/34
f 82/76/35 83/545/35 84/77/36
f 81/79/37 84/546/36 86/80/38
f 88/82/39 89/547/39 90/83/40
f 85/81/38 86/80/38 89/85/39
f 87/84/40 90/83/40 92/87/41
s off
f 94/89/46 95/98/46 96/90/46
f 98/92/283 99/108/283 100/93/283
f 93/91/45 96/90/45 102/95/45
f 94/89/284 103/548/284 104/97/284
f 101/96/42 102/95/42 106/99/42
f 107/101/42 105/100/42 106/99/42
f 109/103/47 110/549/47 111/104/47
f 114/106/48 110/549/48 109/103/48
f 99/108/285 114/106/285 113/107/285
f 115/109/286 116/550/286 98/92/286
s 1
f 118/110/51 119/551/287 120/111/52
f 122/113/54 123/552/58 124/114/55
f 121/115/56 124/114/55 126/116/57
f 117/112/53 120/111/52 123/118/58
f 128/120/59 129/553/59 130/121/60
f 127/123/61 130/554/60 132/124/62
f 134/126/64 135/555/66 136/127/65
f 131/125/63 132/124/62 135/129/66
f 133/128/65 136/127/65 138/131/67
s off
f 140/133/70 141/142/70 142/134/70
f 144/136/288 145/152/288 146/137/288
f 139/135/70 142/134/70 148/139/70
f 140/133/68 149/556/68 150/141/68
f 147/140/68 148/139/68 152/143/68
f 153/145/71 151/144/71 152/143/71
f 155/147/289 156/557/289 157/148/289
f 160/150/290 156/557/290 155/147/290
f 145/152/291 160/150/291 159/151/291
f 161/153/292 162/558/292 144/136/292
s 1
f 164/154/76 165/559/293 166/155/77
f 168/157/79 169/560/83 170/158/80
f 167/159/81 170/158/80 172/160/82
f 163/156/78 166/155/77 169/162/83
f 174/164/84 175/561/84 176/165/85
f 173/167/86 176/562/85 178/168/87
f 180/170/89 181/563/91 182/171/90
f 177/169/88 178/168/87 181/173/91
f 179/172/90 182/171/90 184/175/92
s off
f 186/177/93 187/186/93 188/178/93
f 190/180/294 191/196/294 192/181/294
f 185/179/93 188/178/93 194/183/93
f 186/177/93 195/564/93 196/185/93
f 193/184/95 194/183/95 198/187/95
f 199/189/93 197/188/93 198/187/93
f 201/191/295 202/565/295 203/192/295
f 206/194/296 202/565/296 201/191/296
f 191/196/297 206/194/297 205/195/297
f 207/197/298 208/566/298 190/180/298
s 1
f 210/198/100 211/567/299 212/199/101
f 214/201/103 215/568/107 216/202/104
f 213/203/105 216/202/104 218/204/106
f 209/200/102 212/199/101 215/206/107
f 220/208/108 221/569/108 222/209/109
f 219/211/110 222/570/109 224/212/111
f 226/214/113 227/571/115 228/215/114
f 223/213/112 224/212/111 227/217/115
f 225/216/114 228/215/114 230/219/116
s off
f 232/221/121 233/230/121 234/222/121
f 236/224/300 237/240/300 238/225/300
f 231/223/121 234/222/121 240/227/121
f 232/221/121 241/572/121 242/229/121
f 239/228/121 240/227/121 244/231/121
f 245/233/120 243/232/120 244/231/120
f 247/235/301 248/573/301 249/236/301
f 252/238/123 248/573/123 247/235/123
f 237/240/302 252/238/302 251/239/302
f 253/241/303 254/574/303 236/224/303
s 1
f 256/242/126 257/575/304 258/243/127
f 260/245/128 261/576/131 262/246/129
f 259/247/129 262/246/129 264/248/130
f 255/244/127 258/243/127 261/250/131
f 266/252/132 267/577/132 268/253/133
f 265/255/134 268/578/133 270/256/135
f 272/258/137 273/579/139 274/259/138
f 269/257/136 270/256/135 273/261/139
f 271/260/138 274/259/138 276/263/140
s off
f 278/265/143 279/274/143 280/266/143
f 282/268/305 283/284/305 284/269/305
f 277/267/143 280/266/143 286/271/143
f 278/265/306 287/580/306 288/273/306
f 285/272/307 286/271/307 290/275/307
f 291/277/141 289/276/141 290/275/141
f 293/279/145 294/581/145 295/280/145
f 298/282/308 294/581/308 293/279/308
f 283/284/309 298/282/309 297/283/309
f 299/285/310 300/582/310 282/268/310
s 1
f 301/286/149 302/583/150 303/287/150
f 305/289/152 306/584/155 307/290/153
f 309/292/154 305/289/152 308/291/152
f 306/294/155 301/286/149 304/288/151
f 312/296/156 313/585/156 314/297/157
f 315/299/158 311/586/157 314/300/157
f 318/302/160 319/587/160 320/303/161
f 315/299/158 316/301/159 319/305/160
f 317/304/161 320/303/161 322/307/162
s off
f 324/309/163 325/318/163 326/310/163
f 328/312/311 329/328/311 330/313/311
f 323/311/312 326/310/312 332/315/312
f 324/309/313 333/588/313 334/317/313
f 331/316/313 332/315/313 336/319/313
f 337/321/163 335/320/163 336/319/163
f 339/323/314 340/589/314 341/324/314
f 344/326/315 340/589/315 339/323/315
f 329/328/316 344/326/316 343/327/316
f 345/329/317 346/590/317 328/312/317
s 1
f 347/330/171 348/591/172 349/331/172
f 351/333/174 352/592/177 353/334/175
f 355/336/176 351/333/174 354/335/174
f 352/338/177 347/330/171 350/332/173
f 357/340/178 358/593/179 359/341/179
f 361/343/181 357/594/178 360/344/180
f 363/346/183 364/595/184 365/347/184
f 364/349/184 361/343/181 362/345/182
f 367/351/185 363/346/183 366/348/183
s off
f 370/353/186 371/362/186 372/354/186
f 374/356/318 375/372/318 376/357/318
f 369/355/188 372/354/188 378/359/188
f 370/353/186 379/596/186 380/361/186
f 377/360/186 378/359/186 382/363/186
f 383/365/186 381/364/186 382/363/186
f 385/367/189 386/597/189 387/368/189
f 390/370/319 386/597/319 385/367/319
f 375/372/320 390/370/320 389/371/320
f 391/373/321 392/598/321 374/356/321
s 1
f 393/374/193 394/599/194 395/375/194
f 397/377/196 398/600/200 399/378/197
f 401/380/199 397/377/196 400/379/198
f 398/382/200 393/374/193 396/376/195
f 403/384/201 404/601/202 405/385/202
f 407/387/204 403/602/201 406/388/203
f 409/390/206 410/603/208 411/391/207
f 410/393/208 407/387/204 408/389/205
f 413/395/209 409/390/206 412/392/206
s off
f 416/397/322 417/406/322 418/398/322
f 420/400/323 421/416/323 422/401/323
f 415/399/322 418/398/322 424/403/322
f 416/397/210 425/604/210 426/405/210
f 423/404/210 424/403/210 428/407/210
f 429/409/210 427/408/210 428/407/210
f 431/411/324 432/605/324 433/412/324
f 436/414/325 432/605/325 431/411/325
f 421/416/326 436/414/326 435/415/326
f 437/417/327 438/606/327 420/400/327
s 1
f 439/418/216 440/607/217 441/419/217
f 443/421/219 444/608/222 445/422/220
f 447/424/221 443/421/219 446/423/219
f 444/426/222 439/418/216 442/420/218
f 450/428/223 451/609/328 452/429/224
f 449/431/225 452/610/224 454/432/226
f 456/434/228 457/611/228 458/435/229
f 453/433/227 454/432/226 457/437/228
f 455/436/229 458/435/229 460/439/230
s off
f 462/441/231 463/450/231 464/442/231
f 466/444/329 467/460/329 468/445/329
f 461/443/330 464/442/330 470/447/330
f 462/441/231 471/612/231 472/449/231
f 469/448/331 470/447/331 474/451/331
f 475/453/231 473/452/231 474/451/231
f 477/455/332 478/613/332 479/456/332
f 482/458/333 478/613/333 477/455/333
f 467/460/236 482/458/236 481/459/236
f 483/461/334 484/614/334 466/444/334
s 1
f 485/462/238 486/615/239 487/463/239
f 489/465/241 490/616/245 491/466/242
f 493/468/244 489/465/241 492/467/243
f 490/470/245 485/462/238 488/464/240
f 495/472/246 496/617/247 497/473/247
f 499/475/249 495/618/246 498/476/248
f 501/478/251 502/619/253 503/479/252
f 502/481/253 499/475/249 500/477/250
f 505/483/254 501/478/251 504/480/251
s off
f 508/485/255 509/494/255 510/486/255
f 512/488/335 513/504/335 514/489/335
f 507/487/255 510/486/255 516/491/255
f 508/485/255 517/620/255 518/493/255
f 515/492/336 516/491/336 520/495/336
f 521/497/255 519/496/255 520/495/255
f 523/499/257 524/621/257 525/500/257
f 528/502/337 524/621/337 523/499/337
f 513/504/338 528/502/338 527/503/338
f 529/505/260 530/622/260 512/488/260
s 1
f 531/506/261 532/623/262 533/507/262
f 535/509/263 536/624/266 537/510/264
f 539/512/265 535/509/263 538/511/263
f 536/514/266 531/506/261 534/508/261
f 542/516/267 543/625/267 544/517/268
f 541/519/268 544/626/268 546/520/269
f 548/522/270 549/627/270 550/523/271
f 545/521/269 546/520/269 549/525/270
f 547/524/271 550/523/271 552/527/272
f 555/529/273 553/628/273 554/530/273
