# Blender v2.78 (sub 0) OBJ File: 'vtrack.blend'
# www.blender.org
o spectator_source_part2.004_Cube.012
v -0.007859 -44.056854 -7.892929
v 12.642616 -45.416470 -7.892928
v -6.601613 -38.418873 -7.900389
v -8.957843 -38.418873 -7.900389
v -23.028879 -38.418873 -7.900389
v -11.134942 -84.678757 -7.892921
v 1.515533 -84.541702 -7.892921
v -18.961967 -83.974823 -7.900381
v -21.318195 -83.974823 -7.900381
v -23.028879 -83.974823 -7.900381
v -4.954765 -61.900780 -7.892925
v 7.695710 -61.763725 -7.892925
v -1.244586 -48.517838 -7.892928
v -2.481312 -52.978817 -7.892927
v -3.718039 -57.439796 -7.892926
v 11.405890 -49.503284 -6.770382
v 10.169163 -53.590099 -5.624681
v 8.932436 -57.676910 -6.770381
vt 0.9798 0.4566
vt 0.9798 0.4566
vt 0.9798 0.4566
vt 0.9798 0.4566
vt 0.9798 0.4566
vt 0.9798 0.4566
vt 0.0000 0.0000
vt 0.0000 0.0000
vt 0.0000 0.0000
vt 0.9798 0.4566
vt 0.9798 0.4566
vt 0.0000 0.0000
vt 0.0000 0.0000
vt 0.0000 0.0000
vt 0.0000 0.0000
vt 0.0000 0.0000
vt 0.0000 0.0000
vt 0.0000 0.0000
vt 0.0000 0.0000
vt 0.9798 0.4566
vt 0.9798 0.4566
vt 0.9798 0.4566
vt 0.9798 0.4566
vt 0.0000 0.0000
vn 0.0000 -0.0000 -1.0000
vn 0.0240 0.0082 -0.9997
vn 0.0005 -0.0001 -1.0000
vn 0.0004 -0.0001 -1.0000
vn 0.0432 0.1140 -0.9925
vn 0.0302 -0.0331 -0.9990
vn 0.0253 -0.2442 -0.9694
vn 0.0626 -0.0324 -0.9975
vn 0.1302 -0.0488 -0.9903
vn 0.0685 -0.0042 -0.9976
vn 0.1344 0.1967 -0.9712
vn -0.0276 -0.2570 -0.9660
s 1
f 5/1/1 9/2/1 10/3/1
f 15/4/2 11/5/3 3/6/4
f 11/7/3 7/8/1 6/9/3
f 4/10/1 8/11/4 9/2/1
f 15/12/2 12/13/5 11/7/3
f 1/14/6 16/15/7 13/16/8
f 13/16/8 17/17/9 14/18/10
f 14/18/10 18/19/11 15/12/2
f 5/1/1 4/10/1 9/2/1
f 8/11/4 3/6/4 11/5/3
f 1/20/6 13/21/8 3/6/4
f 14/22/10 15/4/2 3/6/4
f 3/6/4 13/21/8 14/22/10
f 11/5/3 6/23/3 8/11/4
f 11/7/3 12/13/5 7/8/1
f 4/10/1 3/6/4 8/11/4
f 15/12/2 18/19/11 12/13/5
f 1/14/6 2/24/12 16/15/7
f 13/16/8 16/15/7 17/17/9
f 14/18/10 17/17/9 18/19/11
