# Blender v2.78 (sub 0) OBJ File: 'vtrack.blend'
# www.blender.org
o spectator_wall_source.008_Cube.036
v -2.672107 25.730354 -5.194046
v -2.730485 25.715645 -5.186381
v -2.743510 25.712078 -5.236624
v -2.675514 25.729212 -5.245551
v -2.602021 25.922638 -5.078570
v -2.586713 25.925085 -5.110888
v -2.649081 25.908371 -5.223800
v -2.655567 25.908285 -5.175510
v -2.613953 25.745155 -5.174566
v -2.607779 25.746452 -5.222863
v -2.764425 25.707834 -5.046091
v -2.783042 25.702980 -5.073220
v -2.560337 25.759233 -5.077625
v -2.545329 25.762850 -5.109950
v -2.414885 25.800541 -4.244188
v -2.375913 25.810963 -4.139201
v -2.771981 25.878307 -5.187322
v -2.784676 25.873457 -5.237557
v -2.824195 25.864311 -5.074153
v -2.805910 25.870455 -5.047032
v -2.713659 25.893242 -5.194988
v -2.716745 25.890850 -5.246486
v -2.456853 25.965057 -4.245140
v -2.417625 25.974483 -4.140146
v -2.743510 25.712078 -5.236624
v -2.783042 25.702980 -5.073220
v -2.824195 25.864311 -5.074153
v -2.784676 25.873457 -5.237557
v -2.675514 25.729212 -5.245551
v -2.716745 25.890850 -5.246486
v -2.545329 25.762850 -5.109950
v -2.607779 25.746452 -5.222863
v -2.649081 25.908371 -5.223800
v -2.586713 25.925085 -5.110888
v -2.375913 25.810963 -4.139201
v -2.417625 25.974483 -4.140146
v -2.950663 26.777828 -5.202365
v -3.008671 26.761723 -5.194690
v -3.021541 26.757576 -5.244928
v -2.953976 26.776335 -5.253868
v -2.885466 26.972370 -5.087860
v -2.870178 26.975012 -5.120172
v -2.931968 26.956158 -5.233065
v -2.938515 26.956181 -5.184783
v -2.892916 26.794159 -5.182898
v -2.886715 26.795359 -5.231194
v -3.042583 26.753803 -5.054399
v -3.061041 26.748354 -5.081524
v -2.839785 26.810057 -5.085971
v -2.824830 26.813875 -5.118298
v -2.696436 26.859251 -4.252598
v -2.657865 26.871174 -4.147623
v -3.054148 26.923309 -5.196570
v -3.066653 26.917875 -5.246793
v -3.106158 26.908672 -5.083389
v -3.088066 26.915409 -5.056280
v -2.996197 26.939619 -5.204247
v -2.999154 26.936869 -5.255735
v -2.742502 27.022932 -4.254503
v -2.703657 27.033892 -4.149515
v -2.713660 25.893242 -5.194988
v -2.771981 25.878307 -5.187322
v -3.008671 26.761723 -5.194690
v -2.950663 26.777828 -5.202365
v -2.602021 25.922638 -5.078570
v -2.655567 25.908285 -5.175510
v -2.892916 26.794159 -5.182898
v -2.839785 26.810057 -5.085971
v -2.456853 25.965057 -4.245140
v -2.696436 26.859251 -4.252598
v -3.021541 26.757576 -5.244928
v -3.061041 26.748354 -5.081524
v -3.106158 26.908672 -5.083389
v -3.066653 26.917875 -5.246793
v -2.953976 26.776335 -5.253868
v -2.999154 26.936869 -5.255735
v -2.824830 26.813875 -5.118298
v -2.886715 26.795359 -5.231194
v -2.931968 26.956158 -5.233065
v -2.870178 26.975012 -5.120172
v -2.657865 26.871174 -4.147623
v -2.703657 27.033892 -4.149515
v -3.254219 27.818581 -5.217789
v -3.311862 27.801228 -5.210094
v -3.324542 27.796427 -5.260324
v -3.257401 27.816641 -5.269285
v -3.193611 28.015524 -5.104609
v -3.178323 28.018261 -5.136913
v -3.239460 27.997194 -5.249770
v -3.246099 27.997435 -5.201502
v -3.196892 27.836353 -5.198343
v -3.190629 27.837341 -5.246636
v -3.345850 27.793564 -5.069808
v -3.364129 27.787500 -5.096924
v -3.144314 27.854149 -5.101444
v -3.129389 27.858068 -5.133772
v -3.003672 27.912617 -4.268209
v -2.965576 27.926168 -4.163257
v -3.360950 27.961916 -5.213246
v -3.373234 27.955828 -5.263449
v -3.412844 27.946976 -5.100051
v -3.394958 27.954317 -5.072961
v -3.303362 27.979450 -5.220944
v -3.306157 27.976248 -5.272414
v -3.053429 28.075495 -4.271403
v -3.015041 28.088099 -4.166432
v -2.996198 26.939621 -5.204248
v -3.054148 26.923311 -5.196570
v -3.311862 27.801228 -5.210094
v -3.254219 27.818581 -5.217789
v -2.885466 26.972372 -5.087861
v -2.938516 26.956182 -5.184784
v -3.196892 27.836353 -5.198343
v -3.144314 27.854149 -5.101444
v -2.742503 27.022932 -4.254503
v -3.003672 27.912617 -4.268209
v -3.324542 27.796427 -5.260324
v -3.364129 27.787500 -5.096924
v -3.412844 27.946976 -5.100051
v -3.373234 27.955828 -5.263449
v -3.257401 27.816641 -5.269285
v -3.306157 27.976248 -5.272414
v -3.129389 27.858068 -5.133772
v -3.190629 27.837341 -5.246636
v -3.239460 27.997194 -5.249770
v -3.178323 28.018261 -5.136913
v -2.965576 27.926168 -4.163257
v -3.015041 28.088099 -4.166432
v -3.580245 28.854017 -5.242028
v -3.637545 28.835571 -5.234309
v -3.650014 28.830105 -5.284522
v -3.583273 28.851589 -5.293513
v -3.523894 29.053406 -5.130359
v -3.508589 29.056173 -5.162652
v -3.569047 29.032972 -5.275457
v -3.575800 29.033487 -5.227207
v -3.523329 28.873098 -5.222613
v -3.516981 28.873814 -5.270899
v -3.671682 28.828382 -5.094034
v -3.689776 28.821730 -5.121136
v -3.471334 28.892744 -5.125757
v -3.456419 28.896696 -5.158086
v -3.333739 28.960886 -4.292748
v -3.296155 28.976067 -4.187835
v -3.689904 28.995617 -5.238893
v -3.701951 28.988867 -5.289069
v -3.741743 28.980587 -5.125685
v -3.724068 28.988508 -5.098620
v -3.632654 29.014217 -5.246617
v -3.635269 29.010532 -5.298064
v -3.386777 29.123007 -4.297392
v -3.348877 29.137228 -4.192450
v -3.303362 27.979452 -5.220944
v -3.360951 27.961918 -5.213246
v -3.637545 28.835571 -5.234309
v -3.580245 28.854017 -5.242028
v -3.193612 28.015526 -5.104609
v -3.246100 27.997437 -5.201502
v -3.523329 28.873098 -5.222613
v -3.471334 28.892744 -5.125757
v -3.053430 28.075497 -4.271403
v -3.333739 28.960886 -4.292748
v -3.650014 28.830105 -5.284522
v -3.689776 28.821730 -5.121136
v -3.741743 28.980587 -5.125685
v -3.701951 28.988867 -5.289069
v -3.583273 28.851589 -5.293513
v -3.635269 29.010532 -5.298064
v -3.456419 28.896696 -5.158086
v -3.516981 28.873814 -5.270899
v -3.569047 29.032972 -5.275457
v -3.508589 29.056173 -5.162652
v -3.296155 28.976067 -4.187835
v -3.348877 29.137228 -4.192450
v -3.926601 29.885960 -5.275568
v -3.983593 29.866596 -5.267819
v -3.995859 29.860521 -5.318013
v -3.929477 29.883078 -5.327038
v -3.874072 30.087713 -5.165371
v -3.858746 30.090481 -5.197654
v -3.918573 30.065414 -5.310396
v -3.925436 30.066191 -5.262165
v -3.870063 29.906166 -5.256189
v -3.863624 29.906610 -5.304467
v -4.017904 29.859921 -5.127561
v -4.035822 29.852747 -5.154646
v -3.818620 29.927460 -5.159387
v -3.803706 29.931414 -5.191716
v -3.684002 30.004480 -4.326665
v -3.646909 30.021124 -4.221799
v -4.038869 30.026342 -5.273784
v -4.050696 30.019001 -5.323930
v -4.090690 30.011316 -5.160566
v -4.073206 30.019745 -5.133529
v -3.981920 30.045832 -5.281538
v -3.984364 30.041700 -5.332961
v -3.739885 30.165979 -4.332696
v -3.702448 30.181629 -4.227792
v -3.632654 29.014217 -5.246617
v -3.689904 28.995617 -5.238894
v -3.983593 29.866596 -5.267819
v -3.926601 29.885960 -5.275568
v -3.523894 29.053406 -5.130359
v -3.575800 29.033487 -5.227207
v -3.870063 29.906166 -5.256189
v -3.818620 29.927460 -5.159387
v -3.386777 29.123007 -4.297392
v -3.684002 30.004480 -4.326665
v -3.995859 29.860521 -5.318013
v -4.035822 29.852747 -5.154646
v -4.090690 30.011316 -5.160566
v -4.050696 30.019001 -5.323930
v -3.929477 29.883078 -5.327038
v -3.984364 30.041700 -5.332961
v -3.803706 29.931414 -5.191716
v -3.863624 29.906610 -5.304467
v -3.918573 30.065414 -5.310396
v -3.858746 30.090481 -5.197654
v -3.646909 30.021124 -4.221799
v -3.702448 30.181629 -4.227792
v -4.290216 30.916664 -5.317447
v -4.346958 30.896587 -5.309669
v -4.359050 30.890020 -5.359843
v -4.292960 30.913404 -5.368902
v -4.240812 31.120476 -5.208515
v -4.225465 31.123232 -5.240791
v -4.284768 31.096687 -5.353471
v -4.291727 31.097685 -5.305256
v -4.233989 30.937752 -5.298103
v -4.227469 30.937967 -5.346372
v -4.381431 30.890373 -5.169429
v -4.399202 30.882784 -5.196497
v -4.183012 30.960369 -5.201355
v -4.168093 30.964310 -5.233683
v -4.050952 31.044647 -4.368927
v -4.014277 31.062475 -4.264108
v -4.404621 31.056314 -5.316813
v -4.416264 31.048504 -5.366931
v -4.456442 31.041342 -5.203589
v -4.439117 31.050165 -5.176576
v -4.347913 31.076481 -5.324595
v -4.350211 31.071993 -5.375995
v -4.109101 31.205717 -4.376131
v -4.072050 31.222511 -4.271266
v -3.981921 30.045834 -5.281538
v -4.038871 30.026344 -5.273785
v -4.346958 30.896587 -5.309669
v -4.290216 30.916664 -5.317447
v -3.874073 30.087715 -5.165371
v -3.925436 30.066193 -5.262166
v -4.233989 30.937752 -5.298103
v -4.183012 30.960369 -5.201355
v -3.739886 30.165981 -4.332696
v -4.050952 31.044647 -4.368927
v -4.359050 30.890020 -5.359843
v -4.399202 30.882784 -5.196497
v -4.456442 31.041342 -5.203589
v -4.416264 31.048504 -5.366931
v -4.292960 30.913404 -5.368902
v -4.350211 31.071993 -5.375995
v -4.168093 30.964310 -5.233683
v -4.227469 30.937967 -5.346372
v -4.284768 31.096687 -5.353471
v -4.225465 31.123232 -5.240791
v -4.014277 31.062475 -4.264108
v -4.072050 31.222511 -4.271266
v -4.667153 31.947445 -5.366066
v -4.723709 31.926861 -5.358264
v -4.735665 31.919922 -5.408421
v -4.669791 31.943897 -5.417507
v -4.620044 32.152874 -5.258113
v -4.604675 32.155609 -5.290380
v -4.663578 32.127975 -5.403008
v -4.670614 32.129150 -5.354809
v -4.611160 31.969175 -5.346753
v -4.604574 31.969208 -5.395012
v -4.758321 31.921026 -5.218042
v -4.775979 31.913128 -5.245096
v -4.560544 31.992777 -5.250050
v -4.545617 31.996698 -5.282377
v -4.430498 32.082569 -4.417881
v -4.394147 32.101284 -4.313105
v -4.783110 32.086693 -5.366314
v -4.794609 32.078522 -5.416408
v -4.834945 32.071789 -5.253087
v -4.817740 32.080910 -5.226095
v -4.726577 32.107338 -5.374118
v -4.728762 32.102573 -5.425498
v -4.490261 32.243374 -4.425980
v -4.453508 32.261009 -4.321148
v -4.347913 31.076481 -5.324595
v -4.404622 31.056314 -5.316813
v -4.723709 31.926861 -5.358264
v -4.667153 31.947445 -5.366066
v -4.240812 31.120476 -5.208516
v -4.291727 31.097685 -5.305257
v -4.611160 31.969175 -5.346753
v -4.560544 31.992777 -5.250050
v -4.109101 31.205717 -4.376131
v -4.430498 32.082569 -4.417881
v -4.735665 31.919922 -5.408421
v -4.775979 31.913128 -5.245096
v -4.834945 32.071789 -5.253087
v -4.794609 32.078522 -5.416408
v -4.669791 31.943897 -5.417507
v -4.728762 32.102573 -5.425498
v -4.545617 31.996698 -5.282377
v -4.604574 31.969208 -5.395012
v -4.663578 32.127975 -5.403008
v -4.604675 32.155609 -5.290380
v -4.394147 32.101284 -4.313105
v -4.453508 32.261009 -4.321148
v -5.053924 32.978867 -5.419978
v -5.110353 32.957947 -5.412158
v -5.122210 32.950741 -5.462301
v -5.056484 32.975113 -5.471408
v -5.008407 33.185478 -5.312755
v -4.993022 33.188190 -5.345016
v -5.051641 33.159798 -5.457605
v -5.058734 33.161102 -5.409418
v -4.998096 33.001038 -5.400688
v -4.991457 33.000931 -5.448940
v -5.145077 32.952412 -5.271952
v -5.162655 32.944294 -5.298995
v -4.947735 33.025322 -5.304020
v -4.932800 33.029221 -5.336347
v -4.819168 33.119061 -4.472057
v -4.783051 33.138401 -4.367313
v -5.170958 33.117924 -5.420884
v -5.182355 33.109505 -5.470960
v -5.222816 33.103104 -5.307656
v -5.205697 33.112431 -5.280680
v -5.114544 33.138885 -5.428705
v -5.116646 33.133919 -5.480070
v -4.880028 33.279713 -4.480819
v -4.843490 33.297943 -4.376014
v -4.726577 32.107338 -5.374119
v -4.783110 32.086693 -5.366314
v -5.110353 32.957947 -5.412158
v -5.053924 32.978867 -5.419978
v -4.620043 32.152874 -5.258113
v -4.670614 32.129150 -5.354810
v -4.998096 33.001038 -5.400688
v -4.947735 33.025322 -5.304020
v -4.490261 32.243374 -4.425980
v -4.819168 33.119061 -4.472057
v -5.122210 32.950741 -5.462301
v -5.162655 32.944294 -5.298995
v -5.222816 33.103104 -5.307656
v -5.182355 33.109505 -5.470960
v -5.056484 32.975113 -5.471408
v -5.116646 33.133919 -5.480070
v -4.932800 33.029221 -5.336347
v -4.991457 33.000931 -5.448940
v -5.051641 33.159798 -5.457605
v -4.993022 33.188190 -5.345016
v -4.783051 33.138401 -4.367313
v -4.843490 33.297943 -4.376014
v -5.447099 34.011150 -5.477638
v -5.503449 33.990021 -5.469807
v -5.515237 33.982635 -5.519939
v -5.449603 34.007248 -5.529060
v -5.402607 34.218597 -5.370930
v -5.387207 34.221287 -5.403186
v -5.445634 34.192390 -5.515746
v -5.452770 34.193794 -5.467567
v -5.391376 34.033600 -5.458363
v -5.384699 34.033394 -5.506609
v -5.538261 33.984718 -5.329614
v -5.555784 33.976460 -5.356648
v -5.341192 34.058346 -5.361722
v -5.326247 34.062218 -5.394046
v -5.213665 34.154816 -4.529911
v -5.177711 34.174583 -4.425190
v -5.564823 34.150166 -5.479009
v -5.576149 34.141575 -5.529072
v -5.616710 34.135437 -5.365783
v -5.599647 34.144894 -5.338817
v -5.508482 34.171318 -5.486841
v -5.510525 34.166214 -5.538194
v -5.275208 34.315403 -4.539138
v -5.238817 34.334034 -4.434352
v -5.114544 33.138885 -5.428705
v -5.170959 33.117924 -5.420884
v -5.503449 33.990021 -5.469807
v -5.447099 34.011150 -5.477638
v -5.008407 33.185478 -5.312755
v -5.058733 33.161102 -5.409418
v -5.391376 34.033600 -5.458363
v -5.341192 34.058346 -5.361722
v -4.880028 33.279713 -4.480819
v -5.213665 34.154816 -4.529911
v -5.515237 33.982635 -5.519939
v -5.555784 33.976460 -5.356648
v -5.616710 34.135437 -5.365783
v -5.576149 34.141575 -5.529072
v -5.449603 34.007248 -5.529060
v -5.510525 34.166214 -5.538194
v -5.326247 34.062218 -5.394046
v -5.384699 34.033394 -5.506609
v -5.445634 34.192390 -5.515746
v -5.387207 34.221287 -5.403186
v -5.177711 34.174583 -4.425190
v -5.238817 34.334034 -4.434352
v -5.844296 35.044498 -5.537958
v -5.900605 35.023262 -5.530121
v -5.912349 35.015762 -5.580246
v -5.846763 35.040501 -5.589375
v -5.800406 35.252544 -5.431605
v -5.784992 35.255199 -5.463857
v -5.843304 35.226006 -5.576399
v -5.850470 35.227482 -5.528228
v -5.788635 35.067108 -5.518692
v -5.781930 35.066833 -5.566935
v -5.935485 35.018135 -5.389937
v -5.952975 35.009789 -5.416967
v -5.738557 35.092133 -5.422067
v -5.723602 35.095978 -5.454390
v -5.611710 35.190372 -4.590359
v -5.575857 35.210403 -4.485654
v -5.962434 35.183620 -5.539656
v -5.973715 35.174919 -5.589710
v -6.014352 35.168976 -5.426432
v -5.997323 35.178516 -5.399474
v -5.906128 35.204868 -5.547493
v -5.908133 35.199669 -5.598838
v -5.673635 35.350983 -4.599909
v -5.637335 35.369850 -4.495135
v -5.508482 34.171318 -5.486841
v -5.564824 34.150166 -5.479009
v -5.900605 35.023262 -5.530121
v -5.844296 35.044498 -5.537958
v -5.402607 34.218597 -5.370930
v -5.452770 34.193794 -5.467568
v -5.788635 35.067108 -5.518692
v -5.738557 35.092133 -5.422067
v -5.275209 34.315403 -4.539138
v -5.611710 35.190372 -4.590359
v -5.912349 35.015762 -5.580246
v -5.952975 35.009789 -5.416967
v -6.014352 35.168976 -5.426432
v -5.973715 35.174919 -5.589710
v -5.846763 35.040501 -5.589375
v -5.908133 35.199669 -5.598838
v -5.723602 35.095978 -5.454390
v -5.781930 35.066833 -5.566935
v -5.843304 35.226006 -5.576399
v -5.784992 35.255199 -5.463857
v -5.575857 35.210403 -4.485654
v -5.637335 35.369850 -4.495135
vt 0.1692 0.5974
vt 0.1650 0.5991
vt 0.1660 0.5964
vt 0.6062 0.2498
vt 0.6083 0.2449
vt 0.6077 0.2510
vt 0.1620 0.5964
vt 0.1634 0.5941
vt 0.1745 0.5929
vt 0.1687 0.6002
vt 0.1613 0.5892
vt 0.1628 0.5880
vt 0.1741 0.5427
vt 0.1745 0.5365
vt 0.6141 0.2416
vt 0.6194 0.2461
vt 0.6191 0.2478
vt 0.6099 0.2399
vt 0.6109 0.2426
vt 0.6069 0.2426
vt 0.6191 0.2963
vt 0.9495 0.2388
vt 0.9587 0.2480
vt 0.9495 0.2480
vt 0.7557 0.9798
vt 0.7518 0.9890
vt 0.7518 0.9798
vt 0.5798 0.9333
vt 0.5703 0.9264
vt 0.5796 0.9263
vt 0.7478 0.9889
vt 0.7478 0.9797
vt 0.5704 0.8728
vt 0.5798 0.8727
vt 0.6142 0.4368
vt 0.6100 0.4385
vt 0.6110 0.4358
vt 0.6418 0.3869
vt 0.6439 0.3821
vt 0.6433 0.3882
vt 0.6070 0.4358
vt 0.6084 0.4335
vt 0.6195 0.4323
vt 0.6137 0.4396
vt 0.6063 0.4287
vt 0.6078 0.4274
vt 0.6191 0.3821
vt 0.6195 0.3759
vt 0.6496 0.3787
vt 0.6549 0.3832
vt 0.6546 0.3850
vt 0.6454 0.3771
vt 0.6464 0.3797
vt 0.6424 0.3798
vt 0.6546 0.4335
vt 0.9529 0.1598
vt 0.9562 0.2102
vt 0.9529 0.2103
vt 0.4367 0.5076
vt 0.3860 0.5137
vt 0.3858 0.5076
vt 0.4378 0.4616
vt 0.3865 0.4616
vt 0.9494 0.1598
vt 0.9494 0.2103
vt 0.8924 0.9577
vt 0.8832 0.9484
vt 0.8924 0.9484
vt 0.6847 0.9798
vt 0.6809 0.9890
vt 0.6809 0.9798
vt 0.0957 0.9321
vt 0.0862 0.9252
vt 0.0955 0.9250
vt 0.6769 0.9890
vt 0.6769 0.9798
vt 0.0864 0.8716
vt 0.0957 0.8715
vt 0.6498 0.1481
vt 0.6456 0.1498
vt 0.6466 0.1471
vt 0.6414 0.6323
vt 0.6435 0.6274
vt 0.6429 0.6336
vt 0.6426 0.1471
vt 0.6440 0.1448
vt 0.6551 0.1436
vt 0.6494 0.1509
vt 0.6419 0.1400
vt 0.6434 0.1387
vt 0.6548 0.0934
vt 0.6551 0.0872
vt 0.6492 0.6242
vt 0.6545 0.6286
vt 0.6542 0.6304
vt 0.6450 0.6225
vt 0.6460 0.6251
vt 0.6421 0.6252
vt 0.6542 0.6789
vt 0.9494 0.1377
vt 0.9527 0.0873
vt 0.9527 0.1377
vt 0.5118 0.1393
vt 0.4609 0.1332
vt 0.5117 0.1332
vt 0.5130 0.0872
vt 0.4618 0.0872
vt 0.9562 0.0872
vt 0.9562 0.1378
vt 0.6861 0.9577
vt 0.6769 0.9485
vt 0.6861 0.9485
vt 0.6414 0.9890
vt 0.6452 0.9798
vt 0.6452 0.9889
vt 0.9272 0.6819
vt 0.9177 0.6750
vt 0.9269 0.6748
vt 0.6492 0.9798
vt 0.6492 0.9890
vt 0.9179 0.6215
vt 0.9272 0.6213
vt 0.5426 0.6822
vt 0.5384 0.6840
vt 0.5394 0.6813
vt 0.3858 0.6324
vt 0.3879 0.6275
vt 0.3873 0.6336
vt 0.5354 0.6813
vt 0.5368 0.6790
vt 0.5479 0.6777
vt 0.5421 0.6851
vt 0.5347 0.6741
vt 0.5362 0.6729
vt 0.5475 0.6276
vt 0.5479 0.6214
vt 0.3937 0.6243
vt 0.3989 0.6288
vt 0.3986 0.6306
vt 0.3895 0.6226
vt 0.3905 0.6252
vt 0.3865 0.6253
vt 0.3986 0.6790
vt 0.9441 0.9260
vt 0.9474 0.8754
vt 0.9474 0.9260
vt 0.4620 0.1633
vt 0.5128 0.1694
vt 0.4621 0.1694
vt 0.4607 0.2153
vt 0.5118 0.2153
vt 0.9509 0.8754
vt 0.9509 0.9260
vt 0.3557 0.9578
vt 0.3465 0.9485
vt 0.3557 0.9485
vt 0.8871 0.9797
vt 0.8910 0.9889
vt 0.8871 0.9890
vt 0.9268 0.1408
vt 0.9179 0.1480
vt 0.9176 0.1410
vt 0.8832 0.9797
vt 0.8832 0.9889
vt 0.9272 0.0872
vt 0.9178 0.0875
vt 0.2440 0.6828
vt 0.2398 0.6846
vt 0.2408 0.6819
vt 0.1613 0.6331
vt 0.1634 0.6283
vt 0.1628 0.6344
vt 0.2368 0.6819
vt 0.2382 0.6796
vt 0.2493 0.6783
vt 0.2435 0.6857
vt 0.2361 0.6748
vt 0.2376 0.6735
vt 0.2489 0.6282
vt 0.2493 0.6220
vt 0.1691 0.6251
vt 0.1743 0.6296
vt 0.1740 0.6314
vt 0.1649 0.6233
vt 0.1659 0.6260
vt 0.1619 0.6260
vt 0.1740 0.6797
vt 0.0534 0.8777
vt 0.0501 0.9283
vt 0.0501 0.8776
vt 0.4620 0.3876
vt 0.5129 0.3937
vt 0.4622 0.3937
vt 0.5117 0.4396
vt 0.4606 0.4396
vt 0.0467 0.9284
vt 0.0467 0.8776
vt 0.6506 0.9577
vt 0.6414 0.9485
vt 0.6506 0.9485
vt 0.9850 0.6526
vt 0.9888 0.6619
vt 0.9850 0.6619
vt 0.8949 0.7604
vt 0.8861 0.7677
vt 0.8857 0.7606
vt 0.9810 0.6526
vt 0.9810 0.6619
vt 0.8953 0.7069
vt 0.8860 0.7071
vt 0.0190 0.6844
vt 0.0148 0.6861
vt 0.0158 0.6834
vt 0.7127 0.2496
vt 0.7148 0.2448
vt 0.7142 0.2509
vt 0.0118 0.6834
vt 0.0132 0.6812
vt 0.0242 0.6799
vt 0.0185 0.6872
vt 0.0111 0.6764
vt 0.0126 0.6751
vt 0.0239 0.6298
vt 0.0242 0.6236
vt 0.7205 0.2416
vt 0.7258 0.2461
vt 0.7254 0.2479
vt 0.7164 0.2399
vt 0.7173 0.2425
vt 0.7134 0.2425
vt 0.7254 0.2962
vt 0.8832 0.9263
vt 0.8865 0.8755
vt 0.8865 0.9264
vt 0.3874 0.3876
vt 0.4383 0.3937
vt 0.3875 0.3937
vt 0.4370 0.4396
vt 0.3858 0.4396
vt 0.8899 0.8754
vt 0.8899 0.9264
vt 0.9495 0.2793
vt 0.9587 0.2701
vt 0.9587 0.2793
vt 0.9783 0.5759
vt 0.9822 0.5666
vt 0.9822 0.5759
vt 0.8953 0.1478
vt 0.8857 0.1410
vt 0.8949 0.1407
vt 0.9861 0.5666
vt 0.9861 0.5759
vt 0.8860 0.0875
vt 0.8953 0.0872
vt 0.7556 0.6820
vt 0.7515 0.6838
vt 0.7525 0.6811
vt 0.7480 0.2496
vt 0.7501 0.2448
vt 0.7495 0.2509
vt 0.7485 0.6811
vt 0.7499 0.6788
vt 0.7609 0.6775
vt 0.7552 0.6848
vt 0.7478 0.6740
vt 0.7493 0.6727
vt 0.7605 0.6275
vt 0.7609 0.6213
vt 0.7559 0.2416
vt 0.7611 0.2461
vt 0.7607 0.2479
vt 0.7517 0.2398
vt 0.7527 0.2425
vt 0.7487 0.2425
vt 0.7607 0.2962
vt 0.9128 0.4588
vt 0.9095 0.5099
vt 0.9095 0.4588
vt 0.4386 0.0888
vt 0.4325 0.1393
vt 0.4325 0.0889
vt 0.3861 0.1378
vt 0.3861 0.0872
vt 0.9061 0.5100
vt 0.9061 0.4588
vt 0.9587 0.6213
vt 0.9495 0.6306
vt 0.9495 0.6213
vt 0.9857 0.3246
vt 0.9818 0.3340
vt 0.9818 0.3246
vt 0.8951 0.5958
vt 0.8855 0.5890
vt 0.8947 0.5887
vt 0.9778 0.3340
vt 0.9778 0.3246
vt 0.8858 0.5355
vt 0.8951 0.5353
vt 0.7562 0.4366
vt 0.7520 0.4384
vt 0.7530 0.4357
vt 0.3109 0.7178
vt 0.3130 0.7130
vt 0.3124 0.7191
vt 0.7490 0.4357
vt 0.7504 0.4334
vt 0.7614 0.4321
vt 0.7557 0.4394
vt 0.7483 0.4286
vt 0.7498 0.4273
vt 0.7611 0.3821
vt 0.7614 0.3759
vt 0.3188 0.7098
vt 0.3240 0.7144
vt 0.3236 0.7161
vt 0.3146 0.7081
vt 0.3156 0.7108
vt 0.3116 0.7107
vt 0.3236 0.7644
vt 0.8901 0.0110
vt 0.8868 0.0624
vt 0.8868 0.0110
vt 0.4384 0.1649
vt 0.4323 0.2155
vt 0.4323 0.1650
vt 0.3859 0.2140
vt 0.3859 0.1633
vt 0.8834 0.0624
vt 0.8834 0.0110
vt 0.9494 0.7161
vt 0.9587 0.7069
vt 0.9587 0.7161
vt 0.9839 0.7926
vt 0.9800 0.8020
vt 0.9800 0.7926
vt 0.0564 0.8553
vt 0.0467 0.8485
vt 0.0560 0.8483
vt 0.9760 0.8020
vt 0.9760 0.7926
vt 0.0471 0.7951
vt 0.0564 0.7948
vt 0.6847 0.7676
vt 0.6806 0.7694
vt 0.6815 0.7667
vt 0.3465 0.7180
vt 0.3486 0.7132
vt 0.3480 0.7193
vt 0.6776 0.7667
vt 0.6790 0.7644
vt 0.6900 0.7631
vt 0.6843 0.7704
vt 0.6769 0.7596
vt 0.6784 0.7583
vt 0.6896 0.7131
vt 0.6900 0.7069
vt 0.3543 0.7100
vt 0.3595 0.7146
vt 0.3592 0.7163
vt 0.3502 0.7083
vt 0.3511 0.7109
vt 0.3472 0.7109
vt 0.3592 0.7646
vt 0.8838 0.4588
vt 0.8805 0.5103
vt 0.8805 0.4588
vt 0.4383 0.2403
vt 0.4322 0.2910
vt 0.4322 0.2405
vt 0.3858 0.2894
vt 0.3858 0.2388
vt 0.8771 0.5103
vt 0.8771 0.4588
vt 0.9240 0.3339
vt 0.9147 0.3246
vt 0.9240 0.3246
vt 0.9756 0.9574
vt 0.9795 0.9480
vt 0.9795 0.9574
vt 0.1316 0.8539
vt 0.1219 0.8471
vt 0.1312 0.8468
vt 0.9835 0.9480
vt 0.9835 0.9574
vt 0.1223 0.7936
vt 0.1316 0.7934
vt 0.6492 0.7677
vt 0.6450 0.7695
vt 0.6460 0.7668
vt 0.2717 0.7184
vt 0.2738 0.7136
vt 0.2732 0.7196
vt 0.6421 0.7668
vt 0.6435 0.7645
vt 0.6544 0.7632
vt 0.6487 0.7706
vt 0.6414 0.7598
vt 0.6429 0.7585
vt 0.6541 0.7132
vt 0.6544 0.7071
vt 0.2795 0.7104
vt 0.2847 0.7149
vt 0.2844 0.7167
vt 0.2753 0.7086
vt 0.2763 0.7113
vt 0.2724 0.7113
vt 0.2844 0.7649
vt 0.8544 0.0626
vt 0.8577 0.0110
vt 0.8577 0.0626
vt 0.0864 0.3651
vt 0.0925 0.3143
vt 0.0925 0.3649
vt 0.1389 0.3159
vt 0.1389 0.3666
vt 0.8611 0.0110
vt 0.8611 0.0626
vt 0.8924 0.3339
vt 0.8831 0.3246
vt 0.8924 0.3246
vt 0.9810 0.9069
vt 0.9771 0.9163
vt 0.9771 0.9069
vt 0.2459 0.8538
vt 0.2361 0.8470
vt 0.2455 0.8467
vt 0.9732 0.9069
vt 0.9732 0.9163
vt 0.2366 0.7935
vt 0.2459 0.7933
vt 0.1741 0.5911
vt 0.6136 0.2388
vt 0.6194 0.3025
vt 0.9587 0.2388
vt 0.7557 0.9889
vt 0.5705 0.9334
vt 0.6191 0.4305
vt 0.6492 0.3759
vt 0.6549 0.4396
vt 0.9562 0.1599
vt 0.4367 0.5137
vt 0.8832 0.9577
vt 0.6847 0.9890
vt 0.0865 0.9322
vt 0.6548 0.1418
vt 0.6488 0.6213
vt 0.6545 0.6850
vt 0.9494 0.0873
vt 0.4611 0.1393
vt 0.6769 0.9577
vt 0.6414 0.9798
vt 0.9180 0.6821
vt 0.5475 0.6760
vt 0.3932 0.6214
vt 0.3989 0.6851
vt 0.9441 0.8755
vt 0.5126 0.1633
vt 0.3465 0.9578
vt 0.8910 0.9797
vt 0.9272 0.1478
vt 0.2489 0.6765
vt 0.1686 0.6223
vt 0.1743 0.6859
vt 0.0534 0.9283
vt 0.5127 0.3876
vt 0.6414 0.9577
vt 0.9888 0.6526
vt 0.8953 0.7674
vt 0.0239 0.6781
vt 0.7201 0.2388
vt 0.7258 0.3024
vt 0.8832 0.8755
vt 0.4381 0.3876
vt 0.9495 0.2701
vt 0.9783 0.5666
vt 0.8861 0.1480
vt 0.7605 0.6757
vt 0.7554 0.2388
vt 0.7611 0.3024
vt 0.9128 0.5099
vt 0.4386 0.1391
vt 0.9587 0.6306
vt 0.9857 0.3340
vt 0.8859 0.5960
vt 0.7611 0.4303
vt 0.3183 0.7070
vt 0.3240 0.7706
vt 0.8901 0.0624
vt 0.4384 0.2153
vt 0.9494 0.7069
vt 0.9839 0.8020
vt 0.0471 0.8556
vt 0.6896 0.7613
vt 0.3538 0.7072
vt 0.3595 0.7708
vt 0.8838 0.5103
vt 0.4383 0.2908
vt 0.9147 0.3339
vt 0.9756 0.9480
vt 0.1223 0.8542
vt 0.6541 0.7614
vt 0.2790 0.7075
vt 0.2847 0.7711
vt 0.8544 0.0110
vt 0.0864 0.3145
vt 0.8831 0.3339
vt 0.9810 0.9163
vt 0.2366 0.8541
vn 0.2450 -0.9695 0.0053
vn -0.2130 0.9767 -0.0270
vn -0.2946 0.9554 -0.0178
vn -0.2516 0.9674 -0.0299
vn -0.2409 0.9701 -0.0307
vn -0.1918 0.9813 -0.0165
vn -0.9401 -0.2412 -0.2409
vn -0.6428 -0.1683 -0.7473
vn -0.6427 -0.1683 -0.7475
vn 0.0922 0.0178 -0.9956
vn 0.0923 0.0178 -0.9956
vn 0.6127 0.1518 -0.7756
vn 0.9109 0.2304 -0.3423
vn 0.9109 0.2304 -0.3422
vn 0.6126 0.1518 -0.7757
vn 0.9537 0.2422 -0.1784
vn 0.2688 -0.9631 0.0107
vn -0.2367 0.9710 -0.0327
vn 0.2688 -0.9631 0.0106
vn -0.3178 0.9479 -0.0235
vn -0.2751 0.9608 -0.0357
vn -0.2644 0.9637 -0.0364
vn -0.2157 0.9762 -0.0222
vn 0.0937 0.0168 -0.9955
vn -0.1200 -0.0404 -0.9919
vn 0.9085 0.2405 -0.3418
vn 0.6126 0.1577 -0.7745
vn 0.9085 0.2406 -0.3418
vn 0.9508 0.2533 -0.1785
vn 0.6125 0.1576 -0.7746
vn -0.9336 -0.2655 -0.2407
vn -0.6375 -0.1881 -0.7471
vn -0.6374 -0.1881 -0.7472
vn 0.0930 0.0146 -0.9956
vn 0.0931 0.0146 -0.9956
vn 0.6098 0.1626 -0.7757
vn 0.9054 0.2508 -0.3424
vn 0.9055 0.2508 -0.3424
vn 0.6097 0.1626 -0.7758
vn 0.9477 0.2646 -0.1786
vn 0.2904 -0.9567 0.0181
vn -0.2581 0.9653 -0.0404
vn 0.2905 -0.9567 0.0181
vn 0.2905 -0.9567 0.0182
vn -0.3387 0.9404 -0.0312
vn -0.2963 0.9541 -0.0433
vn -0.2857 0.9573 -0.0439
vn -0.2372 0.9710 -0.0300
vn -0.1174 -0.0497 -0.9918
vn 0.0947 0.0125 -0.9954
vn 0.0948 0.0125 -0.9954
vn 0.6099 0.1671 -0.7747
vn 0.9031 0.2598 -0.3420
vn 0.9448 0.2746 -0.1787
vn 0.6098 0.1671 -0.7747
vn -0.9270 -0.2879 -0.2403
vn -0.6318 -0.2076 -0.7468
vn 0.0946 0.0094 -0.9955
vn 0.6075 0.1704 -0.7759
vn 0.9003 0.2683 -0.3427
vn 0.6074 0.1703 -0.7759
vn 0.9419 0.2842 -0.1789
vn 0.3096 -0.9505 0.0267
vn -0.2769 0.9597 -0.0489
vn 0.3096 -0.9505 0.0266
vn -0.3573 0.9331 -0.0397
vn -0.3149 0.9477 -0.0519
vn -0.3044 0.9511 -0.0528
vn -0.2560 0.9659 -0.0386
vn -0.1143 -0.0601 -0.9916
vn 0.0964 0.0065 -0.9953
vn 0.0965 0.0065 -0.9953
vn 0.6078 0.1737 -0.7749
vn 0.8981 0.2761 -0.3423
vn 0.9392 0.2930 -0.1791
vn 0.6077 0.1737 -0.7749
vn -0.9206 -0.3080 -0.2398
vn -0.6259 -0.2261 -0.7464
vn -0.6260 -0.2262 -0.7463
vn 0.0965 0.0031 -0.9953
vn 0.0966 0.0031 -0.9953
vn 0.8956 0.2832 -0.3430
vn 0.6057 0.1759 -0.7760
vn 0.6056 0.1759 -0.7761
vn 0.9365 0.3012 -0.1793
vn 0.3257 -0.9448 0.0347
vn -0.2925 0.9546 -0.0571
vn 0.3258 -0.9448 0.0347
vn 0.3258 -0.9448 0.0348
vn 0.3257 -0.9448 0.0348
vn -0.3729 0.9266 -0.0477
vn -0.3305 0.9419 -0.0600
vn -0.3200 0.9455 -0.0607
vn -0.2717 0.9613 -0.0466
vn -0.1109 -0.0703 -0.9913
vn 0.0983 0.0001 -0.9952
vn 0.0984 0.0001 -0.9951
vn 0.6060 0.1786 -0.7752
vn 0.8936 0.2899 -0.3428
vn 0.8936 0.2899 -0.3427
vn 0.9340 0.3090 -0.1796
vn 0.6059 0.1786 -0.7753
vn -0.9148 -0.3255 -0.2393
vn -0.6205 -0.2425 -0.7458
vn 0.0985 -0.0031 -0.9951
vn 0.0986 -0.0030 -0.9951
vn 0.8914 0.2956 -0.3435
vn 0.6042 0.1801 -0.7762
vn 0.9317 0.3157 -0.1798
vn 0.3383 -0.9401 0.0415
vn -0.3045 0.9504 -0.0637
vn 0.3384 -0.9401 0.0415
vn -0.3847 0.9214 -0.0542
vn -0.3424 0.9372 -0.0666
vn -0.3319 0.9409 -0.0674
vn -0.2837 0.9574 -0.0532
vn -0.1079 -0.0791 -0.9910
vn 0.1001 -0.0056 -0.9950
vn 0.1002 -0.0056 -0.9950
vn 0.6045 0.1820 -0.7755
vn 0.8897 0.3008 -0.3433
vn 0.8898 0.3008 -0.3433
vn 0.9296 0.3217 -0.1800
vn 0.6044 0.1820 -0.7756
vn -0.6159 -0.2557 -0.7452
vn -0.9099 -0.3392 -0.2387
vn 0.1003 -0.0083 -0.9949
vn 0.1004 -0.0083 -0.9949
vn 0.6031 0.1830 -0.7763
vn 0.8880 0.3052 -0.3439
vn 0.6031 0.1830 -0.7764
vn 0.9277 0.3268 -0.1803
vn 0.3473 -0.9366 0.0468
vn -0.3129 0.9473 -0.0687
vn 0.3473 -0.9366 0.0467
vn 0.3474 -0.9366 0.0468
vn 0.3474 -0.9366 0.0467
vn -0.3934 0.9175 -0.0594
vn -0.3509 0.9337 -0.0716
vn -0.3404 0.9375 -0.0725
vn -0.2922 0.9546 -0.0582
vn -0.1054 -0.0858 -0.9907
vn 0.1015 -0.0102 -0.9948
vn 0.1015 -0.0101 -0.9948
vn 0.6034 0.1842 -0.7759
vn 0.8869 0.3087 -0.3438
vn 0.8869 0.3087 -0.3437
vn 0.9262 0.3309 -0.1805
vn 0.6033 0.1842 -0.7759
vn -0.6125 -0.2651 -0.7447
vn -0.9064 -0.3489 -0.2382
vn 0.1018 -0.0123 -0.9947
vn 0.6024 0.1848 -0.7765
vn 0.8856 0.3118 -0.3442
vn 0.9249 0.3346 -0.1806
vn 0.3533 -0.9341 0.0506
vn -0.3186 0.9451 -0.0725
vn 0.3534 -0.9341 0.0507
vn 0.3534 -0.9341 0.0506
vn 0.3533 -0.9341 0.0507
vn -0.3991 0.9147 -0.0631
vn -0.3565 0.9313 -0.0754
vn -0.3459 0.9352 -0.0761
vn -0.2978 0.9526 -0.0620
vn -0.1035 -0.0910 -0.9905
vn 0.1026 -0.0138 -0.9946
vn 0.1027 -0.0138 -0.9946
vn 0.6027 0.1855 -0.7761
vn 0.8848 0.3142 -0.3442
vn 0.8848 0.3142 -0.3441
vn 0.9238 0.3375 -0.1808
vn 0.6026 0.1855 -0.7762
vn -0.6100 -0.2717 -0.7444
vn -0.9039 -0.3554 -0.2379
vn -0.6100 -0.2717 -0.7443
vn 0.1029 -0.0153 -0.9946
vn 0.6020 0.1857 -0.7766
vn 0.8840 0.3161 -0.3445
vn 0.8840 0.3161 -0.3444
vn 0.9229 0.3398 -0.1809
vn 0.3571 -0.9325 0.0535
vn -0.3220 0.9438 -0.0749
vn 0.3572 -0.9325 0.0535
vn 0.3571 -0.9325 0.0534
vn 0.3571 -0.9326 0.0534
vn 0.3572 -0.9325 0.0534
vn -0.4024 0.9131 -0.0657
vn -0.3599 0.9297 -0.0782
vn -0.3494 0.9337 -0.0789
vn -0.3014 0.9513 -0.0645
vn -0.1022 -0.0945 -0.9903
vn 0.1035 -0.0163 -0.9945
vn 0.6022 0.1861 -0.7763
vn 0.8835 0.3175 -0.3444
vn 0.9223 0.3415 -0.1810
vn 0.6022 0.1860 -0.7764
vn -0.9024 -0.3595 -0.2377
vn -0.6084 -0.2759 -0.7441
vn 0.1037 -0.0174 -0.9945
vn 0.6019 0.1860 -0.7766
vn 0.8830 0.3186 -0.3446
vn 0.9218 0.3428 -0.1811
vn 0.3591 -0.9317 0.0552
vn -0.3235 0.9431 -0.0770
vn 0.3593 -0.9316 0.0552
vn 0.3591 -0.9317 0.0553
vn 0.3590 -0.9317 0.0553
vn -0.4043 0.9121 -0.0673
vn -0.3616 0.9289 -0.0800
vn -0.3510 0.9329 -0.0807
vn -0.3027 0.9508 -0.0664
vn -0.1013 -0.0969 -0.9901
vn 0.1041 -0.0182 -0.9944
vn 0.6021 0.1861 -0.7765
vn 0.8828 0.3193 -0.3446
vn 0.8828 0.3193 -0.3445
vn 0.9214 0.3438 -0.1811
vn 0.6020 0.1861 -0.7765
vn -0.9015 -0.3617 -0.2375
vn -0.6075 -0.2785 -0.7439
vn 0.1042 -0.0189 -0.9944
vn 0.6019 0.1859 -0.7766
vn 0.8826 0.3198 -0.3447
vn 0.9212 0.3444 -0.1812
vn 0.2450 -0.9695 0.0052
vn -0.2131 0.9767 -0.0268
vn 0.2450 -0.9695 0.0054
vn 0.2451 -0.9695 0.0053
vn -0.2947 0.9554 -0.0178
vn -0.2516 0.9674 -0.0298
vn -0.2409 0.9701 -0.0306
vn -0.1914 0.9814 -0.0166
vn 0.2688 -0.9631 0.0105
vn -0.2368 0.9710 -0.0325
vn 0.2689 -0.9631 0.0106
vn -0.2750 0.9608 -0.0354
vn -0.2644 0.9637 -0.0362
vn -0.2151 0.9763 -0.0223
vn -0.2582 0.9653 -0.0402
vn -0.3387 0.9404 -0.0311
vn -0.2962 0.9541 -0.0432
vn -0.2857 0.9573 -0.0441
vn -0.2366 0.9711 -0.0301
vn -0.2769 0.9597 -0.0490
vn -0.3043 0.9511 -0.0527
vn -0.2555 0.9660 -0.0387
vn -0.1142 -0.0601 -0.9916
vn -0.2926 0.9546 -0.0569
vn -0.3305 0.9419 -0.0599
vn -0.3199 0.9455 -0.0607
vn -0.2712 0.9614 -0.0467
vn 0.3383 -0.9401 0.0416
vn -0.3847 0.9214 -0.0543
vn -0.3424 0.9372 -0.0664
vn -0.3319 0.9409 -0.0673
vn -0.2834 0.9575 -0.0532
vn -0.3129 0.9473 -0.0688
vn -0.3934 0.9174 -0.0593
vn -0.3509 0.9336 -0.0718
vn -0.3403 0.9375 -0.0725
vn -0.2918 0.9547 -0.0583
vn -0.3186 0.9451 -0.0724
vn 0.3534 -0.9341 0.0505
vn -0.3990 0.9148 -0.0630
vn -0.3565 0.9313 -0.0755
vn -0.3459 0.9351 -0.0763
vn -0.2975 0.9527 -0.0620
vn -0.3219 0.9438 -0.0752
vn 0.3571 -0.9326 0.0533
vn -0.4024 0.9131 -0.0656
vn -0.3599 0.9297 -0.0781
vn -0.3493 0.9337 -0.0790
vn -0.3010 0.9514 -0.0646
vn 0.3591 -0.9317 0.0554
vn 0.3593 -0.9316 0.0553
vn 0.3591 -0.9316 0.0553
vn 0.3590 -0.9317 0.0552
vn -0.4043 0.9121 -0.0675
vn -0.3617 0.9289 -0.0800
vn -0.3510 0.9329 -0.0808
vn -0.3025 0.9508 -0.0664
vn -0.1012 -0.0969 -0.9901
s off
f 2/1/1 4/2/1 1/3/1
f 6/4/2 8/5/2 5/6/2
f 1/3/1 10/7/1 9/8/1
f 2/1/1 12/9/1 3/10/1
f 9/8/1 14/11/1 13/12/1
f 15/13/1 14/11/1 16/14/1
f 17/15/3 19/16/3 20/17/3
f 22/18/4 17/15/4 21/19/4
f 7/20/5 21/19/5 8/5/5
f 23/21/6 6/4/6 5/6/6
s 1
f 26/22/7 28/23/8 25/24/9
f 25/25/9 30/26/10 29/27/11
f 32/28/12 34/29/13 31/30/14
f 29/27/11 33/31/15 32/32/12
f 31/30/14 36/33/16 35/34/16
s off
f 38/35/17 40/36/17 37/37/17
f 42/38/18 44/39/18 41/40/18
f 37/37/19 46/41/19 45/42/19
f 38/35/17 48/43/17 39/44/17
f 45/42/19 50/45/19 49/46/19
f 51/47/19 50/45/19 52/48/19
f 53/49/20 55/50/20 56/51/20
f 58/52/21 53/49/21 57/53/21
f 43/54/22 57/53/22 44/39/22
f 59/55/23 42/38/23 41/40/23
s 1
f 61/56/24 63/57/25 64/58/24
f 65/59/26 67/60/27 68/61/28
f 69/62/29 68/61/28 70/63/29
f 66/64/30 64/58/24 67/65/27
f 72/66/31 74/67/32 71/68/33
f 71/69/33 76/70/34 75/71/35
f 78/72/36 80/73/37 77/74/38
f 75/71/35 79/75/39 78/76/36
f 77/74/38 82/77/40 81/78/40
s off
f 84/79/41 86/80/41 83/81/41
f 88/82/42 90/83/42 87/84/42
f 83/81/43 92/85/43 91/86/43
f 84/79/44 94/87/44 85/88/44
f 91/86/43 96/89/43 95/90/43
f 97/91/41 96/89/41 98/92/41
f 99/93/45 101/94/45 102/95/45
f 104/96/46 99/93/46 103/97/46
f 89/98/47 103/97/47 90/83/47
f 105/99/48 88/82/48 87/84/48
s 1
f 108/100/49 110/101/50 107/102/51
f 112/103/52 114/104/53 111/105/53
f 115/106/54 114/104/53 116/107/54
f 107/102/51 113/108/55 112/109/52
f 118/110/56 120/111/57 117/112/57
f 117/113/57 122/114/58 121/115/58
f 124/116/59 126/117/60 123/118/60
f 121/115/58 125/119/61 124/120/59
f 123/118/60 128/121/62 127/122/62
s off
f 130/123/63 132/124/63 129/125/63
f 134/126/64 136/127/64 133/128/64
f 129/125/63 138/129/63 137/130/63
f 130/123/63 140/131/63 131/132/63
f 137/130/65 142/133/65 141/134/65
f 143/135/65 142/133/65 144/136/65
f 145/137/66 147/138/66 148/139/66
f 150/140/67 145/137/67 149/141/67
f 135/142/68 149/141/68 136/127/68
f 151/143/69 134/126/69 133/128/69
s 1
f 154/144/70 156/145/71 153/146/72
f 158/147/73 160/148/74 157/149/74
f 161/150/75 160/148/74 162/151/75
f 153/146/72 159/152/76 158/153/73
f 164/154/77 166/155/78 163/156/79
f 167/157/80 166/158/78 168/159/81
f 169/160/82 171/161/83 172/162/82
f 170/163/84 168/159/81 171/164/83
f 173/165/85 172/162/82 174/166/85
s off
f 176/167/86 178/168/86 175/169/86
f 180/170/87 182/171/87 179/172/87
f 175/169/88 184/173/88 183/174/88
f 176/167/89 186/175/89 177/176/89
f 183/174/90 188/177/90 187/178/90
f 189/179/88 188/177/88 190/180/88
f 191/181/91 193/182/91 194/183/91
f 196/184/92 191/181/92 195/185/92
f 181/186/93 195/185/93 182/171/93
f 197/187/94 180/170/94 179/172/94
s 1
f 200/188/95 202/189/96 199/190/97
f 204/191/98 206/192/99 203/193/100
f 203/193/100 208/194/101 207/195/101
f 199/190/97 205/196/102 204/197/98
f 210/198/103 212/199/104 209/200/104
f 213/201/105 212/202/104 214/203/106
f 215/204/107 217/205/108 218/206/107
f 216/207/108 214/203/106 217/208/108
f 219/209/109 218/206/107 220/210/109
s off
f 222/211/110 224/212/110 221/213/110
f 226/214/111 228/215/111 225/216/111
f 221/213/110 230/217/110 229/218/110
f 222/211/110 232/219/110 223/220/110
f 229/218/110 234/221/110 233/222/110
f 235/223/112 234/221/112 236/224/112
f 237/225/113 239/226/113 240/227/113
f 242/228/114 237/225/114 241/229/114
f 227/230/115 241/229/115 228/215/115
f 243/231/116 226/214/116 225/216/116
s 1
f 246/232/117 248/233/118 245/234/119
f 250/235/120 252/236/121 249/237/122
f 249/237/122 254/238/123 253/239/123
f 245/234/119 251/240/124 250/241/120
f 255/242/125 257/243/126 258/244/125
f 255/245/125 260/246/127 259/247/128
f 262/248/129 264/249/130 261/250/130
f 259/247/128 263/251/131 262/252/129
f 261/250/130 266/253/132 265/254/132
s off
f 268/255/133 270/256/133 267/257/133
f 272/258/134 274/259/134 271/260/134
f 267/257/133 276/261/133 275/262/133
f 268/255/135 278/263/135 269/264/135
f 275/262/136 280/265/136 279/266/136
f 281/267/137 280/265/137 282/268/137
f 283/269/138 285/270/138 286/271/138
f 288/272/139 283/269/139 287/273/139
f 273/274/140 287/273/140 274/259/140
f 289/275/141 272/258/141 271/260/141
s 1
f 292/276/142 294/277/143 291/278/144
f 296/279/145 298/280/146 295/281/147
f 295/281/147 300/282/148 299/283/148
f 291/278/144 297/284/149 296/285/145
f 301/286/150 303/287/151 304/288/150
f 301/289/150 306/290/152 305/291/152
f 308/292/153 310/293/154 307/294/154
f 305/291/152 309/295/153 308/296/153
f 307/294/154 312/297/155 311/298/155
s off
f 314/299/156 316/300/156 313/301/156
f 318/302/157 320/303/157 317/304/157
f 313/301/158 322/305/158 321/306/158
f 314/299/159 324/307/159 315/308/159
f 321/306/160 326/309/160 325/310/160
f 327/311/160 326/309/160 328/312/160
f 329/313/161 331/314/161 332/315/161
f 334/316/162 329/313/162 333/317/162
f 319/318/163 333/317/163 320/303/163
f 335/319/164 318/302/164 317/304/164
s 1
f 338/320/165 340/321/166 337/322/167
f 342/323/168 344/324/169 341/325/170
f 341/325/170 346/326/171 345/327/171
f 337/322/167 343/328/172 342/329/168
f 347/330/173 349/331/174 350/332/175
f 347/333/173 352/334/176 351/335/176
f 354/336/177 356/337/178 353/338/179
f 351/335/176 355/339/177 354/340/177
f 353/338/179 358/341/180 357/342/180
s off
f 360/343/181 362/344/181 359/345/181
f 364/346/182 366/347/182 363/348/182
f 359/345/183 368/349/183 367/350/183
f 360/343/184 370/351/184 361/352/184
f 367/350/185 372/353/185 371/354/185
f 373/355/186 372/353/186 374/356/186
f 375/357/187 377/358/187 378/359/187
f 380/360/188 375/357/188 379/361/188
f 365/362/189 379/361/189 366/347/189
f 381/363/190 364/346/190 363/348/190
s 1
f 384/364/191 386/365/192 383/366/192
f 388/367/193 390/368/194 387/369/194
f 387/369/194 392/370/195 391/371/195
f 383/366/192 389/372/196 388/373/193
f 394/374/197 396/375/198 393/376/198
f 393/377/198 398/378/199 397/379/199
f 400/380/200 402/381/201 399/382/201
f 397/379/199 401/383/200 400/384/200
f 399/382/201 404/385/202 403/386/202
s off
f 406/387/203 408/388/203 405/389/203
f 410/390/204 412/391/204 409/392/204
f 405/389/205 414/393/205 413/394/205
f 406/387/206 416/395/206 407/396/206
f 413/394/207 418/397/207 417/398/207
f 419/399/206 418/397/206 420/400/206
f 421/401/208 423/402/208 424/403/208
f 426/404/209 421/401/209 425/405/209
f 411/406/210 425/405/210 412/391/210
f 427/407/211 410/390/211 409/392/211
s 1
f 430/408/212 432/409/213 429/410/213
f 434/411/214 436/412/215 433/413/216
f 433/413/216 438/414/217 437/415/217
f 429/410/213 435/416/218 434/417/214
f 440/418/219 442/419/220 439/420/220
f 439/421/220 444/422/221 443/423/221
f 446/424/222 448/425/223 445/426/223
f 446/427/222 444/422/221 447/428/222
f 445/426/223 450/429/224 449/430/224
s off
f 2/1/225 3/10/225 4/2/225
f 6/4/226 7/20/226 8/5/226
f 1/3/227 4/2/227 10/7/227
f 2/1/228 11/431/228 12/9/228
f 9/8/1 10/7/1 14/11/1
f 15/13/1 13/12/1 14/11/1
f 17/15/229 18/432/229 19/16/229
f 22/18/230 18/432/230 17/15/230
f 7/20/231 22/18/231 21/19/231
f 23/21/232 24/433/232 6/4/232
s 1
f 26/22/7 27/434/7 28/23/8
f 25/25/9 28/435/8 30/26/10
f 32/28/12 33/436/15 34/29/13
f 29/27/11 30/26/10 33/31/15
f 31/30/14 34/29/13 36/33/16
s off
f 38/35/233 39/44/233 40/36/233
f 42/38/234 43/54/234 44/39/234
f 37/37/19 40/36/19 46/41/19
f 38/35/19 47/437/19 48/43/19
f 45/42/19 46/41/19 50/45/19
f 51/47/235 49/46/235 50/45/235
f 53/49/20 54/438/20 55/50/20
f 58/52/236 54/438/236 53/49/236
f 43/54/237 58/52/237 57/53/237
f 59/55/238 60/439/238 42/38/238
s 1
f 61/56/24 62/440/25 63/57/25
f 65/59/26 66/441/30 67/60/27
f 69/62/29 65/59/26 68/61/28
f 66/64/30 61/56/24 64/58/24
f 72/66/31 73/442/31 74/67/32
f 71/69/33 74/443/32 76/70/34
f 78/72/36 79/444/39 80/73/37
f 75/71/35 76/70/34 79/75/39
f 77/74/38 80/73/37 82/77/40
s off
f 84/79/43 85/88/43 86/80/43
f 88/82/239 89/98/239 90/83/239
f 83/81/43 86/80/43 92/85/43
f 84/79/43 93/445/43 94/87/43
f 91/86/43 92/85/43 96/89/43
f 97/91/43 95/90/43 96/89/43
f 99/93/240 100/446/240 101/94/240
f 104/96/241 100/446/241 99/93/241
f 89/98/242 104/96/242 103/97/242
f 105/99/243 106/447/243 88/82/243
s 1
f 108/100/49 109/448/49 110/101/50
f 112/103/52 113/449/55 114/104/53
f 115/106/54 111/105/53 114/104/53
f 107/102/51 110/101/50 113/108/55
f 118/110/56 119/450/56 120/111/57
f 117/113/57 120/451/57 122/114/58
f 124/116/59 125/452/61 126/117/60
f 121/115/58 122/114/58 125/119/61
f 123/118/60 126/117/60 128/121/62
s off
f 130/123/65 131/132/65 132/124/65
f 134/126/244 135/142/244 136/127/244
f 129/125/65 132/124/65 138/129/65
f 130/123/65 139/453/65 140/131/65
f 137/130/65 138/129/65 142/133/65
f 143/135/65 141/134/65 142/133/65
f 145/137/66 146/454/66 147/138/66
f 150/140/67 146/454/67 145/137/67
f 135/142/245 150/140/245 149/141/245
f 151/143/246 152/455/246 134/126/246
s 1
f 154/144/70 155/456/247 156/145/71
f 158/147/73 159/457/76 160/148/74
f 161/150/75 157/149/74 160/148/74
f 153/146/72 156/145/71 159/152/76
f 164/154/77 165/458/77 166/155/78
f 167/157/80 163/459/79 166/158/78
f 169/160/82 170/460/84 171/161/83
f 170/163/84 167/157/80 168/159/81
f 173/165/85 169/160/82 172/162/82
s off
f 176/167/88 177/176/88 178/168/88
f 180/170/248 181/186/248 182/171/248
f 175/169/90 178/168/90 184/173/90
f 176/167/88 185/461/88 186/175/88
f 183/174/86 184/173/86 188/177/86
f 189/179/88 187/178/88 188/177/88
f 191/181/91 192/462/91 193/182/91
f 196/184/249 192/462/249 191/181/249
f 181/186/250 196/184/250 195/185/250
f 197/187/251 198/463/251 180/170/251
s 1
f 200/188/95 201/464/95 202/189/96
f 204/191/98 205/465/102 206/192/99
f 203/193/100 206/192/99 208/194/101
f 199/190/97 202/189/96 205/196/102
f 210/198/103 211/466/103 212/199/104
f 213/201/105 209/467/104 212/202/104
f 215/204/107 216/468/108 217/205/108
f 216/207/108 213/201/105 214/203/106
f 219/209/109 215/204/107 218/206/107
s off
f 222/211/252 223/220/252 224/212/252
f 226/214/111 227/230/111 228/215/111
f 221/213/110 224/212/110 230/217/110
f 222/211/110 231/469/110 232/219/110
f 229/218/252 230/217/252 234/221/252
f 235/223/110 233/222/110 234/221/110
f 237/225/253 238/470/253 239/226/253
f 242/228/254 238/470/254 237/225/254
f 227/230/255 242/228/255 241/229/255
f 243/231/256 244/471/256 226/214/256
s 1
f 246/232/117 247/472/117 248/233/118
f 250/235/120 251/473/124 252/236/121
f 249/237/122 252/236/121 254/238/123
f 245/234/119 248/233/118 251/240/124
f 255/242/125 256/474/126 257/243/126
f 255/245/125 258/475/125 260/246/127
f 262/248/129 263/476/131 264/249/130
f 259/247/128 260/246/127 263/251/131
f 261/250/130 264/249/130 266/253/132
s off
f 268/255/135 269/264/135 270/256/135
f 272/258/257 273/274/257 274/259/257
f 267/257/133 270/256/133 276/261/133
f 268/255/133 277/477/133 278/263/133
f 275/262/135 276/261/135 280/265/135
f 281/267/136 279/266/136 280/265/136
f 283/269/258 284/478/258 285/270/258
f 288/272/259 284/478/259 283/269/259
f 273/274/260 288/272/260 287/273/260
f 289/275/261 290/479/261 272/258/261
s 1
f 292/276/142 293/480/142 294/277/143
f 296/279/145 297/481/149 298/280/146
f 295/281/147 298/280/146 300/282/148
f 291/278/144 294/277/143 297/284/149
f 301/286/150 302/482/151 303/287/151
f 301/289/150 304/483/150 306/290/152
f 308/292/153 309/484/153 310/293/154
f 305/291/152 306/290/152 309/295/153
f 307/294/154 310/293/154 312/297/155
s off
f 314/299/159 315/308/159 316/300/159
f 318/302/262 319/318/262 320/303/262
f 313/301/263 316/300/263 322/305/263
f 314/299/158 323/485/158 324/307/158
f 321/306/156 322/305/156 326/309/156
f 327/311/159 325/310/159 326/309/159
f 329/313/264 330/486/264 331/314/264
f 334/316/265 330/486/265 329/313/265
f 319/318/266 334/316/266 333/317/266
f 335/319/267 336/487/267 318/302/267
s 1
f 338/320/165 339/488/165 340/321/166
f 342/323/168 343/489/172 344/324/169
f 341/325/170 344/324/169 346/326/171
f 337/322/167 340/321/166 343/328/172
f 347/330/173 348/490/174 349/331/174
f 347/333/173 350/491/175 352/334/176
f 354/336/177 355/492/177 356/337/178
f 351/335/176 352/334/176 355/339/177
f 353/338/179 356/337/178 358/341/180
s off
f 360/343/184 361/352/184 362/344/184
f 364/346/268 365/362/268 366/347/268
f 359/345/186 362/344/186 368/349/186
f 360/343/181 369/493/181 370/351/181
f 367/350/269 368/349/269 372/353/269
f 373/355/184 371/354/184 372/353/184
f 375/357/270 376/494/270 377/358/270
f 380/360/271 376/494/271 375/357/271
f 365/362/272 380/360/272 379/361/272
f 381/363/273 382/495/273 364/346/273
s 1
f 384/364/191 385/496/191 386/365/192
f 388/367/193 389/497/196 390/368/194
f 387/369/194 390/368/194 392/370/195
f 383/366/192 386/365/192 389/372/196
f 394/374/197 395/498/197 396/375/198
f 393/377/198 396/499/198 398/378/199
f 400/380/200 401/500/200 402/381/201
f 397/379/199 398/378/199 401/383/200
f 399/382/201 402/381/201 404/385/202
s off
f 406/387/274 407/396/274 408/388/274
f 410/390/204 411/406/204 412/391/204
f 405/389/275 408/388/275 414/393/275
f 406/387/276 415/501/276 416/395/276
f 413/394/277 414/393/277 418/397/277
f 419/399/207 417/398/207 418/397/207
f 421/401/278 422/502/278 423/402/278
f 426/404/279 422/502/279 421/401/279
f 411/406/280 426/404/280 425/405/280
f 427/407/281 428/503/281 410/390/281
s 1
f 430/408/212 431/504/282 432/409/213
f 434/411/214 435/505/218 436/412/215
f 433/413/216 436/412/215 438/414/217
f 429/410/213 432/409/213 435/416/218
f 440/418/219 441/506/219 442/419/220
f 439/421/220 442/507/220 444/422/221
f 446/424/222 447/508/222 448/425/223
f 446/427/222 443/423/221 444/422/221
f 445/426/223 448/425/223 450/429/224
