# Blender v2.78 (sub 0) OBJ File: 'vtrack.blend'
# www.blender.org
o Sphere.005
v 0.038060 0.980785 -0.191342
v 0.074658 0.923880 -0.375330
v 0.108386 0.831470 -0.544895
v 0.137950 0.707107 -0.693520
v 0.162212 0.555570 -0.815493
v 0.180240 0.382683 -0.906127
v 0.191342 0.195090 -0.961940
v 0.195090 0.000000 -0.980785
v 0.191342 -0.195090 -0.961940
v 0.180240 -0.382683 -0.906127
v 0.162212 -0.555570 -0.815493
v 0.137950 -0.707107 -0.693520
v 0.108386 -0.831470 -0.544895
v 0.074658 -0.923880 -0.375330
v 0.038060 -0.980785 -0.191341
v 0.074658 0.980785 -0.180240
v 0.146447 0.923880 -0.353553
v 0.212608 0.831470 -0.513280
v 0.270598 0.707107 -0.653281
v 0.318190 0.555570 -0.768178
v 0.353553 0.382683 -0.853553
v 0.375330 0.195090 -0.906127
v 0.382684 0.000000 -0.923879
v 0.375330 -0.195090 -0.906127
v 0.353554 -0.382683 -0.853553
v 0.318190 -0.555570 -0.768178
v 0.270598 -0.707107 -0.653281
v 0.212608 -0.831470 -0.513280
v 0.146447 -0.923880 -0.353553
v 0.074658 -0.980785 -0.180240
v 0.108387 0.980785 -0.162212
v 0.212608 0.923880 -0.318190
v 0.308658 0.831470 -0.461940
v 0.392848 0.707107 -0.587938
v 0.461940 0.555570 -0.691342
v 0.513280 0.382683 -0.768178
v 0.544895 0.195090 -0.815493
v 0.555570 0.000000 -0.831469
v 0.544895 -0.195090 -0.815493
v 0.513280 -0.382683 -0.768178
v 0.461940 -0.555570 -0.691342
v 0.392848 -0.707107 -0.587938
v 0.308658 -0.831470 -0.461940
v 0.212608 -0.923880 -0.318189
v 0.108386 -0.980785 -0.162211
v 0.137950 0.980785 -0.137950
v 0.270598 0.923880 -0.270598
v 0.392848 0.831470 -0.392847
v 0.500000 0.707107 -0.500000
v 0.587938 0.555570 -0.587938
v 0.653282 0.382683 -0.653281
v 0.693520 0.195090 -0.693520
v 0.707107 0.000000 -0.707107
v 0.693520 -0.195090 -0.693520
v 0.653282 -0.382683 -0.653281
v 0.587938 -0.555570 -0.587938
v 0.500000 -0.707107 -0.500000
v 0.392848 -0.831470 -0.392847
v 0.270598 -0.923880 -0.270598
v 0.137950 -0.980785 -0.137949
v 0.162212 0.980785 -0.108386
v 0.318190 0.923880 -0.212607
v 0.461940 0.831470 -0.308658
v 0.587938 0.707107 -0.392847
v 0.691342 0.555570 -0.461940
v 0.768178 0.382683 -0.513280
v 0.815493 0.195090 -0.544895
v 0.831470 0.000000 -0.555570
v 0.815493 -0.195090 -0.544895
v 0.768178 -0.382683 -0.513280
v 0.691342 -0.555570 -0.461940
v 0.587938 -0.707107 -0.392847
v 0.461940 -0.831470 -0.308658
v 0.318190 -0.923880 -0.212607
v 0.162212 -0.980785 -0.108386
v 0.000000 -1.000000 0.000000
v 0.180240 0.980785 -0.074658
v 0.353554 0.923880 -0.146446
v 0.513280 0.831470 -0.212607
v 0.653282 0.707107 -0.270598
v 0.768178 0.555570 -0.318189
v 0.853554 0.382683 -0.353553
v 0.906128 0.195090 -0.375330
v 0.923880 0.000000 -0.382683
v 0.906128 -0.195090 -0.375330
v 0.853554 -0.382683 -0.353553
v 0.768178 -0.555570 -0.318189
v 0.653282 -0.707107 -0.270598
v 0.513280 -0.831470 -0.212607
v 0.353554 -0.923880 -0.146446
v 0.180240 -0.980785 -0.074658
v 0.191342 0.980785 -0.038060
v 0.375331 0.923880 -0.074658
v 0.544895 0.831470 -0.108386
v 0.693520 0.707107 -0.137949
v 0.815493 0.555570 -0.162211
v 0.906128 0.382683 -0.180240
v 0.961940 0.195090 -0.191341
v 0.980785 0.000000 -0.195090
v 0.961940 -0.195090 -0.191341
v 0.906128 -0.382683 -0.180240
v 0.815493 -0.555570 -0.162211
v 0.693520 -0.707107 -0.137949
v 0.544895 -0.831470 -0.108386
v 0.375330 -0.923880 -0.074658
v 0.191342 -0.980785 -0.038060
v 0.195091 0.980785 0.000000
v 0.382684 0.923880 0.000000
v 0.555570 0.831470 0.000000
v 0.707107 0.707107 0.000000
v 0.831470 0.555570 0.000000
v 0.923880 0.382683 0.000000
v 0.980785 0.195090 0.000000
v 1.000000 0.000000 0.000000
v 0.980785 -0.195090 0.000000
v 0.923880 -0.382683 0.000000
v 0.831470 -0.555570 0.000000
v 0.707107 -0.707107 0.000000
v 0.555570 -0.831470 0.000000
v 0.382684 -0.923880 0.000000
v 0.195090 -0.980785 0.000000
v 0.191342 0.980785 0.038061
v 0.375331 0.923880 0.074658
v 0.544895 0.831470 0.108387
v 0.693520 0.707107 0.137950
v 0.815493 0.555570 0.162212
v 0.906128 0.382683 0.180240
v 0.961940 0.195090 0.191342
v 0.980785 0.000000 0.195091
v 0.961940 -0.195090 0.191342
v 0.906128 -0.382683 0.180240
v 0.815493 -0.555570 0.162212
v 0.693520 -0.707107 0.137950
v 0.544895 -0.831470 0.108387
v 0.375330 -0.923880 0.074658
v 0.191342 -0.980785 0.038061
v 0.180240 0.980785 0.074658
v 0.353554 0.923880 0.146447
v 0.513280 0.831470 0.212608
v 0.653282 0.707107 0.270598
v 0.768178 0.555570 0.318190
v 0.853554 0.382683 0.353554
v 0.906127 0.195090 0.375331
v 0.923880 0.000000 0.382684
v 0.906127 -0.195090 0.375331
v 0.853554 -0.382683 0.353554
v 0.768178 -0.555570 0.318190
v 0.653282 -0.707107 0.270598
v 0.513280 -0.831470 0.212608
v 0.353553 -0.923880 0.146447
v 0.180240 -0.980785 0.074658
v 0.162212 0.980785 0.108387
v 0.318190 0.923880 0.212608
v 0.461940 0.831470 0.308659
v 0.587938 0.707107 0.392848
v 0.691342 0.555570 0.461940
v 0.768178 0.382683 0.513280
v 0.815493 0.195090 0.544895
v 0.831470 0.000000 0.555571
v 0.815493 -0.195090 0.544895
v 0.768178 -0.382683 0.513280
v 0.691342 -0.555570 0.461940
v 0.587938 -0.707107 0.392848
v 0.461940 -0.831470 0.308659
v 0.318190 -0.923880 0.212608
v 0.162212 -0.980785 0.108387
v 0.137950 0.980785 0.137950
v 0.270598 0.923880 0.270599
v 0.392848 0.831470 0.392848
v 0.500000 0.707107 0.500000
v 0.587938 0.555570 0.587938
v 0.653282 0.382683 0.653282
v 0.693520 0.195090 0.693520
v 0.707107 0.000000 0.707107
v 0.693520 -0.195090 0.693520
v 0.653282 -0.382683 0.653282
v 0.587938 -0.555570 0.587938
v 0.500000 -0.707107 0.500000
v 0.392848 -0.831470 0.392848
v 0.270598 -0.923880 0.270598
v 0.137950 -0.980785 0.137950
v 0.108386 0.980785 0.162212
v 0.212608 0.923880 0.318190
v 0.308658 0.831470 0.461940
v 0.392848 0.707107 0.587938
v 0.461940 0.555570 0.691342
v 0.513280 0.382683 0.768178
v 0.544895 0.195090 0.815493
v 0.555570 0.000000 0.831470
v 0.544895 -0.195090 0.815493
v 0.513280 -0.382683 0.768178
v 0.461940 -0.555570 0.691342
v 0.392848 -0.707107 0.587938
v 0.308658 -0.831470 0.461940
v 0.212608 -0.923880 0.318190
v 0.108386 -0.980785 0.162212
v 0.074658 0.980785 0.180240
v 0.146447 0.923880 0.353554
v 0.212608 0.831470 0.513280
v 0.270598 0.707107 0.653282
v 0.318190 0.555570 0.768178
v 0.353553 0.382683 0.853554
v 0.375330 0.195090 0.906128
v 0.382683 0.000000 0.923880
v 0.375330 -0.195090 0.906128
v 0.353553 -0.382683 0.853554
v 0.318190 -0.555570 0.768178
v 0.270598 -0.707107 0.653282
v 0.212608 -0.831470 0.513280
v 0.146447 -0.923880 0.353554
v 0.074658 -0.980785 0.180240
v 0.038060 0.980785 0.191342
v 0.074658 0.923880 0.375331
v 0.108386 0.831470 0.544896
v 0.137950 0.707107 0.693520
v 0.162212 0.555570 0.815493
v 0.180240 0.382683 0.906128
v 0.191342 0.195090 0.961940
v 0.195090 0.000000 0.980786
v 0.191342 -0.195090 0.961940
v 0.180240 -0.382683 0.906128
v 0.162212 -0.555570 0.815493
v 0.137950 -0.707107 0.693520
v 0.108386 -0.831470 0.544895
v 0.074658 -0.923880 0.375331
v 0.038060 -0.980785 0.191342
v -0.000000 0.980785 0.195091
v 0.000000 0.923880 0.382684
v 0.000000 0.831470 0.555571
v -0.000000 0.707107 0.707107
v -0.000000 0.555570 0.831470
v 0.000000 0.382683 0.923880
v -0.000000 0.195090 0.980785
v -0.000000 0.000000 1.000000
v -0.000000 -0.195090 0.980785
v 0.000000 -0.382683 0.923880
v -0.000000 -0.555570 0.831470
v -0.000000 -0.707107 0.707107
v -0.000000 -0.831470 0.555570
v 0.000000 -0.923880 0.382684
v 0.000000 -0.980785 0.195091
v -0.038060 0.980785 0.191342
v -0.074658 0.923880 0.375331
v -0.108386 0.831470 0.544896
v -0.137950 0.707107 0.693520
v -0.162212 0.555570 0.815493
v -0.180240 0.382683 0.906128
v -0.191342 0.195090 0.961940
v -0.195090 0.000000 0.980786
v -0.191342 -0.195090 0.961940
v -0.180240 -0.382683 0.906128
v -0.162212 -0.555570 0.815493
v -0.137950 -0.707107 0.693520
v -0.108386 -0.831470 0.544895
v -0.074658 -0.923880 0.375331
v -0.038060 -0.980785 0.191342
v -0.074658 0.980785 0.180240
v -0.146447 0.923880 0.353554
v -0.212608 0.831470 0.513280
v -0.270598 0.707107 0.653282
v -0.318190 0.555570 0.768178
v -0.353553 0.382683 0.853554
v -0.375330 0.195090 0.906127
v -0.382684 0.000000 0.923880
v -0.375330 -0.195090 0.906127
v -0.353553 -0.382683 0.853554
v -0.318190 -0.555570 0.768178
v -0.270598 -0.707107 0.653282
v -0.212608 -0.831470 0.513280
v -0.146447 -0.923880 0.353554
v -0.074658 -0.980785 0.180240
v -0.000000 1.000000 0.000001
v -0.108386 0.980785 0.162212
v -0.212608 0.923880 0.318190
v -0.308658 0.831470 0.461940
v -0.392847 0.707107 0.587938
v -0.461940 0.555570 0.691342
v -0.513280 0.382683 0.768178
v -0.544895 0.195090 0.815493
v -0.555570 0.000000 0.831470
v -0.544895 -0.195090 0.815493
v -0.513280 -0.382683 0.768178
v -0.461940 -0.555570 0.691342
v -0.392847 -0.707107 0.587938
v -0.308658 -0.831470 0.461940
v -0.212607 -0.923880 0.318190
v -0.108386 -0.980785 0.162212
v -0.137950 0.980785 0.137950
v -0.270598 0.923880 0.270598
v -0.392848 0.831470 0.392848
v -0.500000 0.707107 0.500000
v -0.587938 0.555570 0.587938
v -0.653281 0.382683 0.653282
v -0.693520 0.195090 0.693520
v -0.707107 0.000000 0.707107
v -0.693520 -0.195090 0.693520
v -0.653281 -0.382683 0.653282
v -0.587938 -0.555570 0.587938
v -0.500000 -0.707107 0.500000
v -0.392847 -0.831470 0.392848
v -0.270598 -0.923880 0.270598
v -0.137950 -0.980785 0.137950
v -0.162212 0.980785 0.108387
v -0.318190 0.923880 0.212608
v -0.461940 0.831470 0.308659
v -0.587938 0.707107 0.392848
v -0.691342 0.555570 0.461940
v -0.768178 0.382683 0.513280
v -0.815493 0.195090 0.544895
v -0.831470 0.000000 0.555570
v -0.815493 -0.195090 0.544895
v -0.768178 -0.382683 0.513280
v -0.691342 -0.555570 0.461940
v -0.587938 -0.707107 0.392848
v -0.461940 -0.831470 0.308658
v -0.318190 -0.923880 0.212608
v -0.162212 -0.980785 0.108387
v -0.180240 0.980785 0.074658
v -0.353553 0.923880 0.146447
v -0.513280 0.831470 0.212608
v -0.653281 0.707107 0.270598
v -0.768177 0.555570 0.318190
v -0.853553 0.382683 0.353554
v -0.906127 0.195090 0.375330
v -0.923880 0.000000 0.382684
v -0.906127 -0.195090 0.375330
v -0.853553 -0.382683 0.353554
v -0.768177 -0.555570 0.318190
v -0.653281 -0.707107 0.270598
v -0.513280 -0.831470 0.212608
v -0.353553 -0.923880 0.146447
v -0.180240 -0.980785 0.074658
v -0.191342 0.980785 0.038061
v -0.375330 0.923880 0.074658
v -0.544895 0.831470 0.108387
v -0.693520 0.707107 0.137950
v -0.815493 0.555570 0.162212
v -0.906127 0.382683 0.180240
v -0.961939 0.195090 0.191342
v -0.980785 0.000000 0.195090
v -0.961939 -0.195090 0.191342
v -0.906127 -0.382683 0.180240
v -0.815493 -0.555570 0.162212
v -0.693520 -0.707107 0.137950
v -0.544895 -0.831470 0.108387
v -0.375330 -0.923880 0.074658
v -0.191342 -0.980785 0.038061
v -0.195090 0.980785 0.000000
v -0.382683 0.923880 0.000000
v -0.555570 0.831470 0.000000
v -0.707107 0.707107 0.000000
v -0.831469 0.555570 0.000000
v -0.923879 0.382683 0.000000
v -0.980785 0.195090 0.000000
v -1.000000 0.000000 0.000000
v -0.980785 -0.195090 0.000000
v -0.923879 -0.382683 0.000000
v -0.831469 -0.555570 0.000000
v -0.707107 -0.707107 0.000000
v -0.555570 -0.831470 0.000000
v -0.382683 -0.923880 0.000000
v -0.195090 -0.980785 0.000000
v -0.191342 0.980785 -0.038060
v -0.375330 0.923880 -0.074658
v -0.544895 0.831470 -0.108386
v -0.693520 0.707107 -0.137949
v -0.815493 0.555570 -0.162211
v -0.906127 0.382683 -0.180240
v -0.961939 0.195090 -0.191342
v -0.980785 0.000000 -0.195090
v -0.961939 -0.195090 -0.191342
v -0.906127 -0.382683 -0.180240
v -0.815493 -0.555570 -0.162211
v -0.693520 -0.707107 -0.137949
v -0.544895 -0.831470 -0.108386
v -0.375330 -0.923880 -0.074658
v -0.191342 -0.980785 -0.038060
v -0.180240 0.980785 -0.074658
v -0.353553 0.923880 -0.146446
v -0.513280 0.831470 -0.212607
v -0.653281 0.707107 -0.270598
v -0.768177 0.555570 -0.318189
v -0.853553 0.382683 -0.353553
v -0.906127 0.195090 -0.375330
v -0.923879 0.000000 -0.382683
v -0.906127 -0.195090 -0.375330
v -0.853553 -0.382683 -0.353553
v -0.768177 -0.555570 -0.318189
v -0.653281 -0.707107 -0.270598
v -0.513280 -0.831470 -0.212607
v -0.353553 -0.923880 -0.146446
v -0.180240 -0.980785 -0.074657
v -0.162212 0.980785 -0.108386
v -0.318190 0.923880 -0.212607
v -0.461940 0.831470 -0.308658
v -0.587938 0.707107 -0.392847
v -0.691341 0.555570 -0.461939
v -0.768178 0.382683 -0.513280
v -0.815493 0.195090 -0.544895
v -0.831469 0.000000 -0.555570
v -0.815493 -0.195090 -0.544895
v -0.768178 -0.382683 -0.513280
v -0.691341 -0.555570 -0.461939
v -0.587938 -0.707107 -0.392847
v -0.461940 -0.831470 -0.308658
v -0.318189 -0.923880 -0.212607
v -0.162212 -0.980785 -0.108386
v -0.137950 0.980785 -0.137949
v -0.270598 0.923880 -0.270598
v -0.392847 0.831470 -0.392847
v -0.500000 0.707107 -0.500000
v -0.587937 0.555570 -0.587937
v -0.653281 0.382683 -0.653281
v -0.693519 0.195090 -0.693519
v -0.707106 0.000000 -0.707106
v -0.693519 -0.195090 -0.693519
v -0.653281 -0.382683 -0.653281
v -0.587937 -0.555570 -0.587937
v -0.500000 -0.707107 -0.500000
v -0.392847 -0.831470 -0.392847
v -0.270598 -0.923880 -0.270598
v -0.137950 -0.980785 -0.137949
v -0.108386 0.980785 -0.162211
v -0.212607 0.923880 -0.318189
v -0.308658 0.831470 -0.461939
v -0.392847 0.707107 -0.587937
v -0.461939 0.555570 -0.691341
v -0.513280 0.382683 -0.768177
v -0.544895 0.195090 -0.815492
v -0.555570 0.000000 -0.831469
v -0.544895 -0.195090 -0.815492
v -0.513280 -0.382683 -0.768177
v -0.461939 -0.555570 -0.691341
v -0.392847 -0.707107 -0.587937
v -0.308658 -0.831470 -0.461939
v -0.212607 -0.923880 -0.318189
v -0.108386 -0.980785 -0.162211
v -0.074658 0.980785 -0.180240
v -0.146447 0.923880 -0.353553
v -0.212607 0.831470 -0.513280
v -0.270598 0.707107 -0.653281
v -0.318189 0.555570 -0.768177
v -0.353553 0.382683 -0.853553
v -0.375330 0.195090 -0.906127
v -0.382683 0.000000 -0.923879
v -0.375330 -0.195090 -0.906127
v -0.353553 -0.382683 -0.853553
v -0.318189 -0.555570 -0.768177
v -0.270598 -0.707107 -0.653281
v -0.212607 -0.831470 -0.513279
v -0.146446 -0.923880 -0.353553
v -0.074658 -0.980785 -0.180240
v -0.038060 0.980785 -0.191342
v -0.074658 0.923880 -0.375330
v -0.108386 0.831470 -0.544895
v -0.137950 0.707107 -0.693520
v -0.162211 0.555570 -0.815492
v -0.180240 0.382683 -0.906127
v -0.191341 0.195090 -0.961939
v -0.195090 0.000000 -0.980785
v -0.191341 -0.195090 -0.961939
v -0.180240 -0.382683 -0.906127
v -0.162211 -0.555570 -0.815492
v -0.137950 -0.707107 -0.693520
v -0.108386 -0.831470 -0.544895
v -0.074658 -0.923880 -0.375330
v -0.038060 -0.980785 -0.191341
v 0.000000 0.980785 -0.195090
v 0.000000 0.923880 -0.382683
v 0.000000 0.831470 -0.555570
v 0.000000 0.707107 -0.707106
v 0.000000 0.555570 -0.831469
v 0.000000 0.382683 -0.923879
v 0.000000 0.195090 -0.980784
v 0.000000 0.000000 -0.999999
v 0.000000 -0.195090 -0.980784
v 0.000000 -0.382683 -0.923879
v 0.000000 -0.555570 -0.831469
v 0.000000 -0.707107 -0.707106
v 0.000000 -0.831470 -0.555570
v 0.000000 -0.923880 -0.382683
v 0.000000 -0.980785 -0.195090
vt 0.9323 0.0809
vt 0.9940 0.1325
vt 0.9796 0.1355
vt 0.5527 0.3135
vt 0.5133 0.3684
vt 0.5152 0.3059
vt 0.5117 0.7446
vt 0.5000 0.8053
vt 0.5034 0.7429
vt 1.0000 0.1947
vt 0.5176 0.2435
vt 0.5609 0.2523
vt 0.5197 0.6834
vt 0.5056 0.6805
vt 0.5213 0.1812
vt 0.5728 0.1917
vt 0.5259 0.6218
vt 0.5074 0.6181
vt 0.5284 0.1190
vt 0.5940 0.1326
vt 0.5312 0.5602
vt 0.5089 0.5557
vt 0.5497 0.0575
vt 0.6437 0.0785
vt 0.5362 0.4984
vt 0.5103 0.4932
vt 0.8309 0.0158
vt 0.7911 0.0498
vt 0.5411 0.4367
vt 0.5118 0.4308
vt 0.9784 0.0707
vt 0.5464 0.3751
vt 1.0323 0.0720
vt 0.4798 0.3691
vt 1.0090 0.1329
vt 0.4771 0.3068
vt 0.4949 0.7431
vt 0.4734 0.2446
vt 0.4915 0.6808
vt 0.4678 0.1824
vt 0.4888 0.6185
vt 0.4573 0.1207
vt 0.4865 0.5562
vt 0.4269 0.0603
vt 0.4844 0.4938
vt 1.1901 0.0225
vt 0.4822 0.4315
vt 0.4703 0.6231
vt 0.4172 0.1952
vt 0.3942 0.1369
vt 0.4642 0.5617
vt 0.3428 0.0844
vt 0.4586 0.5002
vt 0.1901 0.0225
vt 0.2092 0.0569
vt 0.4530 0.4387
vt 0.0323 0.0720
vt 0.0749 0.0841
vt 0.4469 0.3773
vt 0.0232 0.1365
vt 0.0090 0.1329
vt 0.4398 0.3161
vt 0.4866 0.7452
vt 1.0232 0.1365
vt 0.4306 0.2552
vt 0.4774 0.6843
vt 0.4151 0.3924
vt 0.0352 0.1431
vt 0.4044 0.3330
vt 0.4785 0.7491
vt 1.0352 0.1431
vt 0.3911 0.2743
vt 0.4636 0.6910
vt 0.3729 0.2172
vt 0.4520 0.6318
vt 0.3445 0.1632
vt 0.4423 0.5721
vt 0.2943 0.1171
vt 0.4333 0.5122
vt 0.2040 0.0915
vt 0.4245 0.4522
vt 0.1001 0.1031
vt 0.3350 0.2457
vt 0.3060 0.1952
vt 0.4208 0.5871
vt 0.2617 0.1524
vt 0.4087 0.5293
vt 0.1943 0.1256
vt 0.3970 0.4713
vt 0.1121 0.1254
vt 0.3849 0.4135
vt 0.0445 0.1521
vt 0.3715 0.3562
vt 0.4709 0.7548
vt 1.0445 0.1521
vt 0.3556 0.3000
vt 0.4502 0.7006
vt 0.4342 0.6444
vt 0.0507 0.1627
vt 0.3411 0.3844
vt 0.4638 0.7621
vt 1.0507 0.1627
vt 0.3237 0.3303
vt 0.4374 0.7130
vt 0.3024 0.2783
vt 0.4169 0.6605
vt 0.2747 0.2299
vt 0.4000 0.6062
vt 0.2363 0.1883
vt 0.3849 0.5509
vt 0.1828 0.1588
vt 0.3707 0.4952
vt 0.1160 0.1491
vt 0.3564 0.4395
vt 0.2478 0.2657
vt 0.2143 0.2237
vt 0.3619 0.5766
vt 0.1702 0.1910
vt 0.3454 0.5231
vt 0.1147 0.1729
vt 0.3294 0.4695
vt 0.0542 0.1743
vt 0.3128 0.4161
vt 0.4575 0.7709
vt 1.0542 0.1743
vt 0.2947 0.3637
vt 0.4253 0.7280
vt 0.2736 0.3131
vt 0.4003 0.6800
vt 0.3797 0.6291
vt 0.4522 0.7810
vt 1.0552 0.1865
vt 0.2677 0.3989
vt 0.4142 0.7454
vt 0.2473 0.3489
vt 0.3842 0.7025
vt 0.2235 0.3014
vt 0.3600 0.6553
vt 0.1941 0.2581
vt 0.3394 0.6055
vt 0.1569 0.2217
vt 0.3209 0.5542
vt 0.1099 0.1963
vt 0.3035 0.5022
vt 0.0552 0.1865
vt 0.2860 0.4503
vt 0.3172 0.6371
vt 0.1747 0.2910
vt 0.1428 0.2507
vt 0.2968 0.5876
vt 0.1028 0.2185
vt 0.2781 0.5369
vt 0.0540 0.1986
vt 0.2602 0.4857
vt 0.4482 0.7921
vt 1.0540 0.1986
vt 0.2420 0.4347
vt 0.4042 0.7648
vt 0.2225 0.3846
vt 0.3689 0.7277
vt 0.2006 0.3363
vt 0.3406 0.6843
vt 0.2346 0.5216
vt 0.2167 0.4703
vt 0.3956 0.7859
vt 0.1983 0.4194
vt 0.3543 0.7551
vt 0.1783 0.3696
vt 0.3214 0.7156
vt 0.1554 0.3218
vt 0.2948 0.6708
vt 0.1280 0.2777
vt 0.2725 0.6227
vt 0.0939 0.2394
vt 0.2528 0.5726
vt 0.0511 0.2103
vt 0.4456 0.8039
vt 1.0511 0.2103
vt 0.1360 0.3503
vt 0.1125 0.3023
vt 0.2474 0.6585
vt 0.0836 0.2584
vt 0.2269 0.6084
vt 0.0468 0.2211
vt 0.2086 0.5569
vt 0.4449 0.8160
vt 1.0468 0.2211
vt 0.1913 0.5047
vt 0.3889 0.8084
vt 0.1741 0.4524
vt 0.3403 0.7845
vt 0.1561 0.4007
vt 0.3018 0.7488
vt 0.2717 0.7059
vt 0.3847 0.8319
vt 0.1495 0.4829
vt 0.3271 0.8155
vt 0.1335 0.4290
vt 0.2813 0.7835
vt 0.1162 0.3758
vt 0.2470 0.7417
vt 0.0964 0.3242
vt 0.2207 0.6941
vt 0.0723 0.2753
vt 0.1996 0.6433
vt 0.0413 0.2310
vt 0.1815 0.5906
vt 0.4463 0.8281
vt 1.0413 0.2310
vt 0.1652 0.5369
vt 0.1913 0.7286
vt 0.0796 0.3431
vt 0.0600 0.2898
vt 0.1700 0.6762
vt 0.0348 0.2395
vt 0.1528 0.6217
vt 0.4503 0.8396
vt 1.0348 0.2395
vt 0.1379 0.5662
vt 0.3843 0.8558
vt 0.1240 0.5100
vt 0.3148 0.8479
vt 0.1103 0.4538
vt 0.2589 0.8191
vt 0.0958 0.3980
vt 0.2194 0.7773
vt 0.0974 0.5330
vt 0.3036 0.8814
vt 0.0863 0.4746
vt 0.2324 0.8549
vt 0.0748 0.4163
vt 0.1868 0.8116
vt 0.0622 0.3585
vt 0.1577 0.7605
vt 0.0471 0.3016
vt 0.1374 0.7057
vt 0.0276 0.2465
vt 0.1219 0.6490
vt 0.4572 0.8499
vt 1.0276 0.2465
vt 0.1090 0.5913
vt 0.3895 0.8793
vt 0.0336 0.3106
vt 0.1186 0.7879
vt 0.1011 0.7302
vt 0.0199 0.2518
vt 0.0885 0.6710
vt 0.4670 0.8585
vt 1.0199 0.2518
vt 0.0785 0.6112
vt 0.4038 0.9012
vt 0.0698 0.5510
vt 0.2944 0.9156
vt 0.0616 0.4907
vt 0.1975 0.8899
vt 0.0533 0.4304
vt 0.1463 0.8427
vt 0.0442 0.3703
vt 0.0411 0.5633
vt 0.0362 0.5016
vt 0.2911 0.9502
vt 0.1437 0.9215
vt 0.0312 0.4398
vt 0.0940 0.8674
vt 0.0259 0.3782
vt 0.0728 0.8083
vt 0.0197 0.3166
vt 0.0609 0.7477
vt 0.0117 0.2554
vt 0.0527 0.6865
vt 0.4796 0.8645
vt 1.0117 0.2554
vt 0.0464 0.6249
vt 0.4323 0.9191
vt 0.0056 0.3195
vt 0.0034 0.2571
vt 0.0152 0.6941
vt 0.4940 0.8675
vt 1.0034 0.2571
vt 0.0133 0.6316
vt 0.4784 0.9293
vt 0.0118 0.5692
vt 0.3309 0.9842
vt 0.0103 0.5068
vt 0.0497 0.9425
vt 0.0089 0.4443
vt 0.0284 0.8810
vt 0.0074 0.3819
vt 0.0213 0.8188
vt 0.0176 0.7565
vt 1.0497 0.9425
vt 0.6901 0.9775
vt 0.9269 0.9397
vt 1.0103 0.5068
vt 0.9865 0.4438
vt 1.0089 0.4443
vt 1.0284 0.8810
vt 0.9573 0.8793
vt 0.9888 0.3815
vt 1.0074 0.3819
vt 0.9678 0.8176
vt 1.0213 0.8188
vt 1.0056 0.3195
vt 0.9915 0.3192
vt 1.0176 0.7565
vt 0.9734 0.7554
vt 0.9949 0.2569
vt 0.9771 0.6932
vt 1.0152 0.6941
vt 0.5090 0.8671
vt 0.9798 0.6309
vt 1.0133 0.6316
vt 0.5323 0.9280
vt 0.9822 0.5685
vt 1.0118 0.5692
vt 0.9844 0.5062
vt 0.9398 0.6839
vt 0.5232 0.8635
vt 0.9866 0.2548
vt 0.9469 0.6227
vt 0.5749 0.9159
vt 0.9530 0.5613
vt 0.7092 0.9431
vt 0.9586 0.4998
vt 0.8428 0.9156
vt 0.9642 0.4383
vt 0.8942 0.8631
vt 0.9703 0.3769
vt 0.9172 0.8048
vt 0.9774 0.3157
vt 0.9306 0.7448
vt 0.9423 0.4279
vt 0.7943 0.8829
vt 0.8445 0.8368
vt 0.9520 0.3682
vt 0.8729 0.7828
vt 0.9636 0.3090
vt 0.8911 0.7257
vt 0.9785 0.2509
vt 0.9044 0.6670
vt 0.5352 0.8569
vt 0.9151 0.6076
vt 0.6001 0.8969
vt 0.9245 0.5478
vt 0.7040 0.9085
vt 0.9333 0.4878
vt 0.5445 0.8479
vt 0.9709 0.2452
vt 0.8849 0.5865
vt 0.6121 0.8746
vt 0.8970 0.5287
vt 0.6943 0.8744
vt 0.9087 0.4707
vt 0.7617 0.8476
vt 0.9208 0.4129
vt 0.8060 0.8048
vt 0.9342 0.3556
vt 0.8350 0.7543
vt 0.9502 0.2994
vt 0.8556 0.7000
vt 0.8715 0.6438
vt 0.7363 0.8117
vt 0.7747 0.7701
vt 0.9169 0.3395
vt 0.8024 0.7217
vt 0.9374 0.2870
vt 0.8237 0.6697
vt 0.9638 0.2379
vt 0.8411 0.6156
vt 0.5507 0.8373
vt 0.8564 0.5605
vt 0.6160 0.8509
vt 0.8707 0.5048
vt 0.6828 0.8412
vt 0.8849 0.4491
vt 0.9000 0.3938
vt 0.8128 0.5839
vt 0.8294 0.5305
vt 0.6147 0.8271
vt 0.8454 0.4769
vt 0.6702 0.8090
vt 0.8619 0.4234
vt 0.7143 0.7763
vt 0.8797 0.3709
vt 0.7478 0.7343
vt 0.9003 0.3200
vt 0.7736 0.6869
vt 0.9253 0.2720
vt 0.7947 0.6363
vt 0.9575 0.2291
vt 0.5542 0.8257
vt 0.8842 0.2975
vt 0.7473 0.6511
vt 0.9142 0.2546
vt 0.7677 0.6011
vt 0.9522 0.2190
vt 0.7860 0.5497
vt 0.5552 0.8135
vt 0.8035 0.4978
vt 0.6099 0.8037
vt 0.8209 0.4458
vt 0.6569 0.7783
vt 0.8394 0.3945
vt 0.6941 0.7419
vt 0.8600 0.3447
vt 0.7235 0.6986
vt 0.7968 0.4124
vt 0.6428 0.7493
vt 0.8172 0.3629
vt 0.6747 0.7090
vt 0.8406 0.3157
vt 0.7006 0.6637
vt 0.8689 0.2723
vt 0.7225 0.6154
vt 0.9042 0.2352
vt 0.7420 0.5653
vt 0.9482 0.2079
vt 0.7602 0.5143
vt 0.5540 0.8014
vt 0.7781 0.4631
vt 0.6028 0.7815
vt 0.8543 0.2449
vt 0.8956 0.2141
vt 0.6983 0.5806
vt 0.7167 0.5297
vt 0.9456 0.1961
vt 0.7346 0.4784
vt 0.5511 0.7897
vt 0.7528 0.4274
vt 0.5939 0.7606
vt 0.7725 0.3773
vt 0.6280 0.7223
vt 0.7948 0.3292
vt 0.6554 0.6782
vt 0.8214 0.2844
vt 0.6783 0.6304
vt 0.6125 0.6977
vt 0.7474 0.3415
vt 0.7717 0.2941
vt 0.6360 0.6497
vt 0.8018 0.2512
vt 0.6561 0.5993
vt 0.8403 0.2155
vt 0.6741 0.5476
vt 0.8889 0.1916
vt 0.6913 0.4953
vt 0.9449 0.1840
vt 0.7086 0.4431
vt 0.5468 0.7789
vt 0.7269 0.3916
vt 0.5836 0.7416
vt 0.6495 0.5171
vt 0.6652 0.4631
vt 0.9463 0.1719
vt 0.6815 0.4094
vt 0.5413 0.7690
vt 0.6996 0.3567
vt 0.5723 0.7247
vt 0.7207 0.3059
vt 0.5964 0.6758
vt 0.7470 0.2583
vt 0.6162 0.6242
vt 0.7813 0.2165
vt 0.6335 0.5710
vt 0.8271 0.1845
vt 0.8847 0.1681
vt 0.6913 0.2714
vt 0.7194 0.2227
vt 0.5958 0.6020
vt 0.7589 0.1809
vt 0.6103 0.5462
vt 0.8148 0.1521
vt 0.6240 0.4900
vt 0.8843 0.1442
vt 0.6379 0.4338
vt 0.9503 0.1604
vt 0.6528 0.3783
vt 0.5348 0.7605
vt 0.6700 0.3238
vt 0.5600 0.7102
vt 0.5796 0.6569
vt 0.9572 0.1501
vt 0.6219 0.3510
vt 0.5276 0.7535
vt 0.6374 0.2943
vt 0.5471 0.6984
vt 0.6577 0.2395
vt 0.5622 0.6415
vt 0.6868 0.1884
vt 0.5748 0.5837
vt 0.7324 0.1451
vt 0.5863 0.5254
vt 0.8036 0.1186
vt 0.5974 0.4670
vt 0.8895 0.1207
vt 0.6090 0.4087
vt 0.5533 0.5696
vt 0.6975 0.1101
vt 0.5616 0.5093
vt 0.7944 0.0844
vt 0.5698 0.4490
vt 0.9038 0.0988
vt 0.5785 0.3888
vt 0.9670 0.1415
vt 0.5885 0.3290
vt 0.5199 0.7482
vt 0.6011 0.2698
vt 0.5336 0.6894
vt 0.6186 0.2121
vt 0.5442 0.6297
vt 0.6463 0.1573
vt 1.3309 0.9842
vn 0.0000 -0.9217 -0.3879
vn 0.0392 -0.9796 -0.1971
vn 0.0000 -0.9796 -0.2010
vn 0.0000 0.0000 -1.0000
vn 0.1914 0.1939 -0.9622
vn 0.1951 0.0000 -0.9808
vn 0.0000 0.9796 -0.2010
vn 0.0000 1.0000 0.0000
vn 0.0392 0.9796 -0.1971
vn 0.0000 -1.0000 0.0000
vn 0.1914 -0.1939 -0.9622
vn 0.0000 -0.1939 -0.9810
vn 0.0000 0.9217 -0.3879
vn 0.0757 0.9217 -0.3804
vn 0.1804 -0.3805 -0.9070
vn 0.0000 -0.3805 -0.9247
vn 0.0000 0.8286 -0.5598
vn 0.1092 0.8286 -0.5490
vn 0.1626 -0.5528 -0.8173
vn 0.0000 -0.5528 -0.8333
vn 0.0000 0.7040 -0.7101
vn 0.1385 0.7040 -0.6965
vn 0.1385 -0.7040 -0.6965
vn 0.0000 -0.7040 -0.7101
vn 0.0000 0.5528 -0.8333
vn 0.1626 0.5528 -0.8173
vn 0.1092 -0.8286 -0.5490
vn 0.0000 -0.8286 -0.5598
vn 0.0000 0.3805 -0.9247
vn 0.1804 0.3805 -0.9070
vn 0.0757 -0.9217 -0.3804
vn 0.0000 0.1939 -0.9810
vn 0.1484 -0.9217 -0.3583
vn 0.3754 0.1939 -0.9063
vn 0.0769 -0.9796 -0.1856
vn 0.3827 0.0000 -0.9239
vn 0.0769 0.9796 -0.1856
vn 0.3754 -0.1939 -0.9063
vn 0.1484 0.9217 -0.3583
vn 0.3539 -0.3805 -0.8544
vn 0.2142 0.8286 -0.5171
vn 0.3189 -0.5528 -0.7699
vn 0.2717 0.7040 -0.6561
vn 0.2717 -0.7040 -0.6561
vn 0.3189 0.5528 -0.7699
vn 0.2142 -0.8286 -0.5171
vn 0.3539 0.3805 -0.8544
vn 0.3110 0.8286 -0.4654
vn 0.5137 -0.3805 -0.7689
vn 0.4630 -0.5528 -0.6929
vn 0.3945 0.7040 -0.5904
vn 0.3945 -0.7040 -0.5904
vn 0.4630 0.5528 -0.6929
vn 0.3110 -0.8286 -0.4654
vn 0.5137 0.3805 -0.7689
vn 0.2155 -0.9217 -0.3225
vn 0.5450 0.1939 -0.8157
vn 0.1116 -0.9796 -0.1671
vn 0.5556 0.0000 -0.8314
vn 0.1116 0.9796 -0.1671
vn 0.5450 -0.1939 -0.8157
vn 0.2155 0.9217 -0.3225
vn 0.6937 0.1939 -0.6937
vn 0.1421 -0.9796 -0.1421
vn 0.7071 0.0000 -0.7071
vn 0.1421 0.9796 -0.1421
vn 0.6937 -0.1939 -0.6937
vn 0.2743 0.9217 -0.2743
vn 0.6539 -0.3805 -0.6539
vn 0.3958 0.8286 -0.3958
vn 0.5893 -0.5528 -0.5893
vn 0.5021 0.7040 -0.5021
vn 0.5021 -0.7040 -0.5021
vn 0.5893 0.5528 -0.5893
vn 0.3958 -0.8286 -0.3958
vn 0.6539 0.3805 -0.6539
vn 0.2743 -0.9217 -0.2743
vn 0.7689 -0.3805 -0.5137
vn 0.6929 -0.5528 -0.4630
vn 0.5904 0.7040 -0.3945
vn 0.5904 -0.7040 -0.3945
vn 0.6929 0.5528 -0.4630
vn 0.4654 -0.8286 -0.3110
vn 0.7689 0.3805 -0.5137
vn 0.3225 -0.9217 -0.2155
vn 0.8157 0.1939 -0.5450
vn 0.1671 -0.9796 -0.1116
vn 0.8314 0.0000 -0.5556
vn 0.1671 0.9796 -0.1116
vn 0.8157 -0.1939 -0.5450
vn 0.3225 0.9217 -0.2155
vn 0.4654 0.8286 -0.3110
vn 0.1856 -0.9796 -0.0769
vn 0.9239 0.0000 -0.3827
vn 0.1856 0.9796 -0.0769
vn 0.9063 -0.1939 -0.3754
vn 0.3583 0.9217 -0.1484
vn 0.8544 -0.3805 -0.3539
vn 0.5171 0.8286 -0.2142
vn 0.7699 -0.5528 -0.3189
vn 0.6561 0.7040 -0.2717
vn 0.6561 -0.7040 -0.2717
vn 0.7699 0.5528 -0.3189
vn 0.5171 -0.8286 -0.2142
vn 0.8544 0.3805 -0.3539
vn 0.3583 -0.9217 -0.1484
vn 0.9063 0.1939 -0.3754
vn 0.8173 -0.5528 -0.1626
vn 0.6965 -0.7040 -0.1385
vn 0.8173 0.5528 -0.1626
vn 0.5490 -0.8286 -0.1092
vn 0.9070 0.3805 -0.1804
vn 0.3804 -0.9217 -0.0757
vn 0.9622 0.1939 -0.1914
vn 0.1971 -0.9796 -0.0392
vn 0.9808 0.0000 -0.1951
vn 0.1971 0.9796 -0.0392
vn 0.9622 -0.1939 -0.1914
vn 0.3804 0.9217 -0.0757
vn 0.9070 -0.3805 -0.1804
vn 0.5490 0.8286 -0.1092
vn 0.6965 0.7040 -0.1385
vn 0.2010 0.9796 0.0000
vn 0.2010 -0.9796 0.0000
vn 0.9810 -0.1939 0.0000
vn 0.3879 0.9217 0.0000
vn 0.9247 -0.3805 0.0000
vn 0.5598 0.8286 0.0000
vn 0.8333 -0.5528 0.0000
vn 0.7101 0.7040 0.0000
vn 0.7101 -0.7040 0.0000
vn 0.8333 0.5528 0.0000
vn 0.5598 -0.8286 0.0000
vn 0.9247 0.3805 0.0000
vn 0.3879 -0.9217 0.0000
vn 0.9810 0.1939 0.0000
vn 1.0000 0.0000 0.0000
vn 0.8173 0.5528 0.1626
vn 0.6965 -0.7040 0.1385
vn 0.5490 -0.8286 0.1092
vn 0.9070 0.3805 0.1804
vn 0.3804 -0.9217 0.0757
vn 0.9622 0.1939 0.1914
vn 0.1971 -0.9796 0.0392
vn 0.9808 0.0000 0.1951
vn 0.1971 0.9796 0.0392
vn 0.9622 -0.1939 0.1914
vn 0.3804 0.9217 0.0757
vn 0.9070 -0.3805 0.1804
vn 0.5490 0.8286 0.1092
vn 0.8173 -0.5528 0.1626
vn 0.6965 0.7040 0.1385
vn 0.9239 0.0000 0.3827
vn 0.9063 -0.1939 0.3754
vn 0.3583 0.9217 0.1484
vn 0.8544 -0.3805 0.3539
vn 0.5171 0.8286 0.2142
vn 0.7699 -0.5528 0.3189
vn 0.6561 0.7040 0.2717
vn 0.6561 -0.7040 0.2717
vn 0.7699 0.5528 0.3189
vn 0.5171 -0.8286 0.2142
vn 0.8544 0.3805 0.3539
vn 0.3583 -0.9217 0.1484
vn 0.9063 0.1939 0.3754
vn 0.1856 -0.9796 0.0769
vn 0.1856 0.9796 0.0769
vn 0.5904 -0.7040 0.3945
vn 0.4654 -0.8286 0.3110
vn 0.7689 0.3805 0.5137
vn 0.3225 -0.9217 0.2155
vn 0.8157 0.1939 0.5450
vn 0.1671 -0.9796 0.1116
vn 0.8314 0.0000 0.5556
vn 0.1671 0.9796 0.1116
vn 0.8157 -0.1939 0.5450
vn 0.3225 0.9217 0.2155
vn 0.7689 -0.3805 0.5137
vn 0.4654 0.8286 0.3110
vn 0.6929 -0.5528 0.4630
vn 0.5904 0.7040 0.3945
vn 0.6929 0.5528 0.4630
vn 0.2743 0.9217 0.2743
vn 0.6539 -0.3805 0.6539
vn 0.3958 0.8286 0.3958
vn 0.5893 -0.5528 0.5893
vn 0.5021 0.7040 0.5021
vn 0.5021 -0.7040 0.5021
vn 0.5893 0.5528 0.5893
vn 0.3958 -0.8286 0.3958
vn 0.6539 0.3805 0.6539
vn 0.2743 -0.9217 0.2743
vn 0.6937 0.1939 0.6937
vn 0.1421 -0.9796 0.1421
vn 0.7071 0.0000 0.7071
vn 0.1421 0.9796 0.1421
vn 0.6937 -0.1939 0.6937
vn 0.5137 0.3805 0.7689
vn 0.3110 -0.8286 0.4654
vn 0.2155 -0.9217 0.3225
vn 0.5450 0.1939 0.8157
vn 0.1116 -0.9796 0.1671
vn 0.5556 0.0000 0.8314
vn 0.1116 0.9796 0.1671
vn 0.5450 -0.1939 0.8157
vn 0.2155 0.9217 0.3225
vn 0.5137 -0.3805 0.7689
vn 0.3110 0.8286 0.4654
vn 0.4630 -0.5528 0.6929
vn 0.3945 0.7040 0.5904
vn 0.3945 -0.7040 0.5904
vn 0.4630 0.5528 0.6929
vn 0.3539 -0.3805 0.8544
vn 0.2142 0.8286 0.5171
vn 0.3189 -0.5528 0.7699
vn 0.2717 0.7040 0.6561
vn 0.2717 -0.7040 0.6561
vn 0.3189 0.5528 0.7699
vn 0.2142 -0.8286 0.5171
vn 0.3539 0.3805 0.8544
vn 0.1484 -0.9217 0.3583
vn 0.3754 0.1939 0.9063
vn 0.0769 -0.9796 0.1856
vn 0.3827 0.0000 0.9239
vn 0.0769 0.9796 0.1856
vn 0.3754 -0.1939 0.9063
vn 0.1484 0.9217 0.3583
vn 0.0757 -0.9217 0.3804
vn 0.1804 0.3805 0.9070
vn 0.1914 0.1939 0.9622
vn 0.0392 -0.9796 0.1971
vn 0.1951 0.0000 0.9808
vn 0.0392 0.9796 0.1971
vn 0.1914 -0.1939 0.9622
vn 0.0757 0.9217 0.3804
vn 0.1804 -0.3805 0.9070
vn 0.1092 0.8286 0.5490
vn 0.1626 -0.5528 0.8173
vn 0.1385 0.7040 0.6965
vn 0.1385 -0.7040 0.6965
vn 0.1626 0.5528 0.8173
vn 0.1092 -0.8286 0.5490
vn 0.0000 -0.3805 0.9247
vn 0.0000 -0.5528 0.8333
vn 0.0000 0.8286 0.5598
vn 0.0000 0.7040 0.7101
vn 0.0000 -0.7040 0.7101
vn 0.0000 0.5528 0.8333
vn 0.0000 -0.8286 0.5598
vn 0.0000 0.3805 0.9247
vn 0.0000 -0.9217 0.3879
vn 0.0000 0.1939 0.9810
vn 0.0000 -0.9796 0.2010
vn 0.0000 0.0000 1.0000
vn 0.0000 0.9796 0.2010
vn 0.0000 -0.1939 0.9810
vn 0.0000 0.9217 0.3879
vn -0.0757 -0.9217 0.3804
vn -0.0392 -0.9796 0.1971
vn -0.1951 0.0000 0.9808
vn -0.0392 0.9796 0.1971
vn -0.1914 -0.1939 0.9622
vn -0.0757 0.9217 0.3804
vn -0.1804 -0.3805 0.9070
vn -0.1092 0.8286 0.5490
vn -0.1626 -0.5528 0.8173
vn -0.1385 0.7040 0.6965
vn -0.1385 -0.7040 0.6965
vn -0.1626 0.5528 0.8173
vn -0.1092 -0.8286 0.5490
vn -0.1804 0.3805 0.9070
vn -0.1914 0.1939 0.9622
vn -0.2142 0.8286 0.5171
vn -0.2717 0.7040 0.6561
vn -0.2717 -0.7040 0.6561
vn -0.3189 0.5528 0.7699
vn -0.2142 -0.8286 0.5171
vn -0.3539 0.3805 0.8544
vn -0.1484 -0.9217 0.3583
vn -0.3754 0.1939 0.9063
vn -0.0769 -0.9796 0.1856
vn -0.3827 0.0000 0.9239
vn -0.0769 0.9796 0.1856
vn -0.3754 -0.1939 0.9063
vn -0.1484 0.9217 0.3583
vn -0.3539 -0.3805 0.8544
vn -0.3189 -0.5528 0.7699
vn -0.5556 0.0000 0.8314
vn -0.1116 0.9796 0.1671
vn -0.1116 -0.9796 0.1671
vn -0.5450 -0.1939 0.8157
vn -0.2155 0.9217 0.3225
vn -0.5137 -0.3805 0.7689
vn -0.3110 0.8286 0.4654
vn -0.4630 -0.5528 0.6929
vn -0.3945 0.7040 0.5904
vn -0.3945 -0.7040 0.5904
vn -0.4630 0.5528 0.6929
vn -0.3110 -0.8286 0.4654
vn -0.5137 0.3805 0.7689
vn -0.2155 -0.9217 0.3225
vn -0.5450 0.1939 0.8157
vn -0.5021 -0.7040 0.5021
vn -0.5021 0.7040 0.5021
vn -0.5893 0.5528 0.5893
vn -0.3958 -0.8286 0.3958
vn -0.6539 0.3805 0.6539
vn -0.2743 -0.9217 0.2743
vn -0.6937 0.1939 0.6937
vn -0.1421 -0.9796 0.1421
vn -0.7071 0.0000 0.7071
vn -0.1421 0.9796 0.1421
vn -0.6937 -0.1939 0.6937
vn -0.2743 0.9217 0.2743
vn -0.6539 -0.3805 0.6539
vn -0.3958 0.8286 0.3958
vn -0.5893 -0.5528 0.5893
vn -0.1671 0.9796 0.1116
vn -0.1671 -0.9796 0.1116
vn -0.8157 -0.1939 0.5450
vn -0.3225 0.9217 0.2155
vn -0.7689 -0.3805 0.5137
vn -0.4654 0.8286 0.3110
vn -0.6929 -0.5528 0.4630
vn -0.5904 0.7040 0.3945
vn -0.5904 -0.7040 0.3945
vn -0.6929 0.5528 0.4630
vn -0.4654 -0.8286 0.3110
vn -0.7689 0.3805 0.5137
vn -0.3225 -0.9217 0.2155
vn -0.8157 0.1939 0.5450
vn -0.8314 0.0000 0.5556
vn -0.6561 0.7040 0.2717
vn -0.7699 0.5528 0.3189
vn -0.5171 -0.8286 0.2142
vn -0.8544 0.3805 0.3539
vn -0.3583 -0.9217 0.1484
vn -0.9063 0.1939 0.3754
vn -0.1856 -0.9796 0.0769
vn -0.9239 0.0000 0.3827
vn -0.1856 0.9796 0.0769
vn -0.9063 -0.1939 0.3754
vn -0.3583 0.9217 0.1484
vn -0.8544 -0.3805 0.3539
vn -0.5171 0.8286 0.2142
vn -0.7699 -0.5528 0.3189
vn -0.6561 -0.7040 0.2717
vn -0.9808 0.0000 0.1951
vn -0.9622 -0.1939 0.1914
vn -0.3804 0.9217 0.0757
vn -0.9070 -0.3805 0.1804
vn -0.5490 0.8286 0.1092
vn -0.8173 -0.5528 0.1626
vn -0.6965 0.7040 0.1385
vn -0.6965 -0.7040 0.1385
vn -0.8173 0.5528 0.1626
vn -0.5490 -0.8286 0.1092
vn -0.9070 0.3805 0.1804
vn -0.3804 -0.9217 0.0757
vn -0.9622 0.1939 0.1914
vn -0.1971 -0.9796 0.0392
vn -0.1971 0.9796 0.0392
vn -0.5598 -0.8286 0.0000
vn -0.9247 0.3805 0.0000
vn -0.3879 -0.9217 0.0000
vn -0.9810 0.1939 0.0000
vn -0.2010 -0.9796 0.0000
vn -1.0000 0.0000 0.0000
vn -0.2010 0.9796 0.0000
vn -0.9810 -0.1939 0.0000
vn -0.3879 0.9217 0.0000
vn -0.9247 -0.3805 0.0000
vn -0.5598 0.8286 0.0000
vn -0.8333 -0.5528 0.0000
vn -0.7101 0.7040 0.0000
vn -0.7101 -0.7040 0.0000
vn -0.8333 0.5528 0.0000
vn -0.9070 -0.3805 -0.1804
vn -0.5490 0.8286 -0.1092
vn -0.8173 -0.5528 -0.1626
vn -0.6965 0.7040 -0.1385
vn -0.6965 -0.7040 -0.1385
vn -0.8173 0.5528 -0.1626
vn -0.5490 -0.8286 -0.1092
vn -0.9070 0.3805 -0.1804
vn -0.3804 -0.9217 -0.0757
vn -0.9622 0.1939 -0.1914
vn -0.1971 -0.9796 -0.0392
vn -0.9808 0.0000 -0.1951
vn -0.1971 0.9796 -0.0392
vn -0.9622 -0.1939 -0.1914
vn -0.3804 0.9217 -0.0757
vn -0.5171 -0.8286 -0.2142
vn -0.3583 -0.9217 -0.1484
vn -0.8544 0.3805 -0.3539
vn -0.9063 0.1939 -0.3754
vn -0.1856 -0.9796 -0.0769
vn -0.9239 0.0000 -0.3827
vn -0.1856 0.9796 -0.0769
vn -0.9063 -0.1939 -0.3754
vn -0.3583 0.9217 -0.1484
vn -0.8544 -0.3805 -0.3539
vn -0.5171 0.8286 -0.2142
vn -0.7699 -0.5528 -0.3189
vn -0.6561 0.7040 -0.2717
vn -0.6561 -0.7040 -0.2717
vn -0.7699 0.5528 -0.3189
vn -0.4654 0.8286 -0.3110
vn -0.7689 -0.3805 -0.5137
vn -0.6929 -0.5528 -0.4630
vn -0.5904 0.7040 -0.3945
vn -0.5904 -0.7040 -0.3945
vn -0.6929 0.5528 -0.4630
vn -0.4654 -0.8286 -0.3110
vn -0.7689 0.3805 -0.5137
vn -0.3225 -0.9217 -0.2155
vn -0.8157 0.1939 -0.5450
vn -0.1671 -0.9796 -0.1116
vn -0.8314 0.0000 -0.5556
vn -0.1671 0.9796 -0.1116
vn -0.8157 -0.1939 -0.5450
vn -0.3225 0.9217 -0.2155
vn -0.6539 0.3805 -0.6539
vn -0.6937 0.1939 -0.6937
vn -0.1421 -0.9796 -0.1421
vn -0.7071 0.0000 -0.7071
vn -0.1421 0.9796 -0.1421
vn -0.6937 -0.1939 -0.6937
vn -0.2743 0.9217 -0.2743
vn -0.6539 -0.3805 -0.6539
vn -0.3958 0.8286 -0.3958
vn -0.5893 -0.5528 -0.5893
vn -0.5021 0.7040 -0.5021
vn -0.5021 -0.7040 -0.5021
vn -0.5893 0.5528 -0.5893
vn -0.3958 -0.8286 -0.3958
vn -0.2743 -0.9217 -0.2743
vn -0.5137 -0.3805 -0.7689
vn -0.4630 -0.5528 -0.6929
vn -0.3945 0.7040 -0.5904
vn -0.3945 -0.7040 -0.5904
vn -0.4630 0.5528 -0.6929
vn -0.3110 -0.8286 -0.4654
vn -0.5137 0.3805 -0.7689
vn -0.2155 -0.9217 -0.3225
vn -0.5450 0.1939 -0.8157
vn -0.1116 -0.9796 -0.1671
vn -0.5556 0.0000 -0.8314
vn -0.1116 0.9796 -0.1671
vn -0.5450 -0.1939 -0.8157
vn -0.2155 0.9217 -0.3225
vn -0.3110 0.8286 -0.4654
vn -0.0769 -0.9796 -0.1856
vn -0.3827 0.0000 -0.9239
vn -0.0769 0.9796 -0.1856
vn -0.3754 -0.1939 -0.9063
vn -0.1484 0.9217 -0.3583
vn -0.3539 -0.3805 -0.8544
vn -0.2142 0.8286 -0.5171
vn -0.3189 -0.5528 -0.7699
vn -0.2717 0.7040 -0.6561
vn -0.2717 -0.7040 -0.6561
vn -0.3189 0.5528 -0.7699
vn -0.2142 -0.8286 -0.5171
vn -0.3539 0.3805 -0.8544
vn -0.1484 -0.9217 -0.3583
vn -0.3754 0.1939 -0.9063
vn -0.1385 0.7040 -0.6965
vn -0.1385 -0.7040 -0.6965
vn -0.1626 0.5528 -0.8173
vn -0.1092 -0.8286 -0.5490
vn -0.1804 0.3805 -0.9070
vn -0.0757 -0.9217 -0.3804
vn -0.1914 0.1939 -0.9622
vn -0.0392 -0.9796 -0.1971
vn -0.1951 0.0000 -0.9808
vn -0.0392 0.9796 -0.1971
vn -0.1914 -0.1939 -0.9622
vn -0.0757 0.9217 -0.3804
vn -0.1804 -0.3805 -0.9070
vn -0.1092 0.8286 -0.5490
vn -0.1626 -0.5528 -0.8173
s 1
f 481/1/1 15/2/2 482/3/3
f 475/4/4 7/5/5 8/6/6
f 468/7/7 272/8/8 1/9/9
f 76/10/10 482/3/3 15/2/2
f 475/4/4 9/11/11 476/12/12
f 469/13/13 1/9/9 2/14/14
f 476/12/12 10/15/15 477/16/16
f 470/17/17 2/14/14 3/18/18
f 477/16/16 11/19/19 478/20/20
f 471/21/21 3/18/18 4/22/22
f 478/20/20 12/23/23 479/24/24
f 472/25/25 4/22/22 5/26/26
f 479/24/24 13/27/27 480/28/28
f 473/29/29 5/26/26 6/30/30
f 480/28/28 14/31/31 481/1/1
f 474/32/32 6/30/30 7/5/5
f 13/27/27 29/33/33 14/31/31
f 6/30/30 22/34/34 7/5/5
f 15/2/2 29/33/33 30/35/35
f 7/5/5 23/36/36 8/6/6
f 1/9/9 272/8/8 16/37/37
f 76/10/10 15/2/2 30/35/35
f 9/11/11 23/36/36 24/38/38
f 1/9/9 17/39/39 2/14/14
f 9/11/11 25/40/40 10/15/15
f 2/14/14 18/41/41 3/18/18
f 10/15/15 26/42/42 11/19/19
f 3/18/18 19/43/43 4/22/22
f 12/23/23 26/42/42 27/44/44
f 4/22/22 20/45/45 5/26/26
f 13/27/27 27/44/44 28/46/46
f 5/26/26 21/47/47 6/30/30
f 17/39/39 33/48/48 18/41/41
f 26/42/42 40/49/49 41/50/50
f 18/41/41 34/51/51 19/43/43
f 26/42/42 42/52/52 27/44/44
f 19/43/43 35/53/53 20/45/45
f 28/54/46 42/52/52 43/55/54
f 20/45/45 36/56/55 21/47/47
f 29/57/33 43/55/54 44/58/56
f 21/47/47 37/59/57 22/34/34
f 29/57/33 45/60/58 30/61/35
f 22/34/34 38/62/59 23/36/36
f 16/37/37 272/8/8 31/63/60
f 76/10/10 30/35/35 45/64/58
f 23/36/36 39/65/61 24/38/38
f 16/37/37 32/66/62 17/39/39
f 24/38/38 40/49/49 25/40/40
f 36/56/55 52/67/63 37/59/57
f 44/58/56 60/68/64 45/60/58
f 37/59/57 53/69/65 38/62/59
f 31/63/60 272/8/8 46/70/66
f 76/10/10 45/64/58 60/71/64
f 38/62/59 54/72/67 39/65/61
f 32/66/62 46/70/66 47/73/68
f 39/65/61 55/74/69 40/49/49
f 32/66/62 48/75/70 33/48/48
f 41/50/50 55/74/69 56/76/71
f 33/48/48 49/77/72 34/51/51
f 41/50/50 57/78/73 42/52/52
f 35/53/53 49/77/72 50/79/74
f 42/52/52 58/80/75 43/55/54
f 35/53/53 51/81/76 36/56/55
f 43/55/54 59/82/77 44/58/56
f 56/76/71 70/83/78 71/84/79
f 48/75/70 64/85/80 49/77/72
f 56/76/71 72/86/81 57/78/73
f 50/79/74 64/85/80 65/87/82
f 57/78/73 73/88/83 58/80/75
f 50/79/74 66/89/84 51/81/76
f 58/80/75 74/90/85 59/82/77
f 52/67/63 66/89/84 67/91/86
f 60/68/64 74/90/85 75/92/87
f 53/69/65 67/91/86 68/93/88
f 46/70/66 272/8/8 61/94/89
f 76/10/10 60/71/64 75/95/87
f 53/69/65 69/96/90 54/72/67
f 46/70/66 62/97/91 47/73/68
f 54/72/67 70/83/78 55/74/69
f 47/73/68 63/98/92 48/75/70
f 74/90/85 91/99/93 75/92/87
f 67/91/86 84/100/94 68/93/88
f 61/94/89 272/8/8 77/101/95
f 76/10/10 75/95/87 91/102/93
f 68/93/88 85/103/96 69/96/90
f 61/94/89 78/104/97 62/97/91
f 69/96/90 86/105/98 70/83/78
f 62/97/91 79/106/99 63/98/92
f 71/84/79 86/105/98 87/107/100
f 63/98/92 80/108/101 64/85/80
f 71/84/79 88/109/102 72/86/81
f 64/85/80 81/110/103 65/87/82
f 73/88/83 88/109/102 89/111/104
f 65/87/82 82/112/105 66/89/84
f 73/88/83 90/113/106 74/90/85
f 67/91/86 82/112/105 83/114/107
f 88/109/102 102/115/108 103/116/109
f 80/108/101 96/117/110 81/110/103
f 89/111/104 103/116/109 104/118/111
f 81/110/103 97/119/112 82/112/105
f 89/111/104 105/120/113 90/113/106
f 83/114/107 97/119/112 98/121/114
f 90/113/106 106/122/115 91/99/93
f 83/114/107 99/123/116 84/100/94
f 77/101/95 272/8/8 92/124/117
f 76/10/10 91/102/93 106/125/115
f 84/100/94 100/126/118 85/103/96
f 77/101/95 93/127/119 78/104/97
f 85/103/96 101/128/120 86/105/98
f 78/104/97 94/129/121 79/106/99
f 87/107/100 101/128/120 102/115/108
f 79/106/99 95/130/122 80/108/101
f 92/124/117 272/8/8 107/131/123
f 76/10/10 106/125/115 121/132/124
f 99/123/116 115/133/125 100/126/118
f 92/124/117 108/134/126 93/127/119
f 100/126/118 116/135/127 101/128/120
f 93/127/119 109/136/128 94/129/121
f 102/115/108 116/135/127 117/137/129
f 94/129/121 110/138/130 95/130/122
f 103/116/109 117/137/129 118/139/131
f 95/130/122 111/140/132 96/117/110
f 104/118/111 118/139/131 119/141/133
f 96/117/110 112/142/134 97/119/112
f 104/118/111 120/143/135 105/120/113
f 98/121/114 112/142/134 113/144/136
f 106/122/115 120/143/135 121/145/124
f 98/121/114 114/146/137 99/123/116
f 110/138/130 126/147/138 111/140/132
f 119/141/133 133/148/139 134/149/140
f 111/140/132 127/150/141 112/142/134
f 119/141/133 135/151/142 120/143/135
f 113/144/136 127/150/141 128/152/143
f 120/143/135 136/153/144 121/145/124
f 113/144/136 129/154/145 114/146/137
f 107/131/123 272/8/8 122/155/146
f 76/10/10 121/132/124 136/156/144
f 114/146/137 130/157/147 115/133/125
f 107/131/123 123/158/148 108/134/126
f 115/133/125 131/159/149 116/135/127
f 108/134/126 124/160/150 109/136/128
f 117/137/129 131/159/149 132/161/151
f 109/136/128 125/162/152 110/138/130
f 117/137/129 133/148/139 118/139/131
f 130/157/147 144/163/153 145/164/154
f 122/155/146 138/165/155 123/158/148
f 130/157/147 146/166/156 131/159/149
f 123/158/148 139/167/157 124/160/150
f 132/161/151 146/166/156 147/168/158
f 125/162/152 139/167/157 140/169/159
f 132/161/151 148/170/160 133/148/139
f 125/162/152 141/171/161 126/147/138
f 133/148/139 149/172/162 134/149/140
f 126/147/138 142/173/163 127/150/141
f 134/149/140 150/174/164 135/151/142
f 128/152/143 142/173/163 143/175/165
f 136/153/144 150/174/164 151/176/166
f 128/152/143 144/163/153 129/154/145
f 122/155/146 272/8/8 137/177/167
f 76/10/10 136/156/144 151/178/166
f 149/172/162 163/179/168 164/180/169
f 141/171/161 157/181/170 142/173/163
f 149/172/162 165/182/171 150/174/164
f 143/175/165 157/181/170 158/183/172
f 151/176/166 165/182/171 166/184/173
f 143/175/165 159/185/174 144/163/153
f 137/177/167 272/8/8 152/186/175
f 76/10/10 151/178/166 166/187/173
f 145/164/154 159/185/174 160/188/176
f 137/177/167 153/189/177 138/165/155
f 145/164/154 161/190/178 146/166/156
f 138/165/155 154/191/179 139/167/157
f 147/168/158 161/190/178 162/192/180
f 139/167/157 155/193/181 140/169/159
f 147/168/158 163/179/168 148/170/160
f 141/171/161 155/193/181 156/194/182
f 152/186/175 168/195/183 153/189/177
f 160/188/176 176/196/184 161/190/178
f 153/189/177 169/197/185 154/191/179
f 162/192/180 176/196/184 177/198/186
f 154/191/179 170/199/187 155/193/181
f 162/192/180 178/200/188 163/179/168
f 155/193/181 171/201/189 156/194/182
f 164/180/169 178/200/188 179/202/190
f 156/194/182 172/203/191 157/181/170
f 165/182/171 179/202/190 180/204/192
f 158/183/172 172/203/191 173/205/193
f 166/184/173 180/204/192 181/206/194
f 158/183/172 174/207/195 159/185/174
f 152/186/175 272/8/8 167/208/196
f 76/10/10 166/187/173 181/209/194
f 159/185/174 175/210/197 160/188/176
f 171/201/189 187/211/198 172/203/191
f 180/204/192 194/212/199 195/213/200
f 173/205/193 187/211/198 188/214/201
f 180/204/192 196/215/202 181/206/194
f 173/205/193 189/216/203 174/207/195
f 167/208/196 272/8/8 182/217/204
f 76/10/10 181/209/194 196/218/202
f 174/207/195 190/219/205 175/210/197
f 167/208/196 183/220/206 168/195/183
f 175/210/197 191/221/207 176/196/184
f 168/195/183 184/222/208 169/197/185
f 177/198/186 191/221/207 192/223/209
f 169/197/185 185/224/210 170/199/187
f 177/198/186 193/225/211 178/200/188
f 171/201/189 185/224/210 186/226/212
f 178/200/188 194/212/199 179/202/190
f 190/219/205 206/227/213 191/221/207
f 183/220/206 199/228/214 184/222/208
f 192/223/209 206/227/213 207/229/215
f 184/222/208 200/230/216 185/224/210
f 193/225/211 207/229/215 208/231/217
f 185/224/210 201/232/218 186/226/212
f 194/212/199 208/231/217 209/233/219
f 186/226/212 202/234/220 187/211/198
f 195/213/200 209/233/219 210/235/221
f 188/214/201 202/234/220 203/236/222
f 196/215/202 210/235/221 211/237/223
f 188/214/201 204/238/224 189/216/203
f 182/217/204 272/8/8 197/239/225
f 76/10/10 196/218/202 211/240/223
f 190/219/205 204/238/224 205/241/226
f 182/217/204 198/242/227 183/220/206
f 209/233/219 225/243/228 210/235/221
f 203/236/222 217/244/229 218/245/230
f 210/235/221 226/246/231 211/237/223
f 204/238/224 218/245/230 219/247/232
f 197/239/225 272/8/8 212/248/233
f 76/10/10 211/240/223 226/249/231
f 204/238/224 220/250/234 205/241/226
f 197/239/225 213/251/235 198/242/227
f 205/241/226 221/252/236 206/227/213
f 199/228/214 213/251/235 214/253/237
f 207/229/215 221/252/236 222/254/238
f 200/230/216 214/253/237 215/255/239
f 208/231/217 222/254/238 223/256/240
f 201/232/218 215/255/239 216/257/241
f 208/231/217 224/258/242 209/233/219
f 201/232/218 217/244/229 202/234/220
f 222/254/238 236/259/243 237/260/244
f 215/255/239 229/261/245 230/262/246
f 222/254/238 238/263/247 223/256/240
f 216/257/241 230/262/246 231/264/248
f 224/258/242 238/263/247 239/265/249
f 216/257/241 232/266/250 217/244/229
f 225/243/228 239/265/249 240/267/251
f 218/245/230 232/266/250 233/268/252
f 226/246/231 240/267/251 241/269/253
f 218/245/230 234/270/254 219/247/232
f 212/248/233 272/8/8 227/271/255
f 76/10/10 226/249/231 241/272/253
f 219/247/232 235/273/256 220/250/234
f 212/248/233 228/274/257 213/251/235
f 220/250/234 236/259/243 221/252/236
f 214/253/237 228/274/257 229/261/245
f 241/269/253 255/275/258 256/276/259
f 233/268/252 249/277/260 234/270/254
f 227/271/255 272/8/8 242/278/261
f 76/10/10 241/272/253 256/279/259
f 234/270/254 250/280/262 235/273/256
f 227/271/255 243/281/263 228/274/257
f 235/273/256 251/282/264 236/259/243
f 228/274/257 244/283/265 229/261/245
f 237/260/244 251/282/264 252/284/266
f 230/262/246 244/283/265 245/285/267
f 237/260/244 253/286/268 238/263/247
f 231/264/248 245/285/267 246/287/269
f 238/263/247 254/288/270 239/265/249
f 231/264/248 247/289/271 232/266/250
f 239/265/249 255/275/258 240/267/251
f 233/268/252 247/289/271 248/290/272
f 245/291/267 259/292/273 260/293/274
f 252/294/266 268/295/275 253/296/268
f 246/297/269 260/293/274 261/298/276
f 253/296/268 269/299/277 254/300/270
f 246/297/269 262/301/278 247/302/271
f 255/303/258 269/299/277 270/304/279
f 248/305/272 262/301/278 263/306/280
f 256/279/259 270/304/279 271/307/281
f 248/305/272 264/308/282 249/309/260
f 242/278/261 272/8/8 257/310/283
f 76/10/10 256/279/259 271/307/281
f 249/309/260 265/311/284 250/312/262
f 242/278/261 258/313/285 243/281/263
f 250/312/262 266/314/286 251/315/264
f 243/281/263 259/292/273 244/283/265
f 252/294/266 266/314/286 267/316/287
f 263/306/280 280/317/288 264/308/282
f 257/310/283 272/8/8 273/318/289
f 76/10/10 271/307/281 287/319/290
f 264/308/282 281/320/291 265/311/284
f 257/310/283 274/321/292 258/313/285
f 265/311/284 282/322/293 266/314/286
f 258/313/285 275/323/294 259/292/273
f 267/316/287 282/322/293 283/324/295
f 260/293/274 275/323/294 276/325/296
f 267/316/287 284/326/297 268/295/275
f 261/298/276 276/325/296 277/327/298
f 268/295/275 285/328/299 269/299/277
f 261/298/276 278/329/300 262/301/278
f 270/304/279 285/328/299 286/330/301
f 263/306/280 278/329/300 279/331/302
f 271/307/281 286/330/301 287/319/290
f 283/324/295 299/332/303 284/326/297
f 277/327/298 291/333/304 292/334/305
f 284/326/297 300/335/306 285/328/299
f 277/327/298 293/336/307 278/329/300
f 285/328/299 301/337/308 286/330/301
f 279/331/302 293/336/307 294/338/309
f 286/330/301 302/339/310 287/319/290
f 280/317/288 294/338/309 295/340/311
f 273/318/289 272/8/8 288/341/312
f 76/10/10 287/319/290 302/339/310
f 280/317/288 296/342/313 281/320/291
f 274/321/292 288/341/312 289/343/314
f 281/320/291 297/344/315 282/322/293
f 274/321/292 290/345/316 275/323/294
f 283/324/295 297/344/315 298/346/317
f 276/325/296 290/345/316 291/333/304
f 288/341/312 272/8/8 303/347/318
f 76/10/10 302/339/310 317/348/319
f 295/340/311 311/349/320 296/342/313
f 288/341/312 304/350/321 289/343/314
f 296/342/313 312/351/322 297/344/315
f 289/343/314 305/352/323 290/345/316
f 298/346/317 312/351/322 313/353/324
f 290/345/316 306/354/325 291/333/304
f 298/346/317 314/355/326 299/332/303
f 292/334/305 306/354/325 307/356/327
f 299/332/303 315/357/328 300/335/306
f 292/334/305 308/358/329 293/336/307
f 301/337/308 315/357/328 316/359/330
f 294/338/309 308/358/329 309/360/331
f 301/337/308 317/348/319 302/339/310
f 295/340/311 309/360/331 310/361/332
f 307/356/327 321/362/333 322/363/334
f 314/355/326 330/364/335 315/357/328
f 307/356/327 323/365/336 308/358/329
f 316/359/330 330/364/335 331/366/337
f 309/360/331 323/365/336 324/367/338
f 317/348/319 331/366/337 332/368/339
f 309/360/331 325/369/340 310/361/332
f 303/347/318 272/8/8 318/370/341
f 76/10/10 317/348/319 332/368/339
f 310/361/332 326/371/342 311/349/320
f 303/347/318 319/372/343 304/350/321
f 311/349/320 327/373/344 312/351/322
f 304/350/321 320/374/345 305/352/323
f 313/353/324 327/373/344 328/375/346
f 306/354/325 320/374/345 321/362/333
f 313/353/324 329/376/347 314/355/326
f 326/371/342 340/377/348 341/378/349
f 318/370/341 334/379/350 319/372/343
f 326/371/342 342/380/351 327/373/344
f 320/374/345 334/379/350 335/381/352
f 328/375/346 342/380/351 343/382/353
f 321/362/333 335/381/352 336/383/354
f 328/375/346 344/384/355 329/376/347
f 322/363/334 336/383/354 337/385/356
f 329/376/347 345/386/357 330/364/335
f 322/363/334 338/387/358 323/365/336
f 330/364/335 346/388/359 331/366/337
f 324/367/338 338/387/358 339/389/360
f 331/366/337 347/390/361 332/368/339
f 324/367/338 340/377/348 325/369/340
f 318/370/341 272/8/8 333/391/362
f 76/10/10 332/368/339 347/390/361
f 344/384/355 360/392/363 345/386/357
f 337/385/356 353/393/364 338/387/358
f 346/388/359 360/392/363 361/394/365
f 339/389/360 353/393/364 354/395/366
f 346/388/359 362/396/367 347/390/361
f 339/389/360 355/397/368 340/377/348
f 333/391/362 272/8/8 348/398/369
f 76/10/10 347/390/361 362/396/367
f 341/378/349 355/397/368 356/399/370
f 333/391/362 349/400/371 334/379/350
f 341/378/349 357/401/372 342/380/351
f 334/379/350 350/402/373 335/381/352
f 343/382/353 357/401/372 358/403/374
f 336/383/354 350/402/373 351/404/375
f 343/382/353 359/405/376 344/384/355
f 337/385/356 351/404/375 352/406/377
f 356/399/370 372/407/378 357/401/372
f 349/400/371 365/408/379 350/402/373
f 358/403/374 372/407/378 373/409/380
f 351/404/375 365/408/379 366/410/381
f 358/403/374 374/411/382 359/405/376
f 351/404/375 367/412/383 352/406/377
f 359/405/376 375/413/384 360/392/363
f 352/406/377 368/414/385 353/393/364
f 361/394/365 375/413/384 376/415/386
f 354/395/366 368/414/385 369/416/387
f 362/396/367 376/415/386 377/417/388
f 354/395/366 370/418/389 355/397/368
f 348/398/369 272/8/8 363/419/390
f 76/10/10 362/396/367 377/417/388
f 356/399/370 370/418/389 371/420/391
f 348/398/369 364/421/392 349/400/371
f 376/415/386 390/422/393 391/423/394
f 369/416/387 383/424/395 384/425/396
f 376/415/386 392/426/397 377/417/388
f 369/416/387 385/427/398 370/418/389
f 363/419/390 272/8/8 378/428/399
f 76/10/10 377/417/388 392/426/397
f 371/420/391 385/427/398 386/429/400
f 363/419/390 379/430/401 364/421/392
f 371/420/391 387/431/402 372/407/378
f 365/408/379 379/430/401 380/432/403
f 373/409/380 387/431/402 388/433/404
f 366/410/381 380/432/403 381/434/405
f 373/409/380 389/435/406 374/411/382
f 366/410/381 382/436/407 367/412/383
f 374/411/382 390/422/393 375/413/384
f 367/412/383 383/424/395 368/414/385
f 379/430/401 395/437/408 380/432/403
f 388/433/404 402/438/409 403/439/410
f 381/434/405 395/437/408 396/440/411
f 388/433/404 404/441/412 389/435/406
f 382/436/407 396/440/411 397/442/413
f 389/435/406 405/443/414 390/422/393
f 382/436/407 398/444/415 383/424/395
f 390/422/393 406/445/416 391/423/394
f 384/425/396 398/444/415 399/446/417
f 391/423/394 407/447/418 392/426/397
f 384/425/396 400/448/419 385/427/398
f 378/428/399 272/8/8 393/449/420
f 76/10/10 392/426/397 407/447/418
f 385/427/398 401/450/421 386/429/400
f 379/430/401 393/449/420 394/451/422
f 386/429/400 402/438/409 387/431/402
f 399/446/417 413/452/423 414/453/424
f 406/445/416 422/454/425 407/447/418
f 399/446/417 415/455/426 400/448/419
f 393/449/420 272/8/8 408/456/427
f 76/10/10 407/447/418 422/454/425
f 401/450/421 415/455/426 416/457/428
f 393/449/420 409/458/429 394/451/422
f 401/450/421 417/459/430 402/438/409
f 395/437/408 409/458/429 410/460/431
f 403/439/410 417/459/430 418/461/432
f 396/440/411 410/460/431 411/462/433
f 403/439/410 419/463/434 404/441/412
f 397/442/413 411/462/433 412/464/435
f 404/441/412 420/465/436 405/443/414
f 397/442/413 413/452/423 398/444/415
f 405/443/414 421/466/437 406/445/416
f 418/461/432 432/467/438 433/468/439
f 410/460/431 426/469/440 411/462/433
f 418/461/432 434/470/441 419/463/434
f 412/464/435 426/469/440 427/471/442
f 419/463/434 435/472/443 420/465/436
f 412/464/435 428/473/444 413/452/423
f 421/466/437 435/472/443 436/474/445
f 414/453/424 428/473/444 429/475/446
f 421/466/437 437/476/447 422/454/425
f 415/455/426 429/475/446 430/477/448
f 408/456/427 272/8/8 423/478/449
f 76/10/10 422/454/425 437/476/447
f 415/455/426 431/479/450 416/457/428
f 409/458/429 423/478/449 424/480/451
f 416/457/428 432/467/438 417/459/430
f 409/458/429 425/481/452 410/460/431
f 436/474/445 452/482/453 437/476/447
f 429/475/446 445/483/454 430/477/448
f 423/478/449 272/8/8 438/484/455
f 76/10/10 437/476/447 452/482/453
f 431/479/450 445/483/454 446/485/456
f 423/478/449 439/486/457 424/480/451
f 431/479/450 447/487/458 432/467/438
f 425/481/452 439/486/457 440/488/459
f 433/468/439 447/487/458 448/489/460
f 425/481/452 441/490/461 426/469/440
f 433/468/439 449/491/462 434/470/441
f 427/471/442 441/490/461 442/492/463
f 435/472/443 449/491/462 450/493/464
f 427/471/442 443/494/465 428/473/444
f 436/474/445 450/493/464 451/495/466
f 429/475/446 443/494/465 444/496/467
f 440/488/459 456/497/468 441/490/461
f 448/489/460 464/498/469 449/491/462
f 442/492/463 456/497/468 457/499/470
f 450/493/464 464/498/469 465/500/471
f 442/492/463 458/501/472 443/494/465
f 450/493/464 466/502/473 451/495/466
f 444/496/467 458/501/472 459/503/474
f 451/495/466 467/504/475 452/482/453
f 444/496/467 460/505/476 445/483/454
f 438/484/455 272/8/8 453/506/477
f 76/10/10 452/482/453 467/504/475
f 445/483/454 461/507/478 446/485/456
f 438/484/455 454/508/479 439/486/457
f 446/485/456 462/509/480 447/487/458
f 439/486/457 455/510/481 440/488/459
f 448/489/460 462/509/480 463/511/482
f 459/503/474 475/4/4 460/505/476
f 453/506/477 272/8/8 468/7/7
f 76/10/10 467/504/475 482/3/3
f 460/505/476 476/12/12 461/507/478
f 454/508/479 468/7/7 469/13/13
f 461/507/478 477/16/16 462/509/480
f 454/508/479 470/17/17 455/510/481
f 463/511/482 477/16/16 478/20/20
f 456/497/468 470/17/17 471/21/21
f 463/511/482 479/24/24 464/498/469
f 457/499/470 471/21/21 472/25/25
f 465/500/471 479/24/24 480/28/28
f 457/499/470 473/29/29 458/501/472
f 465/500/471 481/1/1 466/502/473
f 459/503/474 473/29/29 474/32/32
f 466/502/473 482/3/3 467/504/475
f 481/1/1 14/31/31 15/2/2
f 475/4/4 474/32/32 7/5/5
f 475/4/4 8/6/6 9/11/11
f 469/13/13 468/7/7 1/9/9
f 476/12/12 9/11/11 10/15/15
f 470/17/17 469/13/13 2/14/14
f 477/16/16 10/15/15 11/19/19
f 471/21/21 470/17/17 3/18/18
f 478/20/20 11/19/19 12/23/23
f 472/25/25 471/21/21 4/22/22
f 479/24/24 12/23/23 13/27/27
f 473/29/29 472/25/25 5/26/26
f 480/28/28 13/27/27 14/31/31
f 474/32/32 473/29/29 6/30/30
f 13/27/27 28/46/46 29/33/33
f 6/30/30 21/47/47 22/34/34
f 15/2/2 14/31/31 29/33/33
f 7/5/5 22/34/34 23/36/36
f 9/11/11 8/6/6 23/36/36
f 1/9/9 16/37/37 17/39/39
f 9/11/11 24/38/38 25/40/40
f 2/14/14 17/39/39 18/41/41
f 10/15/15 25/40/40 26/42/42
f 3/18/18 18/41/41 19/43/43
f 12/23/23 11/19/19 26/42/42
f 4/22/22 19/43/43 20/45/45
f 13/27/27 12/23/23 27/44/44
f 5/26/26 20/45/45 21/47/47
f 17/39/39 32/66/62 33/48/48
f 26/42/42 25/40/40 40/49/49
f 18/41/41 33/48/48 34/51/51
f 26/42/42 41/50/50 42/52/52
f 19/43/43 34/51/51 35/53/53
f 28/54/46 27/44/44 42/52/52
f 20/45/45 35/53/53 36/56/55
f 29/57/33 28/54/46 43/55/54
f 21/47/47 36/56/55 37/59/57
f 29/57/33 44/58/56 45/60/58
f 22/34/34 37/59/57 38/62/59
f 23/36/36 38/62/59 39/65/61
f 16/37/37 31/63/60 32/66/62
f 24/38/38 39/65/61 40/49/49
f 36/56/55 51/81/76 52/67/63
f 44/58/56 59/82/77 60/68/64
f 37/59/57 52/67/63 53/69/65
f 38/62/59 53/69/65 54/72/67
f 32/66/62 31/63/60 46/70/66
f 39/65/61 54/72/67 55/74/69
f 32/66/62 47/73/68 48/75/70
f 41/50/50 40/49/49 55/74/69
f 33/48/48 48/75/70 49/77/72
f 41/50/50 56/76/71 57/78/73
f 35/53/53 34/51/51 49/77/72
f 42/52/52 57/78/73 58/80/75
f 35/53/53 50/79/74 51/81/76
f 43/55/54 58/80/75 59/82/77
f 56/76/71 55/74/69 70/83/78
f 48/75/70 63/98/92 64/85/80
f 56/76/71 71/84/79 72/86/81
f 50/79/74 49/77/72 64/85/80
f 57/78/73 72/86/81 73/88/83
f 50/79/74 65/87/82 66/89/84
f 58/80/75 73/88/83 74/90/85
f 52/67/63 51/81/76 66/89/84
f 60/68/64 59/82/77 74/90/85
f 53/69/65 52/67/63 67/91/86
f 53/69/65 68/93/88 69/96/90
f 46/70/66 61/94/89 62/97/91
f 54/72/67 69/96/90 70/83/78
f 47/73/68 62/97/91 63/98/92
f 74/90/85 90/113/106 91/99/93
f 67/91/86 83/114/107 84/100/94
f 68/93/88 84/100/94 85/103/96
f 61/94/89 77/101/95 78/104/97
f 69/96/90 85/103/96 86/105/98
f 62/97/91 78/104/97 79/106/99
f 71/84/79 70/83/78 86/105/98
f 63/98/92 79/106/99 80/108/101
f 71/84/79 87/107/100 88/109/102
f 64/85/80 80/108/101 81/110/103
f 73/88/83 72/86/81 88/109/102
f 65/87/82 81/110/103 82/112/105
f 73/88/83 89/111/104 90/113/106
f 67/91/86 66/89/84 82/112/105
f 88/109/102 87/107/100 102/115/108
f 80/108/101 95/130/122 96/117/110
f 89/111/104 88/109/102 103/116/109
f 81/110/103 96/117/110 97/119/112
f 89/111/104 104/118/111 105/120/113
f 83/114/107 82/112/105 97/119/112
f 90/113/106 105/120/113 106/122/115
f 83/114/107 98/121/114 99/123/116
f 84/100/94 99/123/116 100/126/118
f 77/101/95 92/124/117 93/127/119
f 85/103/96 100/126/118 101/128/120
f 78/104/97 93/127/119 94/129/121
f 87/107/100 86/105/98 101/128/120
f 79/106/99 94/129/121 95/130/122
f 99/123/116 114/146/137 115/133/125
f 92/124/117 107/131/123 108/134/126
f 100/126/118 115/133/125 116/135/127
f 93/127/119 108/134/126 109/136/128
f 102/115/108 101/128/120 116/135/127
f 94/129/121 109/136/128 110/138/130
f 103/116/109 102/115/108 117/137/129
f 95/130/122 110/138/130 111/140/132
f 104/118/111 103/116/109 118/139/131
f 96/117/110 111/140/132 112/142/134
f 104/118/111 119/141/133 120/143/135
f 98/121/114 97/119/112 112/142/134
f 106/122/115 105/120/113 120/143/135
f 98/121/114 113/144/136 114/146/137
f 110/138/130 125/162/152 126/147/138
f 119/141/133 118/139/131 133/148/139
f 111/140/132 126/147/138 127/150/141
f 119/141/133 134/149/140 135/151/142
f 113/144/136 112/142/134 127/150/141
f 120/143/135 135/151/142 136/153/144
f 113/144/136 128/152/143 129/154/145
f 114/146/137 129/154/145 130/157/147
f 107/131/123 122/155/146 123/158/148
f 115/133/125 130/157/147 131/159/149
f 108/134/126 123/158/148 124/160/150
f 117/137/129 116/135/127 131/159/149
f 109/136/128 124/160/150 125/162/152
f 117/137/129 132/161/151 133/148/139
f 130/157/147 129/154/145 144/163/153
f 122/155/146 137/177/167 138/165/155
f 130/157/147 145/164/154 146/166/156
f 123/158/148 138/165/155 139/167/157
f 132/161/151 131/159/149 146/166/156
f 125/162/152 124/160/150 139/167/157
f 132/161/151 147/168/158 148/170/160
f 125/162/152 140/169/159 141/171/161
f 133/148/139 148/170/160 149/172/162
f 126/147/138 141/171/161 142/173/163
f 134/149/140 149/172/162 150/174/164
f 128/152/143 127/150/141 142/173/163
f 136/153/144 135/151/142 150/174/164
f 128/152/143 143/175/165 144/163/153
f 149/172/162 148/170/160 163/179/168
f 141/171/161 156/194/182 157/181/170
f 149/172/162 164/180/169 165/182/171
f 143/175/165 142/173/163 157/181/170
f 151/176/166 150/174/164 165/182/171
f 143/175/165 158/183/172 159/185/174
f 145/164/154 144/163/153 159/185/174
f 137/177/167 152/186/175 153/189/177
f 145/164/154 160/188/176 161/190/178
f 138/165/155 153/189/177 154/191/179
f 147/168/158 146/166/156 161/190/178
f 139/167/157 154/191/179 155/193/181
f 147/168/158 162/192/180 163/179/168
f 141/171/161 140/169/159 155/193/181
f 152/186/175 167/208/196 168/195/183
f 160/188/176 175/210/197 176/196/184
f 153/189/177 168/195/183 169/197/185
f 162/192/180 161/190/178 176/196/184
f 154/191/179 169/197/185 170/199/187
f 162/192/180 177/198/186 178/200/188
f 155/193/181 170/199/187 171/201/189
f 164/180/169 163/179/168 178/200/188
f 156/194/182 171/201/189 172/203/191
f 165/182/171 164/180/169 179/202/190
f 158/183/172 157/181/170 172/203/191
f 166/184/173 165/182/171 180/204/192
f 158/183/172 173/205/193 174/207/195
f 159/185/174 174/207/195 175/210/197
f 171/201/189 186/226/212 187/211/198
f 180/204/192 179/202/190 194/212/199
f 173/205/193 172/203/191 187/211/198
f 180/204/192 195/213/200 196/215/202
f 173/205/193 188/214/201 189/216/203
f 174/207/195 189/216/203 190/219/205
f 167/208/196 182/217/204 183/220/206
f 175/210/197 190/219/205 191/221/207
f 168/195/183 183/220/206 184/222/208
f 177/198/186 176/196/184 191/221/207
f 169/197/185 184/222/208 185/224/210
f 177/198/186 192/223/209 193/225/211
f 171/201/189 170/199/187 185/224/210
f 178/200/188 193/225/211 194/212/199
f 190/219/205 205/241/226 206/227/213
f 183/220/206 198/242/227 199/228/214
f 192/223/209 191/221/207 206/227/213
f 184/222/208 199/228/214 200/230/216
f 193/225/211 192/223/209 207/229/215
f 185/224/210 200/230/216 201/232/218
f 194/212/199 193/225/211 208/231/217
f 186/226/212 201/232/218 202/234/220
f 195/213/200 194/212/199 209/233/219
f 188/214/201 187/211/198 202/234/220
f 196/215/202 195/213/200 210/235/221
f 188/214/201 203/236/222 204/238/224
f 190/219/205 189/216/203 204/238/224
f 182/217/204 197/239/225 198/242/227
f 209/233/219 224/258/242 225/243/228
f 203/236/222 202/234/220 217/244/229
f 210/235/221 225/243/228 226/246/231
f 204/238/224 203/236/222 218/245/230
f 204/238/224 219/247/232 220/250/234
f 197/239/225 212/248/233 213/251/235
f 205/241/226 220/250/234 221/252/236
f 199/228/214 198/242/227 213/251/235
f 207/229/215 206/227/213 221/252/236
f 200/230/216 199/228/214 214/253/237
f 208/231/217 207/229/215 222/254/238
f 201/232/218 200/230/216 215/255/239
f 208/231/217 223/256/240 224/258/242
f 201/232/218 216/257/241 217/244/229
f 222/254/238 221/252/236 236/259/243
f 215/255/239 214/253/237 229/261/245
f 222/254/238 237/260/244 238/263/247
f 216/257/241 215/255/239 230/262/246
f 224/258/242 223/256/240 238/263/247
f 216/257/241 231/264/248 232/266/250
f 225/243/228 224/258/242 239/265/249
f 218/245/230 217/244/229 232/266/250
f 226/246/231 225/243/228 240/267/251
f 218/245/230 233/268/252 234/270/254
f 219/247/232 234/270/254 235/273/256
f 212/248/233 227/271/255 228/274/257
f 220/250/234 235/273/256 236/259/243
f 214/253/237 213/251/235 228/274/257
f 241/269/253 240/267/251 255/275/258
f 233/268/252 248/290/272 249/277/260
f 234/270/254 249/277/260 250/280/262
f 227/271/255 242/278/261 243/281/263
f 235/273/256 250/280/262 251/282/264
f 228/274/257 243/281/263 244/283/265
f 237/260/244 236/259/243 251/282/264
f 230/262/246 229/261/245 244/283/265
f 237/260/244 252/284/266 253/286/268
f 231/264/248 230/262/246 245/285/267
f 238/263/247 253/286/268 254/288/270
f 231/264/248 246/287/269 247/289/271
f 239/265/249 254/288/270 255/275/258
f 233/268/252 232/266/250 247/289/271
f 245/291/267 244/512/265 259/292/273
f 252/294/266 267/316/287 268/295/275
f 246/297/269 245/291/267 260/293/274
f 253/296/268 268/295/275 269/299/277
f 246/297/269 261/298/276 262/301/278
f 255/303/258 254/300/270 269/299/277
f 248/305/272 247/302/271 262/301/278
f 256/279/259 255/303/258 270/304/279
f 248/305/272 263/306/280 264/308/282
f 249/309/260 264/308/282 265/311/284
f 242/278/261 257/310/283 258/313/285
f 250/312/262 265/311/284 266/314/286
f 243/281/263 258/313/285 259/292/273
f 252/294/266 251/315/264 266/314/286
f 263/306/280 279/331/302 280/317/288
f 264/308/282 280/317/288 281/320/291
f 257/310/283 273/318/289 274/321/292
f 265/311/284 281/320/291 282/322/293
f 258/313/285 274/321/292 275/323/294
f 267/316/287 266/314/286 282/322/293
f 260/293/274 259/292/273 275/323/294
f 267/316/287 283/324/295 284/326/297
f 261/298/276 260/293/274 276/325/296
f 268/295/275 284/326/297 285/328/299
f 261/298/276 277/327/298 278/329/300
f 270/304/279 269/299/277 285/328/299
f 263/306/280 262/301/278 278/329/300
f 271/307/281 270/304/279 286/330/301
f 283/324/295 298/346/317 299/332/303
f 277/327/298 276/325/296 291/333/304
f 284/326/297 299/332/303 300/335/306
f 277/327/298 292/334/305 293/336/307
f 285/328/299 300/335/306 301/337/308
f 279/331/302 278/329/300 293/336/307
f 286/330/301 301/337/308 302/339/310
f 280/317/288 279/331/302 294/338/309
f 280/317/288 295/340/311 296/342/313
f 274/321/292 273/318/289 288/341/312
f 281/320/291 296/342/313 297/344/315
f 274/321/292 289/343/314 290/345/316
f 283/324/295 282/322/293 297/344/315
f 276/325/296 275/323/294 290/345/316
f 295/340/311 310/361/332 311/349/320
f 288/341/312 303/347/318 304/350/321
f 296/342/313 311/349/320 312/351/322
f 289/343/314 304/350/321 305/352/323
f 298/346/317 297/344/315 312/351/322
f 290/345/316 305/352/323 306/354/325
f 298/346/317 313/353/324 314/355/326
f 292/334/305 291/333/304 306/354/325
f 299/332/303 314/355/326 315/357/328
f 292/334/305 307/356/327 308/358/329
f 301/337/308 300/335/306 315/357/328
f 294/338/309 293/336/307 308/358/329
f 301/337/308 316/359/330 317/348/319
f 295/340/311 294/338/309 309/360/331
f 307/356/327 306/354/325 321/362/333
f 314/355/326 329/376/347 330/364/335
f 307/356/327 322/363/334 323/365/336
f 316/359/330 315/357/328 330/364/335
f 309/360/331 308/358/329 323/365/336
f 317/348/319 316/359/330 331/366/337
f 309/360/331 324/367/338 325/369/340
f 310/361/332 325/369/340 326/371/342
f 303/347/318 318/370/341 319/372/343
f 311/349/320 326/371/342 327/373/344
f 304/350/321 319/372/343 320/374/345
f 313/353/324 312/351/322 327/373/344
f 306/354/325 305/352/323 320/374/345
f 313/353/324 328/375/346 329/376/347
f 326/371/342 325/369/340 340/377/348
f 318/370/341 333/391/362 334/379/350
f 326/371/342 341/378/349 342/380/351
f 320/374/345 319/372/343 334/379/350
f 328/375/346 327/373/344 342/380/351
f 321/362/333 320/374/345 335/381/352
f 328/375/346 343/382/353 344/384/355
f 322/363/334 321/362/333 336/383/354
f 329/376/347 344/384/355 345/386/357
f 322/363/334 337/385/356 338/387/358
f 330/364/335 345/386/357 346/388/359
f 324/367/338 323/365/336 338/387/358
f 331/366/337 346/388/359 347/390/361
f 324/367/338 339/389/360 340/377/348
f 344/384/355 359/405/376 360/392/363
f 337/385/356 352/406/377 353/393/364
f 346/388/359 345/386/357 360/392/363
f 339/389/360 338/387/358 353/393/364
f 346/388/359 361/394/365 362/396/367
f 339/389/360 354/395/366 355/397/368
f 341/378/349 340/377/348 355/397/368
f 333/391/362 348/398/369 349/400/371
f 341/378/349 356/399/370 357/401/372
f 334/379/350 349/400/371 350/402/373
f 343/382/353 342/380/351 357/401/372
f 336/383/354 335/381/352 350/402/373
f 343/382/353 358/403/374 359/405/376
f 337/385/356 336/383/354 351/404/375
f 356/399/370 371/420/391 372/407/378
f 349/400/371 364/421/392 365/408/379
f 358/403/374 357/401/372 372/407/378
f 351/404/375 350/402/373 365/408/379
f 358/403/374 373/409/380 374/411/382
f 351/404/375 366/410/381 367/412/383
f 359/405/376 374/411/382 375/413/384
f 352/406/377 367/412/383 368/414/385
f 361/394/365 360/392/363 375/413/384
f 354/395/366 353/393/364 368/414/385
f 362/396/367 361/394/365 376/415/386
f 354/395/366 369/416/387 370/418/389
f 356/399/370 355/397/368 370/418/389
f 348/398/369 363/419/390 364/421/392
f 376/415/386 375/413/384 390/422/393
f 369/416/387 368/414/385 383/424/395
f 376/415/386 391/423/394 392/426/397
f 369/416/387 384/425/396 385/427/398
f 371/420/391 370/418/389 385/427/398
f 363/419/390 378/428/399 379/430/401
f 371/420/391 386/429/400 387/431/402
f 365/408/379 364/421/392 379/430/401
f 373/409/380 372/407/378 387/431/402
f 366/410/381 365/408/379 380/432/403
f 373/409/380 388/433/404 389/435/406
f 366/410/381 381/434/405 382/436/407
f 374/411/382 389/435/406 390/422/393
f 367/412/383 382/436/407 383/424/395
f 379/430/401 394/451/422 395/437/408
f 388/433/404 387/431/402 402/438/409
f 381/434/405 380/432/403 395/437/408
f 388/433/404 403/439/410 404/441/412
f 382/436/407 381/434/405 396/440/411
f 389/435/406 404/441/412 405/443/414
f 382/436/407 397/442/413 398/444/415
f 390/422/393 405/443/414 406/445/416
f 384/425/396 383/424/395 398/444/415
f 391/423/394 406/445/416 407/447/418
f 384/425/396 399/446/417 400/448/419
f 385/427/398 400/448/419 401/450/421
f 379/430/401 378/428/399 393/449/420
f 386/429/400 401/450/421 402/438/409
f 399/446/417 398/444/415 413/452/423
f 406/445/416 421/466/437 422/454/425
f 399/446/417 414/453/424 415/455/426
f 401/450/421 400/448/419 415/455/426
f 393/449/420 408/456/427 409/458/429
f 401/450/421 416/457/428 417/459/430
f 395/437/408 394/451/422 409/458/429
f 403/439/410 402/438/409 417/459/430
f 396/440/411 395/437/408 410/460/431
f 403/439/410 418/461/432 419/463/434
f 397/442/413 396/440/411 411/462/433
f 404/441/412 419/463/434 420/465/436
f 397/442/413 412/464/435 413/452/423
f 405/443/414 420/465/436 421/466/437
f 418/461/432 417/459/430 432/467/438
f 410/460/431 425/481/452 426/469/440
f 418/461/432 433/468/439 434/470/441
f 412/464/435 411/462/433 426/469/440
f 419/463/434 434/470/441 435/472/443
f 412/464/435 427/471/442 428/473/444
f 421/466/437 420/465/436 435/472/443
f 414/453/424 413/452/423 428/473/444
f 421/466/437 436/474/445 437/476/447
f 415/455/426 414/453/424 429/475/446
f 415/455/426 430/477/448 431/479/450
f 409/458/429 408/456/427 423/478/449
f 416/457/428 431/479/450 432/467/438
f 409/458/429 424/480/451 425/481/452
f 436/474/445 451/495/466 452/482/453
f 429/475/446 444/496/467 445/483/454
f 431/479/450 430/477/448 445/483/454
f 423/478/449 438/484/455 439/486/457
f 431/479/450 446/485/456 447/487/458
f 425/481/452 424/480/451 439/486/457
f 433/468/439 432/467/438 447/487/458
f 425/481/452 440/488/459 441/490/461
f 433/468/439 448/489/460 449/491/462
f 427/471/442 426/469/440 441/490/461
f 435/472/443 434/470/441 449/491/462
f 427/471/442 442/492/463 443/494/465
f 436/474/445 435/472/443 450/493/464
f 429/475/446 428/473/444 443/494/465
f 440/488/459 455/510/481 456/497/468
f 448/489/460 463/511/482 464/498/469
f 442/492/463 441/490/461 456/497/468
f 450/493/464 449/491/462 464/498/469
f 442/492/463 457/499/470 458/501/472
f 450/493/464 465/500/471 466/502/473
f 444/496/467 443/494/465 458/501/472
f 451/495/466 466/502/473 467/504/475
f 444/496/467 459/503/474 460/505/476
f 445/483/454 460/505/476 461/507/478
f 438/484/455 453/506/477 454/508/479
f 446/485/456 461/507/478 462/509/480
f 439/486/457 454/508/479 455/510/481
f 448/489/460 447/487/458 462/509/480
f 459/503/474 474/32/32 475/4/4
f 460/505/476 475/4/4 476/12/12
f 454/508/479 453/506/477 468/7/7
f 461/507/478 476/12/12 477/16/16
f 454/508/479 469/13/13 470/17/17
f 463/511/482 462/509/480 477/16/16
f 456/497/468 455/510/481 470/17/17
f 463/511/482 478/20/20 479/24/24
f 457/499/470 456/497/468 471/21/21
f 465/500/471 464/498/469 479/24/24
f 457/499/470 472/25/25 473/29/29
f 465/500/471 480/28/28 481/1/1
f 459/503/474 458/501/472 473/29/29
f 466/502/473 481/1/1 482/3/3
