# Blender v2.78 (sub 0) OBJ File: 'vtrack.blend'
# www.blender.org
o v_track.obj.005
v 0.850000 1.100000 -4.700000
v 0.800000 1.100000 -4.770000
v -0.850000 1.100000 -4.700000
v -0.800000 1.100000 -4.770000
v 0.800000 1.200000 -4.770000
v 0.850000 1.200000 -4.700000
v 0.850000 1.300000 -4.700000
v -0.800000 1.200000 -4.770000
v -0.850000 1.200000 -4.700000
v -0.850000 1.300000 -4.700000
v -0.800000 1.300000 -4.770000
v 0.800000 1.300000 -4.770000
v -0.850000 1.400000 -4.700000
v 0.850000 1.500000 -4.700000
v 0.850000 1.400000 -4.700000
v 0.800000 1.400000 -4.770000
v 0.800000 1.500000 -4.770000
v -0.850000 1.500000 -4.700000
v -0.800000 1.400000 -4.770000
v -0.800000 1.500000 -4.770000
v -0.850000 1.600000 -4.700000
v 0.800000 1.600000 -4.770000
v 0.850000 1.600000 -4.700000
v -0.800000 1.600000 -4.770000
v 0.850000 1.800000 -4.700000
v 0.850000 1.700000 -4.700000
v 0.800000 1.700000 -4.770000
v -0.800000 1.700000 -4.770000
v -0.850000 1.700000 -4.700000
v 0.800000 1.800000 -4.770000
v 0.800000 1.900000 -4.770000
v 0.850000 1.900000 -4.700000
v -0.850000 1.900000 -4.700000
v -0.800000 1.800000 -4.770000
v -0.850000 1.800000 -4.700000
v -0.800000 1.900000 -4.770000
v 0.850000 2.000000 -4.700000
v 0.850000 2.100000 -4.700000
v 0.800000 2.100000 -4.770000
v 0.800000 2.000000 -4.770000
v -0.850000 2.000000 -4.700000
v -0.850000 2.100000 -4.700000
v -0.800000 2.000000 -4.770000
v 0.850000 2.200000 -4.700000
v -0.800000 2.100000 -4.770000
v 0.850000 2.300000 -4.700000
v 0.800000 2.200000 -4.770000
v 0.800000 2.300000 -4.770000
v -0.850000 2.200000 -4.700000
v -0.850000 2.300000 -4.700000
v -0.800000 2.200000 -4.770000
v -0.800000 2.300000 -4.770000
v -0.850000 2.400000 -4.700000
v -0.800000 2.400000 -4.770000
v 0.850000 2.500000 -4.700000
v 0.850000 2.400000 -4.700000
v 0.800000 2.400000 -4.770000
v -0.850000 2.500000 -4.700000
v 0.850000 2.600000 -4.700000
v 0.800000 2.500000 -4.770000
v 0.800000 2.600000 -4.770000
v -0.800000 2.600000 -4.770000
v -0.800000 2.500000 -4.770000
v 0.850000 2.700000 -4.700000
v -0.850000 2.600000 -4.700000
v 0.800000 2.700000 -4.770000
v -0.850000 2.800000 -4.700000
v -0.800000 2.700000 -4.770000
v -0.850000 2.700000 -4.700000
v 0.850000 2.800000 -4.700000
v 0.800000 2.800000 -4.770000
v -0.800000 2.900000 -4.770000
v -0.800000 2.800000 -4.770000
v 0.850000 2.900000 -4.700000
v 0.850000 3.000000 -4.700000
v 0.800000 2.900000 -4.770000
v -0.850000 2.900000 -4.700000
v -0.800000 3.000000 -4.770000
v 0.800000 3.000000 -4.770000
v -0.850000 3.000000 -4.700000
v -0.850000 3.100000 -4.700000
v 0.800000 3.100000 -4.770000
v 0.850000 3.100000 -4.700000
v -0.800000 3.100000 -4.770000
v 0.850000 3.200000 -4.700000
v 0.850000 3.300000 -4.700000
v 0.800000 3.200000 -4.770000
v -0.800000 3.200000 -4.770000
v -0.850000 3.200000 -4.700000
v -0.850000 3.300000 -4.700000
v 0.800000 3.300000 -4.770000
v 0.850000 3.400000 -4.700000
v -0.800000 3.300000 -4.770000
v -0.850000 3.400000 -4.700000
v 0.850000 3.500000 -4.700000
v 0.800000 3.400000 -4.770000
v -0.800000 3.400000 -4.770000
v -0.850000 3.500000 -4.700000
v -0.800000 3.500000 -4.770000
v 0.800000 3.500000 -4.770000
v -0.850000 3.600000 -4.700000
v 0.850000 3.600000 -4.700000
v 0.800000 3.600000 -4.770000
v 0.800000 3.700000 -4.770000
v 0.850000 3.700000 -4.700000
v -0.800000 3.600000 -4.770000
v 0.800000 3.800000 -4.770000
v 0.850000 3.800000 -4.700000
v -0.850000 3.800000 -4.700000
v -0.800000 3.700000 -4.770000
v -0.850000 3.700000 -4.700000
v 0.850000 3.900000 -4.700000
v 0.800000 3.900000 -4.770000
v -0.800000 3.900000 -4.770000
v -0.800000 3.800000 -4.770000
v 0.850000 4.000000 -4.700000
v -0.850000 3.900000 -4.700000
v 0.850000 4.100000 -4.700000
v 0.800000 4.000000 -4.770000
v -0.850000 4.000000 -4.700000
v -0.800000 4.000000 -4.770000
v 0.800000 4.100000 -4.770000
v 0.800000 4.200000 -4.770000
v -0.850000 4.200000 -4.700000
v -0.800000 4.100000 -4.770000
v -0.850000 4.100000 -4.700000
v 0.850000 4.200000 -4.700000
v 0.850000 4.300000 -4.700000
v -0.800000 4.200000 -4.770000
v -0.850000 4.300000 -4.700000
v 0.800000 4.300000 -4.770000
v -0.800000 4.400000 -4.770000
v -0.850000 4.400000 -4.700000
v -0.800000 4.300000 -4.770000
v 0.850000 4.400000 -4.700000
v 0.800000 4.400000 -4.770000
v 0.850000 4.500000 -4.700000
v -0.850000 4.500000 -4.700000
v -0.800000 4.500000 -4.770000
v 0.800000 4.500000 -4.770000
v -0.250000 1.100000 -4.700000
v 0.250000 1.100000 -4.700000
v 0.500000 1.100000 -4.700000
v 0.750000 1.100000 -4.700000
v -0.750000 1.100000 -4.700000
v -0.750000 1.200000 -4.700000
v -0.500000 1.200000 -4.700000
v -0.500000 1.100000 -4.700000
v 0.000000 1.200000 -4.700000
v 0.000000 1.100000 -4.700000
v 0.500000 1.200000 -4.700000
v 0.250000 1.200000 -4.700000
v -0.250000 1.300000 -4.700000
v -0.250000 1.200000 -4.700000
v 0.750000 1.200000 -4.700000
v 0.750000 1.300000 -4.700000
v -0.500000 1.400000 -4.700000
v -0.500000 1.300000 -4.700000
v 0.000000 1.300000 -4.700000
v 0.250000 1.400000 -4.700000
v 0.500000 1.400000 -4.700000
v 0.250000 1.300000 -4.700000
v 0.750000 1.400000 -4.700000
v 0.500000 1.300000 -4.700000
v -0.750000 1.300000 -4.700000
v -0.500000 1.500000 -4.700000
v -0.250000 1.400000 -4.700000
v 0.000000 1.500000 -4.700000
v 0.000000 1.400000 -4.700000
v 0.250000 1.500000 -4.700000
v 0.750000 1.500000 -4.700000
v -0.750000 1.400000 -4.700000
v -0.750000 1.500000 -4.700000
v -0.250000 1.500000 -4.700000
v 0.000000 1.600000 -4.700000
v 0.500000 1.500000 -4.700000
v -0.750000 1.600000 -4.700000
v -0.750000 1.700000 -4.700000
v -0.500000 1.700000 -4.700000
v -0.500000 1.600000 -4.700000
v -0.250000 1.700000 -4.700000
v -0.250000 1.600000 -4.700000
v 0.000000 1.700000 -4.700000
v 0.250000 1.600000 -4.700000
v 0.750000 1.600000 -4.700000
v 0.500000 1.600000 -4.700000
v -0.500000 1.800000 -4.700000
v -0.250000 1.800000 -4.700000
v 0.500000 1.700000 -4.700000
v 0.250000 1.700000 -4.700000
v 0.750000 1.700000 -4.700000
v 0.000000 1.800000 -4.700000
v 0.000000 1.900000 -4.700000
v 0.250000 1.900000 -4.700000
v 0.500000 1.800000 -4.700000
v 0.250000 1.800000 -4.700000
v 0.750000 1.800000 -4.700000
v -0.750000 1.800000 -4.700000
v -0.750000 1.900000 -4.700000
v -0.500000 2.000000 -4.700000
v -0.500000 1.900000 -4.700000
v -0.250000 2.000000 -4.700000
v -0.250000 1.900000 -4.700000
v 0.000000 2.000000 -4.700000
v 0.500000 1.900000 -4.700000
v 0.750000 2.000000 -4.700000
v 0.750000 1.900000 -4.700000
v -0.500000 2.100000 -4.700000
v -0.750000 2.100000 -4.700000
v -0.750000 2.000000 -4.700000
v -0.250000 2.100000 -4.700000
v 0.250000 2.000000 -4.700000
v 0.500000 2.000000 -4.700000
v 0.000000 2.100000 -4.700000
v 0.250000 2.200000 -4.700000
v 0.500000 2.100000 -4.700000
v 0.250000 2.100000 -4.700000
v 0.750000 2.100000 -4.700000
v -0.500000 2.300000 -4.700000
v -0.750000 2.200000 -4.700000
v -0.250000 2.200000 -4.700000
v -0.500000 2.200000 -4.700000
v 0.000000 2.200000 -4.700000
v -0.250000 2.300000 -4.700000
v 0.250000 2.300000 -4.700000
v 0.500000 2.200000 -4.700000
v 0.750000 2.200000 -4.700000
v -0.750000 2.300000 -4.700000
v -0.250000 2.400000 -4.700000
v 0.000000 2.300000 -4.700000
v 0.500000 2.300000 -4.700000
v 0.500000 2.400000 -4.700000
v 0.750000 2.400000 -4.700000
v 0.750000 2.300000 -4.700000
v -0.500000 2.500000 -4.700000
v -0.500000 2.400000 -4.700000
v 0.000000 2.400000 -4.700000
v 0.250000 2.400000 -4.700000
v 0.750000 2.500000 -4.700000
v -0.750000 2.400000 -4.700000
v -0.750000 2.500000 -4.700000
v -0.500000 2.600000 -4.700000
v -0.250000 2.600000 -4.700000
v -0.250000 2.500000 -4.700000
v 0.000000 2.500000 -4.700000
v 0.000000 2.600000 -4.700000
v 0.250000 2.500000 -4.700000
v 0.250000 2.600000 -4.700000
v 0.500000 2.500000 -4.700000
v 0.500000 2.600000 -4.700000
v -0.750000 2.700000 -4.700000
v -0.750000 2.600000 -4.700000
v 0.000000 2.700000 -4.700000
v 0.500000 2.700000 -4.700000
v 0.750000 2.600000 -4.700000
v -0.500000 2.800000 -4.700000
v -0.500000 2.700000 -4.700000
v -0.250000 2.800000 -4.700000
v -0.250000 2.700000 -4.700000
v 0.000000 2.800000 -4.700000
v 0.500000 2.800000 -4.700000
v 0.250000 2.700000 -4.700000
v 0.750000 2.700000 -4.700000
v 0.750000 2.800000 -4.700000
v -0.750000 2.800000 -4.700000
v -0.750000 2.900000 -4.700000
v 0.000000 2.900000 -4.700000
v 0.250000 2.800000 -4.700000
v -0.750000 3.000000 -4.700000
v -0.500000 2.900000 -4.700000
v -0.250000 2.900000 -4.700000
v 0.250000 2.900000 -4.700000
v 0.250000 3.000000 -4.700000
v 0.500000 2.900000 -4.700000
v 0.500000 3.000000 -4.700000
v 0.750000 2.900000 -4.700000
v -0.500000 3.000000 -4.700000
v 0.000000 3.000000 -4.700000
v -0.250000 3.000000 -4.700000
v 0.250000 3.100000 -4.700000
v 0.750000 3.100000 -4.700000
v 0.500000 3.100000 -4.700000
v 0.750000 3.000000 -4.700000
v -0.500000 3.100000 -4.700000
v -0.750000 3.100000 -4.700000
v -0.500000 3.200000 -4.700000
v -0.250000 3.200000 -4.700000
v 0.000000 3.100000 -4.700000
v -0.250000 3.100000 -4.700000
v 0.750000 3.200000 -4.700000
v 0.000000 3.200000 -4.700000
v 0.000000 3.300000 -4.700000
v 0.250000 3.200000 -4.700000
v 0.500000 3.200000 -4.700000
v 0.500000 3.300000 -4.700000
v 0.750000 3.300000 -4.700000
v -0.750000 3.200000 -4.700000
v -0.750000 3.400000 -4.700000
v -0.500000 3.400000 -4.700000
v -0.500000 3.300000 -4.700000
v -0.250000 3.300000 -4.700000
v 0.000000 3.400000 -4.700000
v 0.250000 3.300000 -4.700000
v -0.750000 3.300000 -4.700000
v -0.750000 3.500000 -4.700000
v -0.500000 3.500000 -4.700000
v -0.250000 3.400000 -4.700000
v -0.250000 3.500000 -4.700000
v 0.000000 3.500000 -4.700000
v 0.250000 3.400000 -4.700000
v 0.500000 3.500000 -4.700000
v 0.500000 3.400000 -4.700000
v 0.750000 3.400000 -4.700000
v -0.250000 3.600000 -4.700000
v -0.500000 3.600000 -4.700000
v 0.250000 3.500000 -4.700000
v 0.250000 3.600000 -4.700000
v 0.750000 3.500000 -4.700000
v -0.750000 3.700000 -4.700000
v -0.750000 3.600000 -4.700000
v -0.250000 3.700000 -4.700000
v 0.000000 3.600000 -4.700000
v 0.000000 3.700000 -4.700000
v 0.250000 3.700000 -4.700000
v 0.500000 3.700000 -4.700000
v 0.750000 3.700000 -4.700000
v 0.500000 3.600000 -4.700000
v 0.750000 3.600000 -4.700000
v -0.750000 3.800000 -4.700000
v -0.500000 3.700000 -4.700000
v 0.000000 3.800000 -4.700000
v 0.250000 3.800000 -4.700000
v 0.500000 3.800000 -4.700000
v 0.750000 3.800000 -4.700000
v -0.750000 3.900000 -4.700000
v -0.500000 3.800000 -4.700000
v -0.250000 3.800000 -4.700000
v -0.250000 3.900000 -4.700000
v 0.500000 3.900000 -4.700000
v 0.250000 3.900000 -4.700000
v -0.500000 3.900000 -4.700000
v 0.000000 4.000000 -4.700000
v 0.000000 3.900000 -4.700000
v 0.500000 4.000000 -4.700000
v 0.750000 3.900000 -4.700000
v -0.750000 4.100000 -4.700000
v -0.750000 4.000000 -4.700000
v -0.500000 4.100000 -4.700000
v -0.250000 4.000000 -4.700000
v -0.500000 4.000000 -4.700000
v 0.250000 4.000000 -4.700000
v 0.000000 4.100000 -4.700000
v 0.500000 4.100000 -4.700000
v 0.750000 4.100000 -4.700000
v 0.750000 4.000000 -4.700000
v -0.500000 4.200000 -4.700000
v -0.250000 4.200000 -4.700000
v -0.250000 4.100000 -4.700000
v 0.000000 4.200000 -4.700000
v 0.250000 4.100000 -4.700000
v -0.750000 4.200000 -4.700000
v 0.000000 4.300000 -4.700000
v 0.250000 4.200000 -4.700000
v 0.500000 4.300000 -4.700000
v 0.750000 4.200000 -4.700000
v 0.500000 4.200000 -4.700000
v -0.750000 4.400000 -4.700000
v -0.500000 4.300000 -4.700000
v -0.750000 4.300000 -4.700000
v -0.250000 4.300000 -4.700000
v 0.000000 4.400000 -4.700000
v 0.250000 4.400000 -4.700000
v 0.250000 4.300000 -4.700000
v 0.750000 4.400000 -4.700000
v 0.750000 4.300000 -4.700000
v -0.750000 4.500000 -4.700000
v -0.250000 4.500000 -4.700000
v -0.250000 4.400000 -4.700000
v -0.500000 4.400000 -4.700000
v 0.000000 4.500000 -4.700000
v 0.250000 4.500000 -4.700000
v 0.500000 4.400000 -4.700000
v 0.750000 4.500000 -4.700000
v -0.750000 4.600000 -4.700000
v -0.250000 4.600000 -4.700000
v -0.500000 4.500000 -4.700000
v 0.000000 4.600000 -4.700000
v 0.250000 4.600000 -4.700000
v 0.500000 4.500000 -4.700000
v 0.500000 4.600000 -4.700000
v -0.500000 4.600000 -4.700000
v 0.800000 1.000000 -4.630000
v 0.800000 1.100000 -4.630000
v 0.750000 1.100000 -4.700000
v -0.750000 1.100000 -4.600000
v -0.750000 1.100000 -4.700000
v -0.750000 1.200000 -4.700000
v 0.750000 1.100000 -4.600000
v 0.750000 1.200000 -4.600000
v 0.800000 1.200000 -4.630000
v 0.850000 1.100000 -4.700000
v 0.800000 1.100000 -4.770000
v -0.750000 1.200000 -4.600000
v -0.800000 1.200000 -4.630000
v -0.850000 1.100000 -4.700000
v -0.800000 1.100000 -4.630000
v -0.800000 1.100000 -4.770000
v 0.750000 1.200000 -4.700000
v 0.800000 1.200000 -4.770000
v 0.750000 1.300000 -4.700000
v 0.850000 1.200000 -4.700000
v 0.850000 1.300000 -4.700000
v -0.750000 1.300000 -4.600000
v -0.800000 1.200000 -4.770000
v -0.850000 1.200000 -4.700000
v -0.850000 1.300000 -4.700000
v -0.800000 1.300000 -4.770000
v 0.750000 1.400000 -4.700000
v 0.750000 1.300000 -4.600000
v 0.800000 1.300000 -4.630000
v 0.800000 1.300000 -4.770000
v -0.750000 1.400000 -4.600000
v -0.800000 1.400000 -4.630000
v -0.800000 1.300000 -4.630000
v -0.850000 1.400000 -4.700000
v -0.750000 1.300000 -4.700000
v 0.750000 1.400000 -4.600000
v 0.850000 1.500000 -4.700000
v 0.800000 1.400000 -4.630000
v 0.750000 1.500000 -4.700000
v 0.850000 1.400000 -4.700000
v 0.800000 1.400000 -4.770000
v 0.800000 1.500000 -4.770000
v -0.750000 1.500000 -4.600000
v -0.850000 1.500000 -4.700000
v -0.750000 1.400000 -4.700000
v -0.800000 1.400000 -4.770000
v -0.750000 1.500000 -4.700000
v 0.750000 1.500000 -4.600000
v 0.750000 1.600000 -4.600000
v 0.800000 1.600000 -4.630000
v 0.800000 1.500000 -4.630000
v -0.750000 1.600000 -4.600000
v -0.800000 1.600000 -4.630000
v -0.800000 1.500000 -4.630000
v -0.750000 1.600000 -4.700000
v -0.800000 1.500000 -4.770000
v -0.850000 1.600000 -4.700000
v -0.750000 1.700000 -4.700000
v 0.750000 1.600000 -4.700000
v 0.800000 1.700000 -4.630000
v 0.800000 1.600000 -4.770000
v 0.850000 1.600000 -4.700000
v -0.750000 1.700000 -4.600000
v -0.800000 1.600000 -4.770000
v 0.750000 1.700000 -4.700000
v 0.750000 1.700000 -4.600000
v 0.750000 1.800000 -4.600000
v 0.850000 1.800000 -4.700000
v 0.850000 1.700000 -4.700000
v 0.800000 1.700000 -4.770000
v -0.750000 1.800000 -4.600000
v -0.800000 1.800000 -4.630000
v -0.800000 1.700000 -4.630000
v -0.800000 1.700000 -4.770000
v -0.850000 1.700000 -4.700000
v 0.800000 1.800000 -4.630000
v 0.750000 1.900000 -4.600000
v 0.800000 1.800000 -4.770000
v 0.750000 1.800000 -4.700000
v 0.800000 1.900000 -4.770000
v 0.850000 1.900000 -4.700000
v -0.850000 1.900000 -4.700000
v -0.750000 1.800000 -4.700000
v -0.750000 1.900000 -4.700000
v -0.800000 1.800000 -4.770000
v -0.850000 1.800000 -4.700000
v 0.750000 2.000000 -4.700000
v 0.750000 2.000000 -4.600000
v 0.800000 1.900000 -4.630000
v 0.750000 1.900000 -4.700000
v -0.750000 1.900000 -4.600000
v -0.800000 1.900000 -4.630000
v -0.800000 1.900000 -4.770000
v -0.750000 2.100000 -4.700000
v -0.750000 2.000000 -4.700000
v 0.850000 2.000000 -4.700000
v 0.850000 2.100000 -4.700000
v 0.800000 2.000000 -4.630000
v 0.800000 2.100000 -4.770000
v 0.800000 2.000000 -4.770000
v -0.750000 2.000000 -4.600000
v -0.800000 2.100000 -4.630000
v -0.800000 2.000000 -4.630000
v -0.850000 2.000000 -4.700000
v -0.850000 2.100000 -4.700000
v -0.800000 2.000000 -4.770000
v 0.750000 2.100000 -4.600000
v 0.750000 2.200000 -4.600000
v 0.850000 2.200000 -4.700000
v 0.800000 2.100000 -4.630000
v 0.750000 2.100000 -4.700000
v -0.750000 2.100000 -4.600000
v -0.800000 2.100000 -4.770000
v -0.750000 2.200000 -4.700000
v 0.800000 2.300000 -4.630000
v 0.750000 2.300000 -4.600000
v 0.800000 2.200000 -4.630000
v 0.850000 2.300000 -4.700000
v 0.750000 2.200000 -4.700000
v 0.800000 2.200000 -4.770000
v 0.800000 2.300000 -4.770000
v -0.800000 2.200000 -4.630000
v -0.750000 2.200000 -4.600000
v -0.850000 2.200000 -4.700000
v -0.850000 2.300000 -4.700000
v -0.800000 2.200000 -4.770000
v -0.750000 2.300000 -4.700000
v -0.800000 2.300000 -4.770000
v 0.750000 2.400000 -4.700000
v 0.750000 2.300000 -4.700000
v 0.750000 2.400000 -4.600000
v -0.750000 2.300000 -4.600000
v -0.750000 2.400000 -4.600000
v -0.800000 2.300000 -4.630000
v -0.850000 2.400000 -4.700000
v -0.800000 2.400000 -4.770000
v 0.800000 2.400000 -4.630000
v 0.800000 2.500000 -4.630000
v 0.850000 2.500000 -4.700000
v 0.750000 2.500000 -4.700000
v 0.850000 2.400000 -4.700000
v 0.800000 2.400000 -4.770000
v -0.800000 2.400000 -4.630000
v -0.750000 2.400000 -4.700000
v -0.850000 2.500000 -4.700000
v -0.750000 2.500000 -4.700000
v 0.750000 2.500000 -4.600000
v 0.750000 2.600000 -4.600000
v 0.850000 2.600000 -4.700000
v 0.800000 2.500000 -4.770000
v 0.800000 2.600000 -4.770000
v -0.750000 2.500000 -4.600000
v -0.750000 2.600000 -4.600000
v -0.800000 2.500000 -4.630000
v -0.800000 2.600000 -4.770000
v -0.800000 2.500000 -4.770000
v -0.750000 2.700000 -4.700000
v -0.750000 2.600000 -4.700000
v 0.800000 2.600000 -4.630000
v 0.750000 2.700000 -4.600000
v 0.850000 2.700000 -4.700000
v 0.750000 2.600000 -4.700000
v -0.750000 2.700000 -4.600000
v -0.800000 2.600000 -4.630000
v -0.850000 2.600000 -4.700000
v 0.750000 2.700000 -4.700000
v 0.750000 2.800000 -4.600000
v 0.800000 2.700000 -4.630000
v 0.750000 2.800000 -4.700000
v 0.800000 2.700000 -4.770000
v -0.750000 2.800000 -4.600000
v -0.800000 2.700000 -4.630000
v -0.850000 2.800000 -4.700000
v -0.750000 2.800000 -4.700000
v -0.800000 2.700000 -4.770000
v -0.850000 2.700000 -4.700000
v -0.750000 2.900000 -4.700000
v 0.800000 2.900000 -4.630000
v 0.750000 2.900000 -4.600000
v 0.800000 2.800000 -4.630000
v 0.850000 2.800000 -4.700000
v 0.800000 2.800000 -4.770000
v -0.750000 2.900000 -4.600000
v -0.800000 2.800000 -4.630000
v -0.800000 2.900000 -4.770000
v -0.800000 2.800000 -4.770000
v -0.750000 3.000000 -4.700000
v 0.750000 2.900000 -4.700000
v 0.750000 3.000000 -4.600000
v 0.850000 2.900000 -4.700000
v 0.850000 3.000000 -4.700000
v 0.800000 2.900000 -4.770000
v -0.750000 3.000000 -4.600000
v -0.850000 2.900000 -4.700000
v -0.800000 2.900000 -4.630000
v -0.800000 3.000000 -4.770000
v 0.750000 3.100000 -4.700000
v 0.750000 3.000000 -4.700000
v 0.750000 3.100000 -4.600000
v 0.800000 3.100000 -4.630000
v 0.800000 3.000000 -4.630000
v 0.800000 3.000000 -4.770000
v -0.800000 3.000000 -4.630000
v -0.850000 3.000000 -4.700000
v -0.850000 3.100000 -4.700000
v -0.750000 3.100000 -4.700000
v 0.800000 3.200000 -4.630000
v 0.750000 3.200000 -4.700000
v 0.800000 3.100000 -4.770000
v 0.850000 3.100000 -4.700000
v -0.750000 3.100000 -4.600000
v -0.800000 3.100000 -4.630000
v -0.800000 3.100000 -4.770000
v 0.750000 3.200000 -4.600000
v 0.850000 3.200000 -4.700000
v 0.850000 3.300000 -4.700000
v 0.800000 3.300000 -4.630000
v 0.750000 3.300000 -4.700000
v 0.800000 3.200000 -4.770000
v -0.750000 3.200000 -4.600000
v -0.750000 3.300000 -4.600000
v -0.800000 3.200000 -4.630000
v -0.750000 3.200000 -4.700000
v -0.800000 3.200000 -4.770000
v -0.850000 3.200000 -4.700000
v -0.850000 3.300000 -4.700000
v -0.750000 3.400000 -4.700000
v 0.750000 3.300000 -4.600000
v 0.750000 3.400000 -4.600000
v 0.800000 3.400000 -4.630000
v 0.800000 3.300000 -4.770000
v 0.850000 3.400000 -4.700000
v -0.800000 3.300000 -4.630000
v -0.750000 3.300000 -4.700000
v -0.800000 3.300000 -4.770000
v -0.850000 3.400000 -4.700000
v -0.750000 3.500000 -4.700000
v 0.750000 3.500000 -4.600000
v 0.850000 3.500000 -4.700000
v 0.750000 3.400000 -4.700000
v 0.800000 3.400000 -4.770000
v -0.750000 3.400000 -4.600000
v -0.800000 3.400000 -4.630000
v -0.800000 3.400000 -4.770000
v -0.850000 3.500000 -4.700000
v -0.800000 3.500000 -4.770000
v 0.750000 3.500000 -4.700000
v 0.800000 3.500000 -4.630000
v 0.800000 3.600000 -4.630000
v 0.800000 3.500000 -4.770000
v -0.750000 3.500000 -4.600000
v -0.800000 3.500000 -4.630000
v -0.850000 3.600000 -4.700000
v -0.750000 3.700000 -4.700000
v -0.750000 3.600000 -4.700000
v 0.750000 3.700000 -4.700000
v 0.750000 3.600000 -4.600000
v 0.750000 3.700000 -4.600000
v 0.850000 3.600000 -4.700000
v 0.800000 3.600000 -4.770000
v 0.750000 3.600000 -4.700000
v 0.800000 3.700000 -4.770000
v 0.850000 3.700000 -4.700000
v -0.750000 3.600000 -4.600000
v -0.750000 3.700000 -4.600000
v -0.800000 3.700000 -4.630000
v -0.800000 3.600000 -4.630000
v -0.800000 3.600000 -4.770000
v -0.750000 3.800000 -4.700000
v 0.750000 3.800000 -4.700000
v 0.800000 3.700000 -4.630000
v 0.800000 3.800000 -4.770000
v 0.850000 3.800000 -4.700000
v -0.750000 3.800000 -4.600000
v -0.850000 3.800000 -4.700000
v -0.800000 3.700000 -4.770000
v -0.850000 3.700000 -4.700000
v -0.750000 3.900000 -4.700000
v 0.750000 3.800000 -4.600000
v 0.800000 3.800000 -4.630000
v 0.850000 3.900000 -4.700000
v 0.800000 3.900000 -4.630000
v 0.800000 3.900000 -4.770000
v -0.800000 3.800000 -4.630000
v -0.800000 3.900000 -4.770000
v -0.800000 3.800000 -4.770000
v 0.750000 3.900000 -4.600000
v 0.750000 4.000000 -4.600000
v 0.800000 4.000000 -4.630000
v 0.750000 3.900000 -4.700000
v 0.850000 4.000000 -4.700000
v -0.750000 3.900000 -4.600000
v -0.800000 3.900000 -4.630000
v -0.850000 3.900000 -4.700000
v -0.750000 4.100000 -4.700000
v -0.750000 4.000000 -4.700000
v 0.750000 4.100000 -4.700000
v 0.750000 4.000000 -4.700000
v 0.750000 4.100000 -4.600000
v 0.850000 4.100000 -4.700000
v 0.800000 4.000000 -4.770000
v -0.800000 4.000000 -4.630000
v -0.750000 4.000000 -4.600000
v -0.850000 4.000000 -4.700000
v -0.800000 4.000000 -4.770000
v 0.750000 4.200000 -4.600000
v 0.800000 4.100000 -4.630000
v 0.800000 4.100000 -4.770000
v 0.800000 4.200000 -4.770000
v -0.800000 4.100000 -4.630000
v -0.750000 4.100000 -4.600000
v -0.850000 4.200000 -4.700000
v -0.750000 4.200000 -4.700000
v -0.800000 4.100000 -4.770000
v -0.850000 4.100000 -4.700000
v 0.750000 4.200000 -4.700000
v 0.800000 4.200000 -4.630000
v 0.850000 4.200000 -4.700000
v 0.850000 4.300000 -4.700000
v -0.750000 4.200000 -4.600000
v -0.800000 4.200000 -4.630000
v -0.800000 4.200000 -4.770000
v -0.850000 4.300000 -4.700000
v -0.750000 4.400000 -4.700000
v -0.750000 4.300000 -4.700000
v 0.750000 4.400000 -4.700000
v 0.750000 4.300000 -4.700000
v 0.750000 4.300000 -4.600000
v 0.800000 4.300000 -4.630000
v 0.750000 4.400000 -4.600000
v 0.800000 4.400000 -4.630000
v 0.800000 4.300000 -4.770000
v -0.750000 4.300000 -4.600000
v -0.800000 4.300000 -4.630000
v -0.800000 4.400000 -4.770000
v -0.850000 4.400000 -4.700000
v -0.800000 4.300000 -4.770000
v -0.750000 4.500000 -4.700000
v 0.800000 4.500000 -4.630000
v 0.850000 4.400000 -4.700000
v 0.750000 4.500000 -4.700000
v 0.800000 4.400000 -4.770000
v 0.850000 4.500000 -4.700000
v -0.750000 4.400000 -4.600000
v -0.750000 4.500000 -4.600000
v -0.800000 4.400000 -4.630000
v -0.850000 4.500000 -4.700000
v -0.800000 4.500000 -4.770000
v 0.750000 4.500000 -4.600000
v 0.850000 4.600000 -4.700000
v 0.800000 4.500000 -4.770000
v -0.800000 4.500000 -4.630000
v 0.750000 4.600000 -4.600000
v -0.750000 4.600000 -4.600000
v -0.850000 4.600000 -4.700000
vt 0.6655 0.0500
vt 0.6759 0.0500
vt 0.6655 0.0750
vt 0.6759 0.0750
vt 0.7700 0.9000
vt 0.7595 0.9000
vt 0.7595 0.8750
vt 0.7700 0.8750
vt 0.6655 0.1000
vt 0.6759 0.1000
vt 0.7595 0.8500
vt 0.7700 0.8500
vt 0.6655 0.1250
vt 0.6759 0.1250
vt 0.7595 0.8250
vt 0.7700 0.8250
vt 0.6655 0.1500
vt 0.6759 0.1500
vt 0.7595 0.8000
vt 0.7700 0.8000
vt 0.6655 0.1750
vt 0.6759 0.1750
vt 0.7595 0.7750
vt 0.7700 0.7750
vt 0.6655 0.2000
vt 0.6759 0.2000
vt 0.7595 0.7500
vt 0.7700 0.7500
vt 0.6655 0.2250
vt 0.6759 0.2250
vt 0.7595 0.7250
vt 0.7700 0.7250
vt 0.6655 0.2500
vt 0.6759 0.2500
vt 0.7595 0.7000
vt 0.7700 0.7000
vt 0.6655 0.2750
vt 0.6759 0.2750
vt 0.7595 0.6750
vt 0.7700 0.6750
vt 0.6655 0.3000
vt 0.6759 0.3000
vt 0.7595 0.6500
vt 0.7700 0.6500
vt 0.6655 0.3250
vt 0.6759 0.3250
vt 0.7595 0.6250
vt 0.7700 0.6250
vt 0.6655 0.3500
vt 0.6759 0.3500
vt 0.7595 0.6000
vt 0.7700 0.6000
vt 0.6655 0.3750
vt 0.6759 0.3750
vt 0.7595 0.5750
vt 0.7700 0.5750
vt 0.6655 0.4000
vt 0.6759 0.4000
vt 0.7595 0.5500
vt 0.7700 0.5500
vt 0.6655 0.4250
vt 0.6759 0.4250
vt 0.7595 0.5250
vt 0.7700 0.5250
vt 0.6655 0.4500
vt 0.6759 0.4500
vt 0.7595 0.5000
vt 0.7700 0.5000
vt 0.6655 0.4750
vt 0.6759 0.4750
vt 0.7595 0.4750
vt 0.7700 0.4750
vt 0.6655 0.5000
vt 0.6759 0.5000
vt 0.7595 0.4500
vt 0.7700 0.4500
vt 0.6655 0.5250
vt 0.6759 0.5250
vt 0.7595 0.4250
vt 0.7700 0.4250
vt 0.6655 0.5500
vt 0.6759 0.5500
vt 0.7595 0.4000
vt 0.7700 0.4000
vt 0.6655 0.5750
vt 0.6759 0.5750
vt 0.7595 0.3750
vt 0.7700 0.3750
vt 0.6655 0.6000
vt 0.6759 0.6000
vt 0.7595 0.3500
vt 0.7700 0.3500
vt 0.6655 0.6250
vt 0.6759 0.6250
vt 0.7595 0.3250
vt 0.7700 0.3250
vt 0.6655 0.6500
vt 0.6759 0.6500
vt 0.7595 0.3000
vt 0.7700 0.3000
vt 0.6655 0.6750
vt 0.6759 0.6750
vt 0.7595 0.2750
vt 0.7700 0.2750
vt 0.6655 0.7000
vt 0.6759 0.7000
vt 0.7595 0.2500
vt 0.7700 0.2500
vt 0.6655 0.7250
vt 0.6759 0.7250
vt 0.7595 0.2250
vt 0.7700 0.2250
vt 0.6655 0.7500
vt 0.6759 0.7500
vt 0.7595 0.2000
vt 0.7700 0.2000
vt 0.6655 0.7750
vt 0.6759 0.7750
vt 0.7595 0.1750
vt 0.7700 0.1750
vt 0.6655 0.8000
vt 0.6759 0.8000
vt 0.7595 0.1500
vt 0.7700 0.1500
vt 0.6655 0.8250
vt 0.6759 0.8250
vt 0.7595 0.1250
vt 0.7700 0.1250
vt 0.6655 0.8500
vt 0.6759 0.8500
vt 0.7595 0.1000
vt 0.7700 0.1000
vt 0.6655 0.8750
vt 0.6759 0.8750
vt 0.7595 0.0750
vt 0.7700 0.0750
vt 0.6655 0.9000
vt 0.6759 0.9000
vt 0.7595 0.0500
vt 0.7700 0.0500
vt 0.0418 0.9000
vt 0.0941 0.9000
vt 0.0941 0.9250
vt 0.0418 0.9250
vt 0.1464 0.9000
vt 0.1464 0.9250
vt 0.1986 0.9000
vt 0.1986 0.9250
vt 0.2509 0.9000
vt 0.2509 0.9250
vt 0.3032 0.9000
vt 0.3032 0.9250
vt 0.3555 0.9000
vt 0.3555 0.9250
vt 0.0418 0.8750
vt 0.0941 0.8750
vt 0.1464 0.8750
vt 0.1986 0.8750
vt 0.2509 0.8750
vt 0.3032 0.8750
vt 0.3555 0.8750
vt 0.0418 0.8500
vt 0.0941 0.8500
vt 0.1464 0.8500
vt 0.1986 0.8500
vt 0.2509 0.8500
vt 0.3032 0.8500
vt 0.3555 0.8500
vt 0.0418 0.8250
vt 0.0941 0.8250
vt 0.1464 0.8250
vt 0.1986 0.8250
vt 0.2509 0.8250
vt 0.3032 0.8250
vt 0.3555 0.8250
vt 0.0418 0.8000
vt 0.0941 0.8000
vt 0.1464 0.8000
vt 0.1986 0.8000
vt 0.2509 0.8000
vt 0.3032 0.8000
vt 0.3555 0.8000
vt 0.0418 0.7750
vt 0.0941 0.7750
vt 0.1464 0.7750
vt 0.1986 0.7750
vt 0.2509 0.7750
vt 0.3032 0.7750
vt 0.3555 0.7750
vt 0.0418 0.7500
vt 0.0941 0.7500
vt 0.1464 0.7500
vt 0.1986 0.7500
vt 0.2509 0.7500
vt 0.3032 0.7500
vt 0.3555 0.7500
vt 0.0418 0.7250
vt 0.0941 0.7250
vt 0.1464 0.7250
vt 0.1986 0.7250
vt 0.2509 0.7250
vt 0.3032 0.7250
vt 0.3555 0.7250
vt 0.0418 0.7000
vt 0.0941 0.7000
vt 0.1464 0.7000
vt 0.1986 0.7000
vt 0.2509 0.7000
vt 0.3032 0.7000
vt 0.3555 0.7000
vt 0.0418 0.6750
vt 0.0941 0.6750
vt 0.1464 0.6750
vt 0.1986 0.6750
vt 0.2509 0.6750
vt 0.3032 0.6750
vt 0.3555 0.6750
vt 0.0418 0.6500
vt 0.0941 0.6500
vt 0.1464 0.6500
vt 0.1986 0.6500
vt 0.2509 0.6500
vt 0.3032 0.6500
vt 0.3555 0.6500
vt 0.0418 0.6250
vt 0.0941 0.6250
vt 0.1464 0.6250
vt 0.1986 0.6250
vt 0.2509 0.6250
vt 0.3032 0.6250
vt 0.3555 0.6250
vt 0.0418 0.6000
vt 0.0941 0.6000
vt 0.1464 0.6000
vt 0.1986 0.6000
vt 0.2509 0.6000
vt 0.3032 0.6000
vt 0.3555 0.6000
vt 0.0418 0.5750
vt 0.0941 0.5750
vt 0.1464 0.5750
vt 0.1986 0.5750
vt 0.2509 0.5750
vt 0.3032 0.5750
vt 0.3555 0.5750
vt 0.0418 0.5500
vt 0.0941 0.5500
vt 0.1464 0.5500
vt 0.1986 0.5500
vt 0.2509 0.5500
vt 0.3032 0.5500
vt 0.3555 0.5500
vt 0.0418 0.5250
vt 0.0941 0.5250
vt 0.1464 0.5250
vt 0.1986 0.5250
vt 0.2509 0.5250
vt 0.3032 0.5250
vt 0.3555 0.5250
vt 0.0418 0.5000
vt 0.0941 0.5000
vt 0.1464 0.5000
vt 0.1986 0.5000
vt 0.2509 0.5000
vt 0.3032 0.5000
vt 0.3555 0.5000
vt 0.0418 0.4750
vt 0.0941 0.4750
vt 0.1464 0.4750
vt 0.1986 0.4750
vt 0.2509 0.4750
vt 0.3032 0.4750
vt 0.3555 0.4750
vt 0.0418 0.4500
vt 0.0941 0.4500
vt 0.1464 0.4500
vt 0.1986 0.4500
vt 0.2509 0.4500
vt 0.3032 0.4500
vt 0.3555 0.4500
vt 0.0418 0.4250
vt 0.0941 0.4250
vt 0.1464 0.4250
vt 0.1986 0.4250
vt 0.2509 0.4250
vt 0.3032 0.4250
vt 0.3555 0.4250
vt 0.0418 0.4000
vt 0.0941 0.4000
vt 0.1464 0.4000
vt 0.1986 0.4000
vt 0.2509 0.4000
vt 0.3032 0.4000
vt 0.3555 0.4000
vt 0.0418 0.3750
vt 0.0941 0.3750
vt 0.1464 0.3750
vt 0.1986 0.3750
vt 0.2509 0.3750
vt 0.3032 0.3750
vt 0.3555 0.3750
vt 0.0418 0.3500
vt 0.0941 0.3500
vt 0.1464 0.3500
vt 0.1986 0.3500
vt 0.2509 0.3500
vt 0.3032 0.3500
vt 0.3555 0.3500
vt 0.0418 0.3250
vt 0.0941 0.3250
vt 0.1464 0.3250
vt 0.1986 0.3250
vt 0.2509 0.3250
vt 0.3032 0.3250
vt 0.3555 0.3250
vt 0.0418 0.3000
vt 0.0941 0.3000
vt 0.1464 0.3000
vt 0.1986 0.3000
vt 0.2509 0.3000
vt 0.3032 0.3000
vt 0.3555 0.3000
vt 0.0418 0.2750
vt 0.0941 0.2750
vt 0.1464 0.2750
vt 0.1986 0.2750
vt 0.2509 0.2750
vt 0.3032 0.2750
vt 0.3555 0.2750
vt 0.0418 0.2500
vt 0.0941 0.2500
vt 0.1464 0.2500
vt 0.1986 0.2500
vt 0.2509 0.2500
vt 0.3032 0.2500
vt 0.3555 0.2500
vt 0.0418 0.2250
vt 0.0941 0.2250
vt 0.1464 0.2250
vt 0.1986 0.2250
vt 0.2509 0.2250
vt 0.3032 0.2250
vt 0.3555 0.2250
vt 0.0418 0.2000
vt 0.0941 0.2000
vt 0.1464 0.2000
vt 0.1986 0.2000
vt 0.2509 0.2000
vt 0.3032 0.2000
vt 0.3555 0.2000
vt 0.0418 0.1750
vt 0.0941 0.1750
vt 0.1464 0.1750
vt 0.1986 0.1750
vt 0.2509 0.1750
vt 0.3032 0.1750
vt 0.3555 0.1750
vt 0.0418 0.1500
vt 0.0941 0.1500
vt 0.1464 0.1500
vt 0.1986 0.1500
vt 0.2509 0.1500
vt 0.3032 0.1500
vt 0.3555 0.1500
vt 0.0418 0.1250
vt 0.0941 0.1250
vt 0.1464 0.1250
vt 0.1986 0.1250
vt 0.2509 0.1250
vt 0.3032 0.1250
vt 0.3555 0.1250
vt 0.0418 0.1000
vt 0.0941 0.1000
vt 0.1464 0.1000
vt 0.1986 0.1000
vt 0.2509 0.1000
vt 0.3032 0.1000
vt 0.3555 0.1000
vt 0.0418 0.0750
vt 0.0941 0.0750
vt 0.1464 0.0750
vt 0.1986 0.0750
vt 0.2509 0.0750
vt 0.3032 0.0750
vt 0.3555 0.0750
vt 0.0418 0.0500
vt 0.0941 0.0500
vt 0.1464 0.0500
vt 0.1986 0.0500
vt 0.2509 0.0500
vt 0.3032 0.0500
vt 0.4510 0.0750
vt 0.4391 0.0750
vt 0.4510 0.0500
vt 0.4686 0.0750
vt 0.4391 0.1000
vt 0.4510 0.1000
vt 0.4686 0.1000
vt 0.8536 0.0500
vt 0.8641 0.0500
vt 0.8641 0.0750
vt 0.8536 0.0750
vt 0.5699 0.0500
vt 0.5818 0.0500
vt 0.5818 0.0750
vt 0.5699 0.0750
vt 0.5523 0.0500
vt 0.5523 0.0750
vt 0.9477 0.0500
vt 0.9582 0.0500
vt 0.9477 0.0750
vt 0.9582 0.0750
vt 0.4391 0.1250
vt 0.4510 0.1250
vt 0.4686 0.1250
vt 0.8641 0.1000
vt 0.8536 0.1000
vt 0.5818 0.1000
vt 0.5699 0.1000
vt 0.5523 0.1000
vt 0.9477 0.1000
vt 0.9582 0.1000
vt 0.4391 0.1500
vt 0.4510 0.1500
vt 0.4686 0.1500
vt 0.8641 0.1250
vt 0.8536 0.1250
vt 0.5818 0.1250
vt 0.5699 0.1250
vt 0.5523 0.1250
vt 0.9477 0.1250
vt 0.9582 0.1250
vt 0.4391 0.1750
vt 0.4510 0.1750
vt 0.4686 0.1750
vt 0.8641 0.1500
vt 0.8536 0.1500
vt 0.5818 0.1500
vt 0.5699 0.1500
vt 0.5523 0.1500
vt 0.9477 0.1500
vt 0.9582 0.1500
vt 0.4391 0.2000
vt 0.4510 0.2000
vt 0.4686 0.2000
vt 0.8641 0.1750
vt 0.8536 0.1750
vt 0.5818 0.1750
vt 0.5699 0.1750
vt 0.5523 0.1750
vt 0.9477 0.1750
vt 0.9582 0.1750
vt 0.4391 0.2250
vt 0.4510 0.2250
vt 0.4686 0.2250
vt 0.8641 0.2000
vt 0.8536 0.2000
vt 0.5818 0.2000
vt 0.5699 0.2000
vt 0.5523 0.2000
vt 0.9477 0.2000
vt 0.9582 0.2000
vt 0.4391 0.2500
vt 0.4510 0.2500
vt 0.4686 0.2500
vt 0.8641 0.2250
vt 0.8536 0.2250
vt 0.5818 0.2250
vt 0.5699 0.2250
vt 0.5523 0.2250
vt 0.9477 0.2250
vt 0.9582 0.2250
vt 0.4391 0.2750
vt 0.4510 0.2750
vt 0.4686 0.2750
vt 0.8641 0.2500
vt 0.8536 0.2500
vt 0.5818 0.2500
vt 0.5699 0.2500
vt 0.5523 0.2500
vt 0.9477 0.2500
vt 0.9582 0.2500
vt 0.4391 0.3000
vt 0.4510 0.3000
vt 0.4686 0.3000
vt 0.8641 0.2750
vt 0.8536 0.2750
vt 0.5818 0.2750
vt 0.5699 0.2750
vt 0.5523 0.2750
vt 0.9477 0.2750
vt 0.9582 0.2750
vt 0.4391 0.3250
vt 0.4510 0.3250
vt 0.4686 0.3250
vt 0.8641 0.3000
vt 0.8536 0.3000
vt 0.5818 0.3000
vt 0.5699 0.3000
vt 0.5523 0.3000
vt 0.9477 0.3000
vt 0.9582 0.3000
vt 0.4391 0.3500
vt 0.4510 0.3500
vt 0.4686 0.3500
vt 0.8641 0.3250
vt 0.8536 0.3250
vt 0.5818 0.3250
vt 0.5699 0.3250
vt 0.5523 0.3250
vt 0.9477 0.3250
vt 0.9582 0.3250
vt 0.4391 0.3750
vt 0.4510 0.3750
vt 0.4686 0.3750
vt 0.8641 0.3500
vt 0.8536 0.3500
vt 0.5818 0.3500
vt 0.5699 0.3500
vt 0.5523 0.3500
vt 0.9477 0.3500
vt 0.9582 0.3500
vt 0.4391 0.4000
vt 0.4510 0.4000
vt 0.4686 0.4000
vt 0.8641 0.3750
vt 0.8536 0.3750
vt 0.5818 0.3750
vt 0.5699 0.3750
vt 0.5523 0.3750
vt 0.9477 0.3750
vt 0.9582 0.3750
vt 0.4391 0.4250
vt 0.4510 0.4250
vt 0.4686 0.4250
vt 0.8641 0.4000
vt 0.8536 0.4000
vt 0.5818 0.4000
vt 0.5699 0.4000
vt 0.5523 0.4000
vt 0.9477 0.4000
vt 0.9582 0.4000
vt 0.4391 0.4500
vt 0.4510 0.4500
vt 0.4686 0.4500
vt 0.8641 0.4250
vt 0.8536 0.4250
vt 0.5818 0.4250
vt 0.5699 0.4250
vt 0.5523 0.4250
vt 0.9477 0.4250
vt 0.9582 0.4250
vt 0.4391 0.4750
vt 0.4510 0.4750
vt 0.4686 0.4750
vt 0.8641 0.4500
vt 0.8536 0.4500
vt 0.5818 0.4500
vt 0.5699 0.4500
vt 0.5523 0.4500
vt 0.9477 0.4500
vt 0.9582 0.4500
vt 0.4391 0.5000
vt 0.4510 0.5000
vt 0.4686 0.5000
vt 0.8641 0.4750
vt 0.8536 0.4750
vt 0.5818 0.4750
vt 0.5699 0.4750
vt 0.5523 0.4750
vt 0.9477 0.4750
vt 0.9582 0.4750
vt 0.4391 0.5250
vt 0.4510 0.5250
vt 0.4686 0.5250
vt 0.8641 0.5000
vt 0.8536 0.5000
vt 0.5818 0.5000
vt 0.5699 0.5000
vt 0.5523 0.5000
vt 0.9477 0.5000
vt 0.9582 0.5000
vt 0.4391 0.5500
vt 0.4510 0.5500
vt 0.4686 0.5500
vt 0.8641 0.5250
vt 0.8536 0.5250
vt 0.5818 0.5250
vt 0.5699 0.5250
vt 0.5523 0.5250
vt 0.9477 0.5250
vt 0.9582 0.5250
vt 0.4391 0.5750
vt 0.4510 0.5750
vt 0.4686 0.5750
vt 0.8641 0.5500
vt 0.8536 0.5500
vt 0.5818 0.5500
vt 0.5699 0.5500
vt 0.5523 0.5500
vt 0.9477 0.5500
vt 0.9582 0.5500
vt 0.4391 0.6000
vt 0.4510 0.6000
vt 0.4686 0.6000
vt 0.8641 0.5750
vt 0.8536 0.5750
vt 0.5818 0.5750
vt 0.5699 0.5750
vt 0.5523 0.5750
vt 0.9477 0.5750
vt 0.9582 0.5750
vt 0.4391 0.6250
vt 0.4510 0.6250
vt 0.4686 0.6250
vt 0.8641 0.6000
vt 0.8536 0.6000
vt 0.5818 0.6000
vt 0.5699 0.6000
vt 0.5523 0.6000
vt 0.9477 0.6000
vt 0.9582 0.6000
vt 0.4391 0.6500
vt 0.4510 0.6500
vt 0.4686 0.6500
vt 0.8641 0.6250
vt 0.8536 0.6250
vt 0.5818 0.6250
vt 0.5699 0.6250
vt 0.5523 0.6250
vt 0.9477 0.6250
vt 0.9582 0.6250
vt 0.4391 0.6750
vt 0.4510 0.6750
vt 0.4686 0.6750
vt 0.8641 0.6500
vt 0.8536 0.6500
vt 0.5818 0.6500
vt 0.5699 0.6500
vt 0.5523 0.6500
vt 0.9477 0.6500
vt 0.9582 0.6500
vt 0.4391 0.7000
vt 0.4510 0.7000
vt 0.4686 0.7000
vt 0.8641 0.6750
vt 0.8536 0.6750
vt 0.5818 0.6750
vt 0.5699 0.6750
vt 0.5523 0.6750
vt 0.9477 0.6750
vt 0.9582 0.6750
vt 0.4391 0.7250
vt 0.4510 0.7250
vt 0.4686 0.7250
vt 0.8641 0.7000
vt 0.8536 0.7000
vt 0.5818 0.7000
vt 0.5699 0.7000
vt 0.5523 0.7000
vt 0.9477 0.7000
vt 0.9582 0.7000
vt 0.4391 0.7500
vt 0.4510 0.7500
vt 0.4686 0.7500
vt 0.8641 0.7250
vt 0.8536 0.7250
vt 0.5818 0.7250
vt 0.5699 0.7250
vt 0.5523 0.7250
vt 0.9477 0.7250
vt 0.9582 0.7250
vt 0.4391 0.7750
vt 0.4510 0.7750
vt 0.4686 0.7750
vt 0.8641 0.7500
vt 0.8536 0.7500
vt 0.5818 0.7500
vt 0.5699 0.7500
vt 0.5523 0.7500
vt 0.9477 0.7500
vt 0.9582 0.7500
vt 0.4391 0.8000
vt 0.4510 0.8000
vt 0.4686 0.8000
vt 0.8641 0.7750
vt 0.8536 0.7750
vt 0.5818 0.7750
vt 0.5699 0.7750
vt 0.5523 0.7750
vt 0.9477 0.7750
vt 0.9582 0.7750
vt 0.4391 0.8250
vt 0.4510 0.8250
vt 0.4686 0.8250
vt 0.8641 0.8000
vt 0.8536 0.8000
vt 0.5818 0.8000
vt 0.5699 0.8000
vt 0.5523 0.8000
vt 0.9477 0.8000
vt 0.9582 0.8000
vt 0.4391 0.8500
vt 0.4510 0.8500
vt 0.4686 0.8500
vt 0.8641 0.8250
vt 0.8536 0.8250
vt 0.5818 0.8250
vt 0.5699 0.8250
vt 0.5523 0.8250
vt 0.9477 0.8250
vt 0.9582 0.8250
vt 0.4391 0.8750
vt 0.4510 0.8750
vt 0.4686 0.8750
vt 0.8641 0.8500
vt 0.8536 0.8500
vt 0.5818 0.8500
vt 0.5699 0.8500
vt 0.5523 0.8500
vt 0.9477 0.8500
vt 0.9582 0.8500
vt 0.4391 0.9000
vt 0.4510 0.9000
vt 0.4686 0.9000
vt 0.8641 0.8750
vt 0.8536 0.8750
vt 0.5818 0.8750
vt 0.5699 0.8750
vt 0.5523 0.8750
vt 0.9477 0.8750
vt 0.9582 0.8750
vt 0.4391 0.9250
vt 0.4510 0.9250
vt 0.4686 0.9250
vt 0.8641 0.9000
vt 0.8536 0.9000
vt 0.5818 0.9000
vt 0.5699 0.9000
vt 0.5523 0.9000
vt 0.9477 0.9000
vt 0.9582 0.9000
vt 0.4391 0.9500
vt 0.4686 0.9500
vt 0.5818 0.9250
vt 0.5523 0.9250
vn 0.8137 0.0000 -0.5812
vn -0.8137 0.0000 -0.5812
vn 0.0000 0.0000 -1.0000
vn 0.6783 0.0000 0.7348
vn 0.5145 0.0000 0.8575
vn 0.7005 0.0000 0.7136
vn 0.8137 0.0000 0.5812
vn -0.6783 0.0000 0.7348
vn -0.5145 0.0000 0.8575
vn -0.8137 0.0000 0.5812
vn 0.6728 0.0000 0.7398
vn -0.6728 0.0000 0.7398
s 1
f 1/1/1 2/2/1 6/3/1
f 5/4/1 6/3/1 2/2/1
f 4/5/2 3/6/2 9/7/2
f 9/7/2 8/8/2 4/5/2
f 6/3/1 5/4/1 7/9/1
f 12/10/1 7/9/1 5/4/1
f 8/8/2 9/7/2 10/11/2
f 10/11/2 11/12/2 8/8/2
f 7/9/1 12/10/1 15/13/1
f 16/14/1 15/13/1 12/10/1
f 11/12/2 10/11/2 13/15/2
f 13/15/2 19/16/2 11/12/2
f 15/13/1 16/14/1 14/17/1
f 17/18/1 14/17/1 16/14/1
f 19/16/2 13/15/2 18/19/2
f 18/19/2 20/20/2 19/16/2
f 14/17/1 17/18/1 23/21/1
f 22/22/1 23/21/1 17/18/1
f 20/20/2 18/19/2 21/23/2
f 21/23/2 24/24/2 20/20/2
f 23/21/1 22/22/1 26/25/1
f 27/26/1 26/25/1 22/22/1
f 24/24/2 21/23/2 29/27/2
f 29/27/2 28/28/2 24/24/2
f 26/25/1 27/26/1 25/29/1
f 30/30/1 25/29/1 27/26/1
f 28/28/2 29/27/2 35/31/2
f 35/31/2 34/32/2 28/28/2
f 25/29/1 30/30/1 32/33/1
f 31/34/1 32/33/1 30/30/1
f 34/32/2 35/31/2 33/35/2
f 33/35/2 36/36/2 34/32/2
f 32/33/1 31/34/1 37/37/1
f 40/38/1 37/37/1 31/34/1
f 36/36/2 33/35/2 41/39/2
f 41/39/2 43/40/2 36/36/2
f 37/37/1 40/38/1 38/41/1
f 39/42/1 38/41/1 40/38/1
f 43/40/2 41/39/2 42/43/2
f 42/43/2 45/44/2 43/40/2
f 38/41/1 39/42/1 44/45/1
f 47/46/1 44/45/1 39/42/1
f 45/44/2 42/43/2 49/47/2
f 49/47/2 51/48/2 45/44/2
f 44/45/1 47/46/1 46/49/1
f 48/50/1 46/49/1 47/46/1
f 51/48/2 49/47/2 50/51/2
f 50/51/2 52/52/2 51/48/2
f 46/49/1 48/50/1 56/53/1
f 57/54/1 56/53/1 48/50/1
f 52/52/2 50/51/2 53/55/2
f 53/55/2 54/56/2 52/52/2
f 56/53/1 57/54/1 55/57/1
f 60/58/1 55/57/1 57/54/1
f 54/56/2 53/55/2 58/59/2
f 58/59/2 63/60/2 54/56/2
f 55/57/1 60/58/1 59/61/1
f 61/62/1 59/61/1 60/58/1
f 63/60/2 58/59/2 65/63/2
f 65/63/2 62/64/2 63/60/2
f 59/61/1 61/62/1 64/65/1
f 66/66/1 64/65/1 61/62/1
f 62/64/2 65/63/2 69/67/2
f 69/67/2 68/68/2 62/64/2
f 64/65/1 66/66/1 70/69/1
f 71/70/1 70/69/1 66/66/1
f 68/68/2 69/67/2 67/71/2
f 67/71/2 73/72/2 68/68/2
f 70/69/1 71/70/1 74/73/1
f 76/74/1 74/73/1 71/70/1
f 73/72/2 67/71/2 77/75/2
f 77/75/2 72/76/2 73/72/2
f 74/73/1 76/74/1 75/77/1
f 79/78/1 75/77/1 76/74/1
f 72/76/2 77/75/2 80/79/2
f 80/79/2 78/80/2 72/76/2
f 75/77/1 79/78/1 83/81/1
f 82/82/1 83/81/1 79/78/1
f 78/80/2 80/79/2 81/83/2
f 81/83/2 84/84/2 78/80/2
f 83/81/1 82/82/1 85/85/1
f 87/86/1 85/85/1 82/82/1
f 84/84/2 81/83/2 89/87/2
f 89/87/2 88/88/2 84/84/2
f 85/85/1 87/86/1 86/89/1
f 91/90/1 86/89/1 87/86/1
f 88/88/2 89/87/2 90/91/2
f 90/91/2 93/92/2 88/88/2
f 86/89/1 91/90/1 92/93/1
f 96/94/1 92/93/1 91/90/1
f 93/92/2 90/91/2 94/95/2
f 94/95/2 97/96/2 93/92/2
f 92/93/1 96/94/1 95/97/1
f 100/98/1 95/97/1 96/94/1
f 97/96/2 94/95/2 98/99/2
f 98/99/2 99/100/2 97/96/2
f 95/97/1 100/98/1 102/101/1
f 103/102/1 102/101/1 100/98/1
f 99/100/2 98/99/2 101/103/2
f 101/103/2 106/104/2 99/100/2
f 102/101/1 103/102/1 105/105/1
f 104/106/1 105/105/1 103/102/1
f 106/104/2 101/103/2 111/107/2
f 111/107/2 110/108/2 106/104/2
f 105/105/1 104/106/1 108/109/1
f 107/110/1 108/109/1 104/106/1
f 110/108/2 111/107/2 109/111/2
f 109/111/2 115/112/2 110/108/2
f 108/109/1 107/110/1 112/113/1
f 113/114/1 112/113/1 107/110/1
f 115/112/2 109/111/2 117/115/2
f 117/115/2 114/116/2 115/112/2
f 112/113/1 113/114/1 116/117/1
f 119/118/1 116/117/1 113/114/1
f 114/116/2 117/115/2 120/119/2
f 120/119/2 121/120/2 114/116/2
f 116/117/1 119/118/1 118/121/1
f 122/122/1 118/121/1 119/118/1
f 121/120/2 120/119/2 126/123/2
f 126/123/2 125/124/2 121/120/2
f 118/121/1 122/122/1 127/125/1
f 123/126/1 127/125/1 122/122/1
f 125/124/2 126/123/2 124/127/2
f 124/127/2 129/128/2 125/124/2
f 127/125/1 123/126/1 128/129/1
f 131/130/1 128/129/1 123/126/1
f 129/128/2 124/127/2 130/131/2
f 130/131/2 134/132/2 129/128/2
f 128/129/1 131/130/1 135/133/1
f 136/134/1 135/133/1 131/130/1
f 134/132/2 130/131/2 133/135/2
f 133/135/2 132/136/2 134/132/2
f 135/133/1 136/134/1 137/137/1
f 140/138/1 137/137/1 136/134/1
f 132/136/2 133/135/2 138/139/2
f 138/139/2 139/140/2 132/136/2
f 146/141/3 147/142/3 148/143/3
f 146/141/3 148/143/3 145/144/3
f 147/142/3 154/145/3 141/146/3
f 147/142/3 141/146/3 148/143/3
f 154/145/3 149/147/3 150/148/3
f 154/145/3 150/148/3 141/146/3
f 149/147/3 152/149/3 142/150/3
f 149/147/3 142/150/3 150/148/3
f 152/149/3 151/151/3 143/152/3
f 152/149/3 143/152/3 142/150/3
f 151/151/3 155/153/3 144/154/3
f 151/151/3 144/154/3 143/152/3
f 165/155/3 158/156/3 147/142/3
f 165/155/3 147/142/3 146/141/3
f 158/156/3 153/157/3 154/145/3
f 158/156/3 154/145/3 147/142/3
f 153/157/3 159/158/3 149/147/3
f 153/157/3 149/147/3 154/145/3
f 159/158/3 162/159/3 152/149/3
f 159/158/3 152/149/3 149/147/3
f 162/159/3 164/160/3 151/151/3
f 162/159/3 151/151/3 152/149/3
f 164/160/3 156/161/3 155/153/3
f 164/160/3 155/153/3 151/151/3
f 172/162/3 157/163/3 158/156/3
f 172/162/3 158/156/3 165/155/3
f 157/163/3 167/164/3 153/157/3
f 157/163/3 153/157/3 158/156/3
f 167/164/3 169/165/3 159/158/3
f 167/164/3 159/158/3 153/157/3
f 169/165/3 160/166/3 162/159/3
f 169/165/3 162/159/3 159/158/3
f 160/166/3 161/167/3 164/160/3
f 160/166/3 164/160/3 162/159/3
f 161/167/3 163/168/3 156/161/3
f 161/167/3 156/161/3 164/160/3
f 173/169/3 166/170/3 157/163/3
f 173/169/3 157/163/3 172/162/3
f 166/170/3 174/171/3 167/164/3
f 166/170/3 167/164/3 157/163/3
f 174/171/3 168/172/3 169/165/3
f 174/171/3 169/165/3 167/164/3
f 168/172/3 170/173/3 160/166/3
f 168/172/3 160/166/3 169/165/3
f 170/173/3 176/174/3 161/167/3
f 170/173/3 161/167/3 160/166/3
f 176/174/3 171/175/3 163/168/3
f 176/174/3 163/168/3 161/167/3
f 177/176/3 180/177/3 166/170/3
f 177/176/3 166/170/3 173/169/3
f 180/177/3 182/178/3 174/171/3
f 180/177/3 174/171/3 166/170/3
f 182/178/3 175/179/3 168/172/3
f 182/178/3 168/172/3 174/171/3
f 175/179/3 184/180/3 170/173/3
f 175/179/3 170/173/3 168/172/3
f 184/180/3 186/181/3 176/174/3
f 184/180/3 176/174/3 170/173/3
f 186/181/3 185/182/3 171/175/3
f 186/181/3 171/175/3 176/174/3
f 178/183/3 179/184/3 180/177/3
f 178/183/3 180/177/3 177/176/3
f 179/184/3 181/185/3 182/178/3
f 179/184/3 182/178/3 180/177/3
f 181/185/3 183/186/3 175/179/3
f 181/185/3 175/179/3 182/178/3
f 183/186/3 190/187/3 184/180/3
f 183/186/3 184/180/3 175/179/3
f 190/187/3 189/188/3 186/181/3
f 190/187/3 186/181/3 184/180/3
f 189/188/3 191/189/3 185/182/3
f 189/188/3 185/182/3 186/181/3
f 198/190/3 187/191/3 179/184/3
f 198/190/3 179/184/3 178/183/3
f 187/191/3 188/192/3 181/185/3
f 187/191/3 181/185/3 179/184/3
f 188/192/3 192/193/3 183/186/3
f 188/192/3 183/186/3 181/185/3
f 192/193/3 196/194/3 190/187/3
f 192/193/3 190/187/3 183/186/3
f 196/194/3 195/195/3 189/188/3
f 196/194/3 189/188/3 190/187/3
f 195/195/3 197/196/3 191/189/3
f 195/195/3 191/189/3 189/188/3
f 199/197/3 201/198/3 187/191/3
f 199/197/3 187/191/3 198/190/3
f 201/198/3 203/199/3 188/192/3
f 201/198/3 188/192/3 187/191/3
f 203/199/3 193/200/3 192/193/3
f 203/199/3 192/193/3 188/192/3
f 193/200/3 194/201/3 196/194/3
f 193/200/3 196/194/3 192/193/3
f 194/201/3 205/202/3 195/195/3
f 194/201/3 195/195/3 196/194/3
f 205/202/3 207/203/3 197/196/3
f 205/202/3 197/196/3 195/195/3
f 210/204/3 200/205/3 201/198/3
f 210/204/3 201/198/3 199/197/3
f 200/205/3 202/206/3 203/199/3
f 200/205/3 203/199/3 201/198/3
f 202/206/3 204/207/3 193/200/3
f 202/206/3 193/200/3 203/199/3
f 204/207/3 212/208/3 194/201/3
f 204/207/3 194/201/3 193/200/3
f 212/208/3 213/209/3 205/202/3
f 212/208/3 205/202/3 194/201/3
f 213/209/3 206/210/3 207/203/3
f 213/209/3 207/203/3 205/202/3
f 209/211/3 208/212/3 200/205/3
f 209/211/3 200/205/3 210/204/3
f 208/212/3 211/213/3 202/206/3
f 208/212/3 202/206/3 200/205/3
f 211/213/3 214/214/3 204/207/3
f 211/213/3 204/207/3 202/206/3
f 214/214/3 217/215/3 212/208/3
f 214/214/3 212/208/3 204/207/3
f 217/215/3 216/216/3 213/209/3
f 217/215/3 213/209/3 212/208/3
f 216/216/3 218/217/3 206/210/3
f 216/216/3 206/210/3 213/209/3
f 220/218/3 222/219/3 208/212/3
f 220/218/3 208/212/3 209/211/3
f 222/219/3 221/220/3 211/213/3
f 222/219/3 211/213/3 208/212/3
f 221/220/3 223/221/3 214/214/3
f 221/220/3 214/214/3 211/213/3
f 223/221/3 215/222/3 217/215/3
f 223/221/3 217/215/3 214/214/3
f 215/222/3 226/223/3 216/216/3
f 215/222/3 216/216/3 217/215/3
f 226/223/3 227/224/3 218/217/3
f 226/223/3 218/217/3 216/216/3
f 228/225/3 219/226/3 222/219/3
f 228/225/3 222/219/3 220/218/3
f 219/226/3 224/227/3 221/220/3
f 219/226/3 221/220/3 222/219/3
f 224/227/3 230/228/3 223/221/3
f 224/227/3 223/221/3 221/220/3
f 230/228/3 225/229/3 215/222/3
f 230/228/3 215/222/3 223/221/3
f 225/229/3 231/230/3 226/223/3
f 225/229/3 226/223/3 215/222/3
f 231/230/3 234/231/3 227/224/3
f 231/230/3 227/224/3 226/223/3
f 240/232/3 236/233/3 219/226/3
f 240/232/3 219/226/3 228/225/3
f 236/233/3 229/234/3 224/227/3
f 236/233/3 224/227/3 219/226/3
f 229/234/3 237/235/3 230/228/3
f 229/234/3 230/228/3 224/227/3
f 237/235/3 238/236/3 225/229/3
f 237/235/3 225/229/3 230/228/3
f 238/236/3 232/237/3 231/230/3
f 238/236/3 231/230/3 225/229/3
f 232/237/3 233/238/3 234/231/3
f 232/237/3 234/231/3 231/230/3
f 241/239/3 235/240/3 236/233/3
f 241/239/3 236/233/3 240/232/3
f 235/240/3 244/241/3 229/234/3
f 235/240/3 229/234/3 236/233/3
f 244/241/3 245/242/3 237/235/3
f 244/241/3 237/235/3 229/234/3
f 245/242/3 247/243/3 238/236/3
f 245/242/3 238/236/3 237/235/3
f 247/243/3 249/244/3 232/237/3
f 247/243/3 232/237/3 238/236/3
f 249/244/3 239/245/3 233/238/3
f 249/244/3 233/238/3 232/237/3
f 252/246/3 242/247/3 235/240/3
f 252/246/3 235/240/3 241/239/3
f 242/247/3 243/248/3 244/241/3
f 242/247/3 244/241/3 235/240/3
f 243/248/3 246/249/3 245/242/3
f 243/248/3 245/242/3 244/241/3
f 246/249/3 248/250/3 247/243/3
f 246/249/3 247/243/3 245/242/3
f 248/250/3 250/251/3 249/244/3
f 248/250/3 249/244/3 247/243/3
f 250/251/3 255/252/3 239/245/3
f 250/251/3 239/245/3 249/244/3
f 251/253/3 257/254/3 242/247/3
f 251/253/3 242/247/3 252/246/3
f 257/254/3 259/255/3 243/248/3
f 257/254/3 243/248/3 242/247/3
f 259/255/3 253/256/3 246/249/3
f 259/255/3 246/249/3 243/248/3
f 253/256/3 262/257/3 248/250/3
f 253/256/3 248/250/3 246/249/3
f 262/257/3 254/258/3 250/251/3
f 262/257/3 250/251/3 248/250/3
f 254/258/3 263/259/3 255/252/3
f 254/258/3 255/252/3 250/251/3
f 265/260/3 256/261/3 257/254/3
f 265/260/3 257/254/3 251/253/3
f 256/261/3 258/262/3 259/255/3
f 256/261/3 259/255/3 257/254/3
f 258/262/3 260/263/3 253/256/3
f 258/262/3 253/256/3 259/255/3
f 260/263/3 268/264/3 262/257/3
f 260/263/3 262/257/3 253/256/3
f 268/264/3 261/265/3 254/258/3
f 268/264/3 254/258/3 262/257/3
f 261/265/3 264/266/3 263/259/3
f 261/265/3 263/259/3 254/258/3
f 266/267/3 270/268/3 256/261/3
f 266/267/3 256/261/3 265/260/3
f 270/268/3 271/269/3 258/262/3
f 270/268/3 258/262/3 256/261/3
f 271/269/3 267/270/3 260/263/3
f 271/269/3 260/263/3 258/262/3
f 267/270/3 272/271/3 268/264/3
f 267/270/3 268/264/3 260/263/3
f 272/271/3 274/272/3 261/265/3
f 272/271/3 261/265/3 268/264/3
f 274/272/3 276/273/3 264/266/3
f 274/272/3 264/266/3 261/265/3
f 269/274/3 277/275/3 270/268/3
f 269/274/3 270/268/3 266/267/3
f 277/275/3 279/276/3 271/269/3
f 277/275/3 271/269/3 270/268/3
f 279/276/3 278/277/3 267/270/3
f 279/276/3 267/270/3 271/269/3
f 278/277/3 273/278/3 272/271/3
f 278/277/3 272/271/3 267/270/3
f 273/278/3 275/279/3 274/272/3
f 273/278/3 274/272/3 272/271/3
f 275/279/3 283/280/3 276/273/3
f 275/279/3 276/273/3 274/272/3
f 285/281/3 284/282/3 277/275/3
f 285/281/3 277/275/3 269/274/3
f 284/282/3 289/283/3 279/276/3
f 284/282/3 279/276/3 277/275/3
f 289/283/3 288/284/3 278/277/3
f 289/283/3 278/277/3 279/276/3
f 288/284/3 280/285/3 273/278/3
f 288/284/3 273/278/3 278/277/3
f 280/285/3 282/286/3 275/279/3
f 280/285/3 275/279/3 273/278/3
f 282/286/3 281/287/3 283/280/3
f 282/286/3 283/280/3 275/279/3
f 297/288/3 286/289/3 284/282/3
f 297/288/3 284/282/3 285/281/3
f 286/289/3 287/290/3 289/283/3
f 286/289/3 289/283/3 284/282/3
f 287/290/3 291/291/3 288/284/3
f 287/290/3 288/284/3 289/283/3
f 291/291/3 293/292/3 280/285/3
f 291/291/3 280/285/3 288/284/3
f 293/292/3 294/293/3 282/286/3
f 293/292/3 282/286/3 280/285/3
f 294/293/3 290/294/3 281/287/3
f 294/293/3 281/287/3 282/286/3
f 304/295/3 300/296/3 286/289/3
f 304/295/3 286/289/3 297/288/3
f 300/296/3 301/297/3 287/290/3
f 300/296/3 287/290/3 286/289/3
f 301/297/3 292/298/3 291/291/3
f 301/297/3 291/291/3 287/290/3
f 292/298/3 303/299/3 293/292/3
f 292/298/3 293/292/3 291/291/3
f 303/299/3 295/300/3 294/293/3
f 303/299/3 294/293/3 293/292/3
f 295/300/3 296/301/3 290/294/3
f 295/300/3 290/294/3 294/293/3
f 298/302/3 299/303/3 300/296/3
f 298/302/3 300/296/3 304/295/3
f 299/303/3 307/304/3 301/297/3
f 299/303/3 301/297/3 300/296/3
f 307/304/3 302/305/3 292/298/3
f 307/304/3 292/298/3 301/297/3
f 302/305/3 310/306/3 303/299/3
f 302/305/3 303/299/3 292/298/3
f 310/306/3 312/307/3 295/300/3
f 310/306/3 295/300/3 303/299/3
f 312/307/3 313/308/3 296/301/3
f 312/307/3 296/301/3 295/300/3
f 305/309/3 306/310/3 299/303/3
f 305/309/3 299/303/3 298/302/3
f 306/310/3 308/311/3 307/304/3
f 306/310/3 307/304/3 299/303/3
f 308/311/3 309/312/3 302/305/3
f 308/311/3 302/305/3 307/304/3
f 309/312/3 316/313/3 310/306/3
f 309/312/3 310/306/3 302/305/3
f 316/313/3 311/314/3 312/307/3
f 316/313/3 312/307/3 310/306/3
f 311/314/3 318/315/3 313/308/3
f 311/314/3 313/308/3 312/307/3
f 320/316/3 315/317/3 306/310/3
f 320/316/3 306/310/3 305/309/3
f 315/317/3 314/318/3 308/311/3
f 315/317/3 308/311/3 306/310/3
f 314/318/3 322/319/3 309/312/3
f 314/318/3 309/312/3 308/311/3
f 322/319/3 317/320/3 316/313/3
f 322/319/3 316/313/3 309/312/3
f 317/320/3 327/321/3 311/314/3
f 317/320/3 311/314/3 316/313/3
f 327/321/3 328/322/3 318/315/3
f 327/321/3 318/315/3 311/314/3
f 319/323/3 330/324/3 315/317/3
f 319/323/3 315/317/3 320/316/3
f 330/324/3 321/325/3 314/318/3
f 330/324/3 314/318/3 315/317/3
f 321/325/3 323/326/3 322/319/3
f 321/325/3 322/319/3 314/318/3
f 323/326/3 324/327/3 317/320/3
f 323/326/3 317/320/3 322/319/3
f 324/327/3 325/328/3 327/321/3
f 324/327/3 327/321/3 317/320/3
f 325/328/3 326/329/3 328/322/3
f 325/328/3 328/322/3 327/321/3
f 329/330/3 336/331/3 330/324/3
f 329/330/3 330/324/3 319/323/3
f 336/331/3 337/332/3 321/325/3
f 336/331/3 321/325/3 330/324/3
f 337/332/3 331/333/3 323/326/3
f 337/332/3 323/326/3 321/325/3
f 331/333/3 332/334/3 324/327/3
f 331/333/3 324/327/3 323/326/3
f 332/334/3 333/335/3 325/328/3
f 332/334/3 325/328/3 324/327/3
f 333/335/3 334/336/3 326/329/3
f 333/335/3 326/329/3 325/328/3
f 335/337/3 341/338/3 336/331/3
f 335/337/3 336/331/3 329/330/3
f 341/338/3 338/339/3 337/332/3
f 341/338/3 337/332/3 336/331/3
f 338/339/3 343/340/3 331/333/3
f 338/339/3 331/333/3 337/332/3
f 343/340/3 340/341/3 332/334/3
f 343/340/3 332/334/3 331/333/3
f 340/341/3 339/342/3 333/335/3
f 340/341/3 333/335/3 332/334/3
f 339/342/3 345/343/3 334/336/3
f 339/342/3 334/336/3 333/335/3
f 347/344/3 350/345/3 341/338/3
f 347/344/3 341/338/3 335/337/3
f 350/345/3 349/346/3 338/339/3
f 350/345/3 338/339/3 341/338/3
f 349/346/3 342/347/3 343/340/3
f 349/346/3 343/340/3 338/339/3
f 342/347/3 351/348/3 340/341/3
f 342/347/3 340/341/3 343/340/3
f 351/348/3 344/349/3 339/342/3
f 351/348/3 339/342/3 340/341/3
f 344/349/3 355/350/3 345/343/3
f 344/349/3 345/343/3 339/342/3
f 346/351/3 348/352/3 350/345/3
f 346/351/3 350/345/3 347/344/3
f 348/352/3 358/353/3 349/346/3
f 348/352/3 349/346/3 350/345/3
f 358/353/3 352/354/3 342/347/3
f 358/353/3 342/347/3 349/346/3
f 352/354/3 360/355/3 351/348/3
f 352/354/3 351/348/3 342/347/3
f 360/355/3 353/356/3 344/349/3
f 360/355/3 344/349/3 351/348/3
f 353/356/3 354/357/3 355/350/3
f 353/356/3 355/350/3 344/349/3
f 361/358/3 356/359/3 348/352/3
f 361/358/3 348/352/3 346/351/3
f 356/359/3 357/360/3 358/353/3
f 356/359/3 358/353/3 348/352/3
f 357/360/3 359/361/3 352/354/3
f 357/360/3 352/354/3 358/353/3
f 359/361/3 363/362/3 360/355/3
f 359/361/3 360/355/3 352/354/3
f 363/362/3 366/363/3 353/356/3
f 363/362/3 353/356/3 360/355/3
f 366/363/3 365/364/3 354/357/3
f 366/363/3 354/357/3 353/356/3
f 369/365/3 368/366/3 356/359/3
f 369/365/3 356/359/3 361/358/3
f 368/366/3 370/367/3 357/360/3
f 368/366/3 357/360/3 356/359/3
f 370/367/3 362/368/3 359/361/3
f 370/367/3 359/361/3 357/360/3
f 362/368/3 373/369/3 363/362/3
f 362/368/3 363/362/3 359/361/3
f 373/369/3 364/370/3 366/363/3
f 373/369/3 366/363/3 363/362/3
f 364/370/3 375/371/3 365/364/3
f 364/370/3 365/364/3 366/363/3
f 367/372/3 379/373/3 368/366/3
f 367/372/3 368/366/3 369/365/3
f 379/373/3 378/374/3 370/367/3
f 379/373/3 370/367/3 368/366/3
f 378/374/3 371/375/3 362/368/3
f 378/374/3 362/368/3 370/367/3
f 371/375/3 372/376/3 373/369/3
f 371/375/3 373/369/3 362/368/3
f 372/376/3 382/377/3 364/370/3
f 372/376/3 364/370/3 373/369/3
f 382/377/3 374/378/3 375/371/3
f 382/377/3 375/371/3 364/370/3
f 376/379/3 386/380/3 379/373/3
f 376/379/3 379/373/3 367/372/3
f 386/380/3 377/381/3 378/374/3
f 386/380/3 378/374/3 379/373/3
f 377/381/3 380/382/3 371/375/3
f 377/381/3 371/375/3 378/374/3
f 380/382/3 381/383/3 372/376/3
f 380/382/3 372/376/3 371/375/3
f 381/383/3 389/384/3 382/377/3
f 381/383/3 382/377/3 372/376/3
f 389/384/3 383/385/3 374/378/3
f 389/384/3 374/378/3 382/377/3
f 384/386/3 386/380/3 376/379/3
f 391/387/3 377/381/3 386/380/3
f 385/388/3 380/382/3 377/381/3
f 387/389/3 381/383/3 380/382/3
f 388/390/3 389/384/3 381/383/3
f 390/391/3 383/385/3 389/384/3
f 393/392/4 398/393/5 392/394/6
f 401/395/7 393/392/4 392/394/6
f 398/393/5 393/392/4 399/396/5
f 400/397/4 399/396/5 393/392/4
f 393/392/4 401/395/7 411/398/7
f 411/398/7 400/397/4 393/392/4
f 402/399/2 394/400/2 408/401/2
f 408/401/2 409/402/2 402/399/2
f 406/403/8 395/404/9 403/405/9
f 403/405/9 404/406/8 406/403/8
f 405/407/10 406/403/8 415/408/10
f 404/406/8 415/408/10 406/403/8
f 396/409/1 407/410/1 397/411/1
f 414/412/1 397/411/1 407/410/1
f 399/396/5 400/397/4 419/413/5
f 420/414/4 419/413/5 400/397/4
f 400/397/4 411/398/7 412/415/7
f 412/415/7 420/414/4 400/397/4
f 409/402/2 408/401/2 410/416/2
f 410/416/2 421/417/2 409/402/2
f 404/406/8 403/405/9 413/418/9
f 413/418/9 424/419/8 404/406/8
f 415/408/10 404/406/8 416/420/10
f 424/419/8 416/420/10 404/406/8
f 397/411/1 414/412/1 426/421/1
f 417/422/1 426/421/1 414/412/1
f 419/413/5 420/414/4 427/423/5
f 429/424/4 427/423/5 420/414/4
f 420/414/4 412/415/7 431/425/7
f 431/425/7 429/424/4 420/414/4
f 421/417/2 410/416/2 418/426/2
f 418/426/2 432/427/2 421/417/2
f 424/419/8 413/418/9 422/428/9
f 422/428/9 423/429/8 424/419/8
f 416/420/10 424/419/8 425/430/10
f 423/429/8 425/430/10 424/419/8
f 426/421/1 417/422/1 436/431/1
f 437/432/1 436/431/1 417/422/1
f 427/423/5 429/424/4 439/433/5
f 442/434/4 439/433/5 429/424/4
f 429/424/4 431/425/7 428/435/7
f 428/435/7 442/434/4 429/424/4
f 432/427/2 418/426/2 430/436/2
f 430/436/2 433/437/2 432/427/2
f 423/429/8 422/428/9 434/438/9
f 434/438/9 445/439/8 423/429/8
f 425/430/10 423/429/8 435/440/10
f 445/439/8 435/440/10 423/429/8
f 436/431/1 437/432/1 438/441/1
f 447/442/1 438/441/1 437/432/1
f 439/433/5 442/434/4 440/443/5
f 441/444/4 440/443/5 442/434/4
f 442/434/4 428/435/7 453/445/7
f 453/445/7 441/444/4 442/434/4
f 433/437/2 430/436/2 450/446/2
f 450/446/2 452/447/2 433/437/2
f 445/439/8 434/438/9 443/448/9
f 443/448/9 444/449/8 445/439/8
f 435/440/10 445/439/8 448/450/10
f 444/449/8 448/450/10 445/439/8
f 438/441/1 447/442/1 446/451/1
f 455/452/1 446/451/1 447/442/1
f 440/443/5 441/444/4 457/453/5
f 451/454/4 457/453/5 441/444/4
f 441/444/4 453/445/7 460/455/7
f 460/455/7 451/454/4 441/444/4
f 452/447/2 450/446/2 456/456/2
f 456/456/2 461/457/2 452/447/2
f 444/449/8 443/448/9 454/458/9
f 454/458/9 464/459/8 444/449/8
f 448/450/10 444/449/8 466/460/10
f 464/459/8 466/460/10 444/449/8
f 446/451/1 455/452/1 449/461/1
f 465/462/1 449/461/1 455/452/1
f 457/453/5 451/454/4 458/463/5
f 467/464/4 458/463/5 451/454/4
f 451/454/4 460/455/7 459/465/7
f 459/465/7 467/464/4 451/454/4
f 461/457/2 456/456/2 470/466/2
f 470/466/2 469/467/2 461/457/2
f 464/459/8 454/458/9 462/468/9
f 462/468/9 463/469/8 464/459/8
f 466/460/10 464/459/8 477/470/10
f 463/469/8 477/470/10 464/459/8
f 449/461/1 465/462/1 474/471/1
f 476/472/1 474/471/1 465/462/1
f 458/463/5 467/464/4 468/473/5
f 480/474/4 468/473/5 467/464/4
f 467/464/4 459/465/7 472/475/7
f 472/475/7 480/474/4 467/464/4
f 469/467/2 470/466/2 481/476/2
f 481/476/2 471/477/2 469/467/2
f 463/469/8 462/468/9 482/478/9
f 482/478/9 483/479/8 463/469/8
f 477/470/10 463/469/8 473/480/10
f 483/479/8 473/480/10 463/469/8
f 474/471/1 476/472/1 475/481/1
f 484/482/1 475/481/1 476/472/1
f 468/473/5 480/474/4 479/483/5
f 489/484/4 479/483/5 480/474/4
f 480/474/4 472/475/7 487/485/7
f 487/485/7 489/484/4 480/474/4
f 471/477/2 481/476/2 478/486/2
f 478/486/2 491/487/2 471/477/2
f 483/479/8 482/478/9 492/488/9
f 492/488/9 494/489/8 483/479/8
f 473/480/10 483/479/8 495/490/10
f 494/489/8 495/490/10 483/479/8
f 475/481/1 484/482/1 486/491/1
f 497/492/1 486/491/1 484/482/1
f 479/483/5 489/484/4 498/493/5
f 501/494/4 498/493/5 489/484/4
f 489/484/4 487/485/7 488/495/7
f 488/495/7 501/494/4 489/484/4
f 491/487/2 478/486/2 502/496/2
f 502/496/2 490/497/2 491/487/2
f 494/489/8 492/488/9 503/498/9
f 503/498/9 493/499/8 494/489/8
f 495/490/10 494/489/8 496/500/10
f 493/499/8 496/500/10 494/489/8
f 486/491/1 497/492/1 485/501/1
f 504/502/1 485/501/1 497/492/1
f 498/493/5 501/494/4 499/503/5
f 508/504/4 499/503/5 501/494/4
f 501/494/4 488/495/7 500/505/7
f 500/505/7 508/504/4 501/494/4
f 490/497/2 502/496/2 510/506/2
f 510/506/2 511/507/2 490/497/2
f 493/499/8 503/498/9 514/508/9
f 514/508/9 513/509/8 493/499/8
f 496/500/10 493/499/8 515/510/10
f 513/509/8 515/510/10 493/499/8
f 485/501/1 504/502/1 505/511/1
f 517/512/1 505/511/1 504/502/1
f 499/503/5 508/504/4 507/513/5
f 506/514/4 507/513/5 508/504/4
f 508/504/4 500/505/7 509/515/7
f 509/515/7 506/514/4 508/504/4
f 511/507/2 510/506/2 521/516/2
f 521/516/2 512/517/2 511/507/2
f 513/509/8 514/508/9 523/518/9
f 523/518/9 525/519/8 513/509/8
f 515/510/10 513/509/8 516/520/10
f 525/519/8 516/520/10 513/509/8
f 505/511/1 517/512/1 518/521/1
f 519/522/1 518/521/1 517/512/1
f 507/513/5 506/514/4 522/523/5
f 528/524/4 522/523/5 506/514/4
f 506/514/4 509/515/7 532/525/7
f 532/525/7 528/524/4 506/514/4
f 512/517/2 521/516/2 520/526/2
f 520/526/2 533/527/2 512/517/2
f 525/519/8 523/518/9 524/528/9
f 524/528/9 534/529/8 525/519/8
f 516/520/10 525/519/8 526/530/10
f 534/529/8 526/530/10 525/519/8
f 518/521/1 519/522/1 535/531/1
f 527/532/1 535/531/1 519/522/1
f 522/523/5 528/524/4 538/533/5
f 529/534/4 538/533/5 528/524/4
f 528/524/4 532/525/7 530/535/7
f 530/535/7 529/534/4 528/524/4
f 533/527/2 520/526/2 531/536/2
f 531/536/2 541/537/2 533/527/2
f 534/529/8 524/528/9 543/538/9
f 543/538/9 545/539/8 534/529/8
f 526/530/10 534/529/8 536/540/10
f 545/539/8 536/540/10 534/529/8
f 535/531/1 527/532/1 537/541/1
f 547/542/1 537/541/1 527/532/1
f 538/533/5 529/534/4 539/543/5
f 550/544/4 539/543/5 529/534/4
f 529/534/4 530/535/7 540/545/7
f 540/545/7 550/544/4 529/534/4
f 541/537/2 531/536/2 553/546/2
f 553/546/2 542/547/2 541/537/2
f 545/539/8 543/538/9 544/548/9
f 544/548/9 555/549/8 545/539/8
f 536/540/10 545/539/8 556/550/10
f 555/549/8 556/550/10 545/539/8
f 537/541/1 547/542/1 549/551/1
f 546/552/1 549/551/1 547/542/1
f 539/543/5 550/544/4 551/553/5
f 559/554/4 551/553/5 550/544/4
f 550/544/4 540/545/7 552/555/7
f 552/555/7 559/554/4 550/544/4
f 542/547/2 553/546/2 557/556/2
f 557/556/2 561/557/2 542/547/2
f 555/549/8 544/548/9 554/558/9
f 554/558/9 563/559/8 555/549/8
f 556/550/10 555/549/8 567/560/10
f 563/559/8 567/560/10 555/549/8
f 549/551/1 546/552/1 548/561/1
f 566/562/1 548/561/1 546/552/1
f 551/553/5 559/554/4 558/563/5
f 571/564/4 558/563/5 559/554/4
f 559/554/4 552/555/7 572/565/7
f 572/565/7 571/564/4 559/554/4
f 561/557/2 557/556/2 560/566/2
f 560/566/2 573/567/2 561/557/2
f 563/559/8 554/558/9 562/568/9
f 562/568/9 575/569/8 563/559/8
f 567/560/10 563/559/8 564/570/10
f 575/569/8 564/570/10 563/559/8
f 548/561/1 566/562/1 565/571/1
f 577/572/1 565/571/1 566/562/1
f 558/563/5 571/564/4 570/573/5
f 569/574/4 570/573/5 571/564/4
f 571/564/4 572/565/7 581/575/7
f 581/575/7 569/574/4 571/564/4
f 573/567/2 560/566/2 579/576/2
f 579/576/2 583/577/2 573/567/2
f 575/569/8 562/568/9 574/578/9
f 574/578/9 586/579/8 575/569/8
f 564/570/10 575/569/8 585/580/10
f 586/579/8 585/580/10 575/569/8
f 565/571/1 577/572/1 568/581/1
f 576/582/1 568/581/1 577/572/1
f 570/573/5 569/574/4 580/583/5
f 592/584/4 580/583/5 569/574/4
f 569/574/4 581/575/7 582/585/7
f 582/585/7 592/584/4 569/574/4
f 583/577/2 579/576/2 589/586/2
f 589/586/2 593/587/2 583/577/2
f 586/579/8 574/578/9 584/588/9
f 584/588/9 594/589/8 586/579/8
f 585/580/10 586/579/8 595/590/10
f 594/589/8 595/590/10 586/579/8
f 568/581/1 576/582/1 578/591/1
f 587/592/1 578/591/1 576/582/1
f 580/583/5 592/584/4 590/593/5
f 591/594/4 590/593/5 592/584/4
f 592/584/4 582/585/7 601/595/7
f 601/595/7 591/594/4 592/584/4
f 593/587/2 589/586/2 588/596/2
f 588/596/2 600/597/2 593/587/2
f 594/589/8 584/588/9 602/598/9
f 602/598/9 603/599/8 594/589/8
f 595/590/10 594/589/8 596/600/10
f 603/599/8 596/600/10 594/589/8
f 578/591/1 587/592/1 597/601/1
f 604/602/1 597/601/1 587/592/1
f 590/593/5 591/594/4 605/603/5
f 598/604/4 605/603/5 591/594/4
f 591/594/4 601/595/7 606/605/7
f 606/605/7 598/604/4 591/594/4
f 600/597/2 588/596/2 599/606/2
f 599/606/2 610/607/2 600/597/2
f 603/599/8 602/598/9 611/608/9
f 611/608/9 613/609/8 603/599/8
f 596/600/10 603/599/8 616/610/10
f 613/609/8 616/610/10 603/599/8
f 597/601/1 604/602/1 614/611/1
f 615/612/1 614/611/1 604/602/1
f 605/603/5 598/604/4 619/613/5
f 608/614/4 619/613/5 598/604/4
f 598/604/4 606/605/7 607/615/7
f 607/615/7 608/614/4 598/604/4
f 610/607/2 599/606/2 609/616/2
f 609/616/2 622/617/2 610/607/2
f 613/609/8 611/608/9 612/618/9
f 612/618/9 624/619/8 613/609/8
f 616/610/10 613/609/8 617/620/10
f 624/619/8 617/620/10 613/609/8
f 614/611/1 615/612/1 625/621/1
f 626/622/1 625/621/1 615/612/1
f 619/613/5 608/614/4 620/623/5
f 621/624/4 620/623/5 608/614/4
f 608/614/4 607/615/7 623/625/7
f 623/625/7 621/624/4 608/614/4
f 622/617/2 609/616/2 631/626/2
f 631/626/2 632/627/2 622/617/2
f 624/619/8 612/618/9 633/628/9
f 633/628/9 634/629/8 624/619/8
f 617/620/10 624/619/8 627/630/10
f 634/629/8 627/630/10 624/619/8
f 625/621/1 626/622/1 618/631/1
f 635/632/1 618/631/1 626/622/1
f 620/623/5 621/624/4 629/633/5
f 639/634/4 629/633/5 621/624/4
f 621/624/4 623/625/7 630/635/7
f 630/635/7 639/634/4 621/624/4
f 632/627/2 631/626/2 638/636/2
f 638/636/2 641/637/2 632/627/2
f 634/629/8 633/628/9 642/638/9
f 642/638/9 643/639/8 634/629/8
f 627/630/10 634/629/8 636/640/10
f 643/639/8 636/640/10 634/629/8
f 618/631/1 635/632/1 628/641/1
f 637/642/1 628/641/1 635/632/1
f 629/633/5 639/634/4 648/643/5
f 640/644/4 648/643/5 639/634/4
f 639/634/4 630/635/7 650/645/7
f 650/645/7 640/644/4 639/634/4
f 641/637/2 638/636/2 652/646/2
f 652/646/2 651/647/2 641/637/2
f 643/639/8 642/638/9 655/648/9
f 655/648/9 658/649/8 643/639/8
f 636/640/10 643/639/8 644/650/10
f 658/649/8 644/650/10 643/639/8
f 628/641/1 637/642/1 646/651/1
f 659/652/1 646/651/1 637/642/1
f 648/643/5 640/644/4 649/653/5
f 662/654/4 649/653/5 640/644/4
f 640/644/4 650/645/7 654/655/7
f 654/655/7 662/654/4 640/644/4
f 651/647/2 652/646/2 647/656/2
f 647/656/2 653/657/2 651/647/2
f 658/649/8 655/648/9 656/658/9
f 656/658/9 657/659/8 658/649/8
f 644/650/10 658/649/8 668/660/10
f 657/659/8 668/660/10 658/649/8
f 646/651/1 659/652/1 645/661/1
f 667/662/1 645/661/1 659/652/1
f 649/653/5 662/654/4 670/663/5
f 671/664/4 670/663/5 662/654/4
f 662/654/4 654/655/7 664/665/7
f 664/665/7 671/664/4 662/654/4
f 653/657/2 647/656/2 661/666/2
f 661/666/2 663/667/2 653/657/2
f 657/659/8 656/658/9 665/668/9
f 665/668/9 675/669/8 657/659/8
f 668/660/10 657/659/8 666/670/10
f 675/669/8 666/670/10 657/659/8
f 645/661/1 667/662/1 660/671/1
f 677/672/1 660/671/1 667/662/1
f 670/663/5 671/664/4 678/673/5
f 673/674/4 678/673/5 671/664/4
f 671/664/4 664/665/7 672/675/7
f 672/675/7 673/674/4 671/664/4
f 663/667/2 661/666/2 681/676/2
f 681/676/2 674/677/2 663/667/2
f 675/669/8 665/668/9 683/678/9
f 683/678/9 684/679/8 675/669/8
f 666/670/10 675/669/8 685/680/10
f 684/679/8 685/680/10 675/669/8
f 660/671/1 677/672/1 669/681/1
f 676/682/1 669/681/1 677/672/1
f 678/673/5 673/674/4 679/683/5
f 680/684/4 679/683/5 673/674/4
f 673/674/4 672/675/7 682/685/7
f 682/685/7 680/684/4 673/674/4
f 674/677/2 681/676/2 689/686/2
f 689/686/2 692/687/2 674/677/2
f 684/679/8 683/678/9 694/688/9
f 694/688/9 693/689/8 684/679/8
f 685/680/10 684/679/8 695/690/10
f 693/689/8 695/690/10 684/679/8
f 669/681/1 676/682/1 687/691/1
f 696/692/1 687/691/1 676/682/1
f 679/683/5 680/684/4 690/693/5
f 698/694/4 690/693/5 680/684/4
f 680/684/4 682/685/7 691/695/7
f 691/695/7 698/694/4 680/684/4
f 692/687/2 689/686/2 688/696/2
f 688/696/2 699/697/2 692/687/2
f 693/689/8 694/688/9 702/698/9
f 702/698/9 701/699/8 693/689/8
f 695/690/10 693/689/8 706/700/10
f 701/699/8 706/700/10 693/689/8
f 687/691/1 696/692/1 686/701/1
f 705/702/1 686/701/1 696/692/1
f 690/693/5 698/694/4 697/703/5
f 708/704/4 697/703/5 698/694/4
f 698/694/4 691/695/7 709/705/7
f 709/705/7 708/704/4 698/694/4
f 699/697/2 688/696/2 707/706/2
f 707/706/2 700/707/2 699/697/2
f 701/699/8 702/698/9 711/708/9
f 711/708/9 712/709/8 701/699/8
f 706/700/10 701/699/8 703/710/10
f 712/709/8 703/710/10 701/699/8
f 686/701/1 705/702/1 704/711/1
f 713/712/1 704/711/1 705/702/1
f 697/703/5 708/704/4 719/713/5
f 720/714/4 719/713/5 708/704/4
f 708/704/4 709/705/7 710/715/7
f 710/715/7 720/714/4 708/704/4
f 700/707/2 707/706/2 718/716/2
f 718/716/2 723/717/2 700/707/2
f 712/709/8 711/708/9 724/718/9
f 724/718/9 725/719/8 712/709/8
f 703/710/10 712/709/8 714/720/10
f 725/719/8 714/720/10 712/709/8
f 704/711/1 713/712/1 716/721/1
f 728/722/1 716/721/1 713/712/1
f 719/713/5 720/714/4 721/723/5
f 722/724/4 721/723/5 720/714/4
f 720/714/4 710/715/7 731/725/7
f 731/725/7 722/724/4 720/714/4
f 723/717/2 718/716/2 717/726/2
f 717/726/2 733/727/2 723/717/2
f 725/719/8 724/718/9 735/728/9
f 735/728/9 737/729/8 725/719/8
f 714/720/10 725/719/8 727/730/10
f 737/729/8 727/730/10 725/719/8
f 716/721/1 728/722/1 715/731/1
f 726/732/1 715/731/1 728/722/1
f 721/723/5 722/724/4 740/733/5
f 730/734/11 740/733/5 722/724/4
f 722/724/4 731/725/7 734/735/7
f 734/735/7 730/734/11 722/724/4
f 733/727/2 717/726/2 732/736/2
f 732/736/2 742/737/2 733/727/2
f 737/729/8 735/728/9 736/738/9
f 736/738/9 743/739/12 737/729/8
f 727/730/10 737/729/8 738/740/10
f 743/739/12 738/740/10 737/729/8
f 715/731/1 726/732/1 729/741/1
f 739/742/1 729/741/1 726/732/1
f 740/733/5 730/734/11 744/743/5
f 730/734/11 734/735/7 741/744/7
f 743/739/12 736/738/9 745/745/9
f 738/740/10 743/739/12 746/746/10
