# Blender v2.78 (sub 0) OBJ File: 'vtrack.blend'
# www.blender.org
o v_track.obj.005
v 0.850000 1.100000 -4.700000
v 0.800000 1.100000 -4.770000
v -0.850000 1.100000 -4.700000
v -0.800000 1.100000 -4.770000
v 0.800000 1.200000 -4.770000
v 0.850000 1.200000 -4.700000
v 0.850000 1.300000 -4.700000
v -0.800000 1.200000 -4.770000
v -0.850000 1.200000 -4.700000
v -0.850000 1.300000 -4.700000
v -0.800000 1.300000 -4.770000
v 0.800000 1.300000 -4.770000
v -0.850000 1.400000 -4.700000
v 0.850000 1.500000 -4.700000
v 0.850000 1.400000 -4.700000
v 0.800000 1.400000 -4.770000
v 0.800000 1.500000 -4.770000
v -0.850000 1.500000 -4.700000
v -0.800000 1.400000 -4.770000
v -0.800000 1.500000 -4.770000
v -0.850000 1.600000 -4.700000
v 0.800000 1.600000 -4.770000
v 0.850000 1.600000 -4.700000
v -0.800000 1.600000 -4.770000
v 0.850000 1.800000 -4.700000
v 0.850000 1.700000 -4.700000
v 0.800000 1.700000 -4.770000
v -0.800000 1.700000 -4.770000
v -0.850000 1.700000 -4.700000
v 0.800000 1.800000 -4.770000
v 0.800000 1.900000 -4.770000
v 0.850000 1.900000 -4.700000
v -0.850000 1.900000 -4.700000
v -0.800000 1.800000 -4.770000
v -0.850000 1.800000 -4.700000
v -0.800000 1.900000 -4.770000
v 0.850000 2.000000 -4.700000
v 0.850000 2.100000 -4.700000
v 0.800000 2.100000 -4.770000
v 0.800000 2.000000 -4.770000
v -0.850000 2.000000 -4.700000
v -0.850000 2.100000 -4.700000
v -0.800000 2.000000 -4.770000
v 0.850000 2.200000 -4.700000
v -0.800000 2.100000 -4.770000
v 0.850000 2.300000 -4.700000
v 0.800000 2.200000 -4.770000
v 0.800000 2.300000 -4.770000
v -0.850000 2.200000 -4.700000
v -0.850000 2.300000 -4.700000
v -0.800000 2.200000 -4.770000
v -0.800000 2.300000 -4.770000
v -0.850000 2.400000 -4.700000
v -0.800000 2.400000 -4.770000
v 0.850000 2.500000 -4.700000
v 0.850000 2.400000 -4.700000
v 0.800000 2.400000 -4.770000
v -0.850000 2.500000 -4.700000
v 0.850000 2.600000 -4.700000
v 0.800000 2.500000 -4.770000
v 0.800000 2.600000 -4.770000
v -0.800000 2.600000 -4.770000
v -0.800000 2.500000 -4.770000
v 0.850000 2.700000 -4.700000
v -0.850000 2.600000 -4.700000
v 0.800000 2.700000 -4.770000
v -0.850000 2.800000 -4.700000
v -0.800000 2.700000 -4.770000
v -0.850000 2.700000 -4.700000
v 0.850000 2.800000 -4.700000
v 0.800000 2.800000 -4.770000
v -0.800000 2.900000 -4.770000
v -0.800000 2.800000 -4.770000
v 0.850000 2.900000 -4.700000
v 0.850000 3.000000 -4.700000
v 0.800000 2.900000 -4.770000
v -0.850000 2.900000 -4.700000
v -0.800000 3.000000 -4.770000
v 0.800000 3.000000 -4.770000
v -0.850000 3.000000 -4.700000
v -0.850000 3.100000 -4.700000
v 0.800000 3.100000 -4.770000
v 0.850000 3.100000 -4.700000
v -0.800000 3.100000 -4.770000
v 0.850000 3.200000 -4.700000
v 0.850000 3.300000 -4.700000
v 0.800000 3.200000 -4.770000
v -0.800000 3.200000 -4.770000
v -0.850000 3.200000 -4.700000
v -0.850000 3.300000 -4.700000
v 0.800000 3.300000 -4.770000
v 0.850000 3.400000 -4.700000
v -0.800000 3.300000 -4.770000
v -0.850000 3.400000 -4.700000
v 0.850000 3.500000 -4.700000
v 0.800000 3.400000 -4.770000
v -0.800000 3.400000 -4.770000
v -0.850000 3.500000 -4.700000
v -0.800000 3.500000 -4.770000
v 0.800000 3.500000 -4.770000
v -0.850000 3.600000 -4.700000
v 0.850000 3.600000 -4.700000
v 0.800000 3.600000 -4.770000
v 0.800000 3.700000 -4.770000
v 0.850000 3.700000 -4.700000
v -0.800000 3.600000 -4.770000
v 0.800000 3.800000 -4.770000
v 0.850000 3.800000 -4.700000
v -0.850000 3.800000 -4.700000
v -0.800000 3.700000 -4.770000
v -0.850000 3.700000 -4.700000
v 0.850000 3.900000 -4.700000
v 0.800000 3.900000 -4.770000
v -0.800000 3.900000 -4.770000
v -0.800000 3.800000 -4.770000
v 0.850000 4.000000 -4.700000
v -0.850000 3.900000 -4.700000
v 0.850000 4.100000 -4.700000
v 0.800000 4.000000 -4.770000
v -0.850000 4.000000 -4.700000
v -0.800000 4.000000 -4.770000
v 0.800000 4.100000 -4.770000
v 0.800000 4.200000 -4.770000
v -0.850000 4.200000 -4.700000
v -0.800000 4.100000 -4.770000
v -0.850000 4.100000 -4.700000
v 0.850000 4.200000 -4.700000
v 0.850000 4.300000 -4.700000
v -0.800000 4.200000 -4.770000
v -0.850000 4.300000 -4.700000
v 0.800000 4.300000 -4.770000
v -0.800000 4.400000 -4.770000
v -0.850000 4.400000 -4.700000
v -0.800000 4.300000 -4.770000
v 0.850000 4.400000 -4.700000
v 0.800000 4.400000 -4.770000
v 0.850000 4.500000 -4.700000
v -0.850000 4.500000 -4.700000
v -0.800000 4.500000 -4.770000
v 0.800000 4.500000 -4.770000
v -0.250000 1.100000 -4.700000
v 0.250000 1.100000 -4.700000
v 0.500000 1.100000 -4.700000
v 0.750000 1.100000 -4.700000
v -0.750000 1.100000 -4.700000
v -0.750000 1.200000 -4.700000
v -0.500000 1.200000 -4.700000
v -0.500000 1.100000 -4.700000
v 0.000000 1.200000 -4.700000
v 0.000000 1.100000 -4.700000
v 0.500000 1.200000 -4.700000
v 0.250000 1.200000 -4.700000
v -0.250000 1.300000 -4.700000
v -0.250000 1.200000 -4.700000
v 0.750000 1.200000 -4.700000
v 0.750000 1.300000 -4.700000
v -0.500000 1.400000 -4.700000
v -0.500000 1.300000 -4.700000
v 0.000000 1.300000 -4.700000
v 0.250000 1.400000 -4.700000
v 0.500000 1.400000 -4.700000
v 0.250000 1.300000 -4.700000
v 0.750000 1.400000 -4.700000
v 0.500000 1.300000 -4.700000
v -0.750000 1.300000 -4.700000
v -0.500000 1.500000 -4.700000
v -0.250000 1.400000 -4.700000
v 0.000000 1.500000 -4.700000
v 0.000000 1.400000 -4.700000
v 0.250000 1.500000 -4.700000
v 0.750000 1.500000 -4.700000
v -0.750000 1.400000 -4.700000
v -0.750000 1.500000 -4.700000
v -0.250000 1.500000 -4.700000
v 0.000000 1.600000 -4.700000
v 0.500000 1.500000 -4.700000
v -0.750000 1.600000 -4.700000
v -0.750000 1.700000 -4.700000
v -0.500000 1.700000 -4.700000
v -0.500000 1.600000 -4.700000
v -0.250000 1.700000 -4.700000
v -0.250000 1.600000 -4.700000
v 0.000000 1.700000 -4.700000
v 0.250000 1.600000 -4.700000
v 0.750000 1.600000 -4.700000
v 0.500000 1.600000 -4.700000
v -0.500000 1.800000 -4.700000
v -0.250000 1.800000 -4.700000
v 0.500000 1.700000 -4.700000
v 0.250000 1.700000 -4.700000
v 0.750000 1.700000 -4.700000
v 0.000000 1.800000 -4.700000
v 0.000000 1.900000 -4.700000
v 0.250000 1.900000 -4.700000
v 0.500000 1.800000 -4.700000
v 0.250000 1.800000 -4.700000
v 0.750000 1.800000 -4.700000
v -0.750000 1.800000 -4.700000
v -0.750000 1.900000 -4.700000
v -0.500000 2.000000 -4.700000
v -0.500000 1.900000 -4.700000
v -0.250000 2.000000 -4.700000
v -0.250000 1.900000 -4.700000
v 0.000000 2.000000 -4.700000
v 0.500000 1.900000 -4.700000
v 0.750000 2.000000 -4.700000
v 0.750000 1.900000 -4.700000
v -0.500000 2.100000 -4.700000
v -0.750000 2.100000 -4.700000
v -0.750000 2.000000 -4.700000
v -0.250000 2.100000 -4.700000
v 0.250000 2.000000 -4.700000
v 0.500000 2.000000 -4.700000
v 0.000000 2.100000 -4.700000
v 0.250000 2.200000 -4.700000
v 0.500000 2.100000 -4.700000
v 0.250000 2.100000 -4.700000
v 0.750000 2.100000 -4.700000
v -0.500000 2.300000 -4.700000
v -0.750000 2.200000 -4.700000
v -0.250000 2.200000 -4.700000
v -0.500000 2.200000 -4.700000
v 0.000000 2.200000 -4.700000
v -0.250000 2.300000 -4.700000
v 0.250000 2.300000 -4.700000
v 0.500000 2.200000 -4.700000
v 0.750000 2.200000 -4.700000
v -0.750000 2.300000 -4.700000
v -0.250000 2.400000 -4.700000
v 0.000000 2.300000 -4.700000
v 0.500000 2.300000 -4.700000
v 0.500000 2.400000 -4.700000
v 0.750000 2.400000 -4.700000
v 0.750000 2.300000 -4.700000
v -0.500000 2.500000 -4.700000
v -0.500000 2.400000 -4.700000
v 0.000000 2.400000 -4.700000
v 0.250000 2.400000 -4.700000
v 0.750000 2.500000 -4.700000
v -0.750000 2.400000 -4.700000
v -0.750000 2.500000 -4.700000
v -0.500000 2.600000 -4.700000
v -0.250000 2.600000 -4.700000
v -0.250000 2.500000 -4.700000
v 0.000000 2.500000 -4.700000
v 0.000000 2.600000 -4.700000
v 0.250000 2.500000 -4.700000
v 0.250000 2.600000 -4.700000
v 0.500000 2.500000 -4.700000
v 0.500000 2.600000 -4.700000
v -0.750000 2.700000 -4.700000
v -0.750000 2.600000 -4.700000
v 0.000000 2.700000 -4.700000
v 0.500000 2.700000 -4.700000
v 0.750000 2.600000 -4.700000
v -0.500000 2.800000 -4.700000
v -0.500000 2.700000 -4.700000
v -0.250000 2.800000 -4.700000
v -0.250000 2.700000 -4.700000
v 0.000000 2.800000 -4.700000
v 0.500000 2.800000 -4.700000
v 0.250000 2.700000 -4.700000
v 0.750000 2.700000 -4.700000
v 0.750000 2.800000 -4.700000
v -0.750000 2.800000 -4.700000
v -0.750000 2.900000 -4.700000
v 0.000000 2.900000 -4.700000
v 0.250000 2.800000 -4.700000
v -0.750000 3.000000 -4.700000
v -0.500000 2.900000 -4.700000
v -0.250000 2.900000 -4.700000
v 0.250000 2.900000 -4.700000
v 0.250000 3.000000 -4.700000
v 0.500000 2.900000 -4.700000
v 0.500000 3.000000 -4.700000
v 0.750000 2.900000 -4.700000
v -0.500000 3.000000 -4.700000
v 0.000000 3.000000 -4.700000
v -0.250000 3.000000 -4.700000
v 0.250000 3.100000 -4.700000
v 0.750000 3.100000 -4.700000
v 0.500000 3.100000 -4.700000
v 0.750000 3.000000 -4.700000
v -0.500000 3.100000 -4.700000
v -0.750000 3.100000 -4.700000
v -0.500000 3.200000 -4.700000
v -0.250000 3.200000 -4.700000
v 0.000000 3.100000 -4.700000
v -0.250000 3.100000 -4.700000
v 0.750000 3.200000 -4.700000
v 0.000000 3.200000 -4.700000
v 0.000000 3.300000 -4.700000
v 0.250000 3.200000 -4.700000
v 0.500000 3.200000 -4.700000
v 0.500000 3.300000 -4.700000
v 0.750000 3.300000 -4.700000
v -0.750000 3.200000 -4.700000
v -0.750000 3.400000 -4.700000
v -0.500000 3.400000 -4.700000
v -0.500000 3.300000 -4.700000
v -0.250000 3.300000 -4.700000
v 0.000000 3.400000 -4.700000
v 0.250000 3.300000 -4.700000
v -0.750000 3.300000 -4.700000
v -0.750000 3.500000 -4.700000
v -0.500000 3.500000 -4.700000
v -0.250000 3.400000 -4.700000
v -0.250000 3.500000 -4.700000
v 0.000000 3.500000 -4.700000
v 0.250000 3.400000 -4.700000
v 0.500000 3.500000 -4.700000
v 0.500000 3.400000 -4.700000
v 0.750000 3.400000 -4.700000
v -0.250000 3.600000 -4.700000
v -0.500000 3.600000 -4.700000
v 0.250000 3.500000 -4.700000
v 0.250000 3.600000 -4.700000
v 0.750000 3.500000 -4.700000
v -0.750000 3.700000 -4.700000
v -0.750000 3.600000 -4.700000
v -0.250000 3.700000 -4.700000
v 0.000000 3.600000 -4.700000
v 0.000000 3.700000 -4.700000
v 0.250000 3.700000 -4.700000
v 0.500000 3.700000 -4.700000
v 0.750000 3.700000 -4.700000
v 0.500000 3.600000 -4.700000
v 0.750000 3.600000 -4.700000
v -0.750000 3.800000 -4.700000
v -0.500000 3.700000 -4.700000
v 0.000000 3.800000 -4.700000
v 0.250000 3.800000 -4.700000
v 0.500000 3.800000 -4.700000
v 0.750000 3.800000 -4.700000
v -0.750000 3.900000 -4.700000
v -0.500000 3.800000 -4.700000
v -0.250000 3.800000 -4.700000
v -0.250000 3.900000 -4.700000
v 0.500000 3.900000 -4.700000
v 0.250000 3.900000 -4.700000
v -0.500000 3.900000 -4.700000
v 0.000000 4.000000 -4.700000
v 0.000000 3.900000 -4.700000
v 0.500000 4.000000 -4.700000
v 0.750000 3.900000 -4.700000
v -0.750000 4.100000 -4.700000
v -0.750000 4.000000 -4.700000
v -0.500000 4.100000 -4.700000
v -0.250000 4.000000 -4.700000
v -0.500000 4.000000 -4.700000
v 0.250000 4.000000 -4.700000
v 0.000000 4.100000 -4.700000
v 0.500000 4.100000 -4.700000
v 0.750000 4.100000 -4.700000
v 0.750000 4.000000 -4.700000
v -0.500000 4.200000 -4.700000
v -0.250000 4.200000 -4.700000
v -0.250000 4.100000 -4.700000
v 0.000000 4.200000 -4.700000
v 0.250000 4.100000 -4.700000
v -0.750000 4.200000 -4.700000
v 0.000000 4.300000 -4.700000
v 0.250000 4.200000 -4.700000
v 0.500000 4.300000 -4.700000
v 0.750000 4.200000 -4.700000
v 0.500000 4.200000 -4.700000
v -0.750000 4.400000 -4.700000
v -0.500000 4.300000 -4.700000
v -0.750000 4.300000 -4.700000
v -0.250000 4.300000 -4.700000
v 0.000000 4.400000 -4.700000
v 0.250000 4.400000 -4.700000
v 0.250000 4.300000 -4.700000
v 0.750000 4.400000 -4.700000
v 0.750000 4.300000 -4.700000
v -0.750000 4.500000 -4.700000
v -0.250000 4.500000 -4.700000
v -0.250000 4.400000 -4.700000
v -0.500000 4.400000 -4.700000
v 0.000000 4.500000 -4.700000
v 0.250000 4.500000 -4.700000
v 0.500000 4.400000 -4.700000
v 0.750000 4.500000 -4.700000
v -0.750000 4.600000 -4.700000
v -0.250000 4.600000 -4.700000
v -0.500000 4.500000 -4.700000
v 0.000000 4.600000 -4.700000
v 0.250000 4.600000 -4.700000
v 0.500000 4.500000 -4.700000
v 0.500000 4.600000 -4.700000
v -0.500000 4.600000 -4.700000
v 0.800000 1.000000 -4.630000
v 0.800000 1.100000 -4.630000
v 0.750000 1.100000 -4.700000
v -0.750000 1.100000 -4.600000
v -0.750000 1.100000 -4.700000
v -0.750000 1.200000 -4.700000
v 0.750000 1.100000 -4.600000
v 0.750000 1.200000 -4.600000
v 0.800000 1.200000 -4.630000
v 0.850000 1.100000 -4.700000
v 0.800000 1.100000 -4.770000
v -0.750000 1.200000 -4.600000
v -0.800000 1.200000 -4.630000
v -0.850000 1.100000 -4.700000
v -0.800000 1.100000 -4.630000
v -0.800000 1.100000 -4.770000
v 0.750000 1.200000 -4.700000
v 0.800000 1.200000 -4.770000
v 0.750000 1.300000 -4.700000
v 0.850000 1.200000 -4.700000
v 0.850000 1.300000 -4.700000
v -0.750000 1.300000 -4.600000
v -0.800000 1.200000 -4.770000
v -0.850000 1.200000 -4.700000
v -0.850000 1.300000 -4.700000
v -0.800000 1.300000 -4.770000
v 0.750000 1.400000 -4.700000
v 0.750000 1.300000 -4.600000
v 0.800000 1.300000 -4.630000
v 0.800000 1.300000 -4.770000
v -0.750000 1.400000 -4.600000
v -0.800000 1.400000 -4.630000
v -0.800000 1.300000 -4.630000
v -0.850000 1.400000 -4.700000
v -0.750000 1.300000 -4.700000
v 0.750000 1.400000 -4.600000
v 0.850000 1.500000 -4.700000
v 0.800000 1.400000 -4.630000
v 0.750000 1.500000 -4.700000
v 0.850000 1.400000 -4.700000
v 0.800000 1.400000 -4.770000
v 0.800000 1.500000 -4.770000
v -0.750000 1.500000 -4.600000
v -0.850000 1.500000 -4.700000
v -0.750000 1.400000 -4.700000
v -0.800000 1.400000 -4.770000
v -0.750000 1.500000 -4.700000
v 0.750000 1.500000 -4.600000
v 0.750000 1.600000 -4.600000
v 0.800000 1.600000 -4.630000
v 0.800000 1.500000 -4.630000
v -0.750000 1.600000 -4.600000
v -0.800000 1.600000 -4.630000
v -0.800000 1.500000 -4.630000
v -0.750000 1.600000 -4.700000
v -0.800000 1.500000 -4.770000
v -0.850000 1.600000 -4.700000
v -0.750000 1.700000 -4.700000
v 0.750000 1.600000 -4.700000
v 0.800000 1.700000 -4.630000
v 0.800000 1.600000 -4.770000
v 0.850000 1.600000 -4.700000
v -0.750000 1.700000 -4.600000
v -0.800000 1.600000 -4.770000
v 0.750000 1.700000 -4.700000
v 0.750000 1.700000 -4.600000
v 0.750000 1.800000 -4.600000
v 0.850000 1.800000 -4.700000
v 0.850000 1.700000 -4.700000
v 0.800000 1.700000 -4.770000
v -0.750000 1.800000 -4.600000
v -0.800000 1.800000 -4.630000
v -0.800000 1.700000 -4.630000
v -0.800000 1.700000 -4.770000
v -0.850000 1.700000 -4.700000
v 0.800000 1.800000 -4.630000
v 0.750000 1.900000 -4.600000
v 0.800000 1.800000 -4.770000
v 0.750000 1.800000 -4.700000
v 0.800000 1.900000 -4.770000
v 0.850000 1.900000 -4.700000
v -0.850000 1.900000 -4.700000
v -0.750000 1.800000 -4.700000
v -0.750000 1.900000 -4.700000
v -0.800000 1.800000 -4.770000
v -0.850000 1.800000 -4.700000
v 0.750000 2.000000 -4.700000
v 0.750000 2.000000 -4.600000
v 0.800000 1.900000 -4.630000
v 0.750000 1.900000 -4.700000
v -0.750000 1.900000 -4.600000
v -0.800000 1.900000 -4.630000
v -0.800000 1.900000 -4.770000
v -0.750000 2.100000 -4.700000
v -0.750000 2.000000 -4.700000
v 0.850000 2.000000 -4.700000
v 0.850000 2.100000 -4.700000
v 0.800000 2.000000 -4.630000
v 0.800000 2.100000 -4.770000
v 0.800000 2.000000 -4.770000
v -0.750000 2.000000 -4.600000
v -0.800000 2.100000 -4.630000
v -0.800000 2.000000 -4.630000
v -0.850000 2.000000 -4.700000
v -0.850000 2.100000 -4.700000
v -0.800000 2.000000 -4.770000
v 0.750000 2.100000 -4.600000
v 0.750000 2.200000 -4.600000
v 0.850000 2.200000 -4.700000
v 0.800000 2.100000 -4.630000
v 0.750000 2.100000 -4.700000
v -0.750000 2.100000 -4.600000
v -0.800000 2.100000 -4.770000
v -0.750000 2.200000 -4.700000
v 0.800000 2.300000 -4.630000
v 0.750000 2.300000 -4.600000
v 0.800000 2.200000 -4.630000
v 0.850000 2.300000 -4.700000
v 0.750000 2.200000 -4.700000
v 0.800000 2.200000 -4.770000
v 0.800000 2.300000 -4.770000
v -0.800000 2.200000 -4.630000
v -0.750000 2.200000 -4.600000
v -0.850000 2.200000 -4.700000
v -0.850000 2.300000 -4.700000
v -0.800000 2.200000 -4.770000
v -0.750000 2.300000 -4.700000
v -0.800000 2.300000 -4.770000
v 0.750000 2.400000 -4.700000
v 0.750000 2.300000 -4.700000
v 0.750000 2.400000 -4.600000
v -0.750000 2.300000 -4.600000
v -0.750000 2.400000 -4.600000
v -0.800000 2.300000 -4.630000
v -0.850000 2.400000 -4.700000
v -0.800000 2.400000 -4.770000
v 0.800000 2.400000 -4.630000
v 0.800000 2.500000 -4.630000
v 0.850000 2.500000 -4.700000
v 0.750000 2.500000 -4.700000
v 0.850000 2.400000 -4.700000
v 0.800000 2.400000 -4.770000
v -0.800000 2.400000 -4.630000
v -0.750000 2.400000 -4.700000
v -0.850000 2.500000 -4.700000
v -0.750000 2.500000 -4.700000
v 0.750000 2.500000 -4.600000
v 0.750000 2.600000 -4.600000
v 0.850000 2.600000 -4.700000
v 0.800000 2.500000 -4.770000
v 0.800000 2.600000 -4.770000
v -0.750000 2.500000 -4.600000
v -0.750000 2.600000 -4.600000
v -0.800000 2.500000 -4.630000
v -0.800000 2.600000 -4.770000
v -0.800000 2.500000 -4.770000
v -0.750000 2.700000 -4.700000
v -0.750000 2.600000 -4.700000
v 0.800000 2.600000 -4.630000
v 0.750000 2.700000 -4.600000
v 0.850000 2.700000 -4.700000
v 0.750000 2.600000 -4.700000
v -0.750000 2.700000 -4.600000
v -0.800000 2.600000 -4.630000
v -0.850000 2.600000 -4.700000
v 0.750000 2.700000 -4.700000
v 0.750000 2.800000 -4.600000
v 0.800000 2.700000 -4.630000
v 0.750000 2.800000 -4.700000
v 0.800000 2.700000 -4.770000
v -0.750000 2.800000 -4.600000
v -0.800000 2.700000 -4.630000
v -0.850000 2.800000 -4.700000
v -0.750000 2.800000 -4.700000
v -0.800000 2.700000 -4.770000
v -0.850000 2.700000 -4.700000
v -0.750000 2.900000 -4.700000
v 0.800000 2.900000 -4.630000
v 0.750000 2.900000 -4.600000
v 0.800000 2.800000 -4.630000
v 0.850000 2.800000 -4.700000
v 0.800000 2.800000 -4.770000
v -0.750000 2.900000 -4.600000
v -0.800000 2.800000 -4.630000
v -0.800000 2.900000 -4.770000
v -0.800000 2.800000 -4.770000
v -0.750000 3.000000 -4.700000
v 0.750000 2.900000 -4.700000
v 0.750000 3.000000 -4.600000
v 0.850000 2.900000 -4.700000
v 0.850000 3.000000 -4.700000
v 0.800000 2.900000 -4.770000
v -0.750000 3.000000 -4.600000
v -0.850000 2.900000 -4.700000
v -0.800000 2.900000 -4.630000
v -0.800000 3.000000 -4.770000
v 0.750000 3.100000 -4.700000
v 0.750000 3.000000 -4.700000
v 0.750000 3.100000 -4.600000
v 0.800000 3.100000 -4.630000
v 0.800000 3.000000 -4.630000
v 0.800000 3.000000 -4.770000
v -0.800000 3.000000 -4.630000
v -0.850000 3.000000 -4.700000
v -0.850000 3.100000 -4.700000
v -0.750000 3.100000 -4.700000
v 0.800000 3.200000 -4.630000
v 0.750000 3.200000 -4.700000
v 0.800000 3.100000 -4.770000
v 0.850000 3.100000 -4.700000
v -0.750000 3.100000 -4.600000
v -0.800000 3.100000 -4.630000
v -0.800000 3.100000 -4.770000
v 0.750000 3.200000 -4.600000
v 0.850000 3.200000 -4.700000
v 0.850000 3.300000 -4.700000
v 0.800000 3.300000 -4.630000
v 0.750000 3.300000 -4.700000
v 0.800000 3.200000 -4.770000
v -0.750000 3.200000 -4.600000
v -0.750000 3.300000 -4.600000
v -0.800000 3.200000 -4.630000
v -0.750000 3.200000 -4.700000
v -0.800000 3.200000 -4.770000
v -0.850000 3.200000 -4.700000
v -0.850000 3.300000 -4.700000
v -0.750000 3.400000 -4.700000
v 0.750000 3.300000 -4.600000
v 0.750000 3.400000 -4.600000
v 0.800000 3.400000 -4.630000
v 0.800000 3.300000 -4.770000
v 0.850000 3.400000 -4.700000
v -0.800000 3.300000 -4.630000
v -0.750000 3.300000 -4.700000
v -0.800000 3.300000 -4.770000
v -0.850000 3.400000 -4.700000
v -0.750000 3.500000 -4.700000
v 0.750000 3.500000 -4.600000
v 0.850000 3.500000 -4.700000
v 0.750000 3.400000 -4.700000
v 0.800000 3.400000 -4.770000
v -0.750000 3.400000 -4.600000
v -0.800000 3.400000 -4.630000
v -0.800000 3.400000 -4.770000
v -0.850000 3.500000 -4.700000
v -0.800000 3.500000 -4.770000
v 0.750000 3.500000 -4.700000
v 0.800000 3.500000 -4.630000
v 0.800000 3.600000 -4.630000
v 0.800000 3.500000 -4.770000
v -0.750000 3.500000 -4.600000
v -0.800000 3.500000 -4.630000
v -0.850000 3.600000 -4.700000
v -0.750000 3.700000 -4.700000
v -0.750000 3.600000 -4.700000
v 0.750000 3.700000 -4.700000
v 0.750000 3.600000 -4.600000
v 0.750000 3.700000 -4.600000
v 0.850000 3.600000 -4.700000
v 0.800000 3.600000 -4.770000
v 0.750000 3.600000 -4.700000
v 0.800000 3.700000 -4.770000
v 0.850000 3.700000 -4.700000
v -0.750000 3.600000 -4.600000
v -0.750000 3.700000 -4.600000
v -0.800000 3.700000 -4.630000
v -0.800000 3.600000 -4.630000
v -0.800000 3.600000 -4.770000
v -0.750000 3.800000 -4.700000
v 0.750000 3.800000 -4.700000
v 0.800000 3.700000 -4.630000
v 0.800000 3.800000 -4.770000
v 0.850000 3.800000 -4.700000
v -0.750000 3.800000 -4.600000
v -0.850000 3.800000 -4.700000
v -0.800000 3.700000 -4.770000
v -0.850000 3.700000 -4.700000
v -0.750000 3.900000 -4.700000
v 0.750000 3.800000 -4.600000
v 0.800000 3.800000 -4.630000
v 0.850000 3.900000 -4.700000
v 0.800000 3.900000 -4.630000
v 0.800000 3.900000 -4.770000
v -0.800000 3.800000 -4.630000
v -0.800000 3.900000 -4.770000
v -0.800000 3.800000 -4.770000
v 0.750000 3.900000 -4.600000
v 0.750000 4.000000 -4.600000
v 0.800000 4.000000 -4.630000
v 0.750000 3.900000 -4.700000
v 0.850000 4.000000 -4.700000
v -0.750000 3.900000 -4.600000
v -0.800000 3.900000 -4.630000
v -0.850000 3.900000 -4.700000
v -0.750000 4.100000 -4.700000
v -0.750000 4.000000 -4.700000
v 0.750000 4.100000 -4.700000
v 0.750000 4.000000 -4.700000
v 0.750000 4.100000 -4.600000
v 0.850000 4.100000 -4.700000
v 0.800000 4.000000 -4.770000
v -0.800000 4.000000 -4.630000
v -0.750000 4.000000 -4.600000
v -0.850000 4.000000 -4.700000
v -0.800000 4.000000 -4.770000
v 0.750000 4.200000 -4.600000
v 0.800000 4.100000 -4.630000
v 0.800000 4.100000 -4.770000
v 0.800000 4.200000 -4.770000
v -0.800000 4.100000 -4.630000
v -0.750000 4.100000 -4.600000
v -0.850000 4.200000 -4.700000
v -0.750000 4.200000 -4.700000
v -0.800000 4.100000 -4.770000
v -0.850000 4.100000 -4.700000
v 0.750000 4.200000 -4.700000
v 0.800000 4.200000 -4.630000
v 0.850000 4.200000 -4.700000
v 0.850000 4.300000 -4.700000
v -0.750000 4.200000 -4.600000
v -0.800000 4.200000 -4.630000
v -0.800000 4.200000 -4.770000
v -0.850000 4.300000 -4.700000
v -0.750000 4.400000 -4.700000
v -0.750000 4.300000 -4.700000
v 0.750000 4.400000 -4.700000
v 0.750000 4.300000 -4.700000
v 0.750000 4.300000 -4.600000
v 0.800000 4.300000 -4.630000
v 0.750000 4.400000 -4.600000
v 0.800000 4.400000 -4.630000
v 0.800000 4.300000 -4.770000
v -0.750000 4.300000 -4.600000
v -0.800000 4.300000 -4.630000
v -0.800000 4.400000 -4.770000
v -0.850000 4.400000 -4.700000
v -0.800000 4.300000 -4.770000
v -0.750000 4.500000 -4.700000
v 0.800000 4.500000 -4.630000
v 0.850000 4.400000 -4.700000
v 0.750000 4.500000 -4.700000
v 0.800000 4.400000 -4.770000
v 0.850000 4.500000 -4.700000
v -0.750000 4.400000 -4.600000
v -0.750000 4.500000 -4.600000
v -0.800000 4.400000 -4.630000
v -0.850000 4.500000 -4.700000
v -0.800000 4.500000 -4.770000
v 0.750000 4.500000 -4.600000
v 0.850000 4.600000 -4.700000
v 0.800000 4.500000 -4.770000
v -0.800000 4.500000 -4.630000
v 0.750000 4.600000 -4.600000
v -0.750000 4.600000 -4.600000
v -0.850000 4.600000 -4.700000
vt 0.9375 0.6667
vt 0.8750 0.6667
vt 0.9375 0.7333
vt 0.8750 0.7333
vt 0.8750 0.6667
vt 0.9375 0.6667
vt 0.9375 0.7333
vt 0.8750 0.7333
vt 0.9375 0.8000
vt 0.8750 0.8000
vt 0.9375 0.8000
vt 0.8750 0.8000
vt 0.9375 0.8667
vt 0.8750 0.8667
vt 0.9375 0.8667
vt 0.8750 0.8667
vt 0.9375 0.9333
vt 0.8750 0.9333
vt 0.9375 0.9333
vt 0.8750 0.9333
vt 0.9375 1.0000
vt 0.8750 1.0000
vt 0.9375 1.0000
vt 0.8750 1.0000
vt 0.9375 0.0000
vt 0.8750 0.0000
vt 0.9375 0.0667
vt 0.8750 0.0667
vt 0.8750 0.0000
vt 0.9375 0.0000
vt 0.9375 0.0667
vt 0.8750 0.0667
vt 0.9375 0.1333
vt 0.8750 0.1333
vt 0.9375 0.1333
vt 0.8750 0.1333
vt 0.9375 0.2000
vt 0.8750 0.2000
vt 0.9375 0.2000
vt 0.8750 0.2000
vt 0.9375 0.2667
vt 0.8750 0.2667
vt 0.9375 0.2667
vt 0.8750 0.2667
vt 0.9375 0.3333
vt 0.8750 0.3333
vt 0.9375 0.3333
vt 0.8750 0.3333
vt 0.9375 0.4000
vt 0.8750 0.4000
vt 0.9375 0.4000
vt 0.8750 0.4000
vt 0.9375 0.4667
vt 0.8750 0.4667
vt 0.9375 0.4667
vt 0.8750 0.4667
vt 0.9375 0.5333
vt 0.8750 0.5333
vt 0.9375 0.5333
vt 0.8750 0.5333
vt 0.9375 0.6000
vt 0.8750 0.6000
vt 0.9375 0.6000
vt 0.8750 0.6000
vt 0.9375 0.6667
vt 0.8750 0.6667
vt 0.9375 0.6667
vt 0.8750 0.6667
vt 0.9375 0.7333
vt 0.8750 0.7333
vt 0.9375 0.7333
vt 0.8750 0.7333
vt 0.9375 0.8000
vt 0.8750 0.8000
vt 0.9375 0.8000
vt 0.8750 0.8000
vt 0.9375 0.8667
vt 0.8750 0.8667
vt 0.9375 0.8667
vt 0.8750 0.8667
vt 0.9375 0.9333
vt 0.8750 0.9333
vt 0.9375 0.9333
vt 0.8750 0.9333
vt 0.9375 1.0000
vt 0.8750 1.0000
vt 0.9375 1.0000
vt 0.8750 1.0000
vt 0.9375 0.0000
vt 0.8750 0.0000
vt 0.9375 0.0667
vt 0.8750 0.0667
vt 0.8750 0.0000
vt 0.9375 0.0000
vt 0.9375 0.0667
vt 0.8750 0.0667
vt 0.9375 0.1333
vt 0.8750 0.1333
vt 0.9375 0.1333
vt 0.8750 0.1333
vt 0.9375 0.2000
vt 0.8750 0.2000
vt 0.9375 0.2000
vt 0.8750 0.2000
vt 0.9375 0.2667
vt 0.8750 0.2667
vt 0.9375 0.2667
vt 0.8750 0.2667
vt 0.9375 0.3333
vt 0.8750 0.3333
vt 0.9375 0.3333
vt 0.8750 0.3333
vt 0.9375 0.4000
vt 0.8750 0.4000
vt 0.9375 0.4000
vt 0.8750 0.4000
vt 0.9375 0.4667
vt 0.8750 0.4667
vt 0.9375 0.4667
vt 0.8750 0.4667
vt 0.9375 0.5333
vt 0.8750 0.5333
vt 0.9375 0.5333
vt 0.8750 0.5333
vt 0.9375 0.6000
vt 0.8750 0.6000
vt 0.9375 0.6000
vt 0.8750 0.6000
vt 0.9375 0.6667
vt 0.8750 0.6667
vt 0.9375 0.6667
vt 0.8750 0.6667
vt 0.9375 0.7333
vt 0.8750 0.7333
vt 0.9375 0.7333
vt 0.8750 0.7333
vt 0.9375 0.8000
vt 0.8750 0.8000
vt 0.9375 0.8000
vt 0.8750 0.8000
vt 0.9375 0.8667
vt 0.8750 0.8667
vt 0.9375 0.8667
vt 0.8750 0.8667
vt 0.9375 0.9333
vt 0.8750 0.9333
vt 0.9375 0.9333
vt 0.8750 0.9333
vt 0.0625 0.7333
vt 0.1875 0.7333
vt 0.1875 0.6667
vt 0.0625 0.6667
vt 0.3125 0.7333
vt 0.3125 0.6667
vt 0.4375 0.7333
vt 0.4375 0.6667
vt 0.5625 0.7333
vt 0.5625 0.6667
vt 0.6875 0.7333
vt 0.6875 0.6667
vt 0.8125 0.7333
vt 0.8125 0.6667
vt 0.0625 0.8000
vt 0.1875 0.8000
vt 0.3125 0.8000
vt 0.4375 0.8000
vt 0.5625 0.8000
vt 0.6875 0.8000
vt 0.8125 0.8000
vt 0.0625 0.8667
vt 0.1875 0.8667
vt 0.3125 0.8667
vt 0.4375 0.8667
vt 0.5625 0.8667
vt 0.6875 0.8667
vt 0.8125 0.8667
vt 0.0625 0.9333
vt 0.1875 0.9333
vt 0.3125 0.9333
vt 0.4375 0.9333
vt 0.5625 0.9333
vt 0.6875 0.9333
vt 0.8125 0.9333
vt 0.0625 0.0000
vt 0.1875 0.0000
vt 0.1875 -0.0667
vt 0.0625 -0.0667
vt 0.3125 0.0000
vt 0.3125 -0.0667
vt 0.4375 0.0000
vt 0.4375 -0.0667
vt 0.5625 0.0000
vt 0.5625 -0.0667
vt 0.6875 0.0000
vt 0.6875 -0.0667
vt 0.8125 0.0000
vt 0.8125 -0.0667
vt 0.0625 0.0667
vt 0.1875 0.0667
vt 0.3125 0.0667
vt 0.4375 0.0667
vt 0.5625 0.0667
vt 0.6875 0.0667
vt 0.8125 0.0667
vt 0.0625 0.1333
vt 0.1875 0.1333
vt 0.3125 0.1333
vt 0.4375 0.1333
vt 0.5625 0.1333
vt 0.6875 0.1333
vt 0.8125 0.1333
vt 0.0625 0.2000
vt 0.1875 0.2000
vt 0.3125 0.2000
vt 0.4375 0.2000
vt 0.5625 0.2000
vt 0.6875 0.2000
vt 0.8125 0.2000
vt 0.0625 0.2667
vt 0.1875 0.2667
vt 0.3125 0.2667
vt 0.4375 0.2667
vt 0.5625 0.2667
vt 0.6875 0.2667
vt 0.8125 0.2667
vt 0.0625 0.3333
vt 0.1875 0.3333
vt 0.3125 0.3333
vt 0.4375 0.3333
vt 0.5625 0.3333
vt 0.6875 0.3333
vt 0.8125 0.3333
vt 0.0625 0.4000
vt 0.1875 0.4000
vt 0.3125 0.4000
vt 0.4375 0.4000
vt 0.5625 0.4000
vt 0.6875 0.4000
vt 0.8125 0.4000
vt 0.0625 0.4667
vt 0.1875 0.4667
vt 0.3125 0.4667
vt 0.4375 0.4667
vt 0.5625 0.4667
vt 0.6875 0.4667
vt 0.8125 0.4667
vt 0.0625 0.5333
vt 0.1875 0.5333
vt 0.3125 0.5333
vt 0.4375 0.5333
vt 0.5625 0.5333
vt 0.6875 0.5333
vt 0.8125 0.5333
vt 0.0625 0.6000
vt 0.1875 0.6000
vt 0.3125 0.6000
vt 0.4375 0.6000
vt 0.5625 0.6000
vt 0.6875 0.6000
vt 0.8125 0.6000
vt 0.0625 0.6667
vt 0.1875 0.6667
vt 0.3125 0.6667
vt 0.4375 0.6667
vt 0.5625 0.6667
vt 0.6875 0.6667
vt 0.8125 0.6667
vt 0.0625 0.7333
vt 0.1875 0.7333
vt 0.3125 0.7333
vt 0.4375 0.7333
vt 0.5625 0.7333
vt 0.6875 0.7333
vt 0.8125 0.7333
vt 0.0625 0.8000
vt 0.1875 0.8000
vt 0.3125 0.8000
vt 0.4375 0.8000
vt 0.5625 0.8000
vt 0.6875 0.8000
vt 0.8125 0.8000
vt 0.0625 0.8667
vt 0.1875 0.8667
vt 0.3125 0.8667
vt 0.4375 0.8667
vt 0.5625 0.8667
vt 0.6875 0.8667
vt 0.8125 0.8667
vt 0.0625 0.9333
vt 0.1875 0.9333
vt 0.3125 0.9333
vt 0.4375 0.9333
vt 0.5625 0.9333
vt 0.6875 0.9333
vt 0.8125 0.9333
vt 0.0625 0.0000
vt 0.1875 0.0000
vt 0.1875 -0.0667
vt 0.0625 -0.0667
vt 0.3125 0.0000
vt 0.3125 -0.0667
vt 0.4375 0.0000
vt 0.4375 -0.0667
vt 0.5625 0.0000
vt 0.5625 -0.0667
vt 0.6875 0.0000
vt 0.6875 -0.0667
vt 0.8125 0.0000
vt 0.8125 -0.0667
vt 0.0625 0.0667
vt 0.1875 0.0667
vt 0.3125 0.0667
vt 0.4375 0.0667
vt 0.5625 0.0667
vt 0.6875 0.0667
vt 0.8125 0.0667
vt 0.0625 0.1333
vt 0.1875 0.1333
vt 0.3125 0.1333
vt 0.4375 0.1333
vt 0.5625 0.1333
vt 0.6875 0.1333
vt 0.8125 0.1333
vt 0.0625 0.2000
vt 0.1875 0.2000
vt 0.3125 0.2000
vt 0.4375 0.2000
vt 0.5625 0.2000
vt 0.6875 0.2000
vt 0.8125 0.2000
vt 0.0625 0.2667
vt 0.1875 0.2667
vt 0.3125 0.2667
vt 0.4375 0.2667
vt 0.5625 0.2667
vt 0.6875 0.2667
vt 0.8125 0.2667
vt 0.0625 0.3333
vt 0.1875 0.3333
vt 0.3125 0.3333
vt 0.4375 0.3333
vt 0.5625 0.3333
vt 0.6875 0.3333
vt 0.8125 0.3333
vt 0.0625 0.4000
vt 0.1875 0.4000
vt 0.3125 0.4000
vt 0.4375 0.4000
vt 0.5625 0.4000
vt 0.6875 0.4000
vt 0.8125 0.4000
vt 0.0625 0.4667
vt 0.1875 0.4667
vt 0.3125 0.4667
vt 0.4375 0.4667
vt 0.5625 0.4667
vt 0.6875 0.4667
vt 0.8125 0.4667
vt 0.0625 0.5333
vt 0.1875 0.5333
vt 0.3125 0.5333
vt 0.4375 0.5333
vt 0.5625 0.5333
vt 0.6875 0.5333
vt 0.8125 0.5333
vt 0.0625 0.6000
vt 0.1875 0.6000
vt 0.3125 0.6000
vt 0.4375 0.6000
vt 0.5625 0.6000
vt 0.6875 0.6000
vt 0.8125 0.6000
vt 0.0625 0.6667
vt 0.1875 0.6667
vt 0.3125 0.6667
vt 0.4375 0.6667
vt 0.5625 0.6667
vt 0.6875 0.6667
vt 0.8125 0.6667
vt 0.0625 0.7333
vt 0.1875 0.7333
vt 0.3125 0.7333
vt 0.4375 0.7333
vt 0.5625 0.7333
vt 0.6875 0.7333
vt 0.8125 0.7333
vt 0.0625 0.8000
vt 0.1875 0.8000
vt 0.3125 0.8000
vt 0.4375 0.8000
vt 0.5625 0.8000
vt 0.6875 0.8000
vt 0.8125 0.8000
vt 0.0625 0.8667
vt 0.1875 0.8667
vt 0.3125 0.8667
vt 0.4375 0.8667
vt 0.5625 0.8667
vt 0.6875 0.8667
vt 0.8125 0.8667
vt 0.0625 0.9333
vt 0.1875 0.9333
vt 0.3125 0.9333
vt 0.4375 0.9333
vt 0.5625 0.9333
vt 0.6875 0.9333
vt 0.8125 0.9333
vt 0.0625 0.0000
vt 0.1875 -0.0667
vt 0.0625 -0.0667
vt 0.1875 0.0000
vt 0.3125 -0.0667
vt 0.3125 0.0000
vt 0.4375 -0.0667
vt 0.4375 0.0000
vt 0.5625 -0.0667
vt 0.5625 0.0000
vt 0.6875 -0.0667
vt 0.6875 0.0000
vt 0.8125 -0.0667
vt 1.0000 0.6667
vt 0.9375 0.6667
vt 1.0000 0.6000
vt 1.0000 0.6667
vt 0.9375 0.6667
vt 0.9375 0.6000
vt 0.9375 0.7333
vt 1.0000 0.7333
vt 1.0000 0.7333
vt 0.9375 0.7333
vt 0.8750 0.6667
vt 0.8125 0.6667
vt 0.8125 0.7333
vt 0.8750 0.7333
vt 1.0000 0.6667
vt 0.9375 0.6667
vt 0.9375 0.7333
vt 1.0000 0.7333
vt 1.0000 0.6667
vt 0.9375 0.6667
vt 1.0000 0.7333
vt 0.9375 0.7333
vt 0.0625 0.6667
vt 0.0000 0.6667
vt 0.0625 0.7333
vt 0.0000 0.7333
vt 0.9375 0.8000
vt 1.0000 0.8000
vt 1.0000 0.8000
vt 0.9375 0.8000
vt 0.8125 0.8000
vt 0.8750 0.8000
vt 0.9375 0.8000
vt 1.0000 0.8000
vt 1.0000 0.8000
vt 0.9375 0.8000
vt 0.0625 0.8000
vt 0.0000 0.8000
vt 0.9375 0.8667
vt 1.0000 0.8667
vt 1.0000 0.8667
vt 0.9375 0.8667
vt 0.8125 0.8667
vt 0.8750 0.8667
vt 0.9375 0.8667
vt 1.0000 0.8667
vt 1.0000 0.8667
vt 0.9375 0.8667
vt 0.0625 0.8667
vt 0.0000 0.8667
vt 0.9375 0.9333
vt 1.0000 0.9333
vt 1.0000 0.9333
vt 0.9375 0.9333
vt 0.8125 0.9333
vt 0.8750 0.9333
vt 0.9375 0.9333
vt 1.0000 0.9333
vt 1.0000 0.9333
vt 0.9375 0.9333
vt 0.0625 0.9333
vt 0.0000 0.9333
vt 0.9375 1.0000
vt 1.0000 1.0000
vt 1.0000 1.0000
vt 0.9375 1.0000
vt 0.8125 1.0000
vt 0.8750 1.0000
vt 0.9375 1.0000
vt 1.0000 1.0000
vt 1.0000 1.0000
vt 0.9375 1.0000
vt 0.0625 1.0000
vt 0.0000 1.0000
vt 0.9375 0.0000
vt 1.0000 0.0000
vt 0.9375 0.0667
vt 1.0000 0.0667
vt 0.9375 0.0000
vt 1.0000 0.0000
vt 1.0000 0.0667
vt 0.9375 0.0667
vt 0.8750 0.0000
vt 0.8125 0.0000
vt 0.8125 0.0667
vt 0.8750 0.0667
vt 1.0000 0.0000
vt 0.9375 0.0000
vt 0.9375 0.0667
vt 1.0000 0.0667
vt 1.0000 0.0000
vt 0.9375 0.0000
vt 1.0000 0.0667
vt 0.9375 0.0667
vt 0.0625 0.0000
vt 0.0000 0.0000
vt 0.0625 0.0667
vt 0.0000 0.0667
vt 0.9375 0.1333
vt 1.0000 0.1333
vt 1.0000 0.1333
vt 0.9375 0.1333
vt 0.8125 0.1333
vt 0.8750 0.1333
vt 0.9375 0.1333
vt 1.0000 0.1333
vt 1.0000 0.1333
vt 0.9375 0.1333
vt 0.0625 0.1333
vt 0.0000 0.1333
vt 0.9375 0.2000
vt 1.0000 0.2000
vt 1.0000 0.2000
vt 0.9375 0.2000
vt 0.8125 0.2000
vt 0.8750 0.2000
vt 0.9375 0.2000
vt 1.0000 0.2000
vt 1.0000 0.2000
vt 0.9375 0.2000
vt 0.0625 0.2000
vt 0.0000 0.2000
vt 0.9375 0.2667
vt 1.0000 0.2667
vt 1.0000 0.2667
vt 0.9375 0.2667
vt 0.8125 0.2667
vt 0.8750 0.2667
vt 0.9375 0.2667
vt 1.0000 0.2667
vt 1.0000 0.2667
vt 0.9375 0.2667
vt 0.0625 0.2667
vt 0.0000 0.2667
vt 0.9375 0.3333
vt 1.0000 0.3333
vt 1.0000 0.3333
vt 0.9375 0.3333
vt 0.8125 0.3333
vt 0.8750 0.3333
vt 0.9375 0.3333
vt 1.0000 0.3333
vt 1.0000 0.3333
vt 0.9375 0.3333
vt 0.0625 0.3333
vt 0.0000 0.3333
vt 0.9375 0.4000
vt 1.0000 0.4000
vt 1.0000 0.4000
vt 0.9375 0.4000
vt 0.8125 0.4000
vt 0.8750 0.4000
vt 0.9375 0.4000
vt 1.0000 0.4000
vt 1.0000 0.4000
vt 0.9375 0.4000
vt 0.0625 0.4000
vt 0.0000 0.4000
vt 0.9375 0.4667
vt 1.0000 0.4667
vt 1.0000 0.4667
vt 0.9375 0.4667
vt 0.8125 0.4667
vt 0.8750 0.4667
vt 0.9375 0.4667
vt 1.0000 0.4667
vt 1.0000 0.4667
vt 0.9375 0.4667
vt 0.0625 0.4667
vt 0.0000 0.4667
vt 0.9375 0.5333
vt 1.0000 0.5333
vt 1.0000 0.5333
vt 0.9375 0.5333
vt 0.8125 0.5333
vt 0.8750 0.5333
vt 0.9375 0.5333
vt 1.0000 0.5333
vt 1.0000 0.5333
vt 0.9375 0.5333
vt 0.0625 0.5333
vt 0.0000 0.5333
vt 0.9375 0.6000
vt 1.0000 0.6000
vt 1.0000 0.6000
vt 0.9375 0.6000
vt 0.8125 0.6000
vt 0.8750 0.6000
vt 0.9375 0.6000
vt 1.0000 0.6000
vt 1.0000 0.6000
vt 0.9375 0.6000
vt 0.0625 0.6000
vt 0.0000 0.6000
vt 0.9375 0.6667
vt 1.0000 0.6667
vt 1.0000 0.6667
vt 0.9375 0.6667
vt 0.8125 0.6667
vt 0.8750 0.6667
vt 0.9375 0.6667
vt 1.0000 0.6667
vt 1.0000 0.6667
vt 0.9375 0.6667
vt 0.0625 0.6667
vt 0.0000 0.6667
vt 0.9375 0.7333
vt 1.0000 0.7333
vt 1.0000 0.7333
vt 0.9375 0.7333
vt 0.8125 0.7333
vt 0.8750 0.7333
vt 0.9375 0.7333
vt 1.0000 0.7333
vt 1.0000 0.7333
vt 0.9375 0.7333
vt 0.0625 0.7333
vt 0.0000 0.7333
vt 0.9375 0.8000
vt 1.0000 0.8000
vt 1.0000 0.8000
vt 0.9375 0.8000
vt 0.8125 0.8000
vt 0.8750 0.8000
vt 0.9375 0.8000
vt 1.0000 0.8000
vt 1.0000 0.8000
vt 0.9375 0.8000
vt 0.0625 0.8000
vt 0.0000 0.8000
vt 0.9375 0.8667
vt 1.0000 0.8667
vt 1.0000 0.8667
vt 0.9375 0.8667
vt 0.8125 0.8667
vt 0.8750 0.8667
vt 0.9375 0.8667
vt 1.0000 0.8667
vt 1.0000 0.8667
vt 0.9375 0.8667
vt 0.0625 0.8667
vt 0.0000 0.8667
vt 0.9375 0.9333
vt 1.0000 0.9333
vt 1.0000 0.9333
vt 0.9375 0.9333
vt 0.8125 0.9333
vt 0.8750 0.9333
vt 0.9375 0.9333
vt 1.0000 0.9333
vt 1.0000 0.9333
vt 0.9375 0.9333
vt 0.0625 0.9333
vt 0.0000 0.9333
vt 0.9375 1.0000
vt 1.0000 1.0000
vt 1.0000 1.0000
vt 0.9375 1.0000
vt 0.8125 1.0000
vt 0.8750 1.0000
vt 0.9375 1.0000
vt 1.0000 1.0000
vt 1.0000 1.0000
vt 0.9375 1.0000
vt 0.0625 1.0000
vt 0.0000 1.0000
vt 0.9375 0.0000
vt 1.0000 0.0000
vt 0.9375 0.0667
vt 1.0000 0.0667
vt 0.9375 0.0000
vt 1.0000 0.0000
vt 1.0000 0.0667
vt 0.9375 0.0667
vt 0.8750 0.0000
vt 0.8125 0.0000
vt 0.8125 0.0667
vt 0.8750 0.0667
vt 1.0000 0.0000
vt 0.9375 0.0000
vt 0.9375 0.0667
vt 1.0000 0.0667
vt 1.0000 0.0000
vt 0.9375 0.0000
vt 1.0000 0.0667
vt 0.9375 0.0667
vt 0.0625 0.0000
vt 0.0000 0.0000
vt 0.0625 0.0667
vt 0.0000 0.0667
vt 0.9375 0.1333
vt 1.0000 0.1333
vt 1.0000 0.1333
vt 0.9375 0.1333
vt 0.8125 0.1333
vt 0.8750 0.1333
vt 0.9375 0.1333
vt 1.0000 0.1333
vt 1.0000 0.1333
vt 0.9375 0.1333
vt 0.0625 0.1333
vt 0.0000 0.1333
vt 0.9375 0.2000
vt 1.0000 0.2000
vt 1.0000 0.2000
vt 0.9375 0.2000
vt 0.8125 0.2000
vt 0.8750 0.2000
vt 0.9375 0.2000
vt 1.0000 0.2000
vt 1.0000 0.2000
vt 0.9375 0.2000
vt 0.0625 0.2000
vt 0.0000 0.2000
vt 0.9375 0.2667
vt 1.0000 0.2667
vt 1.0000 0.2667
vt 0.9375 0.2667
vt 0.8125 0.2667
vt 0.8750 0.2667
vt 0.9375 0.2667
vt 1.0000 0.2667
vt 1.0000 0.2667
vt 0.9375 0.2667
vt 0.0625 0.2667
vt 0.0000 0.2667
vt 0.9375 0.3333
vt 1.0000 0.3333
vt 1.0000 0.3333
vt 0.9375 0.3333
vt 0.8125 0.3333
vt 0.8750 0.3333
vt 0.9375 0.3333
vt 1.0000 0.3333
vt 1.0000 0.3333
vt 0.9375 0.3333
vt 0.0625 0.3333
vt 0.0000 0.3333
vt 0.9375 0.4000
vt 1.0000 0.4000
vt 1.0000 0.4000
vt 0.9375 0.4000
vt 0.8125 0.4000
vt 0.8750 0.4000
vt 0.9375 0.4000
vt 1.0000 0.4000
vt 1.0000 0.4000
vt 0.9375 0.4000
vt 0.0625 0.4000
vt 0.0000 0.4000
vt 0.9375 0.4667
vt 1.0000 0.4667
vt 1.0000 0.4667
vt 0.9375 0.4667
vt 0.8125 0.4667
vt 0.8750 0.4667
vt 0.9375 0.4667
vt 1.0000 0.4667
vt 1.0000 0.4667
vt 0.9375 0.4667
vt 0.0625 0.4667
vt 0.0000 0.4667
vt 0.9375 0.5333
vt 1.0000 0.5333
vt 1.0000 0.5333
vt 0.9375 0.5333
vt 0.8125 0.5333
vt 0.8750 0.5333
vt 0.9375 0.5333
vt 1.0000 0.5333
vt 1.0000 0.5333
vt 0.9375 0.5333
vt 0.0625 0.5333
vt 0.0000 0.5333
vt 0.9375 0.6000
vt 1.0000 0.6000
vt 1.0000 0.6000
vt 0.9375 0.6000
vt 0.8125 0.6000
vt 0.8750 0.6000
vt 0.9375 0.6000
vt 1.0000 0.6000
vt 1.0000 0.6000
vt 0.9375 0.6000
vt 0.0625 0.6000
vt 0.0000 0.6000
vt 0.9375 0.6667
vt 1.0000 0.6667
vt 1.0000 0.6667
vt 0.9375 0.6667
vt 0.8125 0.6667
vt 0.8750 0.6667
vt 0.9375 0.6667
vt 1.0000 0.6667
vt 1.0000 0.6667
vt 0.9375 0.6667
vt 0.0625 0.6667
vt 0.0000 0.6667
vt 0.9375 0.7333
vt 1.0000 0.7333
vt 1.0000 0.7333
vt 0.9375 0.7333
vt 0.8125 0.7333
vt 0.8750 0.7333
vt 0.9375 0.7333
vt 1.0000 0.7333
vt 1.0000 0.7333
vt 0.9375 0.7333
vt 0.0625 0.7333
vt 0.0000 0.7333
vt 0.9375 0.8000
vt 1.0000 0.8000
vt 1.0000 0.8000
vt 0.9375 0.8000
vt 0.8125 0.8000
vt 0.8750 0.8000
vt 0.9375 0.8000
vt 1.0000 0.8000
vt 1.0000 0.8000
vt 0.9375 0.8000
vt 0.0625 0.8000
vt 0.0000 0.8000
vt 0.9375 0.8667
vt 1.0000 0.8667
vt 1.0000 0.8667
vt 0.9375 0.8667
vt 0.8125 0.8667
vt 0.8750 0.8667
vt 0.9375 0.8667
vt 1.0000 0.8667
vt 1.0000 0.8667
vt 0.9375 0.8667
vt 0.0625 0.8667
vt 0.0000 0.8667
vt 0.9375 0.9333
vt 1.0000 0.9333
vt 1.0000 0.9333
vt 0.9375 0.9333
vt 0.8125 0.9333
vt 0.8750 0.9333
vt 0.9375 0.9333
vt 1.0000 0.9333
vt 1.0000 0.9333
vt 0.9375 0.9333
vt 0.0625 0.9333
vt 0.0000 0.9333
vt 0.9375 1.0000
vt 1.0000 1.0000
vt 0.9375 1.0000
vt 1.0000 1.0000
vn 0.8137 0.0000 -0.5812
vn -0.8137 0.0000 -0.5812
vn 0.0000 0.0000 -1.0000
vn 0.6783 0.0000 0.7348
vn 0.5145 0.0000 0.8575
vn 0.7005 0.0000 0.7136
vn 0.8137 0.0000 0.5812
vn -0.6783 0.0000 0.7348
vn -0.5145 0.0000 0.8575
vn -0.8137 0.0000 0.5812
vn 0.6728 0.0000 0.7398
vn -0.6728 0.0000 0.7398
s 1
f 1/1/1 2/2/1 6/3/1
f 5/4/1 6/3/1 2/2/1
f 4/5/2 3/6/2 9/7/2
f 9/7/2 8/8/2 4/5/2
f 6/3/1 5/4/1 7/9/1
f 12/10/1 7/9/1 5/4/1
f 8/8/2 9/7/2 10/11/2
f 10/11/2 11/12/2 8/8/2
f 7/9/1 12/10/1 15/13/1
f 16/14/1 15/13/1 12/10/1
f 11/12/2 10/11/2 13/15/2
f 13/15/2 19/16/2 11/12/2
f 15/13/1 16/14/1 14/17/1
f 17/18/1 14/17/1 16/14/1
f 19/16/2 13/15/2 18/19/2
f 18/19/2 20/20/2 19/16/2
f 14/17/1 17/18/1 23/21/1
f 22/22/1 23/21/1 17/18/1
f 20/20/2 18/19/2 21/23/2
f 21/23/2 24/24/2 20/20/2
f 23/25/1 22/26/1 26/27/1
f 27/28/1 26/27/1 22/26/1
f 24/29/2 21/30/2 29/31/2
f 29/31/2 28/32/2 24/29/2
f 26/27/1 27/28/1 25/33/1
f 30/34/1 25/33/1 27/28/1
f 28/32/2 29/31/2 35/35/2
f 35/35/2 34/36/2 28/32/2
f 25/33/1 30/34/1 32/37/1
f 31/38/1 32/37/1 30/34/1
f 34/36/2 35/35/2 33/39/2
f 33/39/2 36/40/2 34/36/2
f 32/37/1 31/38/1 37/41/1
f 40/42/1 37/41/1 31/38/1
f 36/40/2 33/39/2 41/43/2
f 41/43/2 43/44/2 36/40/2
f 37/41/1 40/42/1 38/45/1
f 39/46/1 38/45/1 40/42/1
f 43/44/2 41/43/2 42/47/2
f 42/47/2 45/48/2 43/44/2
f 38/45/1 39/46/1 44/49/1
f 47/50/1 44/49/1 39/46/1
f 45/48/2 42/47/2 49/51/2
f 49/51/2 51/52/2 45/48/2
f 44/49/1 47/50/1 46/53/1
f 48/54/1 46/53/1 47/50/1
f 51/52/2 49/51/2 50/55/2
f 50/55/2 52/56/2 51/52/2
f 46/53/1 48/54/1 56/57/1
f 57/58/1 56/57/1 48/54/1
f 52/56/2 50/55/2 53/59/2
f 53/59/2 54/60/2 52/56/2
f 56/57/1 57/58/1 55/61/1
f 60/62/1 55/61/1 57/58/1
f 54/60/2 53/59/2 58/63/2
f 58/63/2 63/64/2 54/60/2
f 55/61/1 60/62/1 59/65/1
f 61/66/1 59/65/1 60/62/1
f 63/64/2 58/63/2 65/67/2
f 65/67/2 62/68/2 63/64/2
f 59/65/1 61/66/1 64/69/1
f 66/70/1 64/69/1 61/66/1
f 62/68/2 65/67/2 69/71/2
f 69/71/2 68/72/2 62/68/2
f 64/69/1 66/70/1 70/73/1
f 71/74/1 70/73/1 66/70/1
f 68/72/2 69/71/2 67/75/2
f 67/75/2 73/76/2 68/72/2
f 70/73/1 71/74/1 74/77/1
f 76/78/1 74/77/1 71/74/1
f 73/76/2 67/75/2 77/79/2
f 77/79/2 72/80/2 73/76/2
f 74/77/1 76/78/1 75/81/1
f 79/82/1 75/81/1 76/78/1
f 72/80/2 77/79/2 80/83/2
f 80/83/2 78/84/2 72/80/2
f 75/81/1 79/82/1 83/85/1
f 82/86/1 83/85/1 79/82/1
f 78/84/2 80/83/2 81/87/2
f 81/87/2 84/88/2 78/84/2
f 83/89/1 82/90/1 85/91/1
f 87/92/1 85/91/1 82/90/1
f 84/93/2 81/94/2 89/95/2
f 89/95/2 88/96/2 84/93/2
f 85/91/1 87/92/1 86/97/1
f 91/98/1 86/97/1 87/92/1
f 88/96/2 89/95/2 90/99/2
f 90/99/2 93/100/2 88/96/2
f 86/97/1 91/98/1 92/101/1
f 96/102/1 92/101/1 91/98/1
f 93/100/2 90/99/2 94/103/2
f 94/103/2 97/104/2 93/100/2
f 92/101/1 96/102/1 95/105/1
f 100/106/1 95/105/1 96/102/1
f 97/104/2 94/103/2 98/107/2
f 98/107/2 99/108/2 97/104/2
f 95/105/1 100/106/1 102/109/1
f 103/110/1 102/109/1 100/106/1
f 99/108/2 98/107/2 101/111/2
f 101/111/2 106/112/2 99/108/2
f 102/109/1 103/110/1 105/113/1
f 104/114/1 105/113/1 103/110/1
f 106/112/2 101/111/2 111/115/2
f 111/115/2 110/116/2 106/112/2
f 105/113/1 104/114/1 108/117/1
f 107/118/1 108/117/1 104/114/1
f 110/116/2 111/115/2 109/119/2
f 109/119/2 115/120/2 110/116/2
f 108/117/1 107/118/1 112/121/1
f 113/122/1 112/121/1 107/118/1
f 115/120/2 109/119/2 117/123/2
f 117/123/2 114/124/2 115/120/2
f 112/121/1 113/122/1 116/125/1
f 119/126/1 116/125/1 113/122/1
f 114/124/2 117/123/2 120/127/2
f 120/127/2 121/128/2 114/124/2
f 116/125/1 119/126/1 118/129/1
f 122/130/1 118/129/1 119/126/1
f 121/128/2 120/127/2 126/131/2
f 126/131/2 125/132/2 121/128/2
f 118/129/1 122/130/1 127/133/1
f 123/134/1 127/133/1 122/130/1
f 125/132/2 126/131/2 124/135/2
f 124/135/2 129/136/2 125/132/2
f 127/133/1 123/134/1 128/137/1
f 131/138/1 128/137/1 123/134/1
f 129/136/2 124/135/2 130/139/2
f 130/139/2 134/140/2 129/136/2
f 128/137/1 131/138/1 135/141/1
f 136/142/1 135/141/1 131/138/1
f 134/140/2 130/139/2 133/143/2
f 133/143/2 132/144/2 134/140/2
f 135/141/1 136/142/1 137/145/1
f 140/146/1 137/145/1 136/142/1
f 132/144/2 133/143/2 138/147/2
f 138/147/2 139/148/2 132/144/2
f 146/149/3 147/150/3 148/151/3
f 146/149/3 148/151/3 145/152/3
f 147/150/3 154/153/3 141/154/3
f 147/150/3 141/154/3 148/151/3
f 154/153/3 149/155/3 150/156/3
f 154/153/3 150/156/3 141/154/3
f 149/155/3 152/157/3 142/158/3
f 149/155/3 142/158/3 150/156/3
f 152/157/3 151/159/3 143/160/3
f 152/157/3 143/160/3 142/158/3
f 151/159/3 155/161/3 144/162/3
f 151/159/3 144/162/3 143/160/3
f 165/163/3 158/164/3 147/150/3
f 165/163/3 147/150/3 146/149/3
f 158/164/3 153/165/3 154/153/3
f 158/164/3 154/153/3 147/150/3
f 153/165/3 159/166/3 149/155/3
f 153/165/3 149/155/3 154/153/3
f 159/166/3 162/167/3 152/157/3
f 159/166/3 152/157/3 149/155/3
f 162/167/3 164/168/3 151/159/3
f 162/167/3 151/159/3 152/157/3
f 164/168/3 156/169/3 155/161/3
f 164/168/3 155/161/3 151/159/3
f 172/170/3 157/171/3 158/164/3
f 172/170/3 158/164/3 165/163/3
f 157/171/3 167/172/3 153/165/3
f 157/171/3 153/165/3 158/164/3
f 167/172/3 169/173/3 159/166/3
f 167/172/3 159/166/3 153/165/3
f 169/173/3 160/174/3 162/167/3
f 169/173/3 162/167/3 159/166/3
f 160/174/3 161/175/3 164/168/3
f 160/174/3 164/168/3 162/167/3
f 161/175/3 163/176/3 156/169/3
f 161/175/3 156/169/3 164/168/3
f 173/177/3 166/178/3 157/171/3
f 173/177/3 157/171/3 172/170/3
f 166/178/3 174/179/3 167/172/3
f 166/178/3 167/172/3 157/171/3
f 174/179/3 168/180/3 169/173/3
f 174/179/3 169/173/3 167/172/3
f 168/180/3 170/181/3 160/174/3
f 168/180/3 160/174/3 169/173/3
f 170/181/3 176/182/3 161/175/3
f 170/181/3 161/175/3 160/174/3
f 176/182/3 171/183/3 163/176/3
f 176/182/3 163/176/3 161/175/3
f 177/184/3 180/185/3 166/186/3
f 177/184/3 166/186/3 173/187/3
f 180/185/3 182/188/3 174/189/3
f 180/185/3 174/189/3 166/186/3
f 182/188/3 175/190/3 168/191/3
f 182/188/3 168/191/3 174/189/3
f 175/190/3 184/192/3 170/193/3
f 175/190/3 170/193/3 168/191/3
f 184/192/3 186/194/3 176/195/3
f 184/192/3 176/195/3 170/193/3
f 186/194/3 185/196/3 171/197/3
f 186/194/3 171/197/3 176/195/3
f 178/198/3 179/199/3 180/185/3
f 178/198/3 180/185/3 177/184/3
f 179/199/3 181/200/3 182/188/3
f 179/199/3 182/188/3 180/185/3
f 181/200/3 183/201/3 175/190/3
f 181/200/3 175/190/3 182/188/3
f 183/201/3 190/202/3 184/192/3
f 183/201/3 184/192/3 175/190/3
f 190/202/3 189/203/3 186/194/3
f 190/202/3 186/194/3 184/192/3
f 189/203/3 191/204/3 185/196/3
f 189/203/3 185/196/3 186/194/3
f 198/205/3 187/206/3 179/199/3
f 198/205/3 179/199/3 178/198/3
f 187/206/3 188/207/3 181/200/3
f 187/206/3 181/200/3 179/199/3
f 188/207/3 192/208/3 183/201/3
f 188/207/3 183/201/3 181/200/3
f 192/208/3 196/209/3 190/202/3
f 192/208/3 190/202/3 183/201/3
f 196/209/3 195/210/3 189/203/3
f 196/209/3 189/203/3 190/202/3
f 195/210/3 197/211/3 191/204/3
f 195/210/3 191/204/3 189/203/3
f 199/212/3 201/213/3 187/206/3
f 199/212/3 187/206/3 198/205/3
f 201/213/3 203/214/3 188/207/3
f 201/213/3 188/207/3 187/206/3
f 203/214/3 193/215/3 192/208/3
f 203/214/3 192/208/3 188/207/3
f 193/215/3 194/216/3 196/209/3
f 193/215/3 196/209/3 192/208/3
f 194/216/3 205/217/3 195/210/3
f 194/216/3 195/210/3 196/209/3
f 205/217/3 207/218/3 197/211/3
f 205/217/3 197/211/3 195/210/3
f 210/219/3 200/220/3 201/213/3
f 210/219/3 201/213/3 199/212/3
f 200/220/3 202/221/3 203/214/3
f 200/220/3 203/214/3 201/213/3
f 202/221/3 204/222/3 193/215/3
f 202/221/3 193/215/3 203/214/3
f 204/222/3 212/223/3 194/216/3
f 204/222/3 194/216/3 193/215/3
f 212/223/3 213/224/3 205/217/3
f 212/223/3 205/217/3 194/216/3
f 213/224/3 206/225/3 207/218/3
f 213/224/3 207/218/3 205/217/3
f 209/226/3 208/227/3 200/220/3
f 209/226/3 200/220/3 210/219/3
f 208/227/3 211/228/3 202/221/3
f 208/227/3 202/221/3 200/220/3
f 211/228/3 214/229/3 204/222/3
f 211/228/3 204/222/3 202/221/3
f 214/229/3 217/230/3 212/223/3
f 214/229/3 212/223/3 204/222/3
f 217/230/3 216/231/3 213/224/3
f 217/230/3 213/224/3 212/223/3
f 216/231/3 218/232/3 206/225/3
f 216/231/3 206/225/3 213/224/3
f 220/233/3 222/234/3 208/227/3
f 220/233/3 208/227/3 209/226/3
f 222/234/3 221/235/3 211/228/3
f 222/234/3 211/228/3 208/227/3
f 221/235/3 223/236/3 214/229/3
f 221/235/3 214/229/3 211/228/3
f 223/236/3 215/237/3 217/230/3
f 223/236/3 217/230/3 214/229/3
f 215/237/3 226/238/3 216/231/3
f 215/237/3 216/231/3 217/230/3
f 226/238/3 227/239/3 218/232/3
f 226/238/3 218/232/3 216/231/3
f 228/240/3 219/241/3 222/234/3
f 228/240/3 222/234/3 220/233/3
f 219/241/3 224/242/3 221/235/3
f 219/241/3 221/235/3 222/234/3
f 224/242/3 230/243/3 223/236/3
f 224/242/3 223/236/3 221/235/3
f 230/243/3 225/244/3 215/237/3
f 230/243/3 215/237/3 223/236/3
f 225/244/3 231/245/3 226/238/3
f 225/244/3 226/238/3 215/237/3
f 231/245/3 234/246/3 227/239/3
f 231/245/3 227/239/3 226/238/3
f 240/247/3 236/248/3 219/241/3
f 240/247/3 219/241/3 228/240/3
f 236/248/3 229/249/3 224/242/3
f 236/248/3 224/242/3 219/241/3
f 229/249/3 237/250/3 230/243/3
f 229/249/3 230/243/3 224/242/3
f 237/250/3 238/251/3 225/244/3
f 237/250/3 225/244/3 230/243/3
f 238/251/3 232/252/3 231/245/3
f 238/251/3 231/245/3 225/244/3
f 232/252/3 233/253/3 234/246/3
f 232/252/3 234/246/3 231/245/3
f 241/254/3 235/255/3 236/248/3
f 241/254/3 236/248/3 240/247/3
f 235/255/3 244/256/3 229/249/3
f 235/255/3 229/249/3 236/248/3
f 244/256/3 245/257/3 237/250/3
f 244/256/3 237/250/3 229/249/3
f 245/257/3 247/258/3 238/251/3
f 245/257/3 238/251/3 237/250/3
f 247/258/3 249/259/3 232/252/3
f 247/258/3 232/252/3 238/251/3
f 249/259/3 239/260/3 233/253/3
f 249/259/3 233/253/3 232/252/3
f 252/261/3 242/262/3 235/255/3
f 252/261/3 235/255/3 241/254/3
f 242/262/3 243/263/3 244/256/3
f 242/262/3 244/256/3 235/255/3
f 243/263/3 246/264/3 245/257/3
f 243/263/3 245/257/3 244/256/3
f 246/264/3 248/265/3 247/258/3
f 246/264/3 247/258/3 245/257/3
f 248/265/3 250/266/3 249/259/3
f 248/265/3 249/259/3 247/258/3
f 250/266/3 255/267/3 239/260/3
f 250/266/3 239/260/3 249/259/3
f 251/268/3 257/269/3 242/262/3
f 251/268/3 242/262/3 252/261/3
f 257/269/3 259/270/3 243/263/3
f 257/269/3 243/263/3 242/262/3
f 259/270/3 253/271/3 246/264/3
f 259/270/3 246/264/3 243/263/3
f 253/271/3 262/272/3 248/265/3
f 253/271/3 248/265/3 246/264/3
f 262/272/3 254/273/3 250/266/3
f 262/272/3 250/266/3 248/265/3
f 254/273/3 263/274/3 255/267/3
f 254/273/3 255/267/3 250/266/3
f 265/275/3 256/276/3 257/269/3
f 265/275/3 257/269/3 251/268/3
f 256/276/3 258/277/3 259/270/3
f 256/276/3 259/270/3 257/269/3
f 258/277/3 260/278/3 253/271/3
f 258/277/3 253/271/3 259/270/3
f 260/278/3 268/279/3 262/272/3
f 260/278/3 262/272/3 253/271/3
f 268/279/3 261/280/3 254/273/3
f 268/279/3 254/273/3 262/272/3
f 261/280/3 264/281/3 263/274/3
f 261/280/3 263/274/3 254/273/3
f 266/282/3 270/283/3 256/276/3
f 266/282/3 256/276/3 265/275/3
f 270/283/3 271/284/3 258/277/3
f 270/283/3 258/277/3 256/276/3
f 271/284/3 267/285/3 260/278/3
f 271/284/3 260/278/3 258/277/3
f 267/285/3 272/286/3 268/279/3
f 267/285/3 268/279/3 260/278/3
f 272/286/3 274/287/3 261/280/3
f 272/286/3 261/280/3 268/279/3
f 274/287/3 276/288/3 264/281/3
f 274/287/3 264/281/3 261/280/3
f 269/289/3 277/290/3 270/283/3
f 269/289/3 270/283/3 266/282/3
f 277/290/3 279/291/3 271/284/3
f 277/290/3 271/284/3 270/283/3
f 279/291/3 278/292/3 267/285/3
f 279/291/3 267/285/3 271/284/3
f 278/292/3 273/293/3 272/286/3
f 278/292/3 272/286/3 267/285/3
f 273/293/3 275/294/3 274/287/3
f 273/293/3 274/287/3 272/286/3
f 275/294/3 283/295/3 276/288/3
f 275/294/3 276/288/3 274/287/3
f 285/296/3 284/297/3 277/298/3
f 285/296/3 277/298/3 269/299/3
f 284/297/3 289/300/3 279/301/3
f 284/297/3 279/301/3 277/298/3
f 289/300/3 288/302/3 278/303/3
f 289/300/3 278/303/3 279/301/3
f 288/302/3 280/304/3 273/305/3
f 288/302/3 273/305/3 278/303/3
f 280/304/3 282/306/3 275/307/3
f 280/304/3 275/307/3 273/305/3
f 282/306/3 281/308/3 283/309/3
f 282/306/3 283/309/3 275/307/3
f 297/310/3 286/311/3 284/297/3
f 297/310/3 284/297/3 285/296/3
f 286/311/3 287/312/3 289/300/3
f 286/311/3 289/300/3 284/297/3
f 287/312/3 291/313/3 288/302/3
f 287/312/3 288/302/3 289/300/3
f 291/313/3 293/314/3 280/304/3
f 291/313/3 280/304/3 288/302/3
f 293/314/3 294/315/3 282/306/3
f 293/314/3 282/306/3 280/304/3
f 294/315/3 290/316/3 281/308/3
f 294/315/3 281/308/3 282/306/3
f 304/317/3 300/318/3 286/311/3
f 304/317/3 286/311/3 297/310/3
f 300/318/3 301/319/3 287/312/3
f 300/318/3 287/312/3 286/311/3
f 301/319/3 292/320/3 291/313/3
f 301/319/3 291/313/3 287/312/3
f 292/320/3 303/321/3 293/314/3
f 292/320/3 293/314/3 291/313/3
f 303/321/3 295/322/3 294/315/3
f 303/321/3 294/315/3 293/314/3
f 295/322/3 296/323/3 290/316/3
f 295/322/3 290/316/3 294/315/3
f 298/324/3 299/325/3 300/318/3
f 298/324/3 300/318/3 304/317/3
f 299/325/3 307/326/3 301/319/3
f 299/325/3 301/319/3 300/318/3
f 307/326/3 302/327/3 292/320/3
f 307/326/3 292/320/3 301/319/3
f 302/327/3 310/328/3 303/321/3
f 302/327/3 303/321/3 292/320/3
f 310/328/3 312/329/3 295/322/3
f 310/328/3 295/322/3 303/321/3
f 312/329/3 313/330/3 296/323/3
f 312/329/3 296/323/3 295/322/3
f 305/331/3 306/332/3 299/325/3
f 305/331/3 299/325/3 298/324/3
f 306/332/3 308/333/3 307/326/3
f 306/332/3 307/326/3 299/325/3
f 308/333/3 309/334/3 302/327/3
f 308/333/3 302/327/3 307/326/3
f 309/334/3 316/335/3 310/328/3
f 309/334/3 310/328/3 302/327/3
f 316/335/3 311/336/3 312/329/3
f 316/335/3 312/329/3 310/328/3
f 311/336/3 318/337/3 313/330/3
f 311/336/3 313/330/3 312/329/3
f 320/338/3 315/339/3 306/332/3
f 320/338/3 306/332/3 305/331/3
f 315/339/3 314/340/3 308/333/3
f 315/339/3 308/333/3 306/332/3
f 314/340/3 322/341/3 309/334/3
f 314/340/3 309/334/3 308/333/3
f 322/341/3 317/342/3 316/335/3
f 322/341/3 316/335/3 309/334/3
f 317/342/3 327/343/3 311/336/3
f 317/342/3 311/336/3 316/335/3
f 327/343/3 328/344/3 318/337/3
f 327/343/3 318/337/3 311/336/3
f 319/345/3 330/346/3 315/339/3
f 319/345/3 315/339/3 320/338/3
f 330/346/3 321/347/3 314/340/3
f 330/346/3 314/340/3 315/339/3
f 321/347/3 323/348/3 322/341/3
f 321/347/3 322/341/3 314/340/3
f 323/348/3 324/349/3 317/342/3
f 323/348/3 317/342/3 322/341/3
f 324/349/3 325/350/3 327/343/3
f 324/349/3 327/343/3 317/342/3
f 325/350/3 326/351/3 328/344/3
f 325/350/3 328/344/3 327/343/3
f 329/352/3 336/353/3 330/346/3
f 329/352/3 330/346/3 319/345/3
f 336/353/3 337/354/3 321/347/3
f 336/353/3 321/347/3 330/346/3
f 337/354/3 331/355/3 323/348/3
f 337/354/3 323/348/3 321/347/3
f 331/355/3 332/356/3 324/349/3
f 331/355/3 324/349/3 323/348/3
f 332/356/3 333/357/3 325/350/3
f 332/356/3 325/350/3 324/349/3
f 333/357/3 334/358/3 326/351/3
f 333/357/3 326/351/3 325/350/3
f 335/359/3 341/360/3 336/353/3
f 335/359/3 336/353/3 329/352/3
f 341/360/3 338/361/3 337/354/3
f 341/360/3 337/354/3 336/353/3
f 338/361/3 343/362/3 331/355/3
f 338/361/3 331/355/3 337/354/3
f 343/362/3 340/363/3 332/356/3
f 343/362/3 332/356/3 331/355/3
f 340/363/3 339/364/3 333/357/3
f 340/363/3 333/357/3 332/356/3
f 339/364/3 345/365/3 334/358/3
f 339/364/3 334/358/3 333/357/3
f 347/366/3 350/367/3 341/360/3
f 347/366/3 341/360/3 335/359/3
f 350/367/3 349/368/3 338/361/3
f 350/367/3 338/361/3 341/360/3
f 349/368/3 342/369/3 343/362/3
f 349/368/3 343/362/3 338/361/3
f 342/369/3 351/370/3 340/363/3
f 342/369/3 340/363/3 343/362/3
f 351/370/3 344/371/3 339/364/3
f 351/370/3 339/364/3 340/363/3
f 344/371/3 355/372/3 345/365/3
f 344/371/3 345/365/3 339/364/3
f 346/373/3 348/374/3 350/367/3
f 346/373/3 350/367/3 347/366/3
f 348/374/3 358/375/3 349/368/3
f 348/374/3 349/368/3 350/367/3
f 358/375/3 352/376/3 342/369/3
f 358/375/3 342/369/3 349/368/3
f 352/376/3 360/377/3 351/370/3
f 352/376/3 351/370/3 342/369/3
f 360/377/3 353/378/3 344/371/3
f 360/377/3 344/371/3 351/370/3
f 353/378/3 354/379/3 355/372/3
f 353/378/3 355/372/3 344/371/3
f 361/380/3 356/381/3 348/374/3
f 361/380/3 348/374/3 346/373/3
f 356/381/3 357/382/3 358/375/3
f 356/381/3 358/375/3 348/374/3
f 357/382/3 359/383/3 352/376/3
f 357/382/3 352/376/3 358/375/3
f 359/383/3 363/384/3 360/377/3
f 359/383/3 360/377/3 352/376/3
f 363/384/3 366/385/3 353/378/3
f 363/384/3 353/378/3 360/377/3
f 366/385/3 365/386/3 354/379/3
f 366/385/3 354/379/3 353/378/3
f 369/387/3 368/388/3 356/381/3
f 369/387/3 356/381/3 361/380/3
f 368/388/3 370/389/3 357/382/3
f 368/388/3 357/382/3 356/381/3
f 370/389/3 362/390/3 359/383/3
f 370/389/3 359/383/3 357/382/3
f 362/390/3 373/391/3 363/384/3
f 362/390/3 363/384/3 359/383/3
f 373/391/3 364/392/3 366/385/3
f 373/391/3 366/385/3 363/384/3
f 364/392/3 375/393/3 365/386/3
f 364/392/3 365/386/3 366/385/3
f 367/394/3 379/395/3 368/388/3
f 367/394/3 368/388/3 369/387/3
f 379/395/3 378/396/3 370/389/3
f 379/395/3 370/389/3 368/388/3
f 378/396/3 371/397/3 362/390/3
f 378/396/3 362/390/3 370/389/3
f 371/397/3 372/398/3 373/391/3
f 371/397/3 373/391/3 362/390/3
f 372/398/3 382/399/3 364/392/3
f 372/398/3 364/392/3 373/391/3
f 382/399/3 374/400/3 375/393/3
f 382/399/3 375/393/3 364/392/3
f 376/401/3 386/402/3 379/395/3
f 376/401/3 379/395/3 367/394/3
f 386/402/3 377/403/3 378/396/3
f 386/402/3 378/396/3 379/395/3
f 377/403/3 380/404/3 371/397/3
f 377/403/3 371/397/3 378/396/3
f 380/404/3 381/405/3 372/398/3
f 380/404/3 372/398/3 371/397/3
f 381/405/3 389/406/3 382/399/3
f 381/405/3 382/399/3 372/398/3
f 389/406/3 383/407/3 374/400/3
f 389/406/3 374/400/3 382/399/3
f 384/408/3 386/409/3 376/410/3
f 391/411/3 377/412/3 386/409/3
f 385/413/3 380/414/3 377/412/3
f 387/415/3 381/416/3 380/414/3
f 388/417/3 389/418/3 381/416/3
f 390/419/3 383/420/3 389/418/3
f 393/421/4 398/422/5 392/423/6
f 401/424/7 393/425/4 392/426/6
f 398/422/5 393/421/4 399/427/5
f 400/428/4 399/427/5 393/421/4
f 393/425/4 401/424/7 411/429/7
f 411/429/7 400/430/4 393/425/4
f 402/431/2 394/432/2 408/433/2
f 408/433/2 409/434/2 402/431/2
f 406/435/8 395/436/9 403/437/9
f 403/437/9 404/438/8 406/435/8
f 405/439/10 406/440/8 415/441/10
f 404/442/8 415/441/10 406/440/8
f 396/443/1 407/444/1 397/445/1
f 414/446/1 397/445/1 407/444/1
f 399/427/5 400/428/4 419/447/5
f 420/448/4 419/447/5 400/428/4
f 400/430/4 411/429/7 412/449/7
f 412/449/7 420/450/4 400/430/4
f 409/434/2 408/433/2 410/451/2
f 410/451/2 421/452/2 409/434/2
f 404/438/8 403/437/9 413/453/9
f 413/453/9 424/454/8 404/438/8
f 415/441/10 404/442/8 416/455/10
f 424/456/8 416/455/10 404/442/8
f 397/445/1 414/446/1 426/457/1
f 417/458/1 426/457/1 414/446/1
f 419/447/5 420/448/4 427/459/5
f 429/460/4 427/459/5 420/448/4
f 420/450/4 412/449/7 431/461/7
f 431/461/7 429/462/4 420/450/4
f 421/452/2 410/451/2 418/463/2
f 418/463/2 432/464/2 421/452/2
f 424/454/8 413/453/9 422/465/9
f 422/465/9 423/466/8 424/454/8
f 416/455/10 424/456/8 425/467/10
f 423/468/8 425/467/10 424/456/8
f 426/457/1 417/458/1 436/469/1
f 437/470/1 436/469/1 417/458/1
f 427/459/5 429/460/4 439/471/5
f 442/472/4 439/471/5 429/460/4
f 429/462/4 431/461/7 428/473/7
f 428/473/7 442/474/4 429/462/4
f 432/464/2 418/463/2 430/475/2
f 430/475/2 433/476/2 432/464/2
f 423/466/8 422/465/9 434/477/9
f 434/477/9 445/478/8 423/466/8
f 425/467/10 423/468/8 435/479/10
f 445/480/8 435/479/10 423/468/8
f 436/469/1 437/470/1 438/481/1
f 447/482/1 438/481/1 437/470/1
f 439/471/5 442/472/4 440/483/5
f 441/484/4 440/483/5 442/472/4
f 442/474/4 428/473/7 453/485/7
f 453/485/7 441/486/4 442/474/4
f 433/476/2 430/475/2 450/487/2
f 450/487/2 452/488/2 433/476/2
f 445/478/8 434/477/9 443/489/9
f 443/489/9 444/490/8 445/478/8
f 435/479/10 445/480/8 448/491/10
f 444/492/8 448/491/10 445/480/8
f 438/481/1 447/482/1 446/493/1
f 455/494/1 446/493/1 447/482/1
f 440/495/5 441/496/4 457/497/5
f 451/498/4 457/497/5 441/496/4
f 441/499/4 453/500/7 460/501/7
f 460/501/7 451/502/4 441/499/4
f 452/503/2 450/504/2 456/505/2
f 456/505/2 461/506/2 452/503/2
f 444/507/8 443/508/9 454/509/9
f 454/509/9 464/510/8 444/507/8
f 448/511/10 444/512/8 466/513/10
f 464/514/8 466/513/10 444/512/8
f 446/515/1 455/516/1 449/517/1
f 465/518/1 449/517/1 455/516/1
f 457/497/5 451/498/4 458/519/5
f 467/520/4 458/519/5 451/498/4
f 451/502/4 460/501/7 459/521/7
f 459/521/7 467/522/4 451/502/4
f 461/506/2 456/505/2 470/523/2
f 470/523/2 469/524/2 461/506/2
f 464/510/8 454/509/9 462/525/9
f 462/525/9 463/526/8 464/510/8
f 466/513/10 464/514/8 477/527/10
f 463/528/8 477/527/10 464/514/8
f 449/517/1 465/518/1 474/529/1
f 476/530/1 474/529/1 465/518/1
f 458/519/5 467/520/4 468/531/5
f 480/532/4 468/531/5 467/520/4
f 467/522/4 459/521/7 472/533/7
f 472/533/7 480/534/4 467/522/4
f 469/524/2 470/523/2 481/535/2
f 481/535/2 471/536/2 469/524/2
f 463/526/8 462/525/9 482/537/9
f 482/537/9 483/538/8 463/526/8
f 477/527/10 463/528/8 473/539/10
f 483/540/8 473/539/10 463/528/8
f 474/529/1 476/530/1 475/541/1
f 484/542/1 475/541/1 476/530/1
f 468/531/5 480/532/4 479/543/5
f 489/544/4 479/543/5 480/532/4
f 480/534/4 472/533/7 487/545/7
f 487/545/7 489/546/4 480/534/4
f 471/536/2 481/535/2 478/547/2
f 478/547/2 491/548/2 471/536/2
f 483/538/8 482/537/9 492/549/9
f 492/549/9 494/550/8 483/538/8
f 473/539/10 483/540/8 495/551/10
f 494/552/8 495/551/10 483/540/8
f 475/541/1 484/542/1 486/553/1
f 497/554/1 486/553/1 484/542/1
f 479/543/5 489/544/4 498/555/5
f 501/556/4 498/555/5 489/544/4
f 489/546/4 487/545/7 488/557/7
f 488/557/7 501/558/4 489/546/4
f 491/548/2 478/547/2 502/559/2
f 502/559/2 490/560/2 491/548/2
f 494/550/8 492/549/9 503/561/9
f 503/561/9 493/562/8 494/550/8
f 495/551/10 494/552/8 496/563/10
f 493/564/8 496/563/10 494/552/8
f 486/553/1 497/554/1 485/565/1
f 504/566/1 485/565/1 497/554/1
f 498/555/5 501/556/4 499/567/5
f 508/568/4 499/567/5 501/556/4
f 501/558/4 488/557/7 500/569/7
f 500/569/7 508/570/4 501/558/4
f 490/560/2 502/559/2 510/571/2
f 510/571/2 511/572/2 490/560/2
f 493/562/8 503/561/9 514/573/9
f 514/573/9 513/574/8 493/562/8
f 496/563/10 493/564/8 515/575/10
f 513/576/8 515/575/10 493/564/8
f 485/565/1 504/566/1 505/577/1
f 517/578/1 505/577/1 504/566/1
f 499/567/5 508/568/4 507/579/5
f 506/580/4 507/579/5 508/568/4
f 508/570/4 500/569/7 509/581/7
f 509/581/7 506/582/4 508/570/4
f 511/572/2 510/571/2 521/583/2
f 521/583/2 512/584/2 511/572/2
f 513/574/8 514/573/9 523/585/9
f 523/585/9 525/586/8 513/574/8
f 515/575/10 513/576/8 516/587/10
f 525/588/8 516/587/10 513/576/8
f 505/577/1 517/578/1 518/589/1
f 519/590/1 518/589/1 517/578/1
f 507/579/5 506/580/4 522/591/5
f 528/592/4 522/591/5 506/580/4
f 506/582/4 509/581/7 532/593/7
f 532/593/7 528/594/4 506/582/4
f 512/584/2 521/583/2 520/595/2
f 520/595/2 533/596/2 512/584/2
f 525/586/8 523/585/9 524/597/9
f 524/597/9 534/598/8 525/586/8
f 516/587/10 525/588/8 526/599/10
f 534/600/8 526/599/10 525/588/8
f 518/589/1 519/590/1 535/601/1
f 527/602/1 535/601/1 519/590/1
f 522/591/5 528/592/4 538/603/5
f 529/604/4 538/603/5 528/592/4
f 528/594/4 532/593/7 530/605/7
f 530/605/7 529/606/4 528/594/4
f 533/596/2 520/595/2 531/607/2
f 531/607/2 541/608/2 533/596/2
f 534/598/8 524/597/9 543/609/9
f 543/609/9 545/610/8 534/598/8
f 526/599/10 534/600/8 536/611/10
f 545/612/8 536/611/10 534/600/8
f 535/601/1 527/602/1 537/613/1
f 547/614/1 537/613/1 527/602/1
f 538/603/5 529/604/4 539/615/5
f 550/616/4 539/615/5 529/604/4
f 529/606/4 530/605/7 540/617/7
f 540/617/7 550/618/4 529/606/4
f 541/608/2 531/607/2 553/619/2
f 553/619/2 542/620/2 541/608/2
f 545/610/8 543/609/9 544/621/9
f 544/621/9 555/622/8 545/610/8
f 536/611/10 545/612/8 556/623/10
f 555/624/8 556/623/10 545/612/8
f 537/613/1 547/614/1 549/625/1
f 546/626/1 549/625/1 547/614/1
f 539/615/5 550/616/4 551/627/5
f 559/628/4 551/627/5 550/616/4
f 550/618/4 540/617/7 552/629/7
f 552/629/7 559/630/4 550/618/4
f 542/620/2 553/619/2 557/631/2
f 557/631/2 561/632/2 542/620/2
f 555/622/8 544/621/9 554/633/9
f 554/633/9 563/634/8 555/622/8
f 556/623/10 555/624/8 567/635/10
f 563/636/8 567/635/10 555/624/8
f 549/625/1 546/626/1 548/637/1
f 566/638/1 548/637/1 546/626/1
f 551/627/5 559/628/4 558/639/5
f 571/640/4 558/639/5 559/628/4
f 559/630/4 552/629/7 572/641/7
f 572/641/7 571/642/4 559/630/4
f 561/632/2 557/631/2 560/643/2
f 560/643/2 573/644/2 561/632/2
f 563/634/8 554/633/9 562/645/9
f 562/645/9 575/646/8 563/634/8
f 567/635/10 563/636/8 564/647/10
f 575/648/8 564/647/10 563/636/8
f 548/637/1 566/638/1 565/649/1
f 577/650/1 565/649/1 566/638/1
f 558/639/5 571/640/4 570/651/5
f 569/652/4 570/651/5 571/640/4
f 571/642/4 572/641/7 581/653/7
f 581/653/7 569/654/4 571/642/4
f 573/644/2 560/643/2 579/655/2
f 579/655/2 583/656/2 573/644/2
f 575/646/8 562/645/9 574/657/9
f 574/657/9 586/658/8 575/646/8
f 564/647/10 575/648/8 585/659/10
f 586/660/8 585/659/10 575/648/8
f 565/649/1 577/650/1 568/661/1
f 576/662/1 568/661/1 577/650/1
f 570/651/5 569/652/4 580/663/5
f 592/664/4 580/663/5 569/652/4
f 569/654/4 581/653/7 582/665/7
f 582/665/7 592/666/4 569/654/4
f 583/656/2 579/655/2 589/667/2
f 589/667/2 593/668/2 583/656/2
f 586/658/8 574/657/9 584/669/9
f 584/669/9 594/670/8 586/658/8
f 585/659/10 586/660/8 595/671/10
f 594/672/8 595/671/10 586/660/8
f 568/661/1 576/662/1 578/673/1
f 587/674/1 578/673/1 576/662/1
f 580/663/5 592/664/4 590/675/5
f 591/676/4 590/675/5 592/664/4
f 592/666/4 582/665/7 601/677/7
f 601/677/7 591/678/4 592/666/4
f 593/668/2 589/667/2 588/679/2
f 588/679/2 600/680/2 593/668/2
f 594/670/8 584/669/9 602/681/9
f 602/681/9 603/682/8 594/670/8
f 595/671/10 594/672/8 596/683/10
f 603/684/8 596/683/10 594/672/8
f 578/673/1 587/674/1 597/685/1
f 604/686/1 597/685/1 587/674/1
f 590/687/5 591/688/4 605/689/5
f 598/690/4 605/689/5 591/688/4
f 591/691/4 601/692/7 606/693/7
f 606/693/7 598/694/4 591/691/4
f 600/695/2 588/696/2 599/697/2
f 599/697/2 610/698/2 600/695/2
f 603/699/8 602/700/9 611/701/9
f 611/701/9 613/702/8 603/699/8
f 596/703/10 603/704/8 616/705/10
f 613/706/8 616/705/10 603/704/8
f 597/707/1 604/708/1 614/709/1
f 615/710/1 614/709/1 604/708/1
f 605/689/5 598/690/4 619/711/5
f 608/712/4 619/711/5 598/690/4
f 598/694/4 606/693/7 607/713/7
f 607/713/7 608/714/4 598/694/4
f 610/698/2 599/697/2 609/715/2
f 609/715/2 622/716/2 610/698/2
f 613/702/8 611/701/9 612/717/9
f 612/717/9 624/718/8 613/702/8
f 616/705/10 613/706/8 617/719/10
f 624/720/8 617/719/10 613/706/8
f 614/709/1 615/710/1 625/721/1
f 626/722/1 625/721/1 615/710/1
f 619/711/5 608/712/4 620/723/5
f 621/724/4 620/723/5 608/712/4
f 608/714/4 607/713/7 623/725/7
f 623/725/7 621/726/4 608/714/4
f 622/716/2 609/715/2 631/727/2
f 631/727/2 632/728/2 622/716/2
f 624/718/8 612/717/9 633/729/9
f 633/729/9 634/730/8 624/718/8
f 617/719/10 624/720/8 627/731/10
f 634/732/8 627/731/10 624/720/8
f 625/721/1 626/722/1 618/733/1
f 635/734/1 618/733/1 626/722/1
f 620/723/5 621/724/4 629/735/5
f 639/736/4 629/735/5 621/724/4
f 621/726/4 623/725/7 630/737/7
f 630/737/7 639/738/4 621/726/4
f 632/728/2 631/727/2 638/739/2
f 638/739/2 641/740/2 632/728/2
f 634/730/8 633/729/9 642/741/9
f 642/741/9 643/742/8 634/730/8
f 627/731/10 634/732/8 636/743/10
f 643/744/8 636/743/10 634/732/8
f 618/733/1 635/734/1 628/745/1
f 637/746/1 628/745/1 635/734/1
f 629/735/5 639/736/4 648/747/5
f 640/748/4 648/747/5 639/736/4
f 639/738/4 630/737/7 650/749/7
f 650/749/7 640/750/4 639/738/4
f 641/740/2 638/739/2 652/751/2
f 652/751/2 651/752/2 641/740/2
f 643/742/8 642/741/9 655/753/9
f 655/753/9 658/754/8 643/742/8
f 636/743/10 643/744/8 644/755/10
f 658/756/8 644/755/10 643/744/8
f 628/745/1 637/746/1 646/757/1
f 659/758/1 646/757/1 637/746/1
f 648/747/5 640/748/4 649/759/5
f 662/760/4 649/759/5 640/748/4
f 640/750/4 650/749/7 654/761/7
f 654/761/7 662/762/4 640/750/4
f 651/752/2 652/751/2 647/763/2
f 647/763/2 653/764/2 651/752/2
f 658/754/8 655/753/9 656/765/9
f 656/765/9 657/766/8 658/754/8
f 644/755/10 658/756/8 668/767/10
f 657/768/8 668/767/10 658/756/8
f 646/757/1 659/758/1 645/769/1
f 667/770/1 645/769/1 659/758/1
f 649/759/5 662/760/4 670/771/5
f 671/772/4 670/771/5 662/760/4
f 662/762/4 654/761/7 664/773/7
f 664/773/7 671/774/4 662/762/4
f 653/764/2 647/763/2 661/775/2
f 661/775/2 663/776/2 653/764/2
f 657/766/8 656/765/9 665/777/9
f 665/777/9 675/778/8 657/766/8
f 668/767/10 657/768/8 666/779/10
f 675/780/8 666/779/10 657/768/8
f 645/769/1 667/770/1 660/781/1
f 677/782/1 660/781/1 667/770/1
f 670/771/5 671/772/4 678/783/5
f 673/784/4 678/783/5 671/772/4
f 671/774/4 664/773/7 672/785/7
f 672/785/7 673/786/4 671/774/4
f 663/776/2 661/775/2 681/787/2
f 681/787/2 674/788/2 663/776/2
f 675/778/8 665/777/9 683/789/9
f 683/789/9 684/790/8 675/778/8
f 666/779/10 675/780/8 685/791/10
f 684/792/8 685/791/10 675/780/8
f 660/781/1 677/782/1 669/793/1
f 676/794/1 669/793/1 677/782/1
f 678/783/5 673/784/4 679/795/5
f 680/796/4 679/795/5 673/784/4
f 673/786/4 672/785/7 682/797/7
f 682/797/7 680/798/4 673/786/4
f 674/788/2 681/787/2 689/799/2
f 689/799/2 692/800/2 674/788/2
f 684/790/8 683/789/9 694/801/9
f 694/801/9 693/802/8 684/790/8
f 685/791/10 684/792/8 695/803/10
f 693/804/8 695/803/10 684/792/8
f 669/793/1 676/794/1 687/805/1
f 696/806/1 687/805/1 676/794/1
f 679/795/5 680/796/4 690/807/5
f 698/808/4 690/807/5 680/796/4
f 680/798/4 682/797/7 691/809/7
f 691/809/7 698/810/4 680/798/4
f 692/800/2 689/799/2 688/811/2
f 688/811/2 699/812/2 692/800/2
f 693/802/8 694/801/9 702/813/9
f 702/813/9 701/814/8 693/802/8
f 695/803/10 693/804/8 706/815/10
f 701/816/8 706/815/10 693/804/8
f 687/805/1 696/806/1 686/817/1
f 705/818/1 686/817/1 696/806/1
f 690/807/5 698/808/4 697/819/5
f 708/820/4 697/819/5 698/808/4
f 698/810/4 691/809/7 709/821/7
f 709/821/7 708/822/4 698/810/4
f 699/812/2 688/811/2 707/823/2
f 707/823/2 700/824/2 699/812/2
f 701/814/8 702/813/9 711/825/9
f 711/825/9 712/826/8 701/814/8
f 706/815/10 701/816/8 703/827/10
f 712/828/8 703/827/10 701/816/8
f 686/817/1 705/818/1 704/829/1
f 713/830/1 704/829/1 705/818/1
f 697/819/5 708/820/4 719/831/5
f 720/832/4 719/831/5 708/820/4
f 708/822/4 709/821/7 710/833/7
f 710/833/7 720/834/4 708/822/4
f 700/824/2 707/823/2 718/835/2
f 718/835/2 723/836/2 700/824/2
f 712/826/8 711/825/9 724/837/9
f 724/837/9 725/838/8 712/826/8
f 703/827/10 712/828/8 714/839/10
f 725/840/8 714/839/10 712/828/8
f 704/829/1 713/830/1 716/841/1
f 728/842/1 716/841/1 713/830/1
f 719/831/5 720/832/4 721/843/5
f 722/844/4 721/843/5 720/832/4
f 720/834/4 710/833/7 731/845/7
f 731/845/7 722/846/4 720/834/4
f 723/836/2 718/835/2 717/847/2
f 717/847/2 733/848/2 723/836/2
f 725/838/8 724/837/9 735/849/9
f 735/849/9 737/850/8 725/838/8
f 714/839/10 725/840/8 727/851/10
f 737/852/8 727/851/10 725/840/8
f 716/841/1 728/842/1 715/853/1
f 726/854/1 715/853/1 728/842/1
f 721/843/5 722/844/4 740/855/5
f 730/856/11 740/855/5 722/844/4
f 722/846/4 731/845/7 734/857/7
f 734/857/7 730/858/11 722/846/4
f 733/848/2 717/847/2 732/859/2
f 732/859/2 742/860/2 733/848/2
f 737/850/8 735/849/9 736/861/9
f 736/861/9 743/862/12 737/850/8
f 727/851/10 737/852/8 738/863/10
f 743/864/12 738/863/10 737/852/8
f 715/853/1 726/854/1 729/865/1
f 739/866/1 729/865/1 726/854/1
f 740/855/5 730/856/11 744/867/5
f 730/858/11 734/857/7 741/868/7
f 743/862/12 736/861/9 745/869/9
f 738/863/10 743/864/12 746/870/10
