# Blender v2.78 (sub 0) OBJ File: 'vtrack.blend'
# www.blender.org
o wall_frame.001_Cube.001
v 1.338064 0.873676 -4.102665
v 1.117804 0.873675 -4.102665
v 1.117804 2.535708 -2.815946
v 1.338064 2.535709 -2.815946
v 1.117804 4.189442 -2.818481
v 1.338064 4.189443 -2.818481
v 1.338065 -0.873674 -4.102665
v 1.117804 -0.873675 -4.102665
v 1.338065 -2.535707 -2.815946
v 1.117804 -2.535708 -2.815946
v 1.338065 -4.189442 -2.818481
v 1.117804 -4.189442 -2.818481
v 1.338065 -5.920341 -1.805638
v 1.117804 -5.920342 -1.805638
v 1.338065 -7.729649 4.015579
v 1.117804 -7.729649 4.015579
v 1.338065 7.729649 4.015579
v 1.338064 5.920343 -1.805638
v 1.117804 5.920343 -1.805638
v 1.117804 7.729649 4.015579
v 1.338064 0.829685 -3.973978
v 1.338064 2.491718 -2.687259
v 1.117804 2.491717 -2.687259
v 1.117804 0.829684 -3.973978
v 1.338064 4.154010 -2.687180
v 1.117804 4.154009 -2.687180
v 1.338065 -0.829682 -3.973978
v 1.117804 -0.829683 -3.973978
v 1.338065 -2.491715 -2.687259
v 1.117804 -2.491716 -2.687259
v 1.338065 -4.154008 -2.687180
v 1.117804 -4.154009 -2.687180
v 1.338065 -5.813889 -1.721001
v 1.117804 -5.813890 -1.721001
v 1.117804 -7.599721 4.055752
v 1.338065 -7.599721 4.055752
v 1.338065 7.599721 4.055752
v 1.117804 7.599721 4.055752
v 1.117804 5.813890 -1.721001
v 1.338064 5.813891 -1.721001
v 0.998963 4.155083 -2.691158
v 0.998963 5.817116 -1.723566
v 1.219224 -7.603659 4.054535
v 1.219224 -5.817115 -1.723566
v 1.219224 -4.155082 -2.691158
v 1.219224 -2.493048 -2.691158
v 1.219224 -0.831015 -3.977878
v 1.219224 0.831018 -3.977878
v 1.219224 2.493051 -2.691158
v 1.219224 4.155084 -2.691158
v 1.219223 5.817117 -1.723566
v 1.219224 7.603658 4.054535
v 0.998964 7.603658 4.054535
v 0.998964 -5.817116 -1.723566
v 0.998964 -7.603659 4.054535
v 0.998964 -4.155082 -2.691158
v 0.998964 -2.493049 -2.691158
v 0.998964 -0.831016 -3.977878
v 0.998963 0.831017 -3.977878
v 0.998963 2.493050 -2.691158
vt -2.8287 0.5046
vt -10.7985 0.2672
vt -10.8721 0.5047
vt -17.1434 0.2673
vt -17.2169 0.5049
vt 3.6897 0.5044
vt -2.7551 0.2670
vt 11.7332 0.5043
vt 3.7633 0.2669
vt 18.0780 0.5042
vt 11.8067 0.2667
vt 25.5900 0.5040
vt 18.1516 0.2666
vt 48.8230 0.5036
vt 25.6636 0.2665
vt -24.7290 0.5050
vt -47.9106 0.2667
vt -47.9319 0.5053
vt -24.6554 0.2674
vt -2.7674 0.5053
vt -10.8516 0.7428
vt -2.8081 0.7429
vt -10.8109 0.5053
vt -17.1964 0.7428
vt 3.7510 0.5053
vt 3.7102 0.7429
vt 11.7945 0.5054
vt 11.7537 0.7429
vt 18.1393 0.5054
vt 18.0985 0.7430
vt 25.6513 0.5054
vt 25.6106 0.7430
vt 48.8437 0.7431
vt 48.8844 0.5055
vt -47.9308 0.5053
vt -24.7085 0.7428
vt -24.6677 0.5052
vt -17.1557 0.5052
vt 48.8506 0.0279
vt 25.6175 0.2654
vt 48.8506 0.2654
vt -47.9346 0.0279
vt -24.7015 0.2654
vt -24.7015 0.0279
vt -17.1895 0.0279
vt -17.1895 0.2654
vt 18.1055 0.0279
vt 25.6175 0.0279
vt 11.7607 0.0279
vt 18.1055 0.2654
vt 3.7172 0.2654
vt 11.7607 0.2654
vt -2.8012 0.0279
vt 3.7172 0.0279
vt -10.8447 0.0279
vt -2.8012 0.2654
vt -10.8447 0.2654
vt -10.8532 0.9801
vt -17.1566 0.7424
vt -17.1980 0.9800
vt -2.7683 0.7426
vt -10.8118 0.7425
vt -2.8097 0.9802
vt 3.7500 0.7427
vt 11.7521 0.9804
vt 3.7086 0.9803
vt 18.1383 0.7430
vt 11.7935 0.7429
vt 18.0969 0.9805
vt 25.6504 0.7431
vt 48.8420 0.9810
vt 25.6089 0.9806
vt -47.9431 0.9796
vt -24.6687 0.7423
vt -47.9191 0.7423
vt -24.7101 0.9799
vt 0.0000 0.0000
vt 0.0000 0.0000
vt 0.0000 0.0000
vt 0.0000 0.0000
vt 0.0000 0.0000
vt 0.0000 0.0000
vt 0.0000 0.0000
vt 0.0000 0.0000
vt 0.0000 0.0000
vt 0.0000 0.0000
vt 0.0000 0.0000
vt 0.0000 0.0000
vt 0.0000 0.0000
vt 0.0000 0.0000
vt 0.0000 0.0000
vt 0.0000 0.0000
vt 0.0000 0.0000
vt 0.0000 0.0000
vt 0.0000 0.0000
vt 48.8966 0.2660
vt -47.9241 0.7424
vt -47.9124 0.2666
vt 48.8834 0.7434
vt 0.0000 0.0000
vn -0.0000 0.6122 -0.7907
vn -0.0000 -0.0015 -1.0000
vn 0.0000 0.0000 -1.0000
vn 0.0000 -0.6122 -0.7907
vn 0.0000 0.0015 -1.0000
vn 0.0000 -0.5050 -0.8631
vn 0.0000 -0.9549 -0.2968
vn 0.0000 0.9549 -0.2968
vn 0.0000 0.5050 -0.8631
vn 0.0000 -0.6122 0.7907
vn 0.0000 -0.0000 1.0000
vn -0.0000 0.6122 0.7907
vn -0.0000 0.5031 0.8643
vn 0.0000 0.9554 0.2953
vn 0.0000 -0.9554 0.2953
vn 0.0000 -0.5031 0.8643
vn 1.0000 0.0000 0.0000
vn -1.0000 0.0000 0.0000
vn 0.0000 -0.5031 -0.8642
vn 0.0000 -0.9554 -0.2954
vn 0.0000 0.9554 -0.2954
vn -0.0000 0.5031 -0.8642
s off
f 1/1/1 3/2/1 4/3/1
f 4/3/2 5/4/2 6/5/2
f 7/6/3 2/7/3 1/1/3
f 9/8/4 8/9/4 7/6/4
f 11/10/5 10/11/5 9/8/5
f 13/12/6 12/13/6 11/10/6
f 15/14/7 14/15/7 13/12/7
f 18/16/8 20/17/8 17/18/8
f 6/5/9 19/19/9 18/16/9
f 21/20/10 23/21/10 24/22/10
f 22/23/11 26/24/11 23/21/11
f 27/25/11 24/22/11 28/26/11
f 29/27/12 28/26/12 30/28/12
f 31/29/11 30/28/11 32/30/11
f 33/31/13 32/30/13 34/32/13
f 33/31/14 35/33/14 36/34/14
f 37/35/15 39/36/15 40/37/15
f 25/38/16 39/36/16 26/24/16
f 15/39/17 33/40/17 36/41/17
f 17/42/17 40/43/17 18/44/17
f 6/45/17 40/43/17 25/46/17
f 11/47/17 33/40/17 13/48/17
f 9/49/17 31/50/17 11/47/17
f 9/49/17 27/51/17 29/52/17
f 1/53/17 27/51/17 7/54/17
f 4/55/17 21/56/17 1/53/17
f 4/55/17 25/46/17 22/57/17
f 3/58/18 26/59/18 5/60/18
f 3/58/18 24/61/18 23/62/18
f 2/63/18 28/64/18 24/61/18
f 10/65/18 28/64/18 8/66/18
f 10/65/18 32/67/18 30/68/18
f 12/69/18 34/70/18 32/67/18
f 16/71/18 34/70/18 14/72/18
f 20/73/18 39/74/18 38/75/18
f 5/60/18 39/74/18 19/76/18
f 49/77/3 41/78/3 50/79/3
f 48/80/1 60/81/1 49/77/1
f 47/82/3 59/83/3 48/80/3
f 46/84/4 58/85/4 47/82/4
f 45/86/3 57/87/3 46/84/3
f 44/88/19 56/89/19 45/86/19
f 43/90/20 54/91/20 44/88/20
f 51/92/21 53/93/21 52/94/21
f 50/79/22 42/95/22 51/92/22
f 1/1/1 2/7/1 3/2/1
f 4/3/2 3/2/2 5/4/2
f 7/6/3 8/9/3 2/7/3
f 9/8/4 10/11/4 8/9/4
f 11/10/5 12/13/5 10/11/5
f 13/12/6 14/15/6 12/13/6
f 15/14/7 16/96/7 14/15/7
f 18/16/8 19/19/8 20/17/8
f 6/5/9 5/4/9 19/19/9
f 21/20/10 22/23/10 23/21/10
f 22/23/11 25/38/11 26/24/11
f 27/25/11 21/20/11 24/22/11
f 29/27/12 27/25/12 28/26/12
f 31/29/11 29/27/11 30/28/11
f 33/31/13 31/29/13 32/30/13
f 33/31/14 34/32/14 35/33/14
f 37/35/15 38/97/15 39/36/15
f 25/38/16 40/37/16 39/36/16
f 15/39/17 13/48/17 33/40/17
f 17/42/17 37/98/17 40/43/17
f 6/45/17 18/44/17 40/43/17
f 11/47/17 31/50/17 33/40/17
f 9/49/17 29/52/17 31/50/17
f 9/49/17 7/54/17 27/51/17
f 1/53/17 21/56/17 27/51/17
f 4/55/17 22/57/17 21/56/17
f 4/55/17 6/45/17 25/46/17
f 3/58/18 23/62/18 26/59/18
f 3/58/18 2/63/18 24/61/18
f 2/63/18 8/66/18 28/64/18
f 10/65/18 30/68/18 28/64/18
f 10/65/18 12/69/18 32/67/18
f 12/69/18 14/72/18 34/70/18
f 16/71/18 35/99/18 34/70/18
f 20/73/18 19/76/18 39/74/18
f 5/60/18 26/59/18 39/74/18
f 49/77/3 60/81/3 41/78/3
f 48/80/1 59/83/1 60/81/1
f 47/82/3 58/85/3 59/83/3
f 46/84/4 57/87/4 58/85/4
f 45/86/3 56/89/3 57/87/3
f 44/88/19 54/91/19 56/89/19
f 43/90/20 55/100/20 54/91/20
f 51/92/21 42/95/21 53/93/21
f 50/79/22 41/78/22 42/95/22
