# Blender v2.78 (sub 0) OBJ File: 'vtrack.blend'
# www.blender.org
o wall_tunnel_Cube.006
v -1.219225 0.754608 2.091023
v 1.219224 0.907567 2.091023
v -1.219224 0.706434 1.932526
v 1.219224 0.859395 1.932526
v -1.219225 0.706434 2.579183
v 1.219224 0.859395 2.579183
v -1.219224 0.770874 2.255854
v 1.219225 0.923833 2.255855
v -1.219225 0.754607 2.420686
v 1.219224 0.907566 2.420686
v -1.219225 0.628204 1.786454
v 1.219224 0.781168 1.786454
v -1.219225 0.522925 2.853287
v 1.219224 0.675893 2.853287
v -1.219225 0.628204 2.725255
v 1.219224 0.781168 2.725255
v -1.219225 0.248282 3.036438
v 1.219224 0.401263 3.036438
v -1.219225 0.248283 1.475271
v 1.219224 0.401263 1.475271
v -1.219225 0.394641 1.553347
v 1.219224 0.547615 1.553347
v -1.219225 0.522924 1.658421
v 1.219224 0.675893 1.658421
v -1.219225 0.394640 2.958362
v 1.219224 0.547615 2.958362
v -1.219225 0.089475 1.427191
v 1.219224 0.242463 1.427191
v -1.219224 -0.075679 1.410957
v 1.219224 0.077316 1.410957
v -1.219224 -0.075680 3.100752
v 1.219224 0.077315 3.100752
v -1.219225 0.089474 3.084517
v 1.219224 0.242462 3.084518
v -1.219224 -0.399642 3.036438
v 1.219224 -0.246634 3.036438
v -1.219225 -0.399642 1.475271
v 1.219224 -0.246633 1.475271
v -1.219224 -0.240834 1.427191
v 1.219224 -0.087833 1.427191
v -1.219224 -0.240835 3.084517
v 1.219224 -0.087833 3.084517
v -1.219225 -0.674284 2.853287
v 1.219224 -0.521263 2.853287
v -1.219225 -0.674284 1.658422
v 1.219224 -0.521263 1.658421
v -1.219225 -0.546001 1.553348
v 1.219224 -0.392985 1.553348
v -1.219224 -0.546001 2.958361
v 1.219224 -0.392986 2.958361
v -1.219224 -0.779565 1.786454
v 1.219224 -0.626539 1.786454
v -1.219225 -0.857795 2.579182
v 1.219224 -0.704767 2.579182
v -1.219225 -0.779565 2.725254
v 1.219224 -0.626539 2.725254
v -1.219225 -0.922236 2.255854
v 1.219224 -0.769204 2.255855
v -1.219225 -0.905968 2.091023
v 1.219224 -0.752938 2.091023
v -1.219224 -0.857794 1.932526
v 1.219224 -0.704765 1.932526
v -1.219225 -0.905969 2.420685
v 1.219224 -0.752939 2.420685
v -1.229106 0.912179 2.059498
v 1.209339 1.065186 2.059739
v -1.228531 0.854792 1.870695
v 1.209908 1.007939 1.871142
v -1.228531 0.854792 2.641014
v 1.209908 1.007939 2.640568
v -1.229302 0.931555 2.255854
v 1.209147 1.084514 2.255855
v -1.229106 0.912178 2.452211
v 1.209339 1.065186 2.451970
v -1.227592 0.761615 1.696719
v 1.210832 0.914967 1.697304
v -1.226329 0.636230 2.967442
v 1.212080 0.789827 2.966813
v -1.227592 0.761614 2.814989
v 1.210832 0.914967 2.814405
v -1.223047 0.309234 3.185400
v 1.215333 0.463290 3.184958
v -1.223047 0.309235 1.326308
v 1.215333 0.463291 1.326751
v -1.224796 0.483476 1.419195
v 1.213598 0.637320 1.419775
v -1.226329 0.636229 1.544266
v 1.212080 0.789827 1.544895
v -1.224797 0.483476 3.092514
v 1.213598 0.637320 3.091935
v -1.221151 0.120219 1.269169
v 1.217220 0.274415 1.269409
v -1.219185 -0.076303 1.249962
v 1.219185 0.077940 1.249961
v -1.219185 -0.076304 3.261747
v 1.219185 0.077939 3.261747
v -1.221151 0.120218 3.242540
v 1.217220 0.274415 3.242300
v -1.215333 -0.461669 3.184958
v 1.223047 -0.307586 3.185400
v -1.215333 -0.461670 1.326751
v 1.223047 -0.307585 1.326309
v -1.217220 -0.272786 1.269410
v 1.221151 -0.118576 1.269169
v -1.217220 -0.272787 3.242299
v 1.221150 -0.118577 3.242540
v -1.212075 -0.788218 2.966812
v 1.226334 -0.634568 2.967442
v -1.212075 -0.788218 1.544896
v 1.226334 -0.634568 1.544266
v -1.213599 -0.635707 1.419775
v 1.224796 -0.481821 1.419195
v -1.213598 -0.635706 3.091934
v 1.224796 -0.481822 3.092513
v -1.210832 -0.913364 1.697304
v 1.227592 -0.759949 1.696720
v -1.209904 -1.006339 2.640566
v 1.228531 -0.853124 2.641013
v -1.210832 -0.913364 2.814404
v 1.227592 -0.759950 2.814988
v -1.209142 -1.082916 2.255854
v 1.229307 -0.929884 2.255855
v -1.209334 -1.063588 2.059739
v 1.229110 -0.910509 2.059498
v -1.209904 -1.006339 1.871142
v 1.228531 -0.853123 1.870695
v -1.209334 -1.063588 2.451969
v 1.229110 -0.910509 2.452210
v -1.219224 0.754608 2.091022
v 1.219224 0.907567 2.091022
v -1.219224 0.706434 1.932525
v 1.219224 0.859395 1.932525
v -1.219224 0.706434 2.579182
v 1.219224 0.859395 2.579183
v -1.219224 0.770874 2.255854
v 1.219224 0.923834 2.255854
v -1.219224 0.754607 2.420685
v 1.219224 0.907567 2.420685
v -1.219224 0.628204 1.786454
v 1.219224 0.781168 1.786454
v -1.219224 0.522924 2.853287
v 1.219224 0.675894 2.853287
v -1.219224 0.628203 2.725254
v 1.219224 0.781168 2.725254
v -1.219224 0.248282 3.036438
v 1.219224 0.401263 3.036438
v -1.219224 0.248282 1.475270
v 1.219224 0.401264 1.475270
v -1.219224 0.394640 1.553347
v 1.219224 0.547615 1.553347
v -1.219224 0.522924 1.658421
v 1.219224 0.675893 1.658421
v -1.219224 0.394640 2.958361
v 1.219224 0.547615 2.958361
v -1.219225 0.089474 1.427191
v 1.219224 0.242463 1.427191
v -1.219224 -0.075680 1.410956
v 1.219224 0.077316 1.410956
v -1.219224 -0.075680 3.100751
v 1.219224 0.077316 3.100751
v -1.219225 0.089474 3.084517
v 1.219224 0.242463 3.084517
v -1.219224 -0.399642 3.036437
v 1.219224 -0.246633 3.036437
v -1.219224 -0.399642 1.475270
v 1.219224 -0.246633 1.475270
v -1.219224 -0.240834 1.427191
v 1.219224 -0.087832 1.427191
v -1.219224 -0.240835 3.084517
v 1.219224 -0.087833 3.084517
v -1.219224 -0.674284 2.853286
v 1.219224 -0.521263 2.853286
v -1.219224 -0.674284 1.658421
v 1.219224 -0.521263 1.658421
v -1.219224 -0.546002 1.553347
v 1.219224 -0.392985 1.553347
v -1.219224 -0.546001 2.958360
v 1.219224 -0.392985 2.958360
v -1.219224 -0.779565 1.786454
v 1.219224 -0.626538 1.786454
v -1.219224 -0.857795 2.579181
v 1.219224 -0.704766 2.579181
v -1.219224 -0.779565 2.725253
v 1.219224 -0.626539 2.725253
v -1.219224 -0.922236 2.255854
v 1.219224 -0.769203 2.255854
v -1.219224 -0.905969 2.091022
v 1.219224 -0.752938 2.091022
v -1.219224 -0.857795 1.932526
v 1.219224 -0.704765 1.932526
v -1.219224 -0.905969 2.420684
v 1.219224 -0.752938 2.420684
v -1.229105 0.912178 2.059498
v 1.209338 1.065186 2.059738
v -1.228530 0.854791 1.870694
v 1.209908 1.007939 1.871141
v -1.228530 0.854792 2.641014
v 1.209908 1.007939 2.640567
v -1.229302 0.931554 2.255854
v 1.209147 1.084514 2.255854
v -1.229105 0.912177 2.452210
v 1.209338 1.065186 2.451969
v -1.227592 0.761614 1.696719
v 1.210832 0.914967 1.697304
v -1.226329 0.636229 2.967442
v 1.212080 0.789827 2.966813
v -1.227592 0.761614 2.814989
v 1.210832 0.914967 2.814404
v -1.223047 0.309234 3.185400
v 1.215333 0.463291 3.184958
v -1.223047 0.309234 1.326308
v 1.215333 0.463291 1.326750
v -1.224796 0.483476 1.419194
v 1.213598 0.637321 1.419774
v -1.226329 0.636228 1.544266
v 1.212080 0.789827 1.544895
v -1.224796 0.483476 3.092514
v 1.213598 0.637321 3.091934
v -1.221151 0.120218 1.269168
v 1.217219 0.274416 1.269409
v -1.219185 -0.076304 1.249961
v 1.219185 0.077940 1.249961
v -1.219185 -0.076304 3.261746
v 1.219185 0.077940 3.261746
v -1.221151 0.120218 3.242539
v 1.217219 0.274415 3.242299
v -1.215332 -0.461670 3.184957
v 1.223047 -0.307585 3.185399
v -1.215333 -0.461670 1.326751
v 1.223047 -0.307585 1.326308
v -1.217219 -0.272787 1.269409
v 1.221150 -0.118576 1.269168
v -1.217219 -0.272788 3.242298
v 1.221150 -0.118577 3.242539
v -1.212075 -0.788218 2.966812
v 1.226334 -0.634567 2.967441
v -1.212075 -0.788218 1.544895
v 1.226334 -0.634567 1.544266
v -1.213598 -0.635707 1.419774
v 1.224796 -0.481820 1.419194
v -1.213598 -0.635707 3.091933
v 1.224796 -0.481821 3.092513
v -1.210832 -0.913364 1.697304
v 1.227592 -0.759949 1.696719
v -1.209904 -1.006339 2.640565
v 1.228530 -0.853124 2.641012
v -1.210832 -0.913364 2.814403
v 1.227592 -0.759950 2.814988
v -1.209142 -1.082917 2.255854
v 1.229307 -0.929884 2.255854
v -1.209334 -1.063588 2.059738
v 1.229110 -0.910508 2.059498
v -1.209903 -1.006339 1.871142
v 1.228530 -0.853122 1.870694
v -1.209334 -1.063589 2.451968
v 1.229110 -0.910508 2.452209
vt 0.4715 -1.4839
vt 0.0079 -1.9446
vt 0.0079 -1.4839
vt 0.0116 -2.8681
vt 0.4701 -2.4102
vt 0.4701 -2.8681
vt 0.0116 -4.2416
vt 0.4701 -4.6995
vt 0.0116 -4.6995
vt 0.4715 -1.9446
vt 0.0079 -2.4053
vt 0.4715 -2.8660
vt 0.4715 -2.4053
vt 0.0116 -3.3259
vt 0.4701 -3.3259
vt 0.4701 -3.7837
vt 0.0116 -3.7837
vt 0.4715 -0.5621
vt 0.0079 -1.0231
vt 0.0079 -0.5621
vt 0.4715 -4.2486
vt 0.0079 -3.7876
vt 0.4715 -3.7876
vt 0.4701 -5.1576
vt 0.0116 -5.1576
vt 0.0079 -3.3268
vt 0.4715 -3.3268
vt 0.4715 -1.0231
vt 0.0116 -2.4102
vt 0.4701 -1.9523
vt 0.0079 -2.8660
vt 0.4701 -4.2416
vt 0.4715 -5.1710
vt 0.0079 -4.7097
vt 0.4715 -4.7097
vt 0.0116 -5.6158
vt 0.4701 -6.0742
vt 0.0116 -6.0742
vt 0.0116 -1.0360
vt 0.4701 -0.5776
vt 0.4701 -1.0360
vt 0.0116 -1.4942
vt 0.4701 -1.4942
vt 0.4715 -0.1009
vt 0.0079 -0.1009
vt 0.0079 -4.2486
vt 0.4701 -5.6158
vt 0.0116 -1.9523
vt 0.4715 1.2831
vt 0.0079 0.8217
vt 0.0079 1.2831
vt 0.0116 -0.1191
vt 0.4701 0.3394
vt 0.4701 -0.1191
vt 0.4715 -6.0938
vt 0.0079 -5.6323
vt 0.4715 -5.6323
vt 0.0116 8.1286
vt 0.4701 7.6701
vt 0.0116 7.6701
vt 0.4715 0.8217
vt 0.0079 0.3603
vt 0.0116 -0.5776
vt 0.0079 -5.1710
vt 0.4701 -6.5327
vt 0.0116 -6.5327
vt 0.4715 0.3603
vt 0.4715 7.7372
vt 0.0079 8.1986
vt 0.4715 8.1986
vt 0.0116 0.7980
vt 0.4701 1.2564
vt 0.4701 0.7980
vt 0.4715 2.2059
vt 0.0079 1.7445
vt 0.0079 2.2059
vt 0.4715 -6.5552
vt 0.0079 -6.0938
vt 0.0116 7.2116
vt 0.4701 6.7531
vt 0.0116 6.7531
vt 0.4715 1.7445
vt 0.0116 0.3394
vt 0.4701 7.2116
vt 0.0116 5.8365
vt 0.4701 5.3784
vt 0.0116 5.3784
vt 0.0116 1.7148
vt 0.4701 2.1730
vt 0.4701 1.7148
vt 0.4715 3.1283
vt 0.0079 2.6672
vt 0.0079 3.1283
vt 0.4715 7.2759
vt 0.0079 7.7372
vt 0.4715 2.6672
vt 0.0116 1.2564
vt 0.4701 6.2947
vt 0.0116 6.2947
vt 0.4715 4.0501
vt 0.0079 3.5893
vt 0.0079 4.0501
vt 0.4715 5.8930
vt 0.0079 6.3538
vt 0.4715 6.3538
vt 0.4701 4.9204
vt 0.0116 4.9204
vt 0.4701 4.4626
vt 0.0116 4.4626
vt 0.0079 6.8148
vt 0.4715 6.8148
vt 0.4715 3.5893
vt 0.0116 2.1730
vt 0.4701 2.6311
vt 0.0079 7.2759
vt 0.4701 5.8365
vt 0.4715 4.9715
vt 0.0079 5.4322
vt 0.4715 5.4322
vt 0.0079 4.5109
vt 0.0079 4.9715
vt 0.0116 3.5470
vt 0.4701 4.0048
vt 0.4701 3.5470
vt 0.4715 4.5109
vt 0.0116 3.0891
vt 0.4701 3.0891
vt 0.0079 5.8930
vt 0.0116 4.0048
vt 0.0116 2.6311
vt 0.7416 -2.4958
vt 0.5099 4.5954
vt 0.5099 -2.4958
vt 0.9957 -2.4958
vt 0.7417 4.5954
vt 0.7417 -2.4958
vt 0.7416 -2.4958
vt 0.5099 4.5954
vt 0.5099 -2.4958
vt 0.9957 -2.4958
vt 0.7417 4.5954
vt 0.7417 -2.4958
vt 0.7416 -2.4958
vt 0.5099 4.5954
vt 0.5099 -2.4958
vt 0.7421 4.5918
vt 0.9941 -2.4912
vt 0.9941 4.5918
vt 0.7416 -2.4958
vt 0.5099 4.5954
vt 0.5099 -2.4958
vt 0.9957 -2.4958
vt 0.7417 4.5954
vt 0.7417 -2.4958
vt 0.5099 -2.4958
vt 0.7416 4.5954
vt 0.5099 4.5954
vt 0.7417 -2.4958
vt 0.9957 4.5954
vt 0.7417 4.5954
vt 0.5099 -2.4958
vt 0.7416 4.5954
vt 0.5099 4.5954
vt 0.7417 -2.4958
vt 0.9957 4.5954
vt 0.7417 4.5954
vt 0.5103 -2.4899
vt 0.7426 4.5917
vt 0.5103 4.5917
vt 0.7421 -2.4912
vt 0.9941 4.5918
vt 0.7421 4.5918
vt 0.5099 -2.4958
vt 0.7416 4.5954
vt 0.5099 4.5954
vt 0.7417 -2.4958
vt 0.9957 4.5954
vt 0.7417 4.5954
vt 0.5099 -2.4958
vt 0.7416 4.5954
vt 0.5099 4.5954
vt 0.7421 -2.4912
vt 0.9941 4.5918
vt 0.7421 4.5918
vt 0.5099 -2.4958
vt 0.7416 4.5954
vt 0.5099 4.5954
vt 0.7421 -2.4912
vt 0.9941 4.5918
vt 0.7421 4.5918
vt 0.5099 -2.4958
vt 0.7416 4.5954
vt 0.5099 4.5954
vt 0.7417 -2.4958
vt 0.9957 4.5954
vt 0.7417 4.5954
vt 0.5099 -2.4958
vt 0.7416 4.5954
vt 0.5099 4.5954
vt 0.7417 -2.4958
vt 0.9957 4.5954
vt 0.7417 4.5954
vt 0.7416 -2.4958
vt 0.5099 4.5954
vt 0.5099 -2.4958
vt 0.7421 4.5918
vt 0.9941 -2.4912
vt 0.9941 4.5918
vt 0.7416 -2.4958
vt 0.5099 4.5954
vt 0.5099 -2.4958
vt 0.7417 -2.4958
vt 0.9957 4.5954
vt 0.7417 4.5954
vt 0.7416 -2.4958
vt 0.5099 4.5954
vt 0.5099 -2.4958
vt 0.9957 -2.4958
vt 0.7417 4.5954
vt 0.7417 -2.4958
vt 0.7416 -2.4958
vt 0.5099 4.5954
vt 0.5099 -2.4958
vt 0.9957 -2.4958
vt 0.7417 4.5954
vt 0.7417 -2.4958
vt 0.5099 4.5954
vt 0.7416 -2.4958
vt 0.5099 -2.4958
vt 0.7417 4.5954
vt 0.9957 -2.4958
vt 0.7417 -2.4958
vt 0.5099 4.5954
vt 0.7416 -2.4958
vt 0.5099 -2.4958
vt 0.7417 4.5954
vt 0.9957 -2.4958
vt 0.7417 -2.4958
vt 0.5099 4.5954
vt 0.7416 -2.4958
vt 0.5099 -2.4958
vt 0.7417 -2.4958
vt 0.9957 4.5954
vt 0.9957 -2.4958
vt 0.5099 4.5954
vt 0.7416 -2.4958
vt 0.5099 -2.4958
vt 0.7417 4.5954
vt 0.9957 -2.4958
vt 0.7417 -2.4958
vt 0.5099 -2.4958
vt 0.7416 4.5954
vt 0.7416 -2.4958
vt 0.7417 -2.4958
vt 0.9957 4.5954
vt 0.9957 -2.4958
vt 0.5099 -2.4958
vt 0.7416 4.5954
vt 0.7416 -2.4958
vt 0.7417 -2.4958
vt 0.9957 4.5954
vt 0.9957 -2.4958
vt 0.5099 4.5954
vt 0.7416 -2.4958
vt 0.5099 -2.4958
vt 0.7417 4.5954
vt 0.9957 -2.4958
vt 0.7417 -2.4958
vt 0.5099 -2.4958
vt 0.7416 4.5954
vt 0.7416 -2.4958
vt 0.7417 -2.4958
vt 0.9957 4.5954
vt 0.9957 -2.4958
vt 0.5099 -2.4958
vt 0.7416 4.5954
vt 0.7416 -2.4958
vt 0.7417 4.5954
vt 0.9957 -2.4958
vt 0.7417 -2.4958
vt 0.5099 -2.4958
vt 0.7416 4.5954
vt 0.7416 -2.4958
vt 0.9941 4.5918
vt 0.7421 -2.4912
vt 0.7421 4.5918
vt 0.5099 -2.4958
vt 0.7416 4.5954
vt 0.7416 -2.4958
vt 0.7417 -2.4958
vt 0.9957 4.5954
vt 0.9957 -2.4958
vt 0.5099 -2.4958
vt 0.7416 4.5954
vt 0.7416 -2.4958
vt 0.7417 -2.4958
vt 0.9957 4.5954
vt 0.9957 -2.4958
vt 0.5099 4.5954
vt 0.7416 -2.4958
vt 0.5099 -2.4958
vt 0.7417 -2.4958
vt 0.9957 4.5954
vt 0.9957 -2.4958
vt 0.5099 4.5954
vt 0.7416 -2.4958
vt 0.5099 -2.4958
vt 0.7417 -2.4958
vt 0.9957 4.5954
vt 0.9957 -2.4958
vt 0.5099 4.5954
vt 0.7416 -2.4958
vt 0.5099 -2.4958
vt 0.7417 4.5954
vt 0.9957 -2.4958
vt 0.7417 -2.4958
vt 0.5099 4.5954
vt 0.7416 -2.4958
vt 0.5099 -2.4958
vt 0.7417 4.5954
vt 0.9957 -2.4958
vt 0.7417 -2.4958
vt 0.4701 8.1286
vt 0.0079 -6.5552
vt 0.7416 4.5954
vt 0.9957 4.5954
vt 0.7416 4.5954
vt 0.9957 4.5954
vt 0.7416 4.5954
vt 0.7421 -2.4912
vt 0.7416 4.5954
vt 0.9957 4.5954
vt 0.7416 -2.4958
vt 0.9957 -2.4958
vt 0.7416 -2.4958
vt 0.9957 -2.4958
vt 0.7426 -2.4899
vt 0.9941 -2.4912
vt 0.7416 -2.4958
vt 0.9957 -2.4958
vt 0.7416 -2.4958
vt 0.9941 -2.4912
vt 0.7416 -2.4958
vt 0.9941 -2.4912
vt 0.7416 -2.4958
vt 0.9957 -2.4958
vt 0.7416 -2.4958
vt 0.9957 -2.4958
vt 0.7416 4.5954
vt 0.7421 -2.4912
vt 0.7416 4.5954
vt 0.9957 -2.4958
vt 0.7416 4.5954
vt 0.9957 4.5954
vt 0.7416 4.5954
vt 0.9957 4.5954
vt 0.7416 4.5954
vt 0.9957 4.5954
vt 0.7416 4.5954
vt 0.9957 4.5954
vt 0.7416 4.5954
vt 0.7417 4.5954
vt 0.7416 4.5954
vt 0.9957 4.5954
vt 0.5099 4.5954
vt 0.7417 4.5954
vt 0.5099 4.5954
vt 0.7417 4.5954
vt 0.7416 4.5954
vt 0.9957 4.5954
vt 0.5099 4.5954
vt 0.7417 4.5954
vt 0.5099 4.5954
vt 0.9957 4.5954
vt 0.5099 4.5954
vt 0.9941 -2.4912
vt 0.5099 4.5954
vt 0.7417 4.5954
vt 0.5099 4.5954
vt 0.7417 4.5954
vt 0.7416 4.5954
vt 0.7417 4.5954
vt 0.7416 4.5954
vt 0.7417 4.5954
vt 0.7416 4.5954
vt 0.9957 4.5954
vt 0.7416 4.5954
vt 0.9957 4.5954
vn -0.9983 -0.0545 0.0216
vn -0.9982 -0.0597 0.0106
vn -0.9984 -0.0533 0.0192
vn 0.9982 0.0596 -0.0110
vn 0.9983 0.0553 -0.0195
vn 0.9981 0.0608 -0.0104
vn 0.9984 0.0528 0.0204
vn 0.9986 0.0468 0.0259
vn 0.9987 0.0430 0.0264
vn -0.9981 -0.0605 0.0117
vn -0.9981 -0.0621 -0.0000
vn -0.9981 -0.0605 -0.0117
vn -0.9980 -0.0626 -0.0000
vn 0.9981 0.0621 0.0000
vn 0.9980 0.0626 -0.0000
vn 0.9981 0.0608 0.0104
vn 0.9982 0.0596 0.0110
vn -0.9989 -0.0338 0.0310
vn -0.9987 -0.0441 0.0246
vn -0.9991 -0.0336 0.0261
vn -0.9989 -0.0338 -0.0310
vn -0.9987 -0.0441 -0.0246
vn -0.9986 -0.0451 -0.0284
vn 0.9989 0.0364 0.0286
vn 0.9991 0.0316 0.0283
vn -0.9984 -0.0533 -0.0192
vn -0.9983 -0.0545 -0.0216
vn -0.9986 -0.0451 0.0284
vn 0.9984 0.0528 -0.0204
vn 0.9986 0.0468 -0.0259
vn -0.9982 -0.0597 -0.0106
vn 0.9983 0.0553 0.0195
vn -0.9997 -0.0125 -0.0231
vn -0.9995 -0.0232 -0.0235
vn -0.9993 -0.0224 -0.0292
vn 0.9995 0.0204 0.0256
vn 0.9996 0.0167 0.0216
vn 0.9998 0.0110 0.0188
vn 0.9995 0.0204 -0.0256
vn 0.9996 0.0167 -0.0216
vn 0.9993 0.0259 -0.0271
vn 0.9991 0.0316 -0.0283
vn 0.9989 0.0364 -0.0286
vn -0.9993 -0.0224 0.0292
vn -0.9995 -0.0232 0.0235
vn -0.9991 -0.0336 -0.0261
vn 0.9993 0.0259 0.0271
vn 0.9987 0.0430 -0.0264
vn -1.0000 -0.0031 0.0024
vn -0.9999 -0.0092 0.0078
vn -1.0000 -0.0077 -0.0027
vn 0.9999 0.0049 -0.0090
vn 1.0000 0.0077 -0.0027
vn 0.9999 0.0103 -0.0131
vn -1.0000 -0.0031 -0.0024
vn -0.9999 -0.0092 -0.0078
vn -0.9999 -0.0058 -0.0137
vn 0.9999 0.0049 0.0090
vn 1.0000 0.0077 0.0027
vn 1.0000 0.0031 -0.0024
vn -0.9999 -0.0058 0.0137
vn -0.9997 -0.0147 0.0170
vn 0.9998 0.0110 -0.0188
vn -0.9997 -0.0147 -0.0170
vn 0.9999 0.0103 0.0131
vn -0.9997 -0.0125 0.0231
vn -0.9998 -0.0110 0.0188
vn -0.9999 -0.0103 0.0131
vn -0.9999 -0.0049 0.0090
vn 0.9999 0.0058 0.0137
vn 0.9997 0.0147 0.0170
vn 0.9999 0.0092 0.0078
vn -0.9998 -0.0110 -0.0188
vn -0.9999 -0.0103 -0.0131
vn -0.9996 -0.0167 -0.0216
vn -1.0000 -0.0077 0.0027
vn 0.9999 0.0058 -0.0137
vn 0.9997 0.0147 -0.0170
vn 0.9997 0.0125 -0.0231
vn -0.9999 -0.0049 -0.0090
vn 1.0000 0.0031 0.0024
vn 0.9999 0.0092 -0.0078
vn 0.9989 0.0338 -0.0311
vn 0.9987 0.0441 -0.0246
vn 0.9986 0.0451 -0.0284
vn 0.9993 0.0224 0.0292
vn 0.9991 0.0336 0.0261
vn 0.9995 0.0232 0.0234
vn -0.9991 -0.0316 -0.0283
vn -0.9993 -0.0259 -0.0271
vn -0.9989 -0.0365 -0.0286
vn -0.9995 -0.0204 0.0256
vn -0.9996 -0.0167 0.0216
vn -0.9995 -0.0204 -0.0256
vn 0.9997 0.0125 0.0231
vn 0.9995 0.0232 -0.0234
vn 0.9993 0.0224 -0.0292
vn -0.9984 -0.0529 -0.0204
vn -0.9986 -0.0468 -0.0259
vn -0.9983 -0.0554 -0.0195
vn -0.9984 -0.0529 0.0204
vn -0.9986 -0.0468 0.0259
vn -0.9987 -0.0430 0.0264
vn 0.9984 0.0533 -0.0191
vn 0.9983 0.0545 -0.0216
vn 0.9982 0.0597 -0.0106
vn 0.9981 0.0605 -0.0117
vn -0.9989 -0.0365 0.0286
vn -0.9991 -0.0316 0.0283
vn -0.9987 -0.0430 -0.0264
vn 0.9989 0.0338 0.0310
vn 0.9987 0.0441 0.0246
vn -0.9993 -0.0259 0.0271
vn 0.9991 0.0336 -0.0261
vn -0.9981 -0.0608 0.0104
vn -0.9982 -0.0597 0.0110
vn -0.9981 -0.0608 -0.0104
vn 0.9981 0.0605 0.0117
vn 0.9982 0.0597 0.0106
vn -0.9982 -0.0597 -0.0110
vn 0.9983 0.0545 0.0216
vn 0.9984 0.0533 0.0192
vn -0.9983 -0.0554 0.0195
vn 0.9986 0.0451 0.0284
vn 0.0120 -0.1910 -0.9815
vn 0.0002 -0.0039 -1.0000
vn -0.0002 0.0039 -1.0000
vn 0.0238 -0.3786 -0.9253
vn 0.0125 -0.1985 -0.9800
vn 0.0346 -0.5518 -0.8333
vn 0.0242 -0.3853 -0.9225
vn 0.0442 -0.7038 -0.7091
vn 0.0350 -0.5572 -0.8296
vn 0.0520 -0.8286 -0.5574
vn 0.0444 -0.7077 -0.7051
vn 0.0521 -0.8311 -0.5537
vn 0.0578 -0.9215 -0.3841
vn 0.0579 -0.9226 -0.3813
vn 0.0614 -0.9787 -0.1958
vn 0.0626 -0.9980 -0.0000
vn 0.0614 -0.9790 -0.1943
vn 0.0614 -0.9790 0.1943
vn 0.0614 -0.9787 0.1958
vn 0.0579 -0.9226 0.3813
vn 0.0578 -0.9215 0.3841
vn 0.0521 -0.8311 0.5537
vn 0.0520 -0.8286 0.5574
vn 0.0444 -0.7077 0.7051
vn 0.0442 -0.7038 0.7091
vn 0.0350 -0.5572 0.8296
vn 0.0346 -0.5518 0.8333
vn 0.0242 -0.3853 0.9225
vn 0.0238 -0.3786 0.9253
vn 0.0125 -0.1985 0.9800
vn 0.0120 -0.1910 0.9815
vn 0.0002 -0.0039 1.0000
vn -0.0002 0.0039 1.0000
vn -0.0120 0.1910 0.9815
vn -0.0125 0.1985 0.9800
vn -0.0238 0.3786 0.9252
vn -0.0242 0.3853 0.9225
vn -0.0346 0.5518 0.8333
vn -0.0350 0.5572 0.8297
vn -0.0442 0.7038 0.7090
vn -0.0444 0.7077 0.7051
vn -0.0520 0.8286 0.5574
vn -0.0522 0.8310 0.5538
vn -0.0578 0.9215 0.3841
vn -0.0579 0.9226 0.3813
vn -0.0614 0.9787 0.1958
vn -0.0614 0.9790 0.1943
vn -0.0626 0.9980 0.0000
vn -0.0614 0.9790 -0.1943
vn -0.0614 0.9787 -0.1958
vn -0.0579 0.9226 -0.3813
vn -0.0578 0.9215 -0.3840
vn -0.0522 0.8310 -0.5538
vn -0.0520 0.8286 -0.5574
vn -0.0444 0.7077 -0.7051
vn -0.0442 0.7038 -0.7090
vn -0.0350 0.5572 -0.8297
vn -0.0242 0.3853 -0.9225
vn -0.0346 0.5518 -0.8333
vn -0.0125 0.1985 -0.9800
vn -0.0238 0.3786 -0.9252
vn -0.0120 0.1910 -0.9815
vn -0.0124 0.1985 0.9800
vn -0.0238 0.3786 0.9253
vn -0.0241 0.3853 0.9225
vn -0.0347 0.5518 0.8333
vn -0.0349 0.5572 0.8296
vn -0.0442 0.7038 0.7091
vn -0.0521 0.8311 0.5537
vn -0.0578 0.9215 0.3840
vn -0.0521 0.8311 -0.5537
vn -0.0442 0.7038 -0.7091
vn -0.0349 0.5572 -0.8296
vn -0.0241 0.3853 -0.9225
vn -0.0347 0.5518 -0.8333
vn -0.0238 0.3786 -0.9253
vn -0.0124 0.1985 -0.9800
vn 0.0124 -0.1985 -0.9800
vn 0.0238 -0.3786 -0.9252
vn 0.0241 -0.3853 -0.9225
vn 0.0347 -0.5518 -0.8333
vn 0.0349 -0.5572 -0.8297
vn 0.0442 -0.7038 -0.7090
vn 0.0521 -0.8310 -0.5538
vn 0.0579 -0.9215 -0.3840
vn 0.0579 -0.9215 0.3840
vn 0.0521 -0.8310 0.5538
vn 0.0442 -0.7038 0.7090
vn 0.0349 -0.5572 0.8297
vn 0.0347 -0.5518 0.8333
vn 0.0241 -0.3853 0.9225
vn 0.0238 -0.3786 0.9252
vn 0.0124 -0.1985 0.9800
s 1
f 3/1/1 65/2/2 67/3/3
f 2/4/4 68/5/5 66/6/6
f 6/7/7 80/8/8 16/9/9
f 1/10/10 71/11/11 65/2/2
f 9/12/12 71/11/11 7/13/13
f 8/14/14 66/6/6 72/15/15
f 8/14/14 74/16/16 10/17/17
f 23/18/18 75/19/19 87/20/20
f 13/21/21 79/22/22 15/23/23
f 16/9/9 78/24/24 14/25/25
f 15/23/23 69/26/26 5/27/27
f 11/28/28 67/3/3 75/19/19
f 4/29/29 76/30/30 68/5/5
f 5/27/27 73/31/31 9/12/12
f 10/17/17 70/32/32 6/7/7
f 17/33/33 89/34/34 25/35/35
f 26/36/36 82/37/37 18/38/38
f 22/39/39 84/40/40 86/41/41
f 24/42/42 86/41/41 88/43/43
f 21/44/44 87/20/20 85/45/45
f 25/35/35 77/46/46 13/21/21
f 14/25/25 90/47/47 26/36/36
f 12/48/48 88/43/43 76/30/30
f 29/49/49 91/50/50 93/51/51
f 28/52/52 94/53/53 92/54/54
f 31/55/55 97/56/56 33/57/57
f 34/58/58 96/59/59 32/60/60
f 27/61/61 83/62/62 91/50/50
f 20/63/63 92/54/54 84/40/40
f 33/57/57 81/64/64 17/33/33
f 18/38/38 98/65/65 34/66/58
f 19/67/66 85/45/45 83/62/62
f 35/68/67 105/69/68 41/70/69
f 40/71/70 102/72/71 104/73/72
f 37/74/73 103/75/74 101/76/75
f 41/77/69 95/78/76 31/55/55
f 42/79/77 100/80/78 36/81/79
f 39/82/80 93/51/51 103/75/74
f 30/83/81 104/73/72 94/53/53
f 32/60/60 106/84/82 42/79/77
f 44/85/83 120/86/84 56/87/85
f 48/88/86 110/89/87 112/90/88
f 45/91/89 111/92/90 109/93/91
f 49/94/92 99/95/93 35/68/67
f 47/96/94 101/76/75 111/92/90
f 38/97/95 112/90/88 102/72/71
f 36/81/79 114/98/96 50/99/97
f 61/100/98 115/101/99 125/102/100
f 53/103/101 119/104/102 55/105/103
f 56/87/85 118/106/104 54/107/105
f 54/107/105 128/108/106 64/109/107
f 55/105/103 107/110/108 43/111/109
f 51/112/110 109/93/91 115/101/99
f 46/113/111 116/114/112 110/89/87
f 43/111/109 113/115/113 49/94/92
f 50/99/97 108/116/114 44/85/83
f 57/117/11 127/118/115 63/119/116
f 57/117/11 123/120/117 121/121/13
f 60/122/118 122/123/14 124/124/119
f 59/125/120 125/102/100 123/120/117
f 62/126/121 124/124/119 126/127/122
f 63/119/116 117/128/123 53/103/101
f 64/109/107 122/123/14 58/129/15
f 52/130/124 126/127/122 116/114/112
f 161/131/125 160/132/126 159/133/127
f 145/134/128 162/135/129 161/136/125
f 153/137/130 146/138/131 145/139/128
f 141/140/132 154/141/133 153/142/130
f 143/143/134 142/144/135 141/145/132
f 144/146/136 133/147/137 134/148/138
f 137/149/139 134/150/138 133/151/137
f 135/152/140 138/153/141 137/154/139
f 135/155/140 130/156/142 136/157/140
f 129/158/143 132/159/144 130/160/142
f 131/161/145 140/162/146 132/163/144
f 139/164/147 152/165/148 140/166/146
f 151/167/149 150/168/150 152/169/148
f 149/170/151 148/171/152 150/172/150
f 147/173/153 156/174/154 148/175/152
f 155/176/155 158/177/156 156/178/154
f 157/179/157 168/180/158 158/181/156
f 167/182/159 166/183/160 168/184/158
f 165/185/161 176/186/162 166/187/160
f 175/188/163 174/189/164 176/190/162
f 173/191/165 180/192/166 174/193/164
f 179/194/167 190/195/168 180/196/166
f 189/197/169 188/198/170 190/199/168
f 187/200/171 186/201/172 188/202/170
f 191/203/173 186/204/172 185/205/172
f 192/206/174 181/207/175 182/208/176
f 183/209/177 182/210/176 181/211/175
f 184/212/178 171/213/179 172/214/180
f 177/215/181 172/216/180 171/217/179
f 163/218/182 178/219/183 177/220/181
f 169/221/184 164/222/185 163/223/182
f 159/224/127 170/225/186 169/226/184
f 224/227/157 225/228/158 223/229/156
f 226/230/187 209/231/188 225/232/158
f 210/233/189 217/234/190 209/235/188
f 218/236/191 205/237/192 217/238/190
f 206/239/165 207/240/166 205/241/192
f 208/242/193 197/243/194 207/244/166
f 198/245/169 201/246/170 197/247/194
f 202/248/171 199/249/172 201/250/170
f 199/251/172 194/252/173 193/253/174
f 193/254/174 196/255/175 195/256/176
f 195/257/176 204/258/195 203/259/178
f 203/260/178 216/261/179 215/262/196
f 214/263/197 215/264/196 216/265/179
f 212/266/198 213/267/199 214/268/197
f 211/269/200 220/270/201 219/271/186
f 219/272/186 222/273/127 221/274/126
f 221/275/126 232/276/125 231/277/202
f 230/278/203 231/279/202 232/280/125
f 229/281/204 240/282/205 239/283/206
f 238/284/207 239/285/206 240/286/205
f 237/287/135 244/288/134 243/289/208
f 243/290/208 254/291/209 253/292/138
f 253/293/138 252/294/139 251/295/141
f 251/296/141 250/297/140 249/298/140
f 250/299/140 255/300/142 249/301/140
f 256/302/143 245/303/144 255/304/142
f 246/305/210 247/306/211 245/307/144
f 248/308/147 235/309/148 247/310/211
f 236/311/212 241/312/213 235/313/148
f 242/314/214 227/315/215 241/316/213
f 228/317/216 233/318/217 227/319/215
f 234/320/155 223/321/156 233/322/217
f 3/1/1 1/10/10 65/2/2
f 2/4/4 4/29/29 68/5/5
f 6/7/7 70/32/32 80/8/8
f 1/10/10 7/13/13 71/11/11
f 9/12/12 73/31/31 71/11/11
f 8/14/14 2/4/4 66/6/6
f 8/14/14 72/15/15 74/16/16
f 23/18/18 11/28/28 75/19/19
f 13/21/21 77/46/46 79/22/22
f 16/9/9 80/8/8 78/24/24
f 15/23/23 79/22/22 69/26/26
f 11/28/28 3/1/1 67/3/3
f 4/29/29 12/48/48 76/30/30
f 5/27/27 69/26/26 73/31/31
f 10/17/17 74/16/16 70/32/32
f 17/33/33 81/64/64 89/34/34
f 26/36/36 90/47/47 82/37/37
f 22/39/39 20/63/63 84/40/40
f 24/42/42 22/39/39 86/41/41
f 21/44/44 23/18/18 87/20/20
f 25/35/35 89/34/34 77/46/46
f 14/25/25 78/24/24 90/47/47
f 12/48/48 24/42/42 88/43/43
f 29/49/49 27/61/61 91/50/50
f 28/52/52 30/83/81 94/53/53
f 31/55/55 95/78/76 97/56/56
f 34/58/58 98/323/65 96/59/59
f 27/61/61 19/67/66 83/62/62
f 20/63/63 28/52/52 92/54/54
f 33/57/57 97/56/56 81/64/64
f 18/38/38 82/37/37 98/65/65
f 19/67/66 21/44/44 85/45/45
f 35/68/67 99/95/93 105/69/68
f 40/71/70 38/97/95 102/72/71
f 37/74/73 39/82/80 103/75/74
f 41/77/69 105/324/68 95/78/76
f 42/79/77 106/84/82 100/80/78
f 39/82/80 29/49/49 93/51/51
f 30/83/81 40/71/70 104/73/72
f 32/60/60 96/59/59 106/84/82
f 44/85/83 108/116/114 120/86/84
f 48/88/86 46/113/111 110/89/87
f 45/91/89 47/96/94 111/92/90
f 49/94/92 113/115/113 99/95/93
f 47/96/94 37/74/73 101/76/75
f 38/97/95 48/88/86 112/90/88
f 36/81/79 100/80/78 114/98/96
f 61/100/98 51/112/110 115/101/99
f 53/103/101 117/128/123 119/104/102
f 56/87/85 120/86/84 118/106/104
f 54/107/105 118/106/104 128/108/106
f 55/105/103 119/104/102 107/110/108
f 51/112/110 45/91/89 109/93/91
f 46/113/111 52/130/124 116/114/112
f 43/111/109 107/110/108 113/115/113
f 50/99/97 114/98/96 108/116/114
f 57/117/11 121/121/13 127/118/115
f 57/117/11 59/125/120 123/120/117
f 60/122/118 58/129/15 122/123/14
f 59/125/120 61/100/98 125/102/100
f 62/126/121 60/122/118 124/124/119
f 63/119/116 127/118/115 117/128/123
f 64/109/107 128/108/106 122/123/14
f 52/130/124 62/126/121 126/127/122
f 161/131/125 162/325/129 160/132/126
f 145/134/128 146/326/131 162/135/129
f 153/137/130 154/327/133 146/138/131
f 141/140/132 142/328/135 154/141/133
f 143/143/134 144/329/136 142/144/135
f 144/146/136 143/330/134 133/147/137
f 137/149/139 138/331/141 134/150/138
f 135/152/140 136/332/140 138/153/141
f 135/155/140 129/333/143 130/156/142
f 129/158/143 131/334/145 132/159/144
f 131/161/145 139/335/147 140/162/146
f 139/164/147 151/336/149 152/165/148
f 151/167/149 149/337/151 150/168/150
f 149/170/151 147/338/153 148/171/152
f 147/173/153 155/339/155 156/174/154
f 155/176/155 157/340/157 158/177/156
f 157/179/157 167/341/159 168/180/158
f 167/182/159 165/342/161 166/183/160
f 165/185/161 175/343/163 176/186/162
f 175/188/163 173/344/165 174/189/164
f 173/191/165 179/345/167 180/192/166
f 179/194/167 189/346/169 190/195/168
f 189/197/169 187/347/171 188/198/170
f 187/200/171 185/348/172 186/201/172
f 191/203/173 192/349/174 186/204/172
f 192/206/174 191/350/173 181/207/175
f 183/209/177 184/351/178 182/210/176
f 184/212/178 183/352/177 171/213/179
f 177/215/181 178/353/183 172/216/180
f 163/218/182 164/354/185 178/219/183
f 169/221/184 170/355/186 164/222/185
f 159/224/127 160/356/126 170/225/186
f 224/227/157 226/357/187 225/228/158
f 226/230/187 210/358/189 209/231/188
f 210/233/189 218/359/191 217/234/190
f 218/236/191 206/360/165 205/237/192
f 206/239/165 208/361/193 207/240/166
f 208/242/193 198/362/169 197/243/194
f 198/245/169 202/363/171 201/246/170
f 202/248/171 200/364/172 199/249/172
f 199/251/172 200/365/172 194/252/173
f 193/254/174 194/366/173 196/255/175
f 195/257/176 196/367/175 204/258/195
f 203/260/178 204/368/195 216/261/179
f 214/263/197 213/369/199 215/264/196
f 212/266/198 211/370/200 213/267/199
f 211/269/200 212/371/198 220/270/201
f 219/272/186 220/372/201 222/273/127
f 221/275/126 222/373/127 232/276/125
f 230/278/203 229/374/204 231/279/202
f 229/281/204 230/375/203 240/282/205
f 238/284/207 237/376/135 239/285/206
f 237/287/135 238/377/207 244/288/134
f 243/290/208 244/378/134 254/291/209
f 253/293/138 254/379/209 252/294/139
f 251/296/141 252/380/139 250/297/140
f 250/299/140 256/381/143 255/300/142
f 256/302/143 246/382/210 245/303/144
f 246/305/210 248/383/147 247/306/211
f 248/308/147 236/384/212 235/309/148
f 236/311/212 242/385/214 241/312/213
f 242/314/214 228/386/216 227/315/215
f 228/317/216 234/387/155 233/318/217
f 234/320/155 224/388/157 223/321/156
