# Blender v2.78 (sub 0) OBJ File: 'vtrack.blend'
# www.blender.org
o wall_front_Cube.005
v 1.219224 -7.603659 4.054535
v 1.219224 -5.817115 -1.723566
v 1.219224 -4.155082 -2.691158
v 1.219224 -2.493048 -2.691158
v 1.219224 -0.831015 -3.977878
v 1.219224 0.831018 -3.977878
v 1.219224 2.493051 -2.691158
v 1.219224 4.155084 -2.691158
v 1.219223 5.817117 -1.723566
v 1.219224 7.603658 4.054535
v -1.219224 -7.603659 4.054535
v -1.219224 -5.817115 -1.723566
v -1.219224 -4.155082 -2.691158
v -1.219224 -2.493048 -2.691158
v -1.219224 -0.831015 -3.977878
v -1.219224 0.831018 -3.977878
v -1.219224 2.493051 -2.691158
v -1.219224 4.155084 -2.691158
v -1.219223 5.817117 -1.723566
v -1.219224 7.603658 4.054535
v -1.219225 0.788587 2.084277
v 1.219224 0.954047 2.084918
v -1.219224 0.738442 1.919294
v 1.219224 0.903230 1.917718
v -1.219225 0.738442 2.592415
v 1.219224 0.903230 2.599881
v -1.219224 0.805519 2.255854
v 1.219225 0.971207 2.258800
v -1.219225 0.788586 2.427431
v 1.219224 0.954047 2.432681
v -1.219225 0.657010 1.767244
v 1.219224 0.820709 1.763627
v -1.219225 0.547422 2.877737
v 1.219224 0.709654 2.889035
v -1.219225 0.657009 2.744464
v 1.219224 0.820709 2.753973
v -1.219225 0.261540 3.068383
v 1.219224 0.401263 3.036438
v -1.219225 0.261541 1.443326
v 1.219224 0.419945 1.435357
v -1.219225 0.413888 1.524598
v 1.219224 0.574332 1.517721
v -1.219225 0.547422 1.633972
v 1.219224 0.709653 1.628564
v -1.219225 0.413888 2.987111
v 1.219224 0.574332 2.999879
v -1.219225 0.096234 1.393279
v 1.219224 0.252426 1.384638
v -1.219224 -0.075679 1.376380
v 1.219224 0.078211 1.367512
v -1.219224 -0.075680 3.135329
v 1.219224 0.078210 3.150087
v -1.219225 0.096233 3.118430
v 1.219224 0.242462 3.084518
v -1.219224 -0.412899 3.068383
v 1.219224 -0.263525 3.082242
v -1.219225 -0.412900 1.443326
v 1.219224 -0.263525 1.435357
v -1.219224 -0.247593 1.393279
v 1.219224 -0.096005 1.384638
v -1.219224 -0.247594 3.118430
v 1.219224 -0.096006 3.132961
v -1.219225 -0.698781 2.877736
v 1.219224 -0.553233 2.889035
v -1.219225 -0.698781 1.633972
v 1.219224 -0.553233 1.628564
v -1.219225 -0.565249 1.524598
v 1.219224 -0.417912 1.517721
v -1.219224 -0.565248 2.987110
v 1.219224 -0.417913 2.999878
v -1.219224 -0.808370 1.767245
v 1.219224 -0.664289 1.763627
v -1.219225 -0.889802 2.592414
v 1.219224 -0.746812 2.599880
v -1.219225 -0.808371 2.744463
v 1.219224 -0.664290 2.753972
v -1.219225 -0.956880 2.255854
v 1.219224 -0.814788 2.258800
v -1.219225 -0.939947 2.084277
v 1.219224 -0.797629 2.084918
v -1.219224 -0.889802 1.919294
v 1.219224 -0.746811 1.917719
v -1.219225 -0.939948 2.427430
v 1.219224 -0.797629 2.432680
vt -8.4222 3.2217
vt -0.6522 -2.6311
vt -0.6771 -2.8840
vt -11.1633 -5.6437
vt -0.8870 -2.6311
vt -8.4222 3.2217
vt 1.8955 -2.6311
vt 1.8216 -2.3879
vt 9.4283 3.2217
vt 1.6858 -2.8840
vt 1.6609 -3.1369
vt 12.1694 -5.6437
vt -11.1633 -5.6437
vt -3.3220 4.7063
vt 0.6217 -1.5876
vt 0.3683 -1.6125
vt -5.8721 4.7063
vt -0.5783 -2.3879
vt 0.6217 -4.1803
vt 12.1694 -5.6437
vt 0.3683 -4.1554
vt -0.4582 -2.1638
vt 1.7781 6.6805
vt -0.7720 6.6805
vt 0.1246 -4.0816
vt -0.0999 -3.9618
vt 0.1246 -1.6863
vt -0.0999 -1.8061
vt -0.2967 -3.8006
vt -0.4582 -3.6042
vt -0.2967 -1.9673
vt -0.5783 -3.3800
vt -0.6522 -3.1369
vt 0.3869 -4.1803
vt 0.1335 -4.1554
vt -0.1101 -4.0816
vt -0.5315 -1.9673
vt -0.3347 -1.8061
vt -3.3220 4.7063
vt 0.3869 -1.5876
vt -0.7720 6.6805
vt -0.1101 -1.6863
vt -0.3347 -3.9618
vt -0.5315 -3.8006
vt 0.1335 -1.6125
vt -0.6930 -3.6042
vt -0.8131 -3.3800
vt -0.6930 -2.1638
vt -5.8721 4.7063
vt -0.8870 -3.1369
vt -0.9119 -2.8840
vt -0.8131 -2.3879
vt 1.3433 -3.9618
vt 0.8751 -4.1554
vt 1.1187 -4.0816
vt 1.5401 -1.9673
vt 1.3433 -1.8061
vt 4.3282 4.7063
vt 1.1187 -1.6863
vt 1.5401 -3.8006
vt 1.7016 -3.6042
vt 0.8751 -1.6125
vt 1.8216 -3.3801
vt 1.8955 -3.1369
vt 1.7016 -2.1638
vt 6.8783 4.7063
vt 1.9205 -2.8840
vt 1.7781 6.6805
vt 4.3282 4.7063
vt 9.4283 3.2217
vt 6.8783 4.7063
vt 1.5869 -2.3879
vt 0.6403 -1.6125
vt 0.8840 -1.6863
vt 0.6403 -4.1554
vt 1.4669 -2.1638
vt 1.1086 -1.8061
vt 0.8840 -4.0816
vt 1.1086 -3.9618
vt 1.3054 -1.9673
vt 1.3054 -3.8006
vt 1.4669 -3.6042
vt 1.6609 -2.6311
vt 1.5869 -3.3801
vn 1.0000 -0.0000 0.0000
vn -1.0000 0.0000 -0.0000
s off
f 2/1/1 80/2/1 78/3/1
f 11/4/2 79/5/2 12/6/2
f 22/7/1 24/8/1 9/9/1
f 27/10/2 29/11/2 20/12/2
f 1/13/1 2/1/1 78/3/1
f 4/14/1 50/15/1 60/16/1
f 2/1/1 3/17/1 82/18/1
f 52/19/1 10/20/1 1/13/1
f 62/21/1 52/19/1 1/13/1
f 3/17/1 4/14/1 72/22/1
f 6/23/1 50/15/1 5/24/1
f 50/15/1 4/14/1 5/24/1
f 56/25/1 62/21/1 1/13/1
f 70/26/1 56/25/1 1/13/1
f 4/14/1 60/16/1 58/27/1
f 4/14/1 58/27/1 68/28/1
f 64/29/1 70/26/1 1/13/1
f 76/30/1 64/29/1 1/13/1
f 4/14/1 68/28/1 66/31/1
f 4/14/1 66/31/1 72/22/1
f 74/32/1 76/30/1 1/13/1
f 84/33/1 74/32/1 1/13/1
f 3/17/1 72/22/1 82/18/1
f 2/1/1 82/18/1 80/2/1
f 78/3/1 84/33/1 1/13/1
f 11/4/2 51/34/2 61/35/2
f 11/4/2 61/35/2 55/36/2
f 65/37/2 67/38/2 14/39/2
f 49/40/2 15/41/2 14/39/2
f 14/39/2 67/38/2 57/42/2
f 11/4/2 55/36/2 69/43/2
f 11/4/2 69/43/2 63/44/2
f 59/45/2 49/40/2 14/39/2
f 57/42/2 59/45/2 14/39/2
f 11/4/2 63/44/2 75/46/2
f 11/4/2 75/46/2 73/47/2
f 71/48/2 65/37/2 14/39/2
f 13/49/2 71/48/2 14/39/2
f 11/4/2 73/47/2 83/50/2
f 11/4/2 83/50/2 77/51/2
f 13/49/2 12/6/2 71/48/2
f 71/48/2 12/6/2 81/52/2
f 11/4/2 77/51/2 79/5/2
f 81/52/2 12/6/2 79/5/2
f 10/20/1 52/19/1 46/53/1
f 54/54/1 38/55/1 46/53/1
f 52/19/1 54/54/1 46/53/1
f 44/56/1 42/57/1 7/58/1
f 50/15/1 6/23/1 7/58/1
f 7/58/1 42/57/1 40/59/1
f 10/20/1 46/53/1 34/60/1
f 10/20/1 34/60/1 36/61/1
f 48/62/1 50/15/1 7/58/1
f 40/59/1 48/62/1 7/58/1
f 10/20/1 36/61/1 26/63/1
f 10/20/1 26/63/1 30/64/1
f 32/65/1 44/56/1 7/58/1
f 8/66/1 32/65/1 7/58/1
f 10/20/1 30/64/1 28/67/1
f 10/20/1 28/67/1 22/7/1
f 8/66/1 9/9/1 32/65/1
f 32/65/1 9/9/1 24/8/1
f 10/20/1 22/7/1 9/9/1
f 16/68/2 15/41/2 49/40/2
f 16/68/2 49/40/2 17/69/2
f 19/70/2 18/71/2 23/72/2
f 17/69/2 49/40/2 47/73/2
f 17/69/2 47/73/2 39/74/2
f 20/12/2 19/70/2 27/10/2
f 51/34/2 11/4/2 20/12/2
f 53/75/2 51/34/2 20/12/2
f 18/71/2 17/69/2 31/76/2
f 17/69/2 39/74/2 41/77/2
f 37/78/2 53/75/2 20/12/2
f 45/79/2 37/78/2 20/12/2
f 17/69/2 41/77/2 43/80/2
f 17/69/2 43/80/2 31/76/2
f 33/81/2 45/79/2 20/12/2
f 35/82/2 33/81/2 20/12/2
f 18/71/2 31/76/2 23/72/2
f 19/70/2 23/72/2 21/83/2
f 25/84/2 35/82/2 20/12/2
f 29/11/2 25/84/2 20/12/2
f 19/70/2 21/83/2 27/10/2
