# Blender v2.78 (sub 0) OBJ File: 'vtrack.blend'
# www.blender.org
o wall_house_stair_Cube.005_wall_house_stair_Cube.007
v -62.403053 -71.412094 4.116832
v -63.803650 -69.763260 4.090229
v -63.783630 -69.704956 5.765655
v -62.367702 -71.371872 5.792540
v -64.083000 -70.052078 2.102262
v -62.702728 -71.676987 2.128491
v -64.400009 -70.324203 2.115518
v -64.594299 -70.470245 2.969477
v -63.768112 -69.659760 7.064538
v -62.340298 -71.340698 7.091638
v -65.206108 -68.153824 4.037230
v -65.199615 -68.079971 5.712150
v -65.465660 -68.465393 2.050012
v -65.778137 -68.742706 2.063450
v -65.976326 -68.884232 2.917269
v -65.194595 -68.022720 7.010641
v -66.607269 -66.613541 3.964581
v -66.610458 -66.528992 5.639004
v -66.849579 -66.944138 1.978263
v -67.154984 -67.229202 1.992079
v -67.353493 -67.370346 2.845891
v -66.612923 -66.463440 6.937110
v -67.998550 -65.173462 3.884185
v -68.004837 -65.085556 5.558427
v -68.228958 -65.516495 1.898561
v -68.524178 -65.812073 1.912971
v -73.776367 -71.022736 3.013962
v -68.717697 -65.958267 2.767074
v -73.768570 -71.131805 0.936618
v -73.840958 -71.298615 -0.736054
v -68.009720 -65.017395 6.856390
v -69.365891 -63.866817 3.813294
v -69.365173 -63.785385 5.487875
v -69.593422 -64.212814 1.827851
v -69.874718 -64.521622 1.842987
v -74.875771 -69.971130 2.957071
v -70.055733 -64.679642 2.697731
v -74.876656 -70.072159 0.879304
v -74.952339 -70.236008 -0.793514
v -75.248627 -70.561279 -0.777571
v -75.248466 -70.542679 -0.395074
v -69.364632 -63.722260 6.786102
v -70.702911 -62.714397 3.768761
v -70.682617 -62.649597 5.443948
v -70.939011 -63.053257 1.783086
v -71.201950 -63.377815 1.798828
v -75.866608 -69.115738 2.923966
v -71.361237 -63.554379 2.654264
v -75.891785 -69.196152 0.845451
v -75.982185 -69.347549 -0.827808
v -76.259132 -69.689407 -0.811230
v -76.254494 -69.674606 -0.428596
v -70.666893 -62.599358 6.742642
v -72.021149 -61.715874 3.763837
v -71.969002 -61.674988 5.439087
v -72.276634 -62.040241 1.778143
v -72.516479 -62.382221 1.793956
v -76.754463 -68.441864 2.920409
v -72.644791 -62.582077 2.649473
v -76.819160 -68.492599 0.841812
v -76.935310 -68.624695 -0.831494
v -77.187927 -68.984894 -0.814839
v -77.176010 -68.975555 -0.432190
v -71.928574 -61.643288 6.737835
v -73.350815 -60.852749 3.805707
v -73.258202 -60.838001 5.479641
v -73.632645 -61.160103 1.820871
v -73.845276 -61.519669 1.835803
v -77.579056 -67.905228 2.945932
v -73.935638 -61.744053 2.690089
v -77.693977 -67.923508 0.868967
v -77.843391 -68.034119 -0.803258
v -78.067352 -68.412842 -0.787531
v -78.046196 -68.409470 -0.405182
v -73.186401 -60.826576 6.777368
v -74.740997 -60.104424 3.900465
v -74.605919 -60.112720 5.571554
v -75.049568 -60.397205 1.917406
v -75.232529 -60.772812 1.930328
v -78.417313 -67.455231 3.003301
v -75.282333 -61.019180 2.781882
v -78.584908 -67.444931 0.929868
v -78.768936 -67.536728 -0.740042
v -78.961639 -67.932358 -0.726431
v -78.930786 -67.934250 -0.344732
v -74.501205 -60.119160 6.867074
v -76.725922 -60.112942 2.075262
v -79.369232 -67.035416 3.095555
v -76.738731 -60.375790 2.923240
v -79.915718 -67.499451 -0.249365
v -96.839081 -78.086685 -4.526001
v -96.937103 -78.949814 -6.468584
v -96.990425 -79.658798 -9.721138
v -99.230713 -77.702042 -2.129931
v -99.124100 -77.754395 -4.387413
v -99.160591 -78.547974 -6.557547
v -99.160240 -79.266693 -9.170559
v -101.435966 -78.826477 -9.714501
v -76.244980 -59.440071 4.046488
v -77.913445 -58.846806 4.241029
v -77.721863 -58.878819 5.906300
v -76.074211 -59.464367 5.714151
v -78.244347 -59.129482 2.260105
v -76.572403 -59.724285 2.065205
v -78.371368 -59.527653 2.267064
v -80.533096 -66.623184 3.231058
v -78.356598 -59.800526 3.111838
v -79.581116 -67.005264 1.026370
v -80.770805 -66.583450 1.164844
v -79.793030 -67.084534 -0.640875
v -80.996506 -66.657516 -0.500830
v -79.954727 -67.493896 -0.630281
v -81.130295 -67.076904 -0.493501
v -81.086533 -67.084213 -0.113131
v -77.573334 -58.903637 7.197310
v -75.941826 -59.483204 7.007016
v -79.765007 -58.312851 4.469001
v -79.571678 -58.345631 6.134055
v -80.080429 -58.599743 2.486156
v -80.185646 -59.004253 2.490409
v -81.958817 -66.212997 3.406216
v -80.155930 -59.281605 3.333330
v -82.198700 -66.172333 1.340271
v -82.420341 -66.247330 -0.325905
v -82.531158 -66.673401 -0.321425
v -82.487000 -66.680893 0.058896
v -79.421799 -58.371044 7.424895
v -81.802605 -57.830433 4.705695
v -81.628120 -57.858929 6.372908
v -82.082535 -58.125557 2.718734
v -82.171623 -58.533939 2.721078
v -83.667549 -65.809341 3.604024
v -82.141022 -58.811626 3.563857
v -83.884033 -65.773987 1.535400
v -84.082497 -65.854309 -0.133450
v -84.176331 -66.284454 -0.130980
v -84.136482 -66.290970 0.249833
v -81.492859 -57.881016 7.665424
v -83.988304 -57.387833 4.920619
v -83.849289 -57.409245 6.591269
v -84.217224 -57.693192 2.928680
v -84.295494 -58.103794 2.929930
v -85.617096 -65.414978 3.795185
v -84.275818 -58.379330 3.773738
v -85.789574 -65.388412 1.722297
v -85.949646 -65.476425 0.049717
v -86.032089 -65.908905 0.051035
v -86.000336 -65.913803 0.432634
v -83.741516 -57.425842 7.886447
v -86.265053 -56.974617 5.085065
v -86.171219 -56.987881 6.758947
v -86.435066 -57.290604 3.088892
v -86.507133 -57.702339 3.089669
v -87.741188 -65.029617 3.948123
v -86.506256 -57.974503 3.934803
v -87.857605 -65.013168 1.871227
v -87.970779 -65.109619 0.195285
v -88.046692 -65.543304 0.196106
v -88.025253 -65.546326 0.578441
v -89.086708 -71.610382 0.589892
v -89.177399 -71.597565 -1.027827
v -86.098473 -56.998165 8.056631
v -88.579597 -56.579750 5.181919
v -88.534164 -56.584766 6.857857
v -88.689964 -56.905907 3.183191
v -88.759644 -57.318054 3.183846
v -89.975700 -64.648468 4.041173
v -88.781647 -57.586319 4.029939
v -90.032074 -64.642258 1.961725
v -90.096153 -64.747086 0.283691
v -90.169548 -65.181198 0.284381
v -90.159164 -65.182343 0.667189
v -91.185486 -71.252441 0.676847
v -91.229401 -71.247589 -0.942862
v -91.292313 -71.376572 -2.431023
v -88.498947 -56.588654 8.157135
v -90.891884 -56.190422 5.211768
v -90.893478 -56.187527 6.888323
v -90.946442 -56.525959 3.212290
v -91.016495 -56.938046 3.212936
v -92.262825 -64.263367 4.070376
v -91.062462 -57.202274 4.059332
v -92.260849 -64.266953 1.990158
v -92.277924 -64.379684 0.311500
v -92.351707 -64.813736 0.312179
v -92.352074 -64.813080 0.695127
v -93.383820 -70.882248 0.704621
v -93.382271 -70.885040 -0.915688
v -93.403534 -71.021042 -2.404403
v -93.470650 -71.415848 -2.403787
v -93.486328 -71.505173 -2.014928
v -90.894714 -56.185287 8.188084
v -93.180145 -55.796669 5.178416
v -93.225021 -55.786335 6.854342
v -93.185097 -56.140736 3.179649
v -93.257683 -56.552383 3.180243
v -94.570839 -63.866161 4.036483
v -93.327126 -56.812572 4.026292
v -94.515160 -63.878983 1.957045
v -94.489563 -63.999054 0.279004
v -94.566010 -64.432632 0.279631
v -94.576263 -64.430267 0.662435
v -95.645264 -70.492996 0.671195
v -95.601898 -70.502991 -0.948504
v -95.585533 -70.645447 -2.436678
v -95.655075 -71.039841 -2.436107
v -95.681335 -71.127350 -2.047405
v -96.914413 -78.120636 -2.037303
v -93.259811 -55.778324 8.153615
v -95.431183 -55.390114 5.088934
v -95.514297 -55.372875 6.763344
v -95.393959 -55.741787 3.091835
v -95.470802 -56.152660 3.092249
v -96.879013 -63.449196 3.944534
v -95.562294 -56.408875 3.937418
v -96.775894 -63.470581 1.866978
v -96.713150 -63.597363 0.190409
v -96.794083 -64.030121 0.190847
v -96.813065 -64.026184 0.573306
v -97.944832 -70.077515 0.579422
v -97.864502 -70.094177 -1.038810
v -97.815575 -70.242508 -2.525692
v -97.889198 -70.636154 -2.525295
v -97.925247 -70.721893 -2.136986
v -95.578728 -55.359516 8.061441
v -97.752930 -54.940365 6.624584
v -97.648338 -55.731937 2.957244
v -99.173958 -63.005695 3.802125
v -97.759895 -55.984268 3.801168
v -99.030457 -63.034878 1.727063
v -98.936638 -63.167656 0.052409
v -99.049988 -63.593880 0.434466
v -100.265404 -69.628967 0.435292
v -100.077637 -69.805252 -2.666216
v -100.201538 -70.281891 -2.278397
v -101.603508 -77.243301 -2.277447
v -101.562950 -77.929626 -4.760749
v -104.001740 -77.418900 -4.340354
v -101.442574 -78.106918 -6.929036
v -103.814087 -77.610077 -6.920304
v -103.781471 -78.335052 -9.072106
v -106.185341 -76.059494 -5.186090
v -106.109108 -76.561203 -7.105758
v -106.163307 -77.789307 -10.134644
v -108.945244 -75.553299 -2.977417
v -108.851318 -76.251358 -5.456001
v -108.680870 -76.440140 -7.418588
v -108.631905 -77.168854 -10.249608
v -111.451958 -74.857941 -3.268654
v -111.389069 -75.549057 -5.503283
v -111.016029 -75.243561 -7.904337
v -111.109886 -76.479233 -10.155625
v -113.988571 -74.079727 -3.573660
v -113.724937 -74.185135 -6.047451
v -113.770805 -74.954971 -7.731008
v -113.679337 -75.690781 -11.239287
v -116.555916 -73.206375 -3.882215
v -116.278564 -73.249161 -6.355963
v -116.319511 -74.080978 -8.528526
v -116.299492 -74.798035 -10.869000
v -119.151665 -72.225235 -4.183684
v -119.177757 -72.887009 -6.295647
v -118.807877 -72.673676 -8.827966
v -118.980598 -73.783646 -11.223973
v -121.513336 -71.121307 -6.944564
v -121.677155 -71.945541 -8.899562
v -121.716377 -72.633896 -11.477169
v -97.637268 -54.963886 4.952184
v -99.794083 -54.512302 4.777626
v -99.936325 -54.483227 6.447887
v -99.696472 -54.876049 2.784729
v -97.565811 -55.322166 2.957190
v -99.785881 -55.284374 2.784223
v -101.447517 -62.529552 3.618024
v -99.915314 -55.532963 3.626703
v -101.271027 -62.565632 1.545618
v -101.152435 -62.703583 -0.127045
v -99.023567 -63.599255 0.052468
v -101.246620 -63.133663 -0.127578
v -101.279114 -63.127018 0.253932
v -102.596069 -69.140762 0.246474
v -100.153625 -69.651703 -1.180998
v -102.458611 -69.168869 -1.367750
v -102.361244 -69.326889 -2.851247
v -100.156700 -70.197845 -2.666162
v -102.446907 -69.718094 -2.851731
v -102.499420 -69.800522 -2.464585
v -104.018524 -76.737305 -2.473187
v -100.046600 -54.460686 7.742766
v -97.842590 -54.922131 7.921121
v -101.898964 -54.030689 4.574770
v -102.061737 -53.996925 6.243067
v -101.783287 -54.398544 2.583596
v -101.880699 -54.805027 2.582317
v -103.694786 -62.015236 3.401407
v -102.025635 -55.050079 3.423307
v -103.492828 -62.057121 1.331436
v -103.355797 -62.199280 -0.339465
v -103.458397 -62.627426 -0.340811
v -103.495575 -62.619713 0.040250
v -104.930252 -68.606445 0.021427
v -104.772942 -68.639069 -1.590899
v -104.659927 -68.800659 -3.072902
v -104.753250 -69.190109 -3.074127
v -104.812263 -69.271057 -2.687604
v -106.467140 -76.176682 -2.709317
v -102.187927 -53.970753 7.536424
v -103.949844 -53.515087 4.352914
v -104.127075 -53.477711 6.019662
v -103.824242 -53.885403 2.362800
v -103.930687 -54.289612 2.360545
v -105.912933 -61.457458 3.161457
v -104.088760 -54.531364 3.200122
v -105.693054 -61.503830 1.093410
v -105.543968 -61.648994 -0.576198
v -105.656105 -62.074738 -0.578575
v -105.696579 -62.066200 -0.197869
v -107.264511 -68.019348 -0.231101
v -107.093231 -68.055466 -1.841929
v -106.970314 -68.219528 -3.322872
v -107.072311 -68.606781 -3.325034
v -107.136650 -68.686401 -2.939086
v -104.264465 -53.448738 7.311820
v -105.944405 -52.962086 4.121149
v -106.129890 -52.922451 5.786948
v -105.817085 -53.332836 2.131225
v -105.933670 -53.734230 2.127796
v -108.100075 -60.850964 2.907337
v -106.102425 -53.973034 2.966134
v -107.869934 -60.900139 0.840472
v -107.715271 -61.046818 -0.828499
v -107.838074 -61.469597 -0.832113
v -107.880440 -61.460548 -0.451621
v -109.597458 -67.372299 -0.502159
v -109.418205 -67.410599 -2.112067
v -109.291222 -67.575760 -3.592546
v -109.402924 -67.960312 -3.595833
v -109.471382 -68.038788 -3.210359
v -106.273682 -52.891727 7.078365
v -107.879814 -52.368633 3.888380
v -108.067261 -52.328434 5.553943
v -107.759247 -52.737267 1.897640
v -107.887100 -53.135204 1.892856
v -110.254776 -60.190163 2.648223
v -108.064102 -53.371490 2.730207
v -110.022202 -60.240032 0.581644
v -109.868591 -60.386349 -1.087454
v -110.003250 -60.805489 -1.092493
v -110.046059 -60.796307 -0.712056
v -111.928986 -66.657120 -0.782522
v -111.747841 -66.695969 -2.392205
v -111.622765 -66.860504 -3.872918
v -111.745255 -67.241760 -3.877501
v -111.816635 -67.319336 -3.492378
v -108.212578 -52.297279 6.845182
v -109.754829 -51.731129 3.662972
v -109.938080 -51.692402 5.329035
v -109.649292 -52.094601 1.670430
v -109.789597 -52.488293 1.664150
v -112.376648 -59.468590 2.393165
v -109.972519 -52.722588 2.500787
v -112.149277 -59.516647 0.325966
v -112.003174 -59.660362 -1.344033
v -112.150948 -60.075035 -1.350648
v -112.192810 -60.066193 -0.970097
v -114.259209 -65.864548 -1.062601
v -114.082108 -65.901978 -2.672768
v -113.964798 -66.063843 -4.154408
v -114.099213 -66.441025 -4.160426
v -114.172348 -66.518036 -3.775511
v -110.080147 -51.662376 6.620661
v -111.571106 -51.044998 3.451973
v -111.744705 -51.009960 5.119151
v -111.488075 -51.399910 1.456825
v -111.642006 -51.788452 1.448962
v -114.466537 -58.678940 2.150404
v -111.828850 -52.021282 2.285144
v -114.251137 -58.722412 0.081821
v -114.118340 -58.861065 -1.589716
v -114.280479 -59.270309 -1.597998
v -114.320129 -59.262302 -1.217191
v -116.587288 -64.984726 -1.333003
v -116.419510 -65.018585 -2.944248
v -116.315178 -65.175491 -4.427391
v -116.462654 -65.547745 -4.434924
v -116.536530 -65.624481 -4.050098
v -111.879288 -50.982796 6.411643
v -113.331398 -50.305153 3.260916
v -113.490845 -50.276104 4.929625
v -113.277130 -50.647915 1.262657
v -113.445793 -51.030258 1.253198
v -116.525024 -57.813557 1.927013
v -113.634995 -51.262119 2.089120
v -116.327202 -57.849590 -0.143463
v -116.212502 -57.980591 -1.816957
v -116.390152 -58.383301 -1.826921
v -116.426575 -58.376667 -1.445765
v -118.910637 -64.007782 -1.585098
v -118.756546 -64.035858 -3.197821
v -118.669556 -64.185440 -4.682838
v -118.831146 -64.551743 -4.691902
v -118.904953 -64.628525 -4.307069
v -121.770287 -71.123962 -4.467788
v -113.614449 -50.253590 6.223300
v -115.037674 -49.506641 3.094187
v -115.179413 -49.485916 4.764615
v -115.017174 -49.833542 1.092640
v -115.201546 -50.208519 1.081648
v -118.551178 -56.865067 1.729084
v -115.391937 -50.439831 1.917450
v -118.375313 -56.890778 -0.343531
v -118.282524 -57.011475 -2.019156
v -118.476723 -57.406429 -2.030733
v -118.509094 -57.401699 -1.649185
v -121.224533 -62.924351 -1.811090
v -121.087555 -62.944374 -3.425477
v -121.021378 -63.084183 -4.912518
v -121.198021 -63.443443 -4.923049
v -121.271141 -63.520527 -4.538154
v -115.289291 -49.469856 6.059626
v -116.690926 -48.644695 2.955255
v -117.099701 -49.549400 1.773958
v -120.323662 -55.946861 -2.190567
v -120.535278 -56.332714 -2.203606
v -120.563019 -56.330406 -1.821670
v -116.812386 -48.634586 4.627381
v -116.707954 -48.951969 0.950573
v -116.908875 -49.318302 0.938194
v -98.108498 -81.953575 -10.364469
v -100.333626 -81.551476 -9.799854
v -102.667358 -81.100037 -10.357663
v -105.072662 -80.596085 -9.698892
v -107.515213 -80.036423 -10.788515
v -110.046738 -79.400154 -10.906410
v -112.587883 -78.692955 -10.810031
v -115.222832 -77.884407 -11.921317
v -117.909775 -76.968903 -11.541592
v -120.659241 -75.928658 -11.905613
v -123.464752 -74.749596 -12.165263
vt 0.0000 0.8770
vt 1.0000 0.9980
vt 0.0000 0.9980
vt 0.0000 0.8770
vt 1.0000 0.9980
vt -0.0000 0.9980
vt 0.0000 0.8770
vt 1.0000 0.9980
vt 0.0000 0.9980
vt 1.0000 0.9980
vt 0.0000 0.9980
vt 1.0000 0.8770
vt 0.0000 0.9980
vt 0.0000 0.8770
vt 0.0000 0.8770
vt 1.0000 0.9980
vt 0.0000 0.9980
vt 0.0000 0.8770
vt 1.0000 0.9980
vt -0.0000 0.9980
vt 0.0000 0.8770
vt 1.0000 0.9980
vt 0.0000 0.9980
vt 1.0000 0.9980
vt 0.0000 0.9980
vt 1.0000 0.8770
vt 0.0000 0.9980
vt 0.0000 0.8770
vt 0.0000 0.8770
vt 1.0000 0.9980
vt 0.0000 0.9980
vt 0.0000 0.8770
vt 1.0000 0.9980
vt -0.0000 0.9980
vt 0.0000 0.8770
vt 1.0000 0.9980
vt 0.0000 0.9980
vt 1.0000 0.9980
vt 0.0000 0.9980
vt 1.0000 0.8770
vt 0.0000 0.9980
vt 0.0000 0.8770
vt 0.0000 0.8770
vt 1.0000 0.9980
vt 0.0000 0.9980
vt 0.0000 0.8770
vt 1.0000 0.9980
vt -0.0000 0.9980
vt 0.0000 0.8770
vt 1.0000 0.9980
vt 0.0000 0.9980
vt 1.0000 0.9980
vt 0.0000 0.9980
vt 1.0000 0.8770
vt 0.0000 0.9980
vt 0.0000 0.8770
vt 0.0000 0.8770
vt 1.0000 0.9980
vt 0.0000 0.9980
vt 0.0000 0.8770
vt 1.0000 0.9980
vt -0.0000 0.9980
vt 0.0000 0.7531
vt 1.0000 0.8734
vt 0.0000 0.8734
vt 0.0000 0.7528
vt 1.0000 0.8734
vt 0.0000 0.8734
vt 0.0000 0.8770
vt 1.0000 0.9980
vt 0.0000 0.9980
vt 1.0000 0.9980
vt 0.0000 0.9980
vt 1.0000 0.8770
vt 0.0000 0.9980
vt 0.0000 0.8770
vt 0.0000 0.8770
vt 1.0000 0.9980
vt 0.0000 0.9980
vt 0.0000 0.8770
vt 1.0000 0.9980
vt -0.0000 0.9980
vt 0.0000 0.7531
vt 1.0000 0.8734
vt 0.0000 0.8734
vt 0.0000 0.7528
vt 1.0000 0.8734
vt 0.0000 0.8734
vt 1.0000 0.7529
vt 0.0000 0.8734
vt 0.0000 0.7528
vt 1.0000 0.7529
vt 0.0000 0.8734
vt 0.0000 0.7528
vt 0.0000 0.8770
vt 1.0000 0.9980
vt 0.0000 0.9980
vt 1.0000 0.9980
vt 0.0000 0.9980
vt 1.0000 0.8770
vt 0.0000 0.9980
vt 0.0000 0.8770
vt 0.0000 0.8770
vt 1.0000 0.9980
vt 0.0000 0.9980
vt 0.0000 0.8770
vt 1.0000 0.9980
vt -0.0000 0.9980
vt 0.0000 0.7531
vt 1.0000 0.8734
vt 0.0000 0.8734
vt 0.0000 0.7528
vt 1.0000 0.8734
vt 0.0000 0.8734
vt 1.0000 0.7529
vt 0.0000 0.8734
vt 0.0000 0.7528
vt 1.0000 0.7529
vt 0.0000 0.8734
vt 0.0000 0.7528
vt 0.0000 0.8770
vt 1.0000 0.9980
vt 0.0000 0.9980
vt 1.0000 0.9980
vt 0.0000 0.9980
vt 1.0000 0.8770
vt 0.0000 0.9980
vt 0.0000 0.8770
vt 0.0000 0.8770
vt 1.0000 0.9980
vt 0.0000 0.9980
vt 0.0000 0.8770
vt 1.0000 0.9980
vt -0.0000 0.9980
vt 0.0000 0.7531
vt 1.0000 0.8734
vt 0.0000 0.8734
vt 0.0000 0.7528
vt 1.0000 0.8734
vt 0.0000 0.8734
vt 1.0000 0.7529
vt 0.0000 0.8734
vt 0.0000 0.7528
vt 1.0000 0.7529
vt 0.0000 0.8734
vt 0.0000 0.7528
vt 0.0000 0.8770
vt 1.0000 0.9980
vt 0.0000 0.9980
vt 1.0000 0.8770
vt 0.0000 0.9980
vt 0.0000 0.8770
vt 1.0000 0.9980
vt 0.0000 0.9980
vt 1.0000 0.8770
vt 0.0000 0.9980
vt 0.0000 0.8770
vt -0.0000 0.9980
vt 1.0000 0.8770
vt 1.0000 0.9980
vt 1.0000 0.7531
vt 0.0000 0.8734
vt 0.0000 0.7531
vt 1.0000 0.7529
vt 0.0000 0.8734
vt 0.0000 0.7528
vt 0.0000 0.7528
vt 1.0000 0.8734
vt 0.0000 0.8734
vt 0.0000 0.7528
vt 1.0000 0.8734
vt 0.0000 0.8734
vt 1.0000 0.8770
vt 0.0000 0.9980
vt 0.0000 0.8770
vt 1.0000 0.8770
vt 0.0000 0.9980
vt 0.0000 0.8770
vt 0.0000 0.8770
vt 1.0000 0.9980
vt 0.0000 0.9980
vt 1.0000 0.8770
vt 0.0000 0.9980
vt 0.0000 0.8770
vt -0.0000 0.9980
vt 1.0000 0.9980
vt 1.0000 0.7531
vt 0.0000 0.8734
vt 0.0000 0.7531
vt 1.0000 0.7529
vt 0.0000 0.8734
vt 0.0000 0.7528
vt 0.0000 0.7528
vt 1.0000 0.8734
vt 0.0000 0.8734
vt 0.0000 0.7528
vt 1.0000 0.8734
vt 0.0000 0.8734
vt 1.0000 0.8770
vt 0.0000 0.9980
vt 0.0000 0.8770
vt 1.0000 0.1950
vt 0.0000 0.3202
vt 0.0000 0.1950
vt 1.0000 0.3202
vt 0.0000 0.4454
vt 1.0000 0.4454
vt 0.0000 0.5704
vt 0.0000 0.1950
vt 1.0000 0.3202
vt 0.0000 0.3202
vt 1.0000 0.4454
vt 0.0000 0.4454
vt 1.0000 0.5704
vt 0.0000 0.5704
vt 1.0000 0.8770
vt 0.0000 0.9980
vt 0.0000 0.8770
vt 0.0000 0.8770
vt 1.0000 0.9980
vt 0.0000 0.9980
vt 1.0000 0.8770
vt 0.0000 0.9980
vt 0.0000 0.8770
vt -0.0000 0.9980
vt 1.0000 0.9980
vt 1.0000 0.7531
vt 0.0000 0.8734
vt 0.0000 0.7531
vt 1.0000 0.7529
vt 0.0000 0.8734
vt 0.0000 0.7528
vt 0.0000 0.7528
vt 1.0000 0.8734
vt 0.0000 0.8734
vt 0.0000 0.7528
vt 1.0000 0.8734
vt 0.0000 0.8734
vt 1.0000 0.8770
vt 0.0000 0.9980
vt 0.0000 0.8770
vt 1.0000 0.8770
vt 0.0000 0.9980
vt 0.0000 0.8770
vt 0.0000 0.8770
vt 1.0000 0.9980
vt 0.0000 0.9980
vt 1.0000 0.8770
vt 0.0000 0.9980
vt 0.0000 0.8770
vt -0.0000 0.9980
vt 1.0000 0.9980
vt 1.0000 0.7531
vt 0.0000 0.8734
vt 0.0000 0.7531
vt 1.0000 0.7529
vt 0.0000 0.8734
vt 0.0000 0.7528
vt 0.0000 0.7528
vt 1.0000 0.8734
vt 0.0000 0.8734
vt 0.0000 0.7528
vt 1.0000 0.8734
vt 0.0000 0.8734
vt 1.0000 0.8770
vt 0.0000 0.9980
vt 0.0000 0.8770
vt 1.0000 0.8770
vt 0.0000 0.9980
vt 0.0000 0.8770
vt 0.0000 0.8770
vt 1.0000 0.9980
vt 0.0000 0.9980
vt 1.0000 0.8770
vt 0.0000 0.9980
vt 0.0000 0.8770
vt -0.0000 0.9980
vt 1.0000 0.9980
vt 1.0000 0.7531
vt 0.0000 0.8734
vt 0.0000 0.7531
vt 1.0000 0.7529
vt 0.0000 0.8734
vt 0.0000 0.7528
vt 0.0000 0.7528
vt 1.0000 0.8734
vt 0.0000 0.8734
vt 0.0000 0.7528
vt 1.0000 0.8734
vt 0.0000 0.8734
vt 1.0000 0.8770
vt 0.0000 0.9980
vt 0.0000 0.8770
vt 1.0000 0.8770
vt 0.0000 0.9980
vt 0.0000 0.8770
vt 0.0000 0.8770
vt 1.0000 0.9980
vt 0.0000 0.9980
vt 1.0000 0.8770
vt 0.0000 0.9980
vt 0.0000 0.8770
vt -0.0000 0.9980
vt 1.0000 0.9980
vt 1.0000 0.7531
vt 0.0000 0.8734
vt 0.0000 0.7531
vt 1.0000 0.7529
vt 0.0000 0.8734
vt 0.0000 0.7528
vt 0.0000 0.7528
vt 1.0000 0.8734
vt 0.0000 0.8734
vt 0.0000 0.7528
vt 1.0000 0.8734
vt 0.0000 0.8734
vt 1.0000 0.8770
vt 0.0000 0.9980
vt 0.0000 0.8770
vt 1.0000 0.8770
vt 0.0000 0.9980
vt 0.0000 0.8770
vt 0.0000 0.8770
vt 1.0000 0.9980
vt 0.0000 0.9980
vt 1.0000 0.8770
vt 0.0000 0.9980
vt 0.0000 0.8770
vt -0.0000 0.9980
vt 1.0000 0.9980
vt 1.0000 0.7531
vt 0.0000 0.8734
vt 0.0000 0.7531
vt 1.0000 0.7529
vt 0.0000 0.8734
vt 0.0000 0.7528
vt 0.0000 0.7528
vt 1.0000 0.8734
vt 0.0000 0.8734
vt 0.0000 0.7528
vt 1.0000 0.8734
vt 0.0000 0.8734
vt 1.0000 0.8770
vt 0.0000 0.9980
vt 0.0000 0.8770
vt 0.0000 0.8770
vt 1.0000 0.9980
vt 0.0000 0.9980
vt 0.0000 0.8770
vt 1.0000 0.9980
vt 0.0000 0.9980
vt 0.0000 0.8770
vt 0.0000 0.9980
vt 0.0000 0.8770
vt 1.0000 0.9980
vt -0.0000 0.9980
vt 0.0000 0.7531
vt 1.0000 0.8734
vt 0.0000 0.8734
vt 0.0000 0.7528
vt 1.0000 0.8734
vt 0.0000 0.8734
vt 0.0000 0.7528
vt 1.0000 0.8734
vt 0.0000 0.8734
vt 1.0000 0.7529
vt 0.0000 0.8734
vt 0.0000 0.7528
vt 0.0000 0.7531
vt 1.0000 0.8734
vt 0.0000 0.8734
vt 0.0000 0.8770
vt 1.0000 0.9980
vt 0.0000 0.9980
vt 1.0000 0.9980
vt 0.0000 0.9980
vt 0.0000 0.8770
vt 1.0000 0.9980
vt 0.0000 0.9980
vt 1.0000 0.8770
vt 0.0000 0.9980
vt 0.0000 0.8770
vt 0.0000 0.8770
vt 1.0000 0.9980
vt -0.0000 0.9980
vt 0.0000 0.7531
vt 1.0000 0.8734
vt 0.0000 0.8734
vt 0.0000 0.7528
vt 1.0000 0.8734
vt 0.0000 0.8734
vt 0.0000 0.7528
vt 1.0000 0.8734
vt 0.0000 0.8734
vt 1.0000 0.7529
vt 0.0000 0.8734
vt 0.0000 0.7528
vt 0.0000 0.7531
vt 1.0000 0.8734
vt 0.0000 0.8734
vt 0.0000 0.7528
vt 1.0000 0.8734
vt 0.0000 0.8734
vt 0.0000 0.8770
vt 1.0000 0.9980
vt 0.0000 0.9980
vt 1.0000 0.9980
vt 0.0000 0.9980
vt 0.0000 0.8770
vt 1.0000 0.9980
vt 0.0000 0.9980
vt 1.0000 0.8770
vt 0.0000 0.9980
vt 0.0000 0.8770
vt 0.0000 0.8770
vt 1.0000 0.9980
vt -0.0000 0.9980
vt 0.0000 0.7531
vt 1.0000 0.8734
vt 0.0000 0.8734
vt 0.0000 0.7528
vt 1.0000 0.8734
vt 0.0000 0.8734
vt 0.0000 0.7528
vt 1.0000 0.8734
vt 0.0000 0.8734
vt 1.0000 0.7529
vt 0.0000 0.8734
vt 0.0000 0.7528
vt 0.0000 0.7531
vt 1.0000 0.8734
vt 0.0000 0.8734
vt 0.0000 0.7528
vt 1.0000 0.8734
vt 0.0000 0.8734
vt 0.0000 0.7528
vt 1.0000 0.8734
vt 0.0000 0.8734
vt 1.0000 0.7529
vt 0.0000 0.8734
vt 0.0000 0.7528
vt 0.0000 0.8770
vt 1.0000 0.9980
vt 0.0000 0.9980
vt 1.0000 0.9980
vt 0.0000 0.9980
vt 0.0000 0.8770
vt 1.0000 0.9980
vt 0.0000 0.9980
vt 1.0000 0.8770
vt 0.0000 0.9980
vt 0.0000 0.8770
vt 0.0000 0.8770
vt 1.0000 0.9980
vt -0.0000 0.9980
vt 0.0000 0.7531
vt 1.0000 0.8734
vt 0.0000 0.8734
vt 0.0000 0.7528
vt 1.0000 0.8734
vt 0.0000 0.8734
vt 0.0000 0.7528
vt 1.0000 0.8734
vt 0.0000 0.8734
vt 1.0000 0.7529
vt 0.0000 0.8734
vt 0.0000 0.7528
vt 0.0000 0.7531
vt 1.0000 0.8734
vt 0.0000 0.8734
vt 0.0000 0.7528
vt 1.0000 0.8734
vt 0.0000 0.8734
vt 0.0000 0.7528
vt 1.0000 0.8734
vt 0.0000 0.8734
vt 1.0000 0.7529
vt 0.0000 0.8734
vt 0.0000 0.7528
vt 0.0000 0.8770
vt 1.0000 0.9980
vt 0.0000 0.9980
vt 1.0000 0.9980
vt 0.0000 0.9980
vt 0.0000 0.8770
vt 1.0000 0.9980
vt 0.0000 0.9980
vt 1.0000 0.8770
vt 0.0000 0.9980
vt 0.0000 0.8770
vt 0.0000 0.8770
vt 1.0000 0.9980
vt -0.0000 0.9980
vt 0.0000 0.7531
vt 1.0000 0.8734
vt 0.0000 0.8734
vt 0.0000 0.7528
vt 1.0000 0.8734
vt 0.0000 0.8734
vt 0.0000 0.7528
vt 1.0000 0.8734
vt 0.0000 0.8734
vt 1.0000 0.7529
vt 0.0000 0.8734
vt 0.0000 0.7528
vt 0.0000 0.7531
vt 1.0000 0.8734
vt 0.0000 0.8734
vt 0.0000 0.7528
vt 1.0000 0.8734
vt 0.0000 0.8734
vt 0.0000 0.7528
vt 1.0000 0.8734
vt 0.0000 0.8734
vt 1.0000 0.7529
vt 0.0000 0.8734
vt 0.0000 0.7528
vt 0.0000 0.8770
vt 1.0000 0.9980
vt 0.0000 0.9980
vt 1.0000 0.1950
vt 0.0000 0.3202
vt 0.0000 0.1950
vt 1.0000 0.3202
vt 0.0000 0.4454
vt 1.0000 0.4454
vt 0.0000 0.5704
vt 0.0000 0.1950
vt 1.0000 0.3202
vt 0.0000 0.3202
vt 1.0000 0.4454
vt 0.0000 0.4454
vt 1.0000 0.5704
vt 0.0000 0.5704
vt 0.0000 0.1950
vt 1.0000 0.3202
vt 0.0000 0.3202
vt 1.0000 0.4454
vt 0.0000 0.4454
vt 1.0000 0.5704
vt 0.0000 0.5704
vt 1.0000 0.1950
vt 0.0000 0.3202
vt 0.0000 0.1950
vt 1.0000 0.3202
vt 0.0000 0.4454
vt 1.0000 0.4454
vt 0.0000 0.5704
vt 0.0000 0.1950
vt 1.0000 0.3202
vt 0.0000 0.3202
vt 0.0000 0.4454
vt 1.0000 0.5704
vt 0.0000 0.5704
vt 0.0000 0.1950
vt 1.0000 0.3202
vt 0.0000 0.3202
vt 1.0000 0.4454
vt 0.0000 0.4454
vt 0.0000 0.5704
vt 1.0000 0.1950
vt 0.0000 0.3202
vt 0.0000 0.1950
vt 1.0000 0.3202
vt 0.0000 0.4454
vt 1.0000 0.4454
vt 0.0000 0.5704
vt 0.0000 0.1950
vt 1.0000 0.3202
vt 0.0000 0.3202
vt 1.0000 0.4454
vt 0.0000 0.4454
vt 0.0000 0.5704
vt 1.0000 0.9980
vt 0.0000 0.9980
vt 0.0000 0.8770
vt 1.0000 0.9980
vt 0.0000 0.9980
vt 0.0000 0.8770
vt 0.0000 0.9980
vt 0.0000 0.8770
vt 1.0000 0.9980
vt -0.0000 0.9980
vt 0.0000 0.7531
vt 1.0000 0.8734
vt 0.0000 0.8734
vt 0.0000 0.7528
vt 1.0000 0.8734
vt 0.0000 0.8734
vt 0.0000 0.7528
vt 1.0000 0.8734
vt 0.0000 0.8734
vt 1.0000 0.7529
vt 0.0000 0.8734
vt 0.0000 0.7528
vt 0.0000 0.7531
vt 1.0000 0.8734
vt 0.0000 0.8734
vt 0.0000 0.7528
vt 1.0000 0.8734
vt 0.0000 0.8734
vt 0.0000 0.7528
vt 1.0000 0.8734
vt 0.0000 0.8734
vt 1.0000 0.7529
vt 0.0000 0.8734
vt 0.0000 0.7528
vt 0.0000 0.8770
vt 1.0000 0.9980
vt 0.0000 0.9980
vt 1.0000 0.9980
vt 0.0000 0.9980
vt 0.0000 0.8770
vt 1.0000 0.9980
vt 0.0000 0.9980
vt 0.0000 0.8770
vt 0.0000 0.9980
vt 0.0000 0.8770
vt 1.0000 0.9980
vt -0.0000 0.9980
vt 0.0000 0.7531
vt 1.0000 0.8734
vt 0.0000 0.8734
vt 0.0000 0.7528
vt 1.0000 0.8734
vt 0.0000 0.8734
vt 0.0000 0.7528
vt 1.0000 0.8734
vt 0.0000 0.8734
vt 1.0000 0.7529
vt 0.0000 0.8734
vt 0.0000 0.7528
vt 0.0000 0.7531
vt 1.0000 0.8734
vt 0.0000 0.8734
vt 0.0000 0.7528
vt 1.0000 0.8734
vt 0.0000 0.8734
vt 0.0000 0.7528
vt 1.0000 0.8734
vt 0.0000 0.8734
vt 1.0000 0.7529
vt 0.0000 0.8734
vt 0.0000 0.7528
vt 0.0000 0.8770
vt 1.0000 0.9980
vt 0.0000 0.9980
vt 1.0000 0.9980
vt 0.0000 0.9980
vt 0.0000 0.8770
vt 1.0000 0.9980
vt 0.0000 0.9980
vt 0.0000 0.8770
vt 0.0000 0.9980
vt 0.0000 0.8770
vt 1.0000 0.9980
vt -0.0000 0.9980
vt 0.0000 0.7531
vt 1.0000 0.8734
vt 0.0000 0.8734
vt 0.0000 0.7528
vt 1.0000 0.8734
vt 0.0000 0.8734
vt 0.0000 0.7528
vt 1.0000 0.8734
vt 0.0000 0.8734
vt 1.0000 0.7529
vt 0.0000 0.8734
vt 0.0000 0.7528
vt 0.0000 0.7531
vt 1.0000 0.8734
vt 0.0000 0.8734
vt 0.0000 0.7528
vt 1.0000 0.8734
vt 0.0000 0.8734
vt 0.0000 0.7528
vt 1.0000 0.8734
vt 0.0000 0.8734
vt 1.0000 0.7529
vt 0.0000 0.8734
vt 0.0000 0.7528
vt 0.0000 0.8770
vt 1.0000 0.9980
vt 0.0000 0.9980
vt 1.0000 0.9980
vt 0.0000 0.9980
vt 0.0000 0.8770
vt 1.0000 0.9980
vt 0.0000 0.9980
vt 0.0000 0.8770
vt 0.0000 0.9980
vt 0.0000 0.8770
vt 1.0000 0.9980
vt -0.0000 0.9980
vt 0.0000 0.7531
vt 1.0000 0.8734
vt 0.0000 0.8734
vt 0.0000 0.7528
vt 1.0000 0.8734
vt 0.0000 0.8734
vt 0.0000 0.7528
vt 1.0000 0.8734
vt 0.0000 0.8734
vt 1.0000 0.7529
vt 0.0000 0.8734
vt 0.0000 0.7528
vt 0.0000 0.7531
vt 1.0000 0.8734
vt 0.0000 0.8734
vt 0.0000 0.7528
vt 1.0000 0.8734
vt 0.0000 0.8734
vt 0.0000 0.7528
vt 1.0000 0.8734
vt 0.0000 0.8734
vt 1.0000 0.7529
vt 0.0000 0.8734
vt 0.0000 0.7528
vt 0.0000 0.8770
vt 1.0000 0.9980
vt 0.0000 0.9980
vt 1.0000 0.9980
vt 0.0000 0.9980
vt 0.0000 0.8770
vt 1.0000 0.9980
vt 0.0000 0.9980
vt 0.0000 0.8770
vt 0.0000 0.9980
vt 0.0000 0.8770
vt 1.0000 0.9980
vt -0.0000 0.9980
vt 0.0000 0.7531
vt 1.0000 0.8734
vt 0.0000 0.8734
vt 0.0000 0.7528
vt 1.0000 0.8734
vt 0.0000 0.8734
vt 0.0000 0.7528
vt 1.0000 0.8734
vt 0.0000 0.8734
vt 1.0000 0.7529
vt 0.0000 0.8734
vt 0.0000 0.7528
vt 0.0000 0.7531
vt 1.0000 0.8734
vt 0.0000 0.8734
vt 0.0000 0.7528
vt 1.0000 0.8734
vt 0.0000 0.8734
vt 0.0000 0.7528
vt 1.0000 0.8734
vt 0.0000 0.8734
vt 1.0000 0.7529
vt 0.0000 0.8734
vt 0.0000 0.7528
vt 0.0000 0.8770
vt 1.0000 0.9980
vt 0.0000 0.9980
vt 1.0000 0.9980
vt 0.0000 0.9980
vt 0.0000 0.8770
vt 1.0000 0.9980
vt 0.0000 0.9980
vt 0.0000 0.8770
vt 0.0000 0.9980
vt 0.0000 0.8770
vt 1.0000 0.9980
vt -0.0000 0.9980
vt 0.0000 0.7531
vt 1.0000 0.8734
vt 0.0000 0.8734
vt 0.0000 0.7528
vt 1.0000 0.8734
vt 0.0000 0.8734
vt 0.0000 0.7528
vt 1.0000 0.8734
vt 0.0000 0.8734
vt 1.0000 0.7529
vt 0.0000 0.8734
vt 0.0000 0.7528
vt 0.0000 0.7531
vt 1.0000 0.8734
vt 0.0000 0.8734
vt 0.0000 0.7528
vt 1.0000 0.8734
vt 0.0000 0.8734
vt 0.0000 0.7528
vt 1.0000 0.8734
vt 0.0000 0.8734
vt 1.0000 0.7529
vt 0.0000 0.8734
vt 0.0000 0.7528
vt 0.0000 0.8770
vt 1.0000 0.9980
vt 0.0000 0.9980
vt 1.0000 0.9980
vt 0.0000 0.9980
vt 0.0000 0.8770
vt 1.0000 0.9980
vt 0.0000 0.9980
vt 0.0000 0.8770
vt 0.0000 0.9980
vt 0.0000 0.8770
vt 1.0000 0.9980
vt -0.0000 0.9980
vt 0.0000 0.7531
vt 1.0000 0.8734
vt 0.0000 0.8734
vt 0.0000 0.7528
vt 1.0000 0.8734
vt 0.0000 0.8734
vt 0.0000 0.7528
vt 1.0000 0.8734
vt 0.0000 0.8734
vt 1.0000 0.7529
vt 0.0000 0.8734
vt 0.0000 0.7528
vt 0.0000 0.7531
vt 1.0000 0.8734
vt 0.0000 0.8734
vt 0.0000 0.7528
vt 1.0000 0.8734
vt 0.0000 0.8734
vt 0.0000 0.7528
vt 1.0000 0.8734
vt 0.0000 0.8734
vt 1.0000 0.7529
vt 0.0000 0.8734
vt 0.0000 0.7528
vt 0.0000 0.8770
vt 1.0000 0.9980
vt 0.0000 0.9980
vt 1.0000 0.9980
vt 0.0000 0.9980
vt 0.0000 0.8770
vt 1.0000 0.9980
vt 0.0000 0.9980
vt 0.0000 0.8770
vt 0.0000 0.9980
vt 0.0000 0.8770
vt 1.0000 0.9980
vt -0.0000 0.9980
vt 0.0000 0.7531
vt 1.0000 0.8734
vt 0.0000 0.8734
vt 0.0000 0.7528
vt 1.0000 0.8734
vt 0.0000 0.8734
vt 0.0000 0.7528
vt 1.0000 0.8734
vt 0.0000 0.8734
vt 1.0000 0.7529
vt 0.0000 0.8734
vt 0.0000 0.7528
vt 0.0000 0.7531
vt 1.0000 0.8734
vt 0.0000 0.8734
vt 0.0000 0.7528
vt 1.0000 0.8734
vt 0.0000 0.8734
vt 0.0000 0.7528
vt 1.0000 0.8734
vt 0.0000 0.8734
vt 1.0000 0.7529
vt 0.0000 0.8734
vt 0.0000 0.7528
vt 0.0000 0.8770
vt 1.0000 0.9980
vt 0.0000 0.9980
vt 1.0000 0.9980
vt 0.0000 0.9980
vt 0.0000 0.8770
vt 1.0000 0.9980
vt 0.0000 0.9980
vt 0.0000 0.8770
vt 0.0000 0.9980
vt 0.0000 0.8770
vt 1.0000 0.9980
vt -0.0000 0.9980
vt 0.0000 0.7531
vt 1.0000 0.8734
vt 0.0000 0.8734
vt 0.0000 0.7528
vt 1.0000 0.8734
vt 0.0000 0.8734
vt 0.0000 0.7528
vt 1.0000 0.8734
vt 0.0000 0.8734
vt 1.0000 0.7529
vt 0.0000 0.8734
vt 0.0000 0.7528
vt 0.0000 0.7531
vt 1.0000 0.8734
vt 0.0000 0.8734
vt 0.0000 0.7528
vt 1.0000 0.8734
vt 0.0000 0.8734
vt 0.0000 0.7528
vt 1.0000 0.8734
vt 0.0000 0.8734
vt 1.0000 0.7529
vt 0.0000 0.8734
vt 0.0000 0.7528
vt 0.0000 0.8770
vt 1.0000 0.9980
vt 0.0000 0.9980
vt 1.0000 0.9980
vt 0.0000 0.9980
vt 0.0000 0.8770
vt 1.0000 0.9980
vt 0.0000 0.9980
vt 0.0000 0.8770
vt 0.0000 0.9980
vt 0.0000 0.8770
vt 1.0000 0.9980
vt -0.0000 0.9980
vt 0.0000 0.7528
vt 1.0000 0.8734
vt 0.0000 0.8734
vt 1.0000 0.7529
vt 0.0000 0.8734
vt 0.0000 0.7528
vt 0.0000 0.3562
vt 1.0000 0.4826
vt 0.0000 0.4826
vt 0.0000 0.3562
vt 1.0000 0.4826
vt 0.0000 0.4826
vt 0.0000 0.3562
vt 1.0000 0.4826
vt 0.0000 0.4826
vt 0.0000 0.3562
vt 1.0000 0.4826
vt 0.0000 0.4826
vt 0.0000 0.3562
vt 1.0000 0.4826
vt 0.0000 0.4826
vt 0.0000 0.3562
vt 1.0000 0.4826
vt 0.0000 0.4826
vt 0.0000 0.3562
vt 1.0000 0.4826
vt 0.0000 0.4826
vt 0.0000 0.3562
vt 1.0000 0.4826
vt 0.0000 0.4826
vt 0.0000 0.3562
vt 1.0000 0.4826
vt 0.0000 0.4826
vt 0.0000 0.3562
vt 1.0000 0.4826
vt 0.0000 0.4826
vt 1.0000 0.8770
vt 1.0000 0.8770
vt 1.0000 0.8770
vt 1.0000 0.8770
vt 1.0000 0.8770
vt 1.0000 0.8770
vt 1.0000 0.8770
vt 1.0000 0.8770
vt 1.0000 0.8770
vt 1.0000 0.8770
vt 1.0000 0.8770
vt 1.0000 0.8770
vt 1.0000 0.8770
vt 1.0000 0.8770
vt 1.0000 0.7531
vt 1.0000 0.7529
vt 1.0000 0.8770
vt 1.0000 0.8770
vt 1.0000 0.8770
vt 1.0000 0.7531
vt 1.0000 0.7529
vt 1.0000 0.8734
vt 1.0000 0.8734
vt 1.0000 0.8770
vt 1.0000 0.8770
vt 1.0000 0.8770
vt 1.0000 0.7531
vt 1.0000 0.7529
vt 1.0000 0.8734
vt 1.0000 0.8734
vt 1.0000 0.8770
vt 1.0000 0.8770
vt 1.0000 0.7531
vt 1.0000 0.7529
vt 1.0000 0.8734
vt 1.0000 0.8734
vt 1.0000 0.8770
vt 1.0000 0.9980
vt 1.0000 0.8770
vt 1.0000 0.8734
vt 1.0000 0.8734
vt 1.0000 0.7529
vt 1.0000 0.7529
vt 1.0000 0.9980
vt 1.0000 0.9980
vt 1.0000 0.8770
vt 1.0000 0.8734
vt 1.0000 0.8734
vt 1.0000 0.7529
vt 1.0000 0.7529
vt 1.0000 0.9980
vt 1.0000 0.5704
vt 1.0000 0.1950
vt 1.0000 0.9980
vt 1.0000 0.8770
vt 1.0000 0.8734
vt 1.0000 0.8734
vt 1.0000 0.7529
vt 1.0000 0.7529
vt 1.0000 0.9980
vt 1.0000 0.9980
vt 1.0000 0.8770
vt 1.0000 0.8734
vt 1.0000 0.8734
vt 1.0000 0.7529
vt 1.0000 0.7529
vt 1.0000 0.9980
vt 1.0000 0.9980
vt 1.0000 0.8770
vt 1.0000 0.8734
vt 1.0000 0.8734
vt 1.0000 0.7529
vt 1.0000 0.7529
vt 1.0000 0.9980
vt 1.0000 0.9980
vt 1.0000 0.8770
vt 1.0000 0.8734
vt 1.0000 0.8734
vt 1.0000 0.7529
vt 1.0000 0.7529
vt 1.0000 0.9980
vt 1.0000 0.9980
vt 1.0000 0.8770
vt 1.0000 0.8734
vt 1.0000 0.8734
vt 1.0000 0.7529
vt 1.0000 0.7529
vt 1.0000 0.9980
vt 1.0000 0.8770
vt 1.0000 0.8770
vt 1.0000 0.8770
vt 1.0000 0.7531
vt 1.0000 0.7529
vt 1.0000 0.7529
vt 1.0000 0.8734
vt 1.0000 0.7531
vt 1.0000 0.8770
vt 1.0000 0.8770
vt 1.0000 0.8770
vt 1.0000 0.7531
vt 1.0000 0.7529
vt 1.0000 0.7529
vt 1.0000 0.8734
vt 1.0000 0.7531
vt 1.0000 0.7529
vt 1.0000 0.8770
vt 1.0000 0.8770
vt 1.0000 0.8770
vt 1.0000 0.7531
vt 1.0000 0.7529
vt 1.0000 0.7529
vt 1.0000 0.8734
vt 1.0000 0.7531
vt 1.0000 0.7529
vt 1.0000 0.7529
vt 1.0000 0.8734
vt 1.0000 0.8770
vt 1.0000 0.8770
vt 1.0000 0.8770
vt 1.0000 0.7531
vt 1.0000 0.7529
vt 1.0000 0.7529
vt 1.0000 0.8734
vt 1.0000 0.7531
vt 1.0000 0.7529
vt 1.0000 0.7529
vt 1.0000 0.8734
vt 1.0000 0.8770
vt 1.0000 0.8770
vt 1.0000 0.8770
vt 1.0000 0.7531
vt 1.0000 0.7529
vt 1.0000 0.7529
vt 1.0000 0.8734
vt 1.0000 0.7531
vt 1.0000 0.7529
vt 1.0000 0.7529
vt 1.0000 0.8734
vt 1.0000 0.8770
vt 1.0000 0.5704
vt 1.0000 0.1950
vt 1.0000 0.1950
vt 1.0000 0.5704
vt 1.0000 0.1950
vt 1.0000 0.4454
vt 1.0000 0.1950
vt 1.0000 0.5704
vt 1.0000 0.5704
vt 1.0000 0.1950
vt 1.0000 0.5704
vt 1.0000 0.8770
vt 1.0000 0.8770
vt 1.0000 0.8770
vt 1.0000 0.7531
vt 1.0000 0.7529
vt 1.0000 0.7529
vt 1.0000 0.8734
vt 1.0000 0.7531
vt 1.0000 0.7529
vt 1.0000 0.7529
vt 1.0000 0.8734
vt 1.0000 0.8770
vt 1.0000 0.8770
vt 1.0000 0.8770
vt 1.0000 0.8770
vt 1.0000 0.7531
vt 1.0000 0.7529
vt 1.0000 0.7529
vt 1.0000 0.8734
vt 1.0000 0.7531
vt 1.0000 0.7529
vt 1.0000 0.7529
vt 1.0000 0.8734
vt 1.0000 0.8770
vt 1.0000 0.8770
vt 1.0000 0.8770
vt 1.0000 0.8770
vt 1.0000 0.7531
vt 1.0000 0.7529
vt 1.0000 0.7529
vt 1.0000 0.8734
vt 1.0000 0.7531
vt 1.0000 0.7529
vt 1.0000 0.7529
vt 1.0000 0.8734
vt 1.0000 0.8770
vt 1.0000 0.8770
vt 1.0000 0.8770
vt 1.0000 0.8770
vt 1.0000 0.7531
vt 1.0000 0.7529
vt 1.0000 0.7529
vt 1.0000 0.8734
vt 1.0000 0.7531
vt 1.0000 0.7529
vt 1.0000 0.7529
vt 1.0000 0.8734
vt 1.0000 0.8770
vt 1.0000 0.8770
vt 1.0000 0.8770
vt 1.0000 0.8770
vt 1.0000 0.7531
vt 1.0000 0.7529
vt 1.0000 0.7529
vt 1.0000 0.8734
vt 1.0000 0.7531
vt 1.0000 0.7529
vt 1.0000 0.7529
vt 1.0000 0.8734
vt 1.0000 0.8770
vt 1.0000 0.8770
vt 1.0000 0.8770
vt 1.0000 0.8770
vt 1.0000 0.7531
vt 1.0000 0.7529
vt 1.0000 0.7529
vt 1.0000 0.8734
vt 1.0000 0.7531
vt 1.0000 0.7529
vt 1.0000 0.7529
vt 1.0000 0.8734
vt 1.0000 0.8770
vt 1.0000 0.8770
vt 1.0000 0.8770
vt 1.0000 0.8770
vt 1.0000 0.7531
vt 1.0000 0.7529
vt 1.0000 0.7529
vt 1.0000 0.8734
vt 1.0000 0.7531
vt 1.0000 0.7529
vt 1.0000 0.7529
vt 1.0000 0.8734
vt 1.0000 0.8770
vt 1.0000 0.8770
vt 1.0000 0.8770
vt 1.0000 0.8770
vt 1.0000 0.7531
vt 1.0000 0.7529
vt 1.0000 0.7529
vt 1.0000 0.8734
vt 1.0000 0.7531
vt 1.0000 0.7529
vt 1.0000 0.7529
vt 1.0000 0.8734
vt 1.0000 0.8770
vt 1.0000 0.8770
vt 1.0000 0.8770
vt 1.0000 0.8770
vt 1.0000 0.7531
vt 1.0000 0.7529
vt 1.0000 0.7529
vt 1.0000 0.8734
vt 1.0000 0.7531
vt 1.0000 0.7529
vt 1.0000 0.7529
vt 1.0000 0.8734
vt 1.0000 0.8770
vt 1.0000 0.8770
vt 1.0000 0.8770
vt 1.0000 0.8770
vt 1.0000 0.7529
vt 1.0000 0.8734
vt 1.0000 0.3562
vt 1.0000 0.3562
vt 1.0000 0.3562
vt 1.0000 0.3562
vt 1.0000 0.3562
vt 1.0000 0.3562
vt 1.0000 0.3562
vt 1.0000 0.3562
vt 1.0000 0.3562
vt 1.0000 0.3562
vn 0.7620 0.6468 -0.0316
vn 0.7581 0.6514 -0.0317
vn 0.7455 0.6366 -0.1973
vn 0.7488 0.6328 -0.1972
vn 0.7471 0.6639 -0.0322
vn -0.0078 -0.0397 -0.9992
vn -0.0042 -0.0437 -0.9990
vn -0.7131 -0.6459 -0.2726
vn -0.7208 -0.6371 -0.2729
vn -0.7208 -0.6371 -0.2730
vn 0.7360 0.6474 -0.1976
vn 0.7360 0.6474 -0.1977
vn 0.7300 0.6826 -0.0331
vn 0.0015 -0.0500 -0.9987
vn -0.6951 -0.6656 -0.2716
vn -0.7131 -0.6458 -0.2726
vn 0.7201 0.6649 -0.1985
vn 0.7058 0.7076 -0.0345
vn 0.0031 -0.0518 -0.9987
vn -0.6714 -0.6900 -0.2703
vn 0.6964 0.6892 -0.1999
vn 0.6964 0.6893 -0.1999
vn 0.7057 0.7076 -0.0345
vn 0.6726 0.7391 -0.0362
vn -0.0012 -0.0479 -0.9989
vn -0.6411 -0.7189 -0.2687
vn -0.6715 -0.6900 -0.2702
vn 0.6629 0.7210 -0.2016
vn 0.6729 0.7388 -0.0362
vn 0.6917 0.7213 -0.0353
vn 0.6729 0.7389 -0.0363
vn 0.6713 0.7341 -0.1023
vn 0.6903 0.7164 -0.1014
vn 0.6712 0.7341 -0.1023
vn 0.6725 0.7392 -0.0363
vn 0.6287 0.7767 -0.0377
vn -0.0127 -0.0381 -0.9992
vn -0.6028 -0.7517 -0.2674
vn 0.6177 0.7597 -0.2031
vn 0.6293 0.7763 -0.0376
vn 0.6292 0.7763 -0.0377
vn 0.6269 0.7722 -0.1037
vn 0.6268 0.7722 -0.1038
vn -0.0050 -0.0444 -0.9990
vn -0.0127 -0.0382 -0.9992
vn -0.6535 -0.7560 0.0371
vn -0.6291 -0.7764 0.0376
vn -0.6291 -0.7764 0.0377
vn 0.6287 0.7767 -0.0376
vn 0.6287 0.7768 -0.0377
vn 0.5738 0.8181 -0.0378
vn -0.0313 -0.0242 -0.9992
vn -0.5562 -0.7869 -0.2673
vn 0.5606 0.8028 -0.2032
vn 0.5605 0.8028 -0.2033
vn 0.5746 0.8176 -0.0378
vn 0.5745 0.8176 -0.0379
vn 0.5711 0.8143 -0.1039
vn 0.5710 0.8143 -0.1039
vn -0.0311 -0.0244 -0.9992
vn -0.0311 -0.0243 -0.9992
vn -0.5744 -0.8177 0.0378
vn 0.5739 0.8181 -0.0378
vn 0.5080 0.8606 -0.0357
vn -0.0554 -0.0087 -0.9984
vn -0.0553 -0.0087 -0.9984
vn -0.5009 -0.8226 -0.2691
vn -0.5562 -0.7869 -0.2672
vn 0.4918 0.8472 -0.2010
vn 0.5081 0.8606 -0.0356
vn 0.5081 0.8606 -0.0357
vn 0.5033 0.8581 -0.1017
vn -0.0553 -0.0088 -0.9984
vn -0.5081 -0.8606 0.0357
vn 0.5080 0.8606 -0.0356
vn 0.4371 0.8989 -0.0309
vn -0.0802 0.0048 -0.9968
vn -0.4409 -0.8550 -0.2731
vn -0.4409 -0.8550 -0.2732
vn 0.4178 0.8871 -0.1960
vn 0.4365 0.8992 -0.0309
vn 0.4364 0.8992 -0.0308
vn 0.4304 0.8974 -0.0968
vn 0.4304 0.8975 -0.0967
vn -0.4367 -0.8991 0.0308
vn 0.4370 0.8989 -0.0309
vn 0.3674 0.9297 -0.0241
vn -0.1008 0.0141 -0.9948
vn -0.3808 -0.8816 -0.2790
vn -0.3808 -0.8815 -0.2790
vn 0.3457 0.9191 -0.1890
vn 0.4178 0.8872 -0.1960
vn 0.3669 0.9300 -0.0241
vn 0.3668 0.9300 -0.0239
vn 0.3596 0.9288 -0.0899
vn 0.3596 0.9288 -0.0898
vn -0.1006 0.0140 -0.9948
vn -0.3670 -0.9299 0.0241
vn -0.3671 -0.9299 0.0240
vn 0.3674 0.9298 -0.0241
vn 0.4370 0.8990 -0.0308
vn 0.1615 0.9869 0.0019
vn 0.1611 0.9869 0.0023
vn 0.1784 0.9839 -0.0144
vn 0.1463 0.9154 -0.3750
vn 0.1451 0.9161 -0.3738
vn 0.1148 0.9323 -0.3429
vn 0.1556 0.9581 -0.2404
vn 0.1208 0.7442 -0.6570
vn 0.1818 0.9481 -0.2608
vn 0.1302 0.9665 -0.2214
vn 0.0785 0.9861 -0.1466
vn 0.0606 0.9623 -0.2650
vn 0.1504 0.9797 -0.1327
vn 0.0857 0.9718 -0.2198
vn 0.2022 0.9769 -0.0687
vn 0.1975 0.9439 -0.2648
vn 0.1494 0.6504 -0.7447
vn 0.3043 0.9524 -0.0167
vn -0.1131 0.0187 -0.9934
vn -0.3243 -0.9018 -0.2856
vn -0.3244 -0.9018 -0.2856
vn 0.2814 0.9423 -0.1815
vn 0.3457 0.9191 -0.1889
vn 0.3036 0.9526 -0.0167
vn 0.3036 0.9527 -0.0166
vn 0.2957 0.9517 -0.0824
vn 0.2957 0.9517 -0.0823
vn -0.1129 0.0186 -0.9934
vn -0.3038 -0.9526 0.0167
vn -0.3039 -0.9526 0.0166
vn 0.3042 0.9525 -0.0167
vn 0.3673 0.9298 -0.0240
vn 0.2526 0.9675 -0.0103
vn -0.1138 0.0191 -0.9933
vn -0.1138 0.0192 -0.9933
vn -0.2753 -0.9160 -0.2917
vn 0.2303 0.9572 -0.1752
vn 0.2814 0.9423 -0.1814
vn 0.2522 0.9676 -0.0103
vn 0.2522 0.9676 -0.0102
vn 0.2442 0.9667 -0.0760
vn -0.1135 0.0191 -0.9934
vn -0.2523 -0.9676 0.0102
vn 0.2525 0.9675 -0.0103
vn 0.2138 0.9769 -0.0057
vn -0.1029 0.0167 -0.9945
vn -0.1029 0.0168 -0.9945
vn -0.2350 -0.9257 -0.2965
vn 0.1938 0.9661 -0.1708
vn 0.2303 0.9572 -0.1751
vn 0.2136 0.9769 -0.0057
vn 0.2136 0.9769 -0.0056
vn 0.2064 0.9759 -0.0715
vn -0.1027 0.0167 -0.9946
vn -0.2136 -0.9769 0.0056
vn 0.1883 0.9821 -0.0031
vn -0.0825 0.0127 -0.9965
vn -0.2044 -0.9319 -0.2995
vn 0.1720 0.9706 -0.1686
vn 0.1882 0.9821 -0.0031
vn 0.1881 0.9821 -0.0031
vn 0.1823 0.9808 -0.0691
vn -0.0823 0.0126 -0.9965
vn -0.0823 0.0127 -0.9965
vn -0.1882 -0.9821 0.0031
vn 0.1733 0.9849 -0.0019
vn -0.0555 0.0078 -0.9984
vn -0.1819 -0.9360 -0.3012
vn -0.1819 -0.9360 -0.3013
vn 0.1616 0.9725 -0.1677
vn 0.1720 0.9706 -0.1685
vn 0.1732 0.9849 -0.0019
vn 0.1692 0.9832 -0.0680
vn -0.0553 0.0078 -0.9984
vn -0.1732 -0.9849 0.0019
vn 0.1671 0.9859 -0.0016
vn -0.0268 0.0029 -0.9996
vn -0.0268 0.0030 -0.9996
vn -0.1673 -0.9385 -0.3019
vn 0.1603 0.9727 -0.1676
vn 0.1649 0.9840 -0.0678
vn -0.0267 0.0029 -0.9996
vn -0.1671 -0.9859 0.0016
vn 0.1670 0.9859 -0.0016
vn 0.1681 0.9858 -0.0016
vn 0.1678 0.9858 -0.0015
vn 0.0006 -0.0017 -1.0000
vn -0.1597 -0.9398 -0.3021
vn 0.1656 0.9718 -0.1676
vn 0.1656 0.9719 -0.1676
vn 0.1675 0.9835 -0.0678
vn 0.0007 -0.0017 -1.0000
vn -0.1678 -0.9858 0.0015
vn 0.1672 0.9816 -0.0921
vn 0.1642 0.9821 -0.0921
vn 0.1737 0.9848 -0.0014
vn 0.0261 -0.0060 -0.9996
vn -0.1576 -0.9402 -0.3021
vn 0.1756 0.9701 -0.1674
vn 0.1751 0.9822 -0.0676
vn 0.0262 -0.0061 -0.9996
vn -0.1737 -0.9848 0.0014
vn 0.1738 0.9848 -0.0014
vn 0.1754 0.9802 -0.0919
vn 0.0263 -0.0061 -0.9996
vn 0.0141 -0.0040 -0.9999
vn -0.1619 -0.9603 -0.2271
vn -0.1632 -0.9601 -0.2272
vn 0.1838 0.9830 -0.0010
vn 0.0489 -0.0102 -0.9988
vn -0.1603 -0.9397 -0.3022
vn 0.1893 0.9676 -0.1669
vn 0.1866 0.9801 -0.0671
vn 0.0490 -0.0102 -0.9987
vn -0.1838 -0.9830 0.0010
vn 0.1875 0.9780 -0.0914
vn -0.1678 -0.9592 -0.2274
vn 0.1973 0.9803 -0.0001
vn 0.0685 -0.0139 -0.9976
vn -0.1672 -0.9383 -0.3027
vn 0.2060 0.9644 -0.1658
vn 0.1974 0.9803 -0.0001
vn 0.2015 0.9773 -0.0662
vn -0.1974 -0.9803 0.0001
vn 0.2028 0.9750 -0.0904
vn 0.0686 -0.0139 -0.9975
vn -0.1765 -0.9575 -0.2279
vn 0.1868 0.9365 -0.2969
vn 0.2191 0.9172 -0.3328
vn 0.1993 0.9779 -0.0630
vn 0.1950 0.9791 -0.0584
vn 0.2086 0.7077 -0.6750
vn 0.1938 0.9306 -0.3106
vn 0.4053 0.9106 -0.0809
vn 0.3781 0.9170 -0.1269
vn 0.4985 0.8614 0.0975
vn 0.4808 0.8687 -0.1193
vn 0.4910 0.8651 -0.1022
vn 0.4203 0.8818 -0.2138
vn 0.3854 0.8642 -0.3233
vn 0.3219 0.5553 -0.7668
vn 0.0931 0.9895 -0.1104
vn 0.0996 0.9897 -0.1023
vn -0.0416 0.9613 -0.2723
vn 0.0158 0.9871 -0.1591
vn -0.0029 0.9819 -0.1893
vn 0.0578 0.9942 -0.0906
vn 0.1564 0.9347 -0.3193
vn 0.1868 0.6774 -0.7115
vn 0.2737 0.9251 -0.2632
vn 0.2747 0.9245 -0.2642
vn 0.2866 0.9175 -0.2757
vn 0.3718 0.9268 0.0528
vn 0.3479 0.9344 0.0770
vn 0.2604 0.9519 0.1616
vn 0.3725 0.8624 -0.3429
vn 0.2806 0.6408 -0.7146
vn 0.4805 0.7602 -0.4373
vn 0.4228 0.8989 -0.1149
vn 0.4084 0.9025 -0.1371
vn 0.5013 0.8651 0.0166
vn 0.2887 0.9559 -0.0538
vn 0.3644 0.9200 -0.1443
vn 0.5314 0.7648 -0.3642
vn 0.2220 0.9166 -0.3326
vn 0.3271 0.5951 -0.7341
vn 0.3328 0.9429 0.0089
vn 0.3317 0.9434 0.0072
vn 0.3417 0.9395 0.0221
vn 0.3830 0.8516 -0.3580
vn 0.3756 0.8500 -0.3694
vn 0.3977 0.8543 -0.3346
vn 0.3368 0.9141 -0.2257
vn 0.2471 0.6882 -0.6822
vn 0.3863 0.8828 -0.2672
vn 0.2290 0.9659 -0.1210
vn 0.2605 0.9526 -0.1569
vn 0.3677 0.8861 -0.2822
vn 0.3406 0.9310 -0.1317
vn 0.2971 0.9513 -0.0825
vn 0.1254 0.9869 0.1015
vn 0.4286 0.8409 -0.3304
vn 0.3309 0.5562 -0.7623
vn 0.4877 0.7782 -0.3957
vn 0.5225 0.8491 -0.0778
vn 0.4949 0.8596 -0.1271
vn 0.5908 0.8044 0.0622
vn 0.4063 0.8999 -0.1581
vn 0.4603 0.8851 -0.0684
vn 0.2353 0.8884 -0.3943
vn 0.3219 0.8836 -0.3401
vn 0.2650 0.5763 -0.7731
vn 0.2439 0.9360 -0.2537
vn 0.2139 0.9769 0.0012
vn 0.0845 -0.0173 -0.9963
vn -0.1782 -0.9360 -0.3036
vn 0.2250 0.9604 -0.1643
vn 0.2139 0.9768 0.0012
vn 0.2191 0.9736 -0.0648
vn 0.0846 -0.0173 -0.9963
vn -0.2140 -0.9768 -0.0012
vn 0.2140 0.9768 0.0012
vn 0.2208 0.9713 -0.0890
vn -0.1890 -0.9549 -0.2290
vn 0.2331 0.9724 0.0031
vn 0.0969 -0.0201 -0.9951
vn -0.1927 -0.9327 -0.3050
vn -0.1781 -0.9360 -0.3036
vn 0.2460 0.9556 -0.1623
vn 0.2460 0.9556 -0.1622
vn 0.2332 0.9724 0.0031
vn 0.2391 0.9690 -0.0628
vn -0.2332 -0.9724 -0.0031
vn 0.2411 0.9666 -0.0870
vn 0.0970 -0.0201 -0.9951
vn -0.2049 -0.9513 -0.2305
vn 0.2549 0.9669 0.0054
vn 0.1056 -0.0223 -0.9942
vn -0.2109 -0.9281 -0.3069
vn 0.2689 0.9498 -0.1598
vn 0.2690 0.9498 -0.1598
vn 0.2550 0.9669 0.0054
vn 0.2614 0.9633 -0.0604
vn -0.2550 -0.9669 -0.0054
vn 0.2636 0.9609 -0.0846
vn -0.2241 -0.9464 -0.2326
vn 0.2793 0.9602 0.0083
vn 0.1106 -0.0236 -0.9936
vn -0.2326 -0.9220 -0.3095
vn 0.2938 0.9429 -0.1569
vn 0.2861 0.9565 -0.0576
vn 0.2861 0.9565 -0.0575
vn -0.2794 -0.9602 -0.0083
vn 0.2794 0.9601 0.0083
vn 0.2883 0.9541 -0.0817
vn -0.2467 -0.9401 -0.2352
vn 0.3063 0.9519 0.0115
vn 0.1117 -0.0239 -0.9935
vn -0.2580 -0.9142 -0.3125
vn 0.3206 0.9347 -0.1537
vn 0.3063 0.9518 0.0115
vn 0.3064 0.9518 0.0115
vn 0.3131 0.9482 -0.0543
vn -0.3064 -0.9518 -0.0115
vn 0.3153 0.9458 -0.0785
vn -0.2728 -0.9321 -0.2383
vn 0.3361 0.9417 0.0151
vn 0.1092 -0.0231 -0.9938
vn -0.2871 -0.9043 -0.3160
vn 0.3496 0.9248 -0.1502
vn 0.3362 0.9417 0.0151
vn 0.3427 0.9381 -0.0508
vn 0.3427 0.9381 -0.0507
vn -0.3362 -0.9417 -0.0151
vn 0.3447 0.9357 -0.0749
vn 0.1092 -0.0230 -0.9938
vn -0.3024 -0.9220 -0.2419
vn 0.3686 0.9294 0.0188
vn 0.1034 -0.0208 -0.9944
vn -0.3198 -0.8919 -0.3198
vn 0.3807 0.9130 -0.1466
vn 0.3687 0.9294 0.0189
vn 0.3747 0.9259 -0.0470
vn -0.3687 -0.9294 -0.0188
vn 0.3687 0.9293 0.0189
vn 0.3766 0.9236 -0.0712
vn -0.3354 -0.9095 -0.2457
vn 0.3686 0.9294 0.0189
vn 0.4037 0.9146 0.0227
vn 0.0950 -0.0173 -0.9953
vn -0.3558 -0.8767 -0.3237
vn 0.4139 0.8990 -0.1430
vn 0.4038 0.9146 0.0227
vn 0.4092 0.9114 -0.0433
vn -0.4038 -0.9146 -0.0227
vn 0.4039 0.9145 0.0227
vn 0.4108 0.9092 -0.0675
vn -0.3715 -0.8943 -0.2496
vn 0.4037 0.9146 0.0226
vn 0.4347 0.9002 0.0257
vn 0.0845 -0.0123 -0.9963
vn -0.3947 -0.8585 -0.3275
vn 0.4490 0.8825 -0.1395
vn 0.4219 0.9063 0.0245
vn 0.4219 0.9063 0.0246
vn 0.4269 0.9033 -0.0414
vn 0.4270 0.9033 -0.0414
vn -0.4413 -0.8970 -0.0263
vn 0.4220 0.9063 0.0245
vn 0.4220 0.9063 0.0246
vn 0.4284 0.9012 -0.0657
vn 0.0902 -0.0151 -0.9958
vn -0.3902 -0.8857 -0.2515
vn 0.4217 0.9064 0.0245
vn 0.4411 0.8971 0.0263
vn 0.4603 0.8873 0.0281
vn 0.0788 -0.0095 -0.9968
vn -0.4147 -0.8483 -0.3292
vn 0.4670 0.8735 -0.1379
vn 0.4670 0.8734 -0.1378
vn -0.4604 -0.8873 -0.0281
vn 0.2559 0.1129 -0.9601
vn 0.1436 0.2003 -0.9692
vn 0.1008 0.2254 -0.9690
vn 0.0623 0.2453 -0.9674
vn 0.2251 0.1449 -0.9635
vn 0.1746 0.1714 -0.9696
vn 0.1650 0.1791 -0.9699
vn -0.1724 0.3429 -0.9234
vn 0.0791 0.2268 -0.9707
vn -0.0009 0.2726 -0.9621
vn 0.1802 0.1659 -0.9695
vn -0.0077 -0.0396 -0.9992
vn 0.6903 0.7164 -0.1013
vn -0.6536 -0.7560 0.0371
vn -0.5009 -0.8226 -0.2690
vn 0.1449 0.9893 0.0179
vn 0.1782 0.8959 -0.4070
vn -0.0336 0.7469 -0.6641
vn 0.1906 0.9816 -0.0138
vn -0.0149 0.9392 -0.3432
vn 0.2237 0.9398 -0.2585
vn 0.2408 0.9124 -0.3309
vn 0.5349 0.8446 -0.0237
vn 0.4174 0.8630 -0.2844
vn 0.2359 0.9691 0.0727
vn -0.0438 0.9661 -0.2542
vn 0.0891 0.9225 -0.3756
vn 0.2625 0.9314 -0.2524
vn 0.4630 0.8852 -0.0449
vn 0.3120 0.9101 -0.2727
vn 0.1120 0.9834 0.1425
vn 0.0612 0.8739 -0.4822
vn 0.3227 0.9465 -0.0059
vn 0.3578 0.8455 -0.3964
vn 0.1239 0.9923 -0.0033
vn 0.4954 0.8081 -0.3187
vn 0.3978 0.8741 -0.2788
vn 0.5690 0.8083 0.1512
s 1
f 1/1/1 3/2/2 4/3/1
f 2/4/3 6/5/4 5/6/3
f 4/7/1 9/8/2 10/9/1
f 2/4/2 12/10/5 3/11/2
f 5/12/6 14/13/7 13/14/7
f 15/15/8 7/16/9 8/17/10
f 11/18/11 5/19/3 13/20/12
f 3/21/2 16/22/5 9/23/2
f 11/18/5 18/24/13 12/25/5
f 13/26/7 20/27/14 19/28/14
f 21/29/15 14/30/16 15/31/8
f 17/32/17 13/33/12 19/34/17
f 12/35/5 22/36/13 16/37/5
f 17/32/13 24/38/18 18/39/13
f 19/40/14 26/41/19 25/42/19
f 28/43/20 20/44/15 21/45/15
f 23/46/21 19/47/17 25/48/22
f 18/49/13 31/50/18 22/51/13
f 23/46/23 33/52/24 24/53/18
f 25/54/19 35/55/25 34/56/25
f 37/57/26 26/58/27 28/59/20
f 32/60/28 25/61/22 34/62/28
f 36/63/29 29/64/30 38/65/31
f 38/66/32 30/67/33 39/68/34
f 24/69/18 42/70/24 31/71/18
f 32/60/35 44/72/36 33/73/24
f 34/74/25 46/75/37 45/76/37
f 48/77/38 35/78/26 37/79/26
f 43/80/39 34/81/28 45/82/39
f 47/83/40 38/84/31 49/85/41
f 49/86/42 39/87/34 50/88/43
f 39/89/44 51/90/45 50/91/45
f 40/92/46 52/93/47 51/94/48
f 33/95/24 53/96/49 42/97/24
f 43/80/50 55/98/51 44/99/36
f 45/100/37 57/101/52 56/102/52
f 59/103/53 46/104/38 48/105/38
f 54/106/54 45/107/39 56/108/55
f 58/109/56 49/110/41 60/111/57
f 60/112/58 50/113/43 61/114/59
f 50/115/45 62/116/60 61/117/61
f 51/118/48 63/119/62 62/120/62
f 44/121/36 64/122/63 53/123/49
f 54/106/51 66/124/64 55/125/51
f 56/126/52 68/127/65 67/128/66
f 70/129/67 57/130/68 59/131/53
f 65/132/69 56/133/55 67/134/69
f 69/135/70 60/136/57 71/137/71
f 71/138/72 61/139/59 72/140/72
f 61/141/61 73/142/73 72/143/73
f 62/144/62 74/145/74 73/146/74
f 55/147/51 75/148/75 64/149/63
f 76/150/76 66/151/64 65/132/64
f 78/152/77 68/153/65 79/154/77
f 79/155/78 70/156/67 81/157/79
f 78/158/80 65/159/69 67/160/69
f 69/161/70 82/162/81 80/163/82
f 71/164/72 83/165/83 82/166/84
f 83/167/77 73/168/73 84/169/77
f 84/170/85 74/171/74 85/172/85
f 77/173/86 75/174/75 66/175/64
f 99/176/87 77/177/86 76/178/76
f 104/179/88 79/180/77 87/181/88
f 87/182/89 81/183/79 89/184/90
f 104/185/91 76/150/92 78/186/80
f 80/187/82 108/188/93 88/189/94
f 82/190/84 110/191/95 108/192/96
f 110/193/97 84/194/77 112/195/97
f 112/196/98 85/197/85 90/198/99
f 102/199/100 86/200/101 77/201/86
f 208/202/102 95/203/103 94/204/104
f 91/205/105 96/206/106 95/203/107
f 92/207/108 97/208/109 96/206/110
f 236/209/111 95/210/112 237/211/113
f 237/211/114 96/212/115 239/213/116
f 239/213/117 97/214/109 98/215/118
f 100/216/119 102/217/100 99/218/87
f 103/219/120 87/220/88 105/221/120
f 105/222/121 89/223/90 107/224/122
f 103/225/123 99/176/124 104/226/91
f 88/227/94 109/228/125 106/229/126
f 108/230/96 111/231/127 109/232/128
f 111/233/129 112/234/97 113/235/129
f 113/236/130 90/237/99 114/238/131
f 101/239/132 116/240/133 102/241/100
f 117/242/134 101/243/132 100/244/119
f 119/245/135 105/246/120 120/247/136
f 120/248/137 107/249/122 122/250/137
f 119/251/138 100/216/139 103/252/123
f 106/253/126 123/254/140 121/255/141
f 109/256/128 124/257/142 123/258/142
f 124/259/143 113/260/129 125/261/143
f 125/262/144 114/263/131 126/264/144
f 118/265/145 115/266/132 101/267/132
f 128/268/146 118/269/145 117/270/134
f 130/271/147 120/272/136 131/273/148
f 131/274/149 122/275/137 133/276/149
f 130/277/150 117/242/151 119/278/138
f 121/279/141 134/280/152 132/281/153
f 123/282/142 135/283/154 134/284/154
f 135/285/155 125/286/143 136/287/155
f 136/288/156 126/289/144 137/290/156
f 129/291/146 127/292/145 118/293/145
f 139/294/157 129/295/146 128/296/146
f 141/297/158 131/298/148 142/299/158
f 142/300/159 133/301/149 144/302/159
f 141/303/160 128/268/150 130/304/150
f 132/305/153 145/306/161 143/307/162
f 134/308/154 146/309/163 145/310/163
f 146/311/164 136/312/155 147/313/165
f 147/314/166 137/315/156 148/316/166
f 140/317/161 138/318/146 129/319/146
f 150/320/167 140/321/161 139/322/157
f 152/323/168 142/324/158 153/325/168
f 153/326/169 144/327/159 155/328/170
f 152/329/171 139/294/172 141/330/160
f 143/331/162 156/332/173 154/333/173
f 145/334/163 157/335/174 156/336/174
f 157/337/175 147/338/165 158/339/175
f 158/340/176 148/341/166 159/342/176
f 151/343/167 149/344/161 140/345/161
f 150/346/167 164/347/177 151/348/167
f 165/349/178 153/350/168 166/351/179
f 168/352/180 153/350/169 155/353/170
f 163/354/181 152/355/171 165/356/181
f 167/357/177 156/358/173 169/359/177
f 169/360/182 157/361/174 170/362/182
f 170/363/183 158/364/175 171/365/183
f 158/366/176 172/367/184 171/368/184
f 173/369/185 161/370/186 174/371/177
f 151/372/167 176/373/177 162/374/173
f 163/354/177 178/375/187 164/376/177
f 179/377/188 166/378/179 180/379/188
f 180/380/189 168/381/180 182/382/189
f 177/383/190 165/384/181 179/385/191
f 181/386/187 169/387/177 183/388/187
f 183/389/192 170/390/182 184/391/192
f 184/392/193 171/393/183 185/394/193
f 171/395/184 186/396/194 185/397/194
f 187/398/187 174/399/177 188/400/187
f 188/401/195 175/402/196 189/403/195
f 164/404/177 192/405/187 176/406/177
f 177/383/187 194/407/197 178/408/187
f 195/409/198 180/410/188 196/411/198
f 196/412/199 182/413/189 198/414/199
f 193/415/200 179/416/191 195/417/200
f 197/418/197 183/419/187 199/420/197
f 199/421/201 184/422/192 200/423/201
f 200/424/202 185/425/193 201/426/202
f 185/427/194 202/428/203 201/429/203
f 203/430/204 188/431/187 204/432/204
f 204/433/205 189/434/195 205/435/205
f 205/436/206 190/437/207 206/438/206
f 190/439/208 207/440/209 206/441/209
f 178/442/187 209/443/197 192/444/187
f 193/415/197 211/445/210 194/446/197
f 212/447/211 196/448/198 213/449/211
f 213/450/212 198/451/199 215/452/212
f 210/453/213 195/454/200 212/455/213
f 214/456/210 199/457/197 216/458/210
f 216/459/214 200/460/201 217/461/214
f 217/462/215 201/463/202 218/464/215
f 201/465/203 219/466/216 218/467/216
f 220/468/210 204/469/204 221/470/210
f 221/471/217 205/472/205 222/473/217
f 222/474/215 206/475/206 223/476/215
f 206/477/209 224/478/218 223/479/218
f 194/480/197 225/481/210 209/482/197
f 210/453/210 226/483/219 211/484/210
f 272/485/220 213/486/211 227/487/220
f 227/488/221 215/489/212 229/490/221
f 268/491/222 212/492/213 272/493/222
f 228/494/223 216/495/210 230/496/223
f 230/497/224 217/498/214 231/499/224
f 231/500/220 218/501/215 278/502/220
f 218/503/216 232/504/225 278/505/225
f 233/506/223 221/507/210 282/508/223
f 282/509/226 222/510/217 234/511/226
f 234/512/227 223/513/215 285/514/227
f 223/515/218 235/516/228 285/517/228
f 211/518/210 290/519/219 225/520/210
f 236/521/111 238/522/229 288/523/230
f 237/524/114 240/525/231 238/522/232
f 239/526/117 241/527/233 240/525/234
f 306/528/235 238/529/236 242/530/237
f 242/530/238 240/531/239 243/532/240
f 243/532/241 241/533/233 244/534/242
f 245/535/243 242/536/244 246/537/245
f 246/537/246 243/538/247 247/539/248
f 247/539/249 244/540/242 248/541/250
f 245/542/251 250/543/252 249/544/253
f 246/545/254 251/546/255 250/543/256
f 247/547/257 252/548/258 251/546/259
f 253/549/260 250/550/261 254/551/262
f 250/550/263 255/552/264 254/551/265
f 255/552/266 252/553/258 256/554/267
f 257/555/268 254/556/269 258/557/270
f 258/557/271 255/558/272 259/559/273
f 255/558/274 260/560/275 259/559/276
f 257/561/277 262/562/278 261/563/279
f 258/564/280 263/565/281 262/562/282
f 259/566/283 264/567/284 263/565/285
f 403/568/286 262/569/287 265/570/288
f 265/570/289 263/571/290 266/572/291
f 263/571/292 267/573/293 266/572/294
f 268/491/219 270/574/295 226/575/219
f 271/576/296 227/577/220 273/578/296
f 275/579/297 227/577/221 229/580/221
f 269/581/298 272/582/222 271/583/298
f 274/584/299 230/585/223 276/586/299
f 276/587/300 231/588/224 277/589/300
f 277/590/301 278/591/220 279/592/301
f 278/593/225 280/594/302 279/595/302
f 281/596/303 282/597/223 283/598/303
f 283/599/304 234/600/226 284/601/304
f 284/602/301 285/603/227 286/604/301
f 285/605/228 287/606/305 286/607/305
f 226/608/219 289/609/295 290/610/219
f 269/581/295 292/611/306 270/612/295
f 293/613/307 273/614/296 294/615/307
f 296/616/308 273/614/309 275/617/297
f 291/618/310 271/619/298 293/620/311
f 295/621/312 276/622/299 297/623/312
f 297/624/313 277/625/300 298/626/313
f 298/627/307 279/628/301 299/629/307
f 279/630/302 300/631/314 299/632/314
f 301/633/312 283/634/303 302/635/312
f 302/636/315 284/637/304 303/638/315
f 303/639/316 286/640/301 304/641/316
f 286/642/305 305/643/317 304/644/317
f 270/645/295 307/646/306 289/647/295
f 291/618/306 309/648/318 292/649/306
f 310/650/319 294/651/307 311/652/319
f 313/653/320 294/651/308 296/654/308
f 308/655/321 293/656/311 310/657/322
f 312/658/323 297/659/312 314/660/323
f 314/661/324 298/662/313 315/663/324
f 315/664/319 299/665/307 316/666/319
f 299/667/314 317/668/325 316/669/325
f 318/670/323 302/671/312 319/672/323
f 319/673/326 303/674/315 320/675/326
f 320/676/319 304/677/316 321/678/319
f 304/679/317 322/680/327 321/681/327
f 292/682/306 323/683/318 307/684/306
f 308/655/318 325/685/328 309/686/318
f 326/687/329 311/688/319 327/689/329
f 329/690/330 311/688/320 313/691/320
f 324/692/331 310/693/322 326/694/331
f 328/695/328 314/696/323 330/697/328
f 330/698/332 315/699/324 331/700/333
f 331/701/329 316/702/319 332/703/329
f 316/704/325 333/705/334 332/706/334
f 334/707/335 319/708/323 335/709/335
f 335/710/336 320/711/326 336/712/336
f 336/713/329 321/714/319 337/715/329
f 321/716/327 338/717/337 337/718/337
f 309/719/318 339/720/328 323/721/318
f 324/692/328 341/722/338 325/723/328
f 342/724/339 327/725/329 343/726/339
f 345/727/340 327/725/330 329/728/330
f 340/729/341 326/730/331 342/731/341
f 344/732/342 330/733/328 346/734/343
f 346/735/344 331/736/333 347/737/344
f 347/738/339 332/739/329 348/740/339
f 332/741/334 349/742/345 348/743/345
f 350/744/343 335/745/335 351/746/343
f 351/747/346 336/748/336 352/749/346
f 352/750/339 337/751/329 353/752/339
f 337/753/337 354/754/347 353/755/347
f 325/756/328 355/757/338 339/758/328
f 340/729/338 357/759/348 341/760/338
f 358/761/349 343/762/339 359/763/349
f 361/764/350 343/762/340 345/765/340
f 356/766/351 342/767/341 358/768/351
f 360/769/348 346/770/343 362/771/352
f 362/772/353 347/773/344 363/774/354
f 363/775/349 348/776/339 364/777/349
f 348/778/345 365/779/355 364/780/355
f 366/781/352 351/782/343 367/783/352
f 367/784/356 352/785/346 368/786/356
f 368/787/357 353/788/339 369/789/357
f 353/790/347 370/791/358 369/792/358
f 341/793/338 371/794/348 355/795/338
f 356/766/348 373/796/359 357/797/348
f 374/798/360 359/799/349 375/800/360
f 377/801/361 359/799/350 361/802/350
f 372/803/362 358/804/351 374/805/362
f 376/806/363 362/807/352 378/808/363
f 378/809/364 363/810/354 379/811/364
f 379/812/360 364/813/349 380/814/360
f 364/815/355 381/816/365 380/817/365
f 382/818/366 367/819/352 383/820/366
f 383/821/367 368/822/356 384/823/367
f 384/824/360 369/825/357 385/826/360
f 369/827/358 386/828/368 385/829/368
f 357/830/348 387/831/359 371/832/348
f 372/803/369 389/833/370 373/834/359
f 390/835/371 375/836/360 391/837/371
f 393/838/372 375/836/361 377/839/361
f 388/840/373 374/841/362 390/842/373
f 392/843/374 378/844/363 394/845/374
f 394/846/375 379/847/364 395/848/375
f 395/849/371 380/850/360 396/851/371
f 380/852/365 397/853/376 396/854/376
f 398/855/377 383/856/366 399/857/377
f 399/858/378 384/859/367 400/860/378
f 400/861/371 385/862/360 401/863/371
f 385/864/368 402/865/379 401/866/379
f 373/867/359 404/868/380 387/869/359
f 388/840/370 406/870/381 389/871/370
f 407/872/382 391/873/371 408/874/382
f 410/875/383 391/873/372 393/876/372
f 405/877/384 390/878/373 407/879/384
f 409/880/385 394/881/374 411/882/386
f 411/883/387 395/884/375 412/885/388
f 412/886/382 396/887/371 413/888/382
f 396/889/376 414/890/389 413/891/389
f 415/892/390 399/893/377 416/894/391
f 416/895/392 400/896/378 417/897/392
f 417/898/393 401/899/371 418/900/393
f 401/901/379 419/902/394 418/903/394
f 389/904/370 420/905/395 404/906/380
f 405/877/396 426/907/397 406/908/381
f 427/909/398 408/910/382 428/911/398
f 422/912/399 408/910/383 410/913/383
f 421/914/400 407/915/384 427/916/401
f 423/917/398 413/918/382 424/919/398
f 413/920/389 425/921/402 424/922/402
f 256/923/267 435/924/403 436/925/404
f 260/926/275 436/927/404 437/928/405
f 252/929/258 434/930/406 435/931/403
f 248/932/250 433/933/407 434/934/406
f 267/935/293 438/936/408 439/937/409
f 97/938/109 429/939/410 430/940/411
f 98/941/118 430/942/411 431/943/412
f 244/944/242 432/945/413 433/946/407
f 264/947/284 437/948/405 438/949/408
f 241/950/233 431/951/412 432/952/413
f 1/1/1 2/953/2 3/2/2
f 2/4/3 1/954/4 6/5/4
f 4/7/1 3/955/2 9/8/2
f 2/4/2 11/956/5 12/10/5
f 5/12/6 7/16/414 14/13/7
f 15/15/8 14/957/16 7/16/9
f 11/18/11 2/953/3 5/19/3
f 3/21/2 12/958/5 16/22/5
f 11/18/5 17/959/13 18/24/13
f 13/26/7 14/30/7 20/27/14
f 21/29/15 20/960/15 14/30/16
f 17/32/17 11/956/11 13/33/12
f 12/35/5 18/961/13 22/36/13
f 17/32/13 23/962/23 24/38/18
f 19/40/14 20/44/14 26/41/19
f 28/43/20 26/963/27 20/44/15
f 23/46/21 17/959/17 19/47/17
f 18/49/13 24/964/18 31/50/18
f 23/46/23 32/965/35 33/52/24
f 25/54/19 26/58/19 35/55/25
f 37/57/26 35/966/26 26/58/27
f 32/60/28 23/962/21 25/61/22
f 36/63/29 27/967/30 29/64/30
f 38/66/32 29/968/415 30/67/33
f 24/69/18 33/969/24 42/70/24
f 32/60/35 43/970/50 44/72/36
f 34/74/25 35/78/25 46/75/37
f 48/77/38 46/971/38 35/78/26
f 43/80/39 32/965/28 34/81/28
f 47/83/40 36/972/29 38/84/31
f 49/86/42 38/973/32 39/87/34
f 39/89/44 40/974/44 51/90/45
f 40/92/46 41/975/416 52/93/47
f 33/95/24 44/976/36 53/96/49
f 43/80/50 54/977/51 55/98/51
f 45/100/37 46/104/37 57/101/52
f 59/103/53 57/978/68 46/104/38
f 54/106/54 43/970/39 45/107/39
f 58/109/56 47/979/40 49/110/41
f 60/112/58 49/980/42 50/113/43
f 50/115/45 51/981/45 62/116/60
f 51/118/48 52/982/47 63/119/62
f 44/121/36 55/983/51 64/122/63
f 54/106/51 65/159/64 66/124/64
f 56/126/52 57/130/52 68/127/65
f 70/129/67 68/984/417 57/130/68
f 65/132/69 54/977/54 56/133/55
f 69/135/70 58/985/56 60/136/57
f 71/138/72 60/986/58 61/139/59
f 61/141/61 62/987/60 73/142/73
f 62/144/62 63/988/62 74/145/74
f 55/147/51 66/989/64 75/148/75
f 76/150/76 77/990/86 66/151/64
f 78/152/77 67/991/66 68/153/65
f 79/155/78 68/153/417 70/156/67
f 78/158/80 76/178/92 65/159/69
f 69/161/70 71/992/71 82/162/81
f 71/164/72 72/993/72 83/165/83
f 83/167/77 72/994/73 73/168/73
f 84/170/85 73/995/74 74/171/74
f 77/173/86 86/996/101 75/174/75
f 99/176/87 102/997/100 77/177/86
f 104/179/88 78/998/77 79/180/77
f 87/182/89 79/180/78 81/183/79
f 104/185/91 99/218/124 76/150/92
f 80/187/82 82/999/81 108/188/93
f 82/190/84 83/1000/83 110/191/95
f 110/193/97 83/1001/77 84/194/77
f 112/196/98 84/1002/85 85/197/85
f 102/199/100 116/1003/133 86/200/101
f 208/202/102 91/205/418 95/203/103
f 91/205/105 92/207/419 96/206/106
f 92/207/108 93/1004/420 97/208/109
f 236/209/111 94/1005/421 95/210/112
f 237/211/114 95/210/422 96/212/115
f 239/213/117 96/212/423 97/214/109
f 100/216/119 101/1006/132 102/217/100
f 103/219/120 104/1007/88 87/220/88
f 105/222/121 87/220/89 89/223/90
f 103/225/123 100/244/139 99/176/124
f 88/227/94 108/1008/93 109/228/125
f 108/230/96 110/1009/95 111/231/127
f 111/233/129 110/1010/97 112/234/97
f 113/236/130 112/1011/98 90/237/99
f 101/239/132 115/1012/132 116/240/133
f 117/242/134 118/1013/145 101/243/132
f 119/245/135 103/1014/120 105/246/120
f 120/248/137 105/246/121 107/249/122
f 119/251/138 117/270/151 100/216/139
f 106/253/126 109/1015/125 123/254/140
f 109/256/128 111/1016/127 124/257/142
f 124/259/143 111/1017/129 113/260/129
f 125/262/144 113/1018/130 114/263/131
f 118/265/145 127/1019/145 115/266/132
f 128/268/146 129/1020/146 118/269/145
f 130/271/147 119/1021/135 120/272/136
f 131/274/149 120/272/137 122/275/137
f 130/277/150 128/296/150 117/242/151
f 121/279/141 123/1022/140 134/280/152
f 123/282/142 124/1023/142 135/283/154
f 135/285/155 124/1024/143 125/286/143
f 136/288/156 125/1025/144 126/289/144
f 129/291/146 138/1026/146 127/292/145
f 139/294/157 140/1027/161 129/295/146
f 141/297/158 130/1028/147 131/298/148
f 142/300/159 131/298/149 133/301/149
f 141/303/160 139/322/172 128/268/150
f 132/305/153 134/1029/152 145/306/161
f 134/308/154 135/1030/154 146/309/163
f 146/311/164 135/1031/155 136/312/155
f 147/314/166 136/1032/156 137/315/156
f 140/317/161 149/1033/161 138/318/146
f 150/320/167 151/1034/167 140/321/161
f 152/323/168 141/1035/158 142/324/158
f 153/326/169 142/324/159 144/327/159
f 152/329/171 150/346/171 139/294/172
f 143/331/162 145/1036/161 156/332/173
f 145/334/163 146/1037/163 157/335/174
f 157/337/175 146/1038/164 147/338/165
f 158/340/176 147/1039/166 148/341/166
f 151/343/167 162/1040/173 149/344/161
f 150/346/167 163/1041/177 164/347/177
f 165/349/178 152/1042/168 153/350/168
f 168/352/180 166/1043/180 153/350/169
f 163/354/181 150/320/171 152/355/171
f 167/357/177 154/1044/173 156/358/173
f 169/360/182 156/1045/174 157/361/174
f 170/363/183 157/1046/175 158/364/175
f 158/366/176 159/1047/176 172/367/184
f 173/369/185 160/1048/186 161/370/186
f 151/372/167 164/1049/177 176/373/177
f 163/354/177 177/1050/187 178/375/187
f 179/377/188 165/1051/178 166/378/179
f 180/380/189 166/378/180 168/381/180
f 177/383/190 163/1041/181 165/384/181
f 181/386/187 167/1052/177 169/387/177
f 183/389/192 169/1053/182 170/390/182
f 184/392/193 170/1054/183 171/393/183
f 171/395/184 172/1055/184 186/396/194
f 187/398/187 173/1056/185 174/399/177
f 188/401/195 174/1057/196 175/402/196
f 164/404/177 178/1058/187 192/405/187
f 177/383/187 193/1059/197 194/407/197
f 195/409/198 179/1060/188 180/410/188
f 196/412/199 180/410/189 182/413/189
f 193/415/200 177/1050/190 179/416/191
f 197/418/197 181/1061/187 183/419/187
f 199/421/201 183/1062/192 184/422/192
f 200/424/202 184/1063/193 185/425/193
f 185/427/194 186/1064/194 202/428/203
f 203/430/204 187/1065/187 188/431/187
f 204/433/205 188/1066/195 189/434/195
f 205/436/206 189/1067/207 190/437/207
f 190/439/208 191/1068/208 207/440/209
f 178/442/187 194/1069/197 209/443/197
f 193/415/197 210/1070/210 211/445/210
f 212/447/211 195/1071/198 196/448/198
f 213/450/212 196/448/199 198/451/199
f 210/453/213 193/1059/200 195/454/200
f 214/456/210 197/1072/197 199/457/197
f 216/459/214 199/1073/201 200/460/201
f 217/462/215 200/1074/202 201/463/202
f 201/465/203 202/1075/203 219/466/216
f 220/468/210 203/1076/204 204/469/204
f 221/471/217 204/1077/205 205/472/205
f 222/474/215 205/1078/206 206/475/206
f 206/477/209 207/1079/209 224/478/218
f 194/480/197 211/1080/210 225/481/210
f 210/453/210 268/1081/219 226/483/219
f 272/485/220 212/1082/211 213/486/211
f 227/488/221 213/486/212 215/489/212
f 268/491/222 210/1070/213 212/492/213
f 228/494/223 214/1083/210 216/495/210
f 230/497/224 216/1084/214 217/498/214
f 231/500/220 217/1085/215 218/501/215
f 218/503/216 219/1086/216 232/504/225
f 233/506/223 220/1087/210 221/507/210
f 282/509/226 221/1088/217 222/510/217
f 234/512/227 222/1089/215 223/513/215
f 223/515/218 224/1090/218 235/516/228
f 211/518/210 226/1091/219 290/519/219
f 236/521/111 237/524/113 238/522/229
f 237/524/114 239/526/116 240/525/231
f 239/526/117 98/1092/118 241/527/233
f 306/528/235 288/1093/424 238/529/236
f 242/530/238 238/529/425 240/531/239
f 243/532/241 240/531/426 241/533/233
f 245/535/243 306/1094/427 242/536/244
f 246/537/246 242/536/428 243/538/247
f 247/539/249 243/538/429 244/540/242
f 245/542/251 246/545/430 250/543/252
f 246/545/254 247/547/431 251/546/255
f 247/547/257 248/1095/250 252/548/258
f 253/549/260 249/1096/432 250/550/261
f 250/550/263 251/1097/433 255/552/264
f 255/552/266 251/1097/434 252/553/258
f 257/555/268 253/1098/435 254/556/269
f 258/557/271 254/556/436 255/558/272
f 255/558/274 256/1099/267 260/560/275
f 257/561/277 258/564/437 262/562/278
f 258/564/280 259/566/438 263/565/281
f 259/566/283 260/1100/275 264/567/284
f 403/568/286 261/1101/439 262/569/287
f 265/570/289 262/569/440 263/571/290
f 263/571/292 264/1102/284 267/573/293
f 268/491/219 269/1103/295 270/574/295
f 271/576/296 272/1104/220 227/577/220
f 275/579/297 273/1105/309 227/577/221
f 269/581/298 268/1081/222 272/582/222
f 274/584/299 228/1106/223 230/585/223
f 276/587/300 230/1107/224 231/588/224
f 277/590/301 231/1108/220 278/591/220
f 278/593/225 232/1109/225 280/594/302
f 281/596/303 233/1110/223 282/597/223
f 283/599/304 282/1111/226 234/600/226
f 284/602/301 234/1112/227 285/603/227
f 285/605/228 235/1113/228 287/606/305
f 226/608/219 270/1114/295 289/609/295
f 269/581/295 291/1115/306 292/611/306
f 293/613/307 271/1116/296 273/614/296
f 296/616/308 294/1117/308 273/614/309
f 291/618/310 269/1103/298 271/619/298
f 295/621/312 274/1118/299 276/622/299
f 297/624/313 276/1119/300 277/625/300
f 298/627/307 277/1120/301 279/628/301
f 279/630/302 280/1121/302 300/631/314
f 301/633/312 281/1122/303 283/634/303
f 302/636/315 283/1123/304 284/637/304
f 303/639/316 284/1124/301 286/640/301
f 286/642/305 287/1125/305 305/643/317
f 270/645/295 292/1126/306 307/646/306
f 291/618/306 308/1127/318 309/648/318
f 310/650/319 293/1128/307 294/651/307
f 313/653/320 311/1129/320 294/651/308
f 308/655/321 291/1115/310 293/656/311
f 312/658/323 295/1130/312 297/659/312
f 314/661/324 297/1131/313 298/662/313
f 315/664/319 298/1132/307 299/665/307
f 299/667/314 300/1133/314 317/668/325
f 318/670/323 301/1134/312 302/671/312
f 319/673/326 302/1135/315 303/674/315
f 320/676/319 303/1136/316 304/677/316
f 304/679/317 305/1137/317 322/680/327
f 292/682/306 309/1138/318 323/683/318
f 308/655/318 324/1139/328 325/685/328
f 326/687/329 310/1140/319 311/688/319
f 329/690/330 327/1141/330 311/688/320
f 324/692/331 308/1127/321 310/693/322
f 328/695/328 312/1142/323 314/696/323
f 330/698/332 314/1143/324 315/699/324
f 331/701/329 315/1144/319 316/702/319
f 316/704/325 317/1145/325 333/705/334
f 334/707/335 318/1146/323 319/708/323
f 335/710/336 319/1147/326 320/711/326
f 336/713/329 320/1148/319 321/714/319
f 321/716/327 322/1149/327 338/717/337
f 309/719/318 325/1150/328 339/720/328
f 324/692/328 340/1151/338 341/722/338
f 342/724/339 326/1152/329 327/725/329
f 345/727/340 343/1153/340 327/725/330
f 340/729/341 324/1139/331 326/730/331
f 344/732/342 328/1154/328 330/733/328
f 346/735/344 330/1155/332 331/736/333
f 347/738/339 331/1156/329 332/739/329
f 332/741/334 333/1157/334 349/742/345
f 350/744/343 334/1158/335 335/745/335
f 351/747/346 335/1159/336 336/748/336
f 352/750/339 336/1160/329 337/751/329
f 337/753/337 338/1161/337 354/754/347
f 325/756/328 341/1162/338 355/757/338
f 340/729/338 356/1163/348 357/759/348
f 358/761/349 342/1164/339 343/762/339
f 361/764/350 359/1165/350 343/762/340
f 356/766/351 340/1151/341 342/767/341
f 360/769/348 344/1166/342 346/770/343
f 362/772/353 346/1167/344 347/773/344
f 363/775/349 347/1168/339 348/776/339
f 348/778/345 349/1169/345 365/779/355
f 366/781/352 350/1170/343 351/782/343
f 367/784/356 351/1171/346 352/785/346
f 368/787/357 352/1172/339 353/788/339
f 353/790/347 354/1173/347 370/791/358
f 341/793/338 357/1174/348 371/794/348
f 356/766/348 372/1175/369 373/796/359
f 374/798/360 358/1176/349 359/799/349
f 377/801/361 375/1177/361 359/799/350
f 372/803/362 356/1163/351 358/804/351
f 376/806/363 360/1178/348 362/807/352
f 378/809/364 362/1179/353 363/810/354
f 379/812/360 363/1180/349 364/813/349
f 364/815/355 365/1181/355 381/816/365
f 382/818/366 366/1182/352 367/819/352
f 383/821/367 367/1183/356 368/822/356
f 384/824/360 368/1184/357 369/825/357
f 369/827/358 370/1185/358 386/828/368
f 357/830/348 373/1186/359 387/831/359
f 372/803/369 388/1187/370 389/833/370
f 390/835/371 374/1188/360 375/836/360
f 393/838/372 391/1189/372 375/836/361
f 388/840/373 372/1175/362 374/841/362
f 392/843/374 376/1190/363 378/844/363
f 394/846/375 378/1191/364 379/847/364
f 395/849/371 379/1192/360 380/850/360
f 380/852/365 381/1193/365 397/853/376
f 398/855/377 382/1194/366 383/856/366
f 399/858/378 383/1195/367 384/859/367
f 400/861/371 384/1196/360 385/862/360
f 385/864/368 386/1197/368 402/865/379
f 373/867/359 389/1198/370 404/868/380
f 388/840/370 405/1199/396 406/870/381
f 407/872/382 390/1200/371 391/873/371
f 410/875/383 408/1201/383 391/873/372
f 405/877/384 388/1187/373 390/878/373
f 409/880/385 392/1202/374 394/881/374
f 411/883/387 394/1203/375 395/884/375
f 412/886/382 395/1204/371 396/887/371
f 396/889/376 397/1205/376 414/890/389
f 415/892/390 398/1206/377 399/893/377
f 416/895/392 399/1207/378 400/896/378
f 417/898/393 400/1208/371 401/899/371
f 401/901/379 402/1209/379 419/902/394
f 389/904/370 406/1210/381 420/905/395
f 405/877/396 421/1211/397 426/907/397
f 427/909/398 407/1212/382 408/910/382
f 422/912/399 428/1213/399 408/910/383
f 421/914/400 405/1199/384 407/915/384
f 423/917/398 412/1214/382 413/918/382
f 413/920/389 414/1215/389 425/921/402
f 256/923/267 252/1216/258 435/924/403
f 260/926/275 256/1217/267 436/927/404
f 252/929/258 248/1218/250 434/930/406
f 248/932/250 244/1219/242 433/933/407
f 267/935/293 264/1220/284 438/936/408
f 97/938/109 93/1221/420 429/939/410
f 98/941/118 97/1222/109 430/942/411
f 244/944/242 241/1223/233 432/945/413
f 264/947/284 260/1224/275 437/948/405
f 241/950/233 98/1225/118 431/951/412
