# Blender v2.78 (sub 0) OBJ File: 'accelerator.blend'
# www.blender.org
o Cube
v 1.000000 -0.066398 -1.000000
v 1.000000 -0.066398 1.000000
v -1.000000 -0.066398 1.000000
v -1.000000 -0.066398 -1.000000
v 1.000000 0.066398 -1.000000
v 0.999999 0.066398 1.000001
v -1.000000 0.066398 1.000000
v -1.000000 0.066398 -1.000000
v 0.883365 0.089232 -0.883364
v 0.883364 0.089232 0.883365
v -0.883364 0.089232 -0.883364
v -0.883365 0.089232 0.883364
v 0.883364 0.089232 0.000001
v -0.883364 0.089232 -0.000000
v 0.790173 0.089232 -0.883364
v 0.790173 0.089232 0.883364
v 0.790173 0.089232 0.000000
v -0.704713 0.089232 -0.883364
v -0.704713 0.089232 0.883364
v -0.704713 0.089232 0.000000
v 0.284023 0.089232 0.000000
v 0.344391 0.089232 -0.883364
v 0.344390 0.089232 0.883364
v 0.790173 0.089232 0.441682
v 0.705583 0.089232 0.441682
v 0.790173 0.089232 -0.441682
v 0.705583 0.089232 -0.441682
v -0.704713 0.089232 -0.092223
v 0.284023 0.119126 0.000000
v -0.704713 0.089232 0.092223
v -0.704713 0.119126 0.000000
v 0.344391 0.119126 -0.883364
v 0.344390 0.119126 0.883364
v 0.705583 0.119126 0.441682
v 0.705583 0.119126 -0.441682
v -0.704713 0.119126 -0.092223
v -0.704713 0.119126 0.092223
vt 0.7939 0.0955
vt 0.2061 0.0955
vt 0.0245 0.6545
vt 0.8909 0.8117
vt 0.2831 0.0495
vt 0.5000 1.0000
vt 1.0000 0.0000
vt 0.0000 1.0000
vt 0.0000 0.0000
vt 1.0000 0.0000
vt 0.0000 1.0000
vt 0.0000 0.0000
vt 0.0000 0.0000
vt 1.0000 1.0000
vt 0.0000 1.0000
vt 1.0000 0.0000
vt 0.0000 1.0000
vt 0.0000 0.0000
vt 0.9755 0.6545
vt 0.2061 0.0955
vt 0.5000 1.0000
vt 0.9755 0.6545
vt 0.2061 0.0955
vt 0.5000 1.0000
vt 0.8909 0.8117
vt 0.2831 0.0495
vt 0.5000 1.0000
vt 0.7939 0.0955
vt 0.2061 0.0955
vt 0.0245 0.6545
vt 0.9755 0.6545
vt 0.7939 0.0955
vt 0.5000 1.0000
vt 0.9755 0.6545
vt 0.7939 0.0955
vt 0.5000 1.0000
vt 0.0000 0.0000
vt 1.0000 0.0000
vt 1.0000 1.0000
vt 1.0000 0.0000
vt 0.0000 1.0000
vt 0.0000 0.0000
vt 0.0000 0.0000
vt 1.0000 1.0000
vt 0.0000 1.0000
vt 1.0000 1.0000
vt 0.0000 1.0000
vt 0.0000 0.0000
vt 0.0000 1.0000
vt 0.0000 0.0000
vt 1.0000 0.0000
vt 1.0000 1.0000
vt 1.0000 0.0000
vt 0.0000 1.0000
vt 0.0000 0.0000
vt 0.0000 1.0000
vt 0.0000 0.0000
vt 1.0000 0.0000
vt 0.0000 1.0000
vt 0.0000 0.0000
vt 0.0000 1.0000
vt 0.0000 0.0000
vt 1.0000 0.0000
vt 0.0000 1.0000
vt 0.0000 0.0000
vt 1.0000 0.0000
vt 0.0000 1.0000
vt 0.0000 0.0000
vt 1.0000 0.0000
vt 0.0000 1.0000
vt 0.0000 0.0000
vt 0.0000 1.0000
vt 0.0000 0.0000
vt 0.5000 1.0000
vt 0.9755 0.6545
vt 0.1091 0.8117
vt 0.0125 0.3887
vt 0.9875 0.3887
vt 0.7169 0.0495
vt 1.0000 1.0000
vt 1.0000 1.0000
vt 1.0000 0.0000
vt 1.0000 1.0000
vt 0.0245 0.6545
vt 0.7939 0.0955
vt 0.0245 0.6545
vt 0.1091 0.8117
vt 0.0125 0.3887
vt 0.9875 0.3887
vt 0.7169 0.0495
vt 0.5000 1.0000
vt 0.9755 0.6545
vt 0.0245 0.6545
vt 0.2061 0.0955
vt 0.2061 0.0955
vt 1.0000 1.0000
vt 1.0000 0.0000
vt 1.0000 1.0000
vt 1.0000 1.0000
vt 1.0000 1.0000
vt 1.0000 1.0000
vt 1.0000 1.0000
vt 1.0000 1.0000
vt 1.0000 1.0000
vt 1.0000 1.0000
vn 0.0000 1.0000 -0.0000
vn -0.0000 0.9814 0.1921
vn 1.0000 -0.0000 0.0000
vn 0.0000 -0.0000 1.0000
vn -1.0000 -0.0000 -0.0000
vn 0.0000 0.0000 -1.0000
vn 0.1921 0.9814 0.0000
vn -0.1921 0.9814 -0.0000
vn 0.0000 0.9814 -0.1921
vn 0.7741 0.0000 -0.6330
vn -0.6021 0.0000 -0.7984
vn 0.7741 0.0000 0.6330
vn 0.7234 0.0000 0.6904
vn 0.7234 0.0000 -0.6904
vn -0.6021 0.0000 0.7984
s off
f 12/1/1 19/2/1 30/3/1
f 6/4/2 23/5/2 7/6/2
f 5/7/3 2/8/3 1/9/3
f 6/10/4 3/11/4 2/12/4
f 3/13/5 8/14/5 4/15/5
f 1/16/6 8/17/6 5/18/6
f 5/19/7 13/20/7 6/21/7
f 7/22/8 14/23/8 8/24/8
f 8/25/9 22/26/9 5/27/9
f 14/28/1 20/29/1 28/30/1
f 15/31/1 26/32/1 9/33/1
f 17/34/1 24/35/1 13/36/1
f 19/37/1 23/38/1 30/39/1
f 25/40/1 16/41/1 24/42/1
f 17/43/1 27/44/1 21/45/1
f 17/43/1 25/46/1 24/47/1
f 15/48/1 27/44/1 26/49/1
f 18/50/1 28/51/1 22/52/1
f 22/53/10 35/54/10 27/55/10
f 28/51/11 32/56/11 22/57/11
f 30/58/5 31/59/5 20/60/5
f 25/40/12 33/61/12 23/62/12
f 27/63/13 29/64/13 21/65/13
f 20/66/5 36/67/5 28/68/5
f 21/69/14 34/70/14 25/71/14
f 23/38/15 37/72/15 30/73/15
f 30/3/1 20/74/1 14/75/1
f 14/75/1 12/1/1 30/3/1
f 12/76/2 7/6/2 19/77/2
f 6/4/2 10/78/2 16/79/2
f 16/79/2 23/5/2 6/4/2
f 19/77/2 7/6/2 23/5/2
f 5/7/3 6/80/3 2/8/3
f 6/10/4 7/81/4 3/11/4
f 3/13/5 7/82/5 8/14/5
f 1/16/6 4/83/6 8/17/6
f 10/84/7 6/21/7 13/20/7
f 5/19/7 9/85/7 13/20/7
f 11/86/8 8/24/8 14/23/8
f 7/22/8 12/1/8 14/23/8
f 9/87/9 5/27/9 15/88/9
f 8/25/9 11/89/9 18/90/9
f 8/25/9 18/90/9 22/26/9
f 15/88/9 5/27/9 22/26/9
f 28/30/1 18/91/1 11/92/1
f 11/92/1 14/28/1 28/30/1
f 13/93/1 9/33/1 26/32/1
f 26/32/1 17/94/1 13/93/1
f 10/84/1 13/36/1 24/35/1
f 24/35/1 16/95/1 10/84/1
f 25/40/1 23/96/1 16/41/1
f 17/43/1 26/97/1 27/44/1
f 17/43/1 21/69/1 25/46/1
f 15/48/1 22/53/1 27/44/1
f 22/53/10 32/98/10 35/54/10
f 28/51/11 36/99/11 32/56/11
f 30/58/5 37/100/5 31/59/5
f 25/40/12 34/101/12 33/61/12
f 27/63/13 35/102/13 29/64/13
f 20/66/5 31/103/5 36/67/5
f 21/69/14 29/104/14 34/70/14
f 23/38/15 33/105/15 37/72/15
