# Blender v2.78 (sub 0) OBJ File: 'mstein.blend'
# www.blender.org
o Cylinder
v 0.000000 -0.245737 -1.000000
v 0.000000 0.245737 -1.000000
v 0.195090 -0.245737 -0.980785
v 0.195090 0.245737 -0.980785
v 0.382683 -0.245737 -0.923880
v 0.382683 0.245737 -0.923880
v 0.555570 -0.245737 -0.831470
v 0.555570 0.245737 -0.831470
v 0.707107 -0.245737 -0.707107
v 0.707107 0.245737 -0.707107
v 0.831470 -0.245737 -0.555570
v 0.831470 0.245737 -0.555570
v 0.923880 -0.245737 -0.382683
v 0.923880 0.245737 -0.382683
v 0.980785 -0.245737 -0.195090
v 0.980785 0.245737 -0.195090
v 1.000000 -0.245737 -0.000000
v 1.000000 0.245737 -0.000000
v 0.980785 -0.245737 0.195090
v 0.980785 0.245737 0.195090
v 0.923880 -0.245737 0.382683
v 0.923880 0.245737 0.382683
v 0.831470 -0.245737 0.555570
v 0.831470 0.245737 0.555570
v 0.707107 -0.245737 0.707107
v 0.707107 0.245737 0.707107
v 0.555570 -0.245737 0.831470
v 0.555570 0.245737 0.831470
v 0.382683 -0.245737 0.923880
v 0.382683 0.245737 0.923880
v 0.195090 -0.245737 0.980785
v 0.195090 0.245737 0.980785
v -0.000000 -0.245737 1.000000
v -0.000000 0.245737 1.000000
v -0.195091 -0.245737 0.980785
v -0.195091 0.245737 0.980785
v -0.382684 -0.245737 0.923879
v -0.382684 0.245737 0.923879
v -0.555571 -0.245737 0.831469
v -0.555571 0.245737 0.831469
v -0.707107 -0.245737 0.707106
v -0.707107 0.245737 0.707106
v -0.831470 -0.245737 0.555570
v -0.831470 0.245737 0.555570
v -0.923880 -0.245737 0.382683
v -0.923880 0.245737 0.382683
v -0.980785 -0.245737 0.195089
v -0.980785 0.245737 0.195089
v -1.000000 -0.245737 -0.000001
v -1.000000 0.245737 -0.000001
v -0.980785 -0.245737 -0.195091
v -0.980785 0.245737 -0.195091
v -0.923879 -0.245737 -0.382684
v -0.923879 0.245737 -0.382684
v -0.831469 -0.245737 -0.555571
v -0.831469 0.245737 -0.555571
v -0.707106 -0.245737 -0.707108
v -0.707106 0.245737 -0.707108
v -0.555569 -0.245737 -0.831470
v -0.555569 0.245737 -0.831470
v -0.382682 -0.245737 -0.923880
v -0.382682 0.245737 -0.923880
v -0.195089 -0.245737 -0.980786
v -0.195089 0.245737 -0.980786
v 0.000000 -0.245737 -1.000000
v 0.000000 0.245737 -1.000000
v 0.195090 -0.245737 -0.980785
v 0.195090 0.245737 -0.980785
v 0.382683 -0.245737 -0.923880
v 0.382683 0.245737 -0.923880
v 0.555570 -0.245737 -0.831470
v 0.555570 0.245737 -0.831470
v 0.707107 -0.245737 -0.707107
v 0.707107 0.245737 -0.707107
v 0.831470 -0.245737 -0.555570
v 0.831470 0.245737 -0.555570
v 0.923880 -0.245737 -0.382683
v 0.923880 0.245737 -0.382683
v 0.980785 -0.245737 -0.195090
v 0.980785 0.245737 -0.195090
v 1.000000 -0.245737 -0.000000
v 1.000000 0.245737 -0.000000
v 0.980785 -0.245737 0.195090
v 0.980785 0.245737 0.195090
v 0.923880 -0.245737 0.382683
v 0.923880 0.245737 0.382683
v 0.831470 -0.245737 0.555570
v 0.831470 0.245737 0.555570
v 0.707107 -0.245737 0.707107
v 0.707107 0.245737 0.707107
v 0.555570 -0.245737 0.831470
v 0.555570 0.245737 0.831470
v 0.382683 -0.245737 0.923880
v 0.382683 0.245737 0.923880
v 0.195090 -0.245737 0.980785
v 0.195090 0.245737 0.980785
v -0.000000 -0.245737 1.000000
v -0.000000 0.245737 1.000000
v -0.195091 -0.245737 0.980785
v -0.195091 0.245737 0.980785
v -0.382684 -0.245737 0.923879
v -0.382684 0.245737 0.923879
v -0.555571 -0.245737 0.831469
v -0.555571 0.245737 0.831469
v -0.707107 -0.245737 0.707106
v -0.707107 0.245737 0.707106
v -0.831470 -0.245737 0.555570
v -0.831470 0.245737 0.555570
v -0.923880 -0.245737 0.382683
v -0.923880 0.245737 0.382683
v -0.980785 -0.245737 0.195089
v -0.980785 0.245737 0.195089
v -1.000000 -0.245737 -0.000001
v -1.000000 0.245737 -0.000001
v -0.980785 -0.245737 -0.195091
v -0.980785 0.245737 -0.195091
v -0.923879 -0.245737 -0.382684
v -0.923879 0.245737 -0.382684
v -0.831469 -0.245737 -0.555571
v -0.831469 0.245737 -0.555571
v -0.707106 -0.245737 -0.707108
v -0.707106 0.245737 -0.707108
v -0.555569 -0.245737 -0.831470
v -0.555569 0.245737 -0.831470
v -0.382682 -0.245737 -0.923880
v -0.382682 0.245737 -0.923880
v -0.195089 -0.245737 -0.980786
v -0.195089 0.245737 -0.980786
vt 0.6862 0.0504
vt 0.9496 0.3138
vt 0.6862 0.9496
vt 0.5949 0.9773
vt 0.5000 0.9867
vt 0.4051 0.9773
vt 0.3138 0.9496
vt 0.2296 0.9047
vt 0.1559 0.8441
vt 0.0953 0.7704
vt 0.0504 0.6862
vt 0.0227 0.5949
vt 0.0133 0.5000
vt 0.0227 0.4051
vt 0.0504 0.3138
vt 0.0953 0.2296
vt 0.3138 0.0504
vt 0.1559 0.1559
vt 0.2296 0.0953
vt 0.4051 0.0227
vt 0.5000 0.0133
vt 0.5949 0.0227
vt 0.7704 0.0953
vt 0.8441 0.1559
vt 0.9047 0.2296
vt 0.9773 0.4051
vt 0.9867 0.5000
vt 0.9773 0.5949
vt 0.9496 0.6862
vt 0.9047 0.7704
vt 0.8441 0.8441
vt 0.7704 0.9047
vt 0.1171 0.8868
vt 0.0547 0.9492
vt 0.0547 0.8868
vt 0.1171 0.8868
vt 0.0547 0.9492
vt 0.0547 0.8868
vt 0.1171 0.8868
vt 0.0547 0.9492
vt 0.0547 0.8868
vt 0.1171 0.8868
vt 0.0547 0.9492
vt 0.0547 0.8868
vt 0.1171 0.8868
vt 0.0547 0.9492
vt 0.0547 0.8868
vt 0.1171 0.8868
vt 0.0547 0.9492
vt 0.0547 0.8868
vt 0.1171 0.8868
vt 0.0547 0.9492
vt 0.0547 0.8868
vt 0.1171 0.8868
vt 0.0547 0.9492
vt 0.0547 0.8868
vt 0.1171 0.8868
vt 0.0547 0.9492
vt 0.0547 0.8868
vt 0.1171 0.8868
vt 0.0547 0.9492
vt 0.0547 0.8868
vt 0.1171 0.8868
vt 0.0547 0.9492
vt 0.0547 0.8868
vt 0.1171 0.8868
vt 0.0547 0.9492
vt 0.0547 0.8868
vt 0.1171 0.8868
vt 0.0547 0.9492
vt 0.0547 0.8868
vt 0.1171 0.8868
vt 0.0547 0.9492
vt 0.0547 0.8868
vt 0.1171 0.8868
vt 0.0547 0.9492
vt 0.0547 0.8868
vt 0.1171 0.8868
vt 0.0547 0.9492
vt 0.0547 0.8868
vt 0.1171 0.8868
vt 0.0547 0.9492
vt 0.0547 0.8868
vt 0.1171 0.8868
vt 0.0547 0.9492
vt 0.0547 0.8868
vt 0.1171 0.8868
vt 0.0547 0.9492
vt 0.0547 0.8868
vt 0.1171 0.8868
vt 0.0547 0.9492
vt 0.0547 0.8868
vt 0.1171 0.8868
vt 0.0547 0.9492
vt 0.0547 0.8868
vt 0.1171 0.8868
vt 0.0547 0.9492
vt 0.0547 0.8868
vt 0.1171 0.8868
vt 0.0547 0.9492
vt 0.0547 0.8868
vt 0.1171 0.8868
vt 0.0547 0.9492
vt 0.0547 0.8868
vt 0.1171 0.8868
vt 0.0547 0.9492
vt 0.0547 0.8868
vt 0.1171 0.8868
vt 0.0547 0.9492
vt 0.0547 0.8868
vt 0.1171 0.8868
vt 0.0547 0.9492
vt 0.0547 0.8868
vt 0.1171 0.8868
vt 0.0547 0.9492
vt 0.0547 0.8868
vt 0.1171 0.8868
vt 0.0547 0.9492
vt 0.0547 0.8868
vt 0.1171 0.8868
vt 0.0547 0.9492
vt 0.0547 0.8868
vt 0.1171 0.8868
vt 0.0547 0.9492
vt 0.0547 0.8868
vt 0.1171 0.8868
vt 0.0547 0.9492
vt 0.0547 0.8868
vt 0.5949 0.0227
vt 0.0227 0.4051
vt 0.9773 0.5949
vt 0.1171 0.9492
vt 0.1171 0.9492
vt 0.1171 0.9492
vt 0.1171 0.9492
vt 0.1171 0.9492
vt 0.1171 0.9492
vt 0.1171 0.9492
vt 0.1171 0.9492
vt 0.1171 0.9492
vt 0.1171 0.9492
vt 0.1171 0.9492
vt 0.1171 0.9492
vt 0.1171 0.9492
vt 0.1171 0.9492
vt 0.1171 0.9492
vt 0.1171 0.9492
vt 0.1171 0.9492
vt 0.1171 0.9492
vt 0.1171 0.9492
vt 0.1171 0.9492
vt 0.1171 0.9492
vt 0.1171 0.9492
vt 0.1171 0.9492
vt 0.1171 0.9492
vt 0.1171 0.9492
vt 0.1171 0.9492
vt 0.1171 0.9492
vt 0.1171 0.9492
vt 0.1171 0.9492
vt 0.1171 0.9492
vt 0.1171 0.9492
vt 0.1171 0.9492
vt 0.4051 0.9773
vt 0.5000 0.9867
vt 0.5949 0.9773
vt 0.6862 0.9496
vt 0.7704 0.9047
vt 0.8441 0.8441
vt 0.9047 0.7704
vt 0.9496 0.6862
vt 0.9867 0.5000
vt 0.9773 0.4051
vt 0.9496 0.3138
vt 0.9047 0.2296
vt 0.8441 0.1559
vt 0.7704 0.0953
vt 0.6862 0.0504
vt 0.5000 0.0133
vt 0.4051 0.0227
vt 0.3138 0.0504
vt 0.2296 0.0953
vt 0.1559 0.1559
vt 0.0953 0.2296
vt 0.0504 0.3138
vt 0.0133 0.5000
vt 0.0953 0.7704
vt 0.0227 0.5949
vt 0.0504 0.6862
vt 0.1559 0.8441
vt 0.2296 0.9047
vt 0.3138 0.9496
vn 0.0000 1.0000 0.0000
vn 0.0000 0.0000 -1.0000
vn 0.1951 0.0000 -0.9808
vn 0.3827 0.0000 -0.9239
vn 0.5556 0.0000 -0.8314
vn 0.7071 0.0000 -0.7071
vn 0.8314 0.0000 -0.5556
vn 0.9239 0.0000 -0.3827
vn 0.9808 0.0000 -0.1951
vn 1.0000 0.0000 0.0000
vn 0.9808 0.0000 0.1951
vn 0.9239 0.0000 0.3827
vn 0.8314 0.0000 0.5556
vn 0.7071 0.0000 0.7071
vn 0.5556 0.0000 0.8314
vn 0.3827 0.0000 0.9239
vn 0.1951 0.0000 0.9808
vn 0.0000 0.0000 1.0000
vn -0.1951 0.0000 0.9808
vn -0.3827 0.0000 0.9239
vn -0.5556 0.0000 0.8314
vn -0.7071 0.0000 0.7071
vn -0.8314 0.0000 0.5556
vn -0.9239 0.0000 0.3827
vn -0.9808 0.0000 0.1951
vn -1.0000 0.0000 0.0000
vn -0.9808 0.0000 -0.1951
vn -0.9239 0.0000 -0.3827
vn -0.8314 0.0000 -0.5556
vn -0.7071 0.0000 -0.7071
vn -0.5556 0.0000 -0.8314
vn -0.3827 0.0000 -0.9239
vn -0.1951 0.0000 -0.9808
vn 0.0000 -1.0000 0.0000
s off
f 94/1/1 86/2/1 70/3/1
f 70/3/1 68/4/1 66/5/1
f 66/5/1 128/6/1 70/3/1
f 126/7/1 124/8/1 122/9/1
f 122/9/1 120/10/1 118/11/1
f 118/11/1 116/12/1 114/13/1
f 114/13/1 112/14/1 110/15/1
f 110/15/1 108/16/1 102/17/1
f 106/18/1 104/19/1 102/17/1
f 102/17/1 100/20/1 98/21/1
f 98/21/1 96/22/1 102/17/1
f 94/1/1 92/23/1 86/2/1
f 90/24/1 88/25/1 86/2/1
f 86/2/1 84/26/1 82/27/1
f 82/27/1 80/28/1 78/29/1
f 78/29/1 76/30/1 74/31/1
f 74/31/1 72/32/1 70/3/1
f 70/3/1 128/6/1 126/7/1
f 126/7/1 122/9/1 118/11/1
f 118/11/1 114/13/1 102/17/1
f 108/16/1 106/18/1 102/17/1
f 102/17/1 96/22/1 94/1/1
f 92/23/1 90/24/1 86/2/1
f 86/2/1 82/27/1 78/29/1
f 78/29/1 74/31/1 86/2/1
f 70/3/1 126/7/1 118/11/1
f 114/13/1 110/15/1 102/17/1
f 102/17/1 94/1/1 70/3/1
f 86/2/1 74/31/1 70/3/1
f 70/3/1 118/11/1 102/17/1
s 1
f 2/33/2 3/34/3 1/35/2
f 4/36/3 5/37/4 3/38/3
f 6/39/4 7/40/5 5/41/4
f 8/42/5 9/43/6 7/44/5
f 10/45/6 11/46/7 9/47/6
f 12/48/7 13/49/8 11/50/7
f 14/51/8 15/52/9 13/53/8
f 16/54/9 17/55/10 15/56/9
f 18/57/10 19/58/11 17/59/10
f 20/60/11 21/61/12 19/62/11
f 22/63/12 23/64/13 21/65/12
f 24/66/13 25/67/14 23/68/13
f 26/69/14 27/70/15 25/71/14
f 28/72/15 29/73/16 27/74/15
f 30/75/16 31/76/17 29/77/16
f 32/78/17 33/79/18 31/80/17
f 34/81/18 35/82/19 33/83/18
f 36/84/19 37/85/20 35/86/19
f 38/87/20 39/88/21 37/89/20
f 40/90/21 41/91/22 39/92/21
f 42/93/22 43/94/23 41/95/22
f 44/96/23 45/97/24 43/98/23
f 46/99/24 47/100/25 45/101/24
f 48/102/25 49/103/26 47/104/25
f 50/105/26 51/106/27 49/107/26
f 52/108/27 53/109/28 51/110/27
f 54/111/28 55/112/29 53/113/28
f 56/114/29 57/115/30 55/116/29
f 58/117/30 59/118/31 57/119/30
f 60/120/31 61/121/32 59/122/31
f 62/123/32 63/124/33 61/125/32
f 64/126/33 1/127/2 63/128/33
f 95/129/34 111/130/34 79/131/34
f 2/33/2 4/132/3 3/34/3
f 4/36/3 6/133/4 5/37/4
f 6/39/4 8/134/5 7/40/5
f 8/42/5 10/135/6 9/43/6
f 10/45/6 12/136/7 11/46/7
f 12/48/7 14/137/8 13/49/8
f 14/51/8 16/138/9 15/52/9
f 16/54/9 18/139/10 17/55/10
f 18/57/10 20/140/11 19/58/11
f 20/60/11 22/141/12 21/61/12
f 22/63/12 24/142/13 23/64/13
f 24/66/13 26/143/14 25/67/14
f 26/69/14 28/144/15 27/70/15
f 28/72/15 30/145/16 29/73/16
f 30/75/16 32/146/17 31/76/17
f 32/78/17 34/147/18 33/79/18
f 34/81/18 36/148/19 35/82/19
f 36/84/19 38/149/20 37/85/20
f 38/87/20 40/150/21 39/88/21
f 40/90/21 42/151/22 41/91/22
f 42/93/22 44/152/23 43/94/23
f 44/96/23 46/153/24 45/97/24
f 46/99/24 48/154/25 47/100/25
f 48/102/25 50/155/26 49/103/26
f 50/105/26 52/156/27 51/106/27
f 52/108/27 54/157/28 53/109/28
f 54/111/28 56/158/29 55/112/29
f 56/114/29 58/159/30 57/115/30
f 58/117/30 60/160/31 59/118/31
f 60/120/31 62/161/32 61/121/32
f 62/123/32 64/162/33 63/124/33
f 64/126/33 2/163/2 1/127/2
f 127/164/34 65/165/34 67/166/34
f 67/166/34 69/167/34 71/168/34
f 71/168/34 73/169/34 75/170/34
f 75/170/34 77/171/34 71/168/34
f 79/131/34 81/172/34 83/173/34
f 83/173/34 85/174/34 79/131/34
f 87/175/34 89/176/34 95/129/34
f 91/177/34 93/178/34 95/129/34
f 95/129/34 97/179/34 99/180/34
f 99/180/34 101/181/34 103/182/34
f 103/182/34 105/183/34 107/184/34
f 107/184/34 109/185/34 111/130/34
f 111/130/34 113/186/34 119/187/34
f 115/188/34 117/189/34 119/187/34
f 119/187/34 121/190/34 127/164/34
f 123/191/34 125/192/34 127/164/34
f 127/164/34 67/166/34 79/131/34
f 71/168/34 77/171/34 79/131/34
f 79/131/34 85/174/34 87/175/34
f 89/176/34 91/177/34 95/129/34
f 95/129/34 99/180/34 111/130/34
f 103/182/34 107/184/34 111/130/34
f 113/186/34 115/188/34 119/187/34
f 121/190/34 123/191/34 127/164/34
f 67/166/34 71/168/34 79/131/34
f 79/131/34 87/175/34 95/129/34
f 99/180/34 103/182/34 111/130/34
f 111/130/34 119/187/34 127/164/34
f 127/164/34 79/131/34 111/130/34
