# Blender v2.78 (sub 0) OBJ File: ''
# www.blender.org
o Cylinder
v 0.000000 3.160758 -1.000000
v 0.195090 3.160758 -0.980785
v 0.382683 3.160758 -0.923880
v 0.555570 3.160758 -0.831470
v 0.707107 3.160758 -0.707107
v 0.831470 3.160758 -0.555570
v 0.923880 3.160758 -0.382683
v 0.980785 3.160758 -0.195090
v 1.000000 3.160758 -0.000000
v 0.980785 3.160758 0.195090
v 0.923880 3.160758 0.382683
v 0.831470 3.160758 0.555570
v 0.707107 3.160758 0.707107
v 0.555570 3.160758 0.831470
v 0.382683 3.160758 0.923880
v 0.195090 3.160758 0.980785
v -0.000000 3.160758 1.000000
v -0.195091 3.160758 0.980785
v -0.382684 3.160758 0.923879
v -0.555571 3.160758 0.831469
v -0.707107 3.160758 0.707106
v -0.831470 3.160758 0.555570
v -0.923880 3.160758 0.382683
v -0.980785 3.160758 0.195089
v -1.000000 3.160758 -0.000001
v -0.980785 3.160758 -0.195091
v -0.923879 3.160758 -0.382684
v -0.831469 3.160758 -0.555571
v -0.707106 3.160758 -0.707108
v -0.555569 3.160758 -0.831470
v -0.382682 3.160758 -0.923880
v -0.195089 3.160758 -0.980786
v 0.000000 0.000000 -1.000000
v 0.195090 0.000000 -0.980785
v 0.382683 0.000000 -0.923880
v 0.555570 0.000000 -0.831470
v 0.707107 0.000000 -0.707107
v 0.831470 0.000000 -0.555570
v 0.923880 0.000000 -0.382683
v 0.980785 0.000000 -0.195090
v 1.000000 0.000000 -0.000000
v 0.980785 0.000000 0.195090
v 0.923880 0.000000 0.382683
v 0.831470 0.000000 0.555570
v 0.707107 0.000000 0.707107
v 0.555570 0.000000 0.831470
v 0.382683 0.000000 0.923880
v 0.195090 0.000000 0.980785
v -0.000000 0.000000 1.000000
v -0.195091 0.000000 0.980785
v -0.382684 0.000000 0.923879
v -0.555571 0.000000 0.831469
v -0.707107 0.000000 0.707106
v -0.831470 0.000000 0.555570
v -0.923880 0.000000 0.382683
v -0.980785 0.000000 0.195089
v -1.000000 0.000000 -0.000001
v -0.980785 0.000000 -0.195091
v -0.923879 0.000000 -0.382684
v -0.831469 0.000000 -0.555571
v -0.707106 0.000000 -0.707108
v -0.555569 0.000000 -0.831470
v -0.382682 0.000000 -0.923880
v -0.195089 0.000000 -0.980786
vt 1.0000 0.0000
vt 0.0000 1.0000
vt 0.0000 0.0000
vt 1.0000 0.0000
vt 0.0000 1.0000
vt 0.0000 0.0000
vt 1.0000 0.0000
vt 0.0000 1.0000
vt 0.0000 0.0000
vt 1.0000 0.0000
vt 0.0000 1.0000
vt 0.0000 0.0000
vt 1.0000 0.0000
vt 0.0000 1.0000
vt 0.0000 0.0000
vt 1.0000 0.0000
vt 0.0000 1.0000
vt 0.0000 0.0000
vt 1.0000 0.0000
vt 0.0000 1.0000
vt 0.0000 0.0000
vt 1.0000 0.0000
vt 0.0000 1.0000
vt 0.0000 0.0000
vt 1.0000 0.0000
vt 0.0000 1.0000
vt 0.0000 0.0000
vt 1.0000 0.0000
vt 0.0000 1.0000
vt 0.0000 0.0000
vt 1.0000 0.0000
vt 0.0000 1.0000
vt 0.0000 0.0000
vt 1.0000 0.0000
vt 0.0000 1.0000
vt 0.0000 0.0000
vt 1.0000 0.0000
vt 0.0000 1.0000
vt 0.0000 0.0000
vt 1.0000 0.0000
vt 0.0000 1.0000
vt 0.0000 0.0000
vt 1.0000 0.0000
vt 0.0000 1.0000
vt 0.0000 0.0000
vt 1.0000 0.0000
vt 0.0000 1.0000
vt 0.0000 0.0000
vt 1.0000 0.0000
vt 0.0000 1.0000
vt 0.0000 0.0000
vt 1.0000 0.0000
vt 0.0000 1.0000
vt 0.0000 0.0000
vt 1.0000 0.0000
vt 0.0000 1.0000
vt 0.0000 0.0000
vt 1.0000 0.0000
vt 0.0000 1.0000
vt 0.0000 0.0000
vt 1.0000 0.0000
vt 0.0000 1.0000
vt 0.0000 0.0000
vt 1.0000 0.0000
vt 0.0000 1.0000
vt 0.0000 0.0000
vt 1.0000 0.0000
vt 0.0000 1.0000
vt 0.0000 0.0000
vt 1.0000 0.0000
vt 0.0000 1.0000
vt 0.0000 0.0000
vt 1.0000 0.0000
vt 0.0000 1.0000
vt 0.0000 0.0000
vt 1.0000 0.0000
vt 0.0000 1.0000
vt 0.0000 0.0000
vt 1.0000 0.0000
vt 0.0000 1.0000
vt 0.0000 0.0000
vt 1.0000 0.0000
vt 0.0000 1.0000
vt 0.0000 0.0000
vt 1.0000 0.0000
vt 0.0000 1.0000
vt 0.0000 0.0000
vt 1.0000 0.0000
vt 0.0000 1.0000
vt 0.0000 0.0000
vt 1.0000 0.0000
vt 0.0000 1.0000
vt 0.0000 0.0000
vt 1.0000 0.0000
vt 0.0000 1.0000
vt 0.0000 0.0000
vt 1.0000 1.0000
vt 1.0000 1.0000
vt 1.0000 1.0000
vt 1.0000 1.0000
vt 1.0000 1.0000
vt 1.0000 1.0000
vt 1.0000 1.0000
vt 1.0000 1.0000
vt 1.0000 1.0000
vt 1.0000 1.0000
vt 1.0000 1.0000
vt 1.0000 1.0000
vt 1.0000 1.0000
vt 1.0000 1.0000
vt 1.0000 1.0000
vt 1.0000 1.0000
vt 1.0000 1.0000
vt 1.0000 1.0000
vt 1.0000 1.0000
vt 1.0000 1.0000
vt 1.0000 1.0000
vt 1.0000 1.0000
vt 1.0000 1.0000
vt 1.0000 1.0000
vt 1.0000 1.0000
vt 1.0000 1.0000
vt 1.0000 1.0000
vt 1.0000 1.0000
vt 1.0000 1.0000
vt 1.0000 1.0000
vt 1.0000 1.0000
vt 1.0000 1.0000
vn 0.0980 0.0000 -0.9952
vn 0.2903 0.0000 -0.9569
vn 0.4714 0.0000 -0.8819
vn 0.6344 0.0000 -0.7730
vn 0.7730 0.0000 -0.6344
vn 0.8819 0.0000 -0.4714
vn 0.9569 0.0000 -0.2903
vn 0.9952 0.0000 -0.0980
vn 0.9952 0.0000 0.0980
vn 0.9569 0.0000 0.2903
vn 0.8819 0.0000 0.4714
vn 0.7730 0.0000 0.6344
vn 0.6344 0.0000 0.7730
vn 0.4714 0.0000 0.8819
vn 0.2903 0.0000 0.9569
vn 0.0980 0.0000 0.9952
vn -0.0980 0.0000 0.9952
vn -0.2903 0.0000 0.9569
vn -0.4714 0.0000 0.8819
vn -0.6344 0.0000 0.7730
vn -0.7730 0.0000 0.6344
vn -0.8819 0.0000 0.4714
vn -0.9569 0.0000 0.2903
vn -0.9952 0.0000 0.0980
vn -0.9952 0.0000 -0.0980
vn -0.9569 0.0000 -0.2903
vn -0.8819 0.0000 -0.4714
vn -0.7730 0.0000 -0.6344
vn -0.6344 0.0000 -0.7730
vn -0.4714 0.0000 -0.8819
vn -0.2903 0.0000 -0.9569
vn -0.0980 0.0000 -0.9952
s off
f 1/1/1 34/2/1 33/3/1
f 2/4/2 35/5/2 34/6/2
f 3/7/3 36/8/3 35/9/3
f 4/10/4 37/11/4 36/12/4
f 5/13/5 38/14/5 37/15/5
f 6/16/6 39/17/6 38/18/6
f 7/19/7 40/20/7 39/21/7
f 8/22/8 41/23/8 40/24/8
f 9/25/9 42/26/9 41/27/9
f 10/28/10 43/29/10 42/30/10
f 11/31/11 44/32/11 43/33/11
f 12/34/12 45/35/12 44/36/12
f 13/37/13 46/38/13 45/39/13
f 14/40/14 47/41/14 46/42/14
f 15/43/15 48/44/15 47/45/15
f 16/46/16 49/47/16 48/48/16
f 17/49/17 50/50/17 49/51/17
f 18/52/18 51/53/18 50/54/18
f 19/55/19 52/56/19 51/57/19
f 20/58/20 53/59/20 52/60/20
f 21/61/21 54/62/21 53/63/21
f 22/64/22 55/65/22 54/66/22
f 23/67/23 56/68/23 55/69/23
f 24/70/24 57/71/24 56/72/24
f 25/73/25 58/74/25 57/75/25
f 26/76/26 59/77/26 58/78/26
f 27/79/27 60/80/27 59/81/27
f 28/82/28 61/83/28 60/84/28
f 29/85/29 62/86/29 61/87/29
f 30/88/30 63/89/30 62/90/30
f 31/91/31 64/92/31 63/93/31
f 32/94/32 33/95/32 64/96/32
f 1/1/1 2/97/1 34/2/1
f 2/4/2 3/98/2 35/5/2
f 3/7/3 4/99/3 36/8/3
f 4/10/4 5/100/4 37/11/4
f 5/13/5 6/101/5 38/14/5
f 6/16/6 7/102/6 39/17/6
f 7/19/7 8/103/7 40/20/7
f 8/22/8 9/104/8 41/23/8
f 9/25/9 10/105/9 42/26/9
f 10/28/10 11/106/10 43/29/10
f 11/31/11 12/107/11 44/32/11
f 12/34/12 13/108/12 45/35/12
f 13/37/13 14/109/13 46/38/13
f 14/40/14 15/110/14 47/41/14
f 15/43/15 16/111/15 48/44/15
f 16/46/16 17/112/16 49/47/16
f 17/49/17 18/113/17 50/50/17
f 18/52/18 19/114/18 51/53/18
f 19/55/19 20/115/19 52/56/19
f 20/58/20 21/116/20 53/59/20
f 21/61/21 22/117/21 54/62/21
f 22/64/22 23/118/22 55/65/22
f 23/67/23 24/119/23 56/68/23
f 24/70/24 25/120/24 57/71/24
f 25/73/25 26/121/25 58/74/25
f 26/76/26 27/122/26 59/77/26
f 27/79/27 28/123/27 60/80/27
f 28/82/28 29/124/28 61/83/28
f 29/85/29 30/125/29 62/86/29
f 30/88/30 31/126/30 63/89/30
f 31/91/31 32/127/31 64/92/31
f 32/94/32 1/128/32 33/95/32
