# Blender v2.78 (sub 0) OBJ File: 'sidebridge.blend'
# www.blender.org
o Cube.001_Cube.005
v -10.368318 -0.399614 0.367913
v -10.680079 -0.044993 0.157382
v -10.368318 -0.399614 -18.654865
v -10.680079 -0.044993 -18.444336
v -10.151377 -0.165806 0.367913
v -10.325458 0.188815 0.157382
v -10.151377 -0.165806 -18.654865
v -10.325458 0.188815 -18.444336
v -11.435773 1.055675 -1.576124
v -11.294825 1.026736 -1.576124
v -11.533690 1.389030 -1.576124
v -11.562630 1.248081 -1.576124
v -11.294825 1.026736 -1.810640
v -11.435773 1.055675 -1.810640
v -11.562630 1.248081 -1.810640
v -11.533690 1.389030 -1.810640
v -11.096504 1.157491 -1.576124
v -11.067566 1.298440 -1.576124
v -11.194423 1.490847 -1.576124
v -11.335371 1.519786 -1.576124
v -11.067566 1.298440 -1.810640
v -11.096504 1.157491 -1.810640
v -11.335371 1.519786 -1.810640
v -11.194423 1.490847 -1.810640
v -11.215282 1.446158 -17.386345
v -11.325863 1.468862 -17.386345
v -11.115759 1.295208 -17.386345
v -11.138462 1.184628 -17.386345
v -11.294052 1.082045 -2.078666
v -11.404632 1.104749 -2.078666
v -11.504156 1.255699 -2.078666
v -11.481452 1.366279 -2.078666
v -11.504156 1.255699 -17.386345
v -11.481452 1.366279 -17.386345
v -11.404632 1.104749 -17.386345
v -11.294052 1.082045 -17.386345
v -11.115759 1.295208 -2.078666
v -11.138462 1.184628 -2.078666
v -11.325863 1.468862 -2.078666
v -11.215282 1.446158 -2.078666
v -10.366786 0.038021 -0.148656
v -10.326712 0.064442 -0.094283
v -10.326712 0.064442 0.094281
v -10.366786 0.038021 0.148654
v -10.534854 -0.072789 0.148654
v -10.574927 -0.099210 0.094281
v -10.574927 -0.099210 -0.094283
v -10.534854 -0.072789 -0.148656
v -11.175737 1.352178 -0.915090
v -11.215812 1.325757 -0.969462
v -11.215812 1.325757 -0.672153
v -11.175738 1.352178 -0.726526
v -11.423953 1.188525 -0.726526
v -11.383880 1.214947 -0.672153
v -11.383880 1.214947 -0.969462
v -11.423953 1.188525 -0.915090
v -10.326712 0.064442 -1.698980
v -10.366786 0.038021 -1.644607
v -10.366786 0.038021 -1.941917
v -10.326712 0.064442 -1.887544
v -10.574927 -0.099210 -1.887544
v -10.534854 -0.072789 -1.941916
v -10.534854 -0.072789 -1.644607
v -10.574927 -0.099210 -1.698980
v -11.215812 1.325757 -0.823800
v -11.175737 1.352178 -0.878173
v -11.175738 1.352178 -1.066736
v -11.215812 1.325757 -1.121109
v -11.383880 1.214947 -1.121109
v -11.423953 1.188525 -1.066736
v -11.423953 1.188525 -0.878173
v -11.383880 1.214947 -0.823800
v -11.435773 1.055675 -3.931152
v -11.294825 1.026736 -3.931152
v -11.533690 1.389030 -3.931152
v -11.562630 1.248081 -3.931152
v -11.294825 1.026736 -4.165667
v -11.435773 1.055675 -4.165667
v -11.562630 1.248081 -4.165667
v -11.533690 1.389030 -4.165667
v -11.096504 1.157491 -3.931152
v -11.067566 1.298440 -3.931152
v -11.194423 1.490847 -3.931152
v -11.335371 1.519786 -3.931152
v -11.067566 1.298440 -4.165667
v -11.096504 1.157491 -4.165667
v -11.335371 1.519786 -4.165667
v -11.194423 1.490847 -4.165667
v -11.404632 1.104749 -2.078666
v -11.294052 1.082045 -2.078666
v -11.481452 1.366279 -2.078666
v -11.504156 1.255699 -2.078666
v -11.294052 1.082045 -4.433693
v -11.404632 1.104749 -4.433693
v -11.504156 1.255699 -4.433693
v -11.481452 1.366279 -4.433693
v -11.138462 1.184628 -2.078666
v -11.115759 1.295208 -2.078666
v -11.215282 1.446158 -2.078666
v -11.325863 1.468862 -2.078666
v -11.115759 1.295208 -4.433693
v -11.138462 1.184628 -4.433693
v -11.325863 1.468862 -4.433693
v -11.215282 1.446158 -4.433693
v -10.366786 0.038021 -2.503684
v -10.326712 0.064442 -2.449311
v -10.326712 0.064442 -2.260747
v -10.366786 0.038021 -2.206374
v -10.534854 -0.072789 -2.206374
v -10.574927 -0.099210 -2.260747
v -10.574927 -0.099210 -2.449311
v -10.534854 -0.072789 -2.503684
v -11.175737 1.352178 -3.270118
v -11.215812 1.325757 -3.324491
v -11.215812 1.325757 -3.027181
v -11.175738 1.352178 -3.081554
v -11.423953 1.188525 -3.081554
v -11.383880 1.214947 -3.027181
v -11.383880 1.214947 -3.324491
v -11.423953 1.188525 -3.270118
v -10.326712 0.064442 -4.054008
v -10.366786 0.038021 -3.999635
v -10.366786 0.038021 -4.296944
v -10.326712 0.064442 -4.242571
v -10.574927 -0.099210 -4.242571
v -10.534854 -0.072789 -4.296944
v -10.534854 -0.072789 -3.999634
v -10.574927 -0.099210 -4.054008
v -11.215812 1.325757 -3.178828
v -11.175737 1.352178 -3.233201
v -11.175738 1.352178 -3.421764
v -11.215812 1.325757 -3.476138
v -11.383880 1.214947 -3.476137
v -11.423953 1.188525 -3.421764
v -11.423953 1.188525 -3.233201
v -11.383880 1.214947 -3.178828
v -11.435773 1.055675 -6.286180
v -11.294825 1.026736 -6.286180
v -11.533690 1.389030 -6.286180
v -11.562630 1.248081 -6.286180
v -11.294825 1.026736 -6.520695
v -11.435773 1.055675 -6.520695
v -11.562630 1.248081 -6.520695
v -11.533690 1.389030 -6.520695
v -11.096504 1.157491 -6.286180
v -11.067566 1.298440 -6.286180
v -11.194423 1.490847 -6.286180
v -11.335371 1.519786 -6.286180
v -11.067566 1.298440 -6.520695
v -11.096504 1.157491 -6.520695
v -11.335371 1.519786 -6.520695
v -11.194423 1.490847 -6.520695
v -11.404632 1.104749 -4.433693
v -11.294052 1.082045 -4.433693
v -11.481452 1.366279 -4.433693
v -11.504156 1.255699 -4.433693
v -11.294052 1.082045 -6.788721
v -11.404632 1.104749 -6.788721
v -11.504156 1.255699 -6.788721
v -11.481452 1.366279 -6.788721
v -11.138462 1.184628 -4.433693
v -11.115759 1.295208 -4.433693
v -11.215282 1.446158 -4.433693
v -11.325863 1.468862 -4.433693
v -11.115759 1.295208 -6.788721
v -11.138462 1.184628 -6.788721
v -11.325863 1.468862 -6.788721
v -11.215282 1.446158 -6.788721
v -10.366786 0.038021 -4.858711
v -10.326712 0.064442 -4.804338
v -10.326712 0.064442 -4.615775
v -10.366786 0.038021 -4.561401
v -10.534854 -0.072789 -4.561401
v -10.574927 -0.099210 -4.615775
v -10.574927 -0.099210 -4.804338
v -10.534854 -0.072789 -4.858711
v -11.175737 1.352178 -5.625145
v -11.215812 1.325757 -5.679518
v -11.215812 1.325757 -5.382209
v -11.175738 1.352178 -5.436582
v -11.423953 1.188525 -5.436582
v -11.383880 1.214947 -5.382209
v -11.383880 1.214947 -5.679518
v -11.423953 1.188525 -5.625145
v -10.326712 0.064442 -6.409036
v -10.366786 0.038021 -6.354663
v -10.366786 0.038021 -6.651972
v -10.326712 0.064442 -6.597599
v -10.574927 -0.099210 -6.597599
v -10.534854 -0.072789 -6.651972
v -10.534854 -0.072789 -6.354663
v -10.574927 -0.099210 -6.409036
v -11.215812 1.325757 -5.533855
v -11.175737 1.352178 -5.588229
v -11.175738 1.352178 -5.776792
v -11.215812 1.325757 -5.831165
v -11.383880 1.214947 -5.831165
v -11.423953 1.188525 -5.776792
v -11.423953 1.188525 -5.588229
v -11.383880 1.214947 -5.533855
v -11.435773 1.055675 -8.641207
v -11.294825 1.026736 -8.641207
v -11.533690 1.389030 -8.641207
v -11.562630 1.248081 -8.641207
v -11.294825 1.026736 -8.875722
v -11.435773 1.055675 -8.875722
v -11.562630 1.248081 -8.875722
v -11.533690 1.389030 -8.875722
v -11.096504 1.157491 -8.641207
v -11.067566 1.298440 -8.641207
v -11.194423 1.490847 -8.641207
v -11.335371 1.519786 -8.641207
v -11.067566 1.298440 -8.875722
v -11.096504 1.157491 -8.875722
v -11.335371 1.519786 -8.875722
v -11.194423 1.490847 -8.875722
v -11.404632 1.104749 -6.788721
v -11.294052 1.082045 -6.788721
v -11.481452 1.366279 -6.788721
v -11.504156 1.255699 -6.788721
v -11.294052 1.082045 -9.143749
v -11.404632 1.104749 -9.143749
v -11.504156 1.255699 -9.143749
v -11.481452 1.366279 -9.143749
v -11.138462 1.184628 -6.788721
v -11.115759 1.295208 -6.788721
v -11.215282 1.446158 -6.788721
v -11.325863 1.468862 -6.788721
v -11.115759 1.295208 -9.143749
v -11.138462 1.184628 -9.143749
v -11.325863 1.468862 -9.143749
v -11.215282 1.446158 -9.143749
v -10.366786 0.038021 -7.213739
v -10.326712 0.064442 -7.159366
v -10.326712 0.064442 -6.970802
v -10.366786 0.038021 -6.916429
v -10.534854 -0.072789 -6.916429
v -10.574927 -0.099210 -6.970802
v -10.574927 -0.099210 -7.159366
v -10.534854 -0.072789 -7.213739
v -11.175737 1.352178 -7.980172
v -11.215812 1.325757 -8.034546
v -11.215812 1.325757 -7.737236
v -11.175738 1.352178 -7.791609
v -11.423953 1.188525 -7.791609
v -11.383880 1.214947 -7.737236
v -11.383880 1.214947 -8.034546
v -11.423953 1.188525 -7.980172
v -10.326712 0.064442 -8.764063
v -10.366786 0.038021 -8.709690
v -10.366786 0.038021 -9.007000
v -10.326712 0.064442 -8.952626
v -10.574927 -0.099210 -8.952626
v -10.534854 -0.072789 -9.007000
v -10.534854 -0.072789 -8.709689
v -10.574927 -0.099210 -8.764063
v -11.215812 1.325757 -7.888883
v -11.175737 1.352178 -7.943256
v -11.175738 1.352178 -8.131819
v -11.215812 1.325757 -8.186193
v -11.383880 1.214947 -8.186192
v -11.423953 1.188525 -8.131819
v -11.423953 1.188525 -7.943256
v -11.383880 1.214947 -7.888883
v -11.435773 1.055675 -10.996235
v -11.294825 1.026736 -10.996235
v -11.533690 1.389030 -10.996235
v -11.562630 1.248081 -10.996235
v -11.294825 1.026736 -11.230750
v -11.435773 1.055675 -11.230750
v -11.562630 1.248081 -11.230750
v -11.533690 1.389030 -11.230750
v -11.096504 1.157491 -10.996235
v -11.067566 1.298440 -10.996235
v -11.194423 1.490847 -10.996235
v -11.335371 1.519786 -10.996235
v -11.067566 1.298440 -11.230750
v -11.096504 1.157491 -11.230750
v -11.335371 1.519786 -11.230750
v -11.194423 1.490847 -11.230750
v -11.404632 1.104749 -9.143749
v -11.294052 1.082045 -9.143749
v -11.481452 1.366279 -9.143749
v -11.504156 1.255699 -9.143749
v -11.294052 1.082045 -11.498777
v -11.404632 1.104749 -11.498777
v -11.504156 1.255699 -11.498777
v -11.481452 1.366279 -11.498777
v -11.138462 1.184628 -9.143749
v -11.115759 1.295208 -9.143749
v -11.215282 1.446158 -9.143749
v -11.325863 1.468862 -9.143749
v -11.115759 1.295208 -11.498777
v -11.138462 1.184628 -11.498777
v -11.325863 1.468862 -11.498777
v -11.215282 1.446158 -11.498777
v -10.366786 0.038021 -9.568767
v -10.326712 0.064442 -9.514393
v -10.326712 0.064442 -9.325830
v -10.366786 0.038021 -9.271458
v -10.534854 -0.072789 -9.271458
v -10.574927 -0.099210 -9.325830
v -10.574927 -0.099210 -9.514393
v -10.534854 -0.072789 -9.568767
v -11.175737 1.352178 -10.335200
v -11.215812 1.325757 -10.389574
v -11.215812 1.325757 -10.092264
v -11.175738 1.352178 -10.146637
v -11.423953 1.188525 -10.146637
v -11.383880 1.214947 -10.092264
v -11.383880 1.214947 -10.389574
v -11.423953 1.188525 -10.335200
v -10.326712 0.064442 -11.119091
v -10.366786 0.038021 -11.064718
v -10.366786 0.038021 -11.362027
v -10.326712 0.064442 -11.307654
v -10.574927 -0.099210 -11.307654
v -10.534854 -0.072789 -11.362027
v -10.534854 -0.072789 -11.064717
v -10.574927 -0.099210 -11.119091
v -11.215812 1.325757 -10.243911
v -11.175737 1.352178 -10.298284
v -11.175738 1.352178 -10.486847
v -11.215812 1.325757 -10.541221
v -11.383880 1.214947 -10.541220
v -11.423953 1.188525 -10.486847
v -11.423953 1.188525 -10.298284
v -11.383880 1.214947 -10.243911
v -11.435773 1.055675 -13.351263
v -11.294825 1.026736 -13.351263
v -11.533690 1.389030 -13.351263
v -11.562630 1.248081 -13.351263
v -11.294825 1.026736 -13.585777
v -11.435773 1.055675 -13.585777
v -11.562630 1.248081 -13.585777
v -11.533690 1.389030 -13.585777
v -11.096504 1.157491 -13.351263
v -11.067566 1.298440 -13.351263
v -11.194423 1.490847 -13.351263
v -11.335371 1.519786 -13.351263
v -11.067566 1.298440 -13.585777
v -11.096504 1.157491 -13.585777
v -11.335371 1.519786 -13.585777
v -11.194423 1.490847 -13.585777
v -11.404632 1.104749 -11.498777
v -11.294052 1.082045 -11.498777
v -11.481452 1.366279 -11.498777
v -11.504156 1.255699 -11.498777
v -11.294052 1.082045 -13.853806
v -11.404632 1.104749 -13.853806
v -11.504156 1.255699 -13.853806
v -11.481452 1.366279 -13.853806
v -11.138462 1.184628 -11.498777
v -11.115759 1.295208 -11.498777
v -11.215282 1.446158 -11.498777
v -11.325863 1.468862 -11.498777
v -11.115759 1.295208 -13.853806
v -11.138462 1.184628 -13.853806
v -11.325863 1.468862 -13.853806
v -11.215282 1.446158 -13.853806
v -10.366786 0.038021 -11.923795
v -10.326712 0.064442 -11.869420
v -10.326712 0.064442 -11.680859
v -10.366786 0.038021 -11.626485
v -10.534854 -0.072789 -11.626485
v -10.574927 -0.099210 -11.680859
v -10.574927 -0.099210 -11.869420
v -10.534854 -0.072789 -11.923795
v -11.175737 1.352178 -12.690228
v -11.215812 1.325757 -12.744602
v -11.215812 1.325757 -12.447292
v -11.175738 1.352178 -12.501665
v -11.423953 1.188525 -12.501665
v -11.383880 1.214947 -12.447292
v -11.383880 1.214947 -12.744602
v -11.423953 1.188525 -12.690228
v -10.326712 0.064442 -13.474119
v -10.366786 0.038021 -13.419746
v -10.366786 0.038021 -13.717056
v -10.326712 0.064442 -13.662682
v -10.574927 -0.099210 -13.662682
v -10.534854 -0.072789 -13.717056
v -10.534854 -0.072789 -13.419744
v -10.574927 -0.099210 -13.474119
v -11.215812 1.325757 -12.598938
v -11.175737 1.352178 -12.653312
v -11.175738 1.352178 -12.841875
v -11.215812 1.325757 -12.896249
v -11.383880 1.214947 -12.896248
v -11.423953 1.188525 -12.841875
v -11.423953 1.188525 -12.653312
v -11.383880 1.214947 -12.598938
v -11.435773 1.055675 -15.706291
v -11.294825 1.026736 -15.706291
v -11.533690 1.389030 -15.706291
v -11.562630 1.248081 -15.706291
v -11.294825 1.026736 -15.940805
v -11.435773 1.055675 -15.940805
v -11.562630 1.248081 -15.940805
v -11.533690 1.389030 -15.940805
v -11.096504 1.157491 -15.706291
v -11.067566 1.298440 -15.706291
v -11.194423 1.490847 -15.706291
v -11.335371 1.519786 -15.706291
v -11.067566 1.298440 -15.940805
v -11.096504 1.157491 -15.940805
v -11.335371 1.519786 -15.940805
v -11.194423 1.490847 -15.940805
v -11.404632 1.104749 -13.853806
v -11.294052 1.082045 -13.853806
v -11.481452 1.366279 -13.853806
v -11.504156 1.255699 -13.853806
v -11.294052 1.082045 -16.208834
v -11.404632 1.104749 -16.208834
v -11.504156 1.255699 -16.208834
v -11.481452 1.366279 -16.208834
v -11.138462 1.184628 -13.853806
v -11.115759 1.295208 -13.853806
v -11.215282 1.446158 -13.853806
v -11.325863 1.468862 -13.853806
v -11.115759 1.295208 -16.208834
v -11.138462 1.184628 -16.208834
v -11.325863 1.468862 -16.208834
v -11.215282 1.446158 -16.208834
v -10.366786 0.038021 -14.278822
v -10.326712 0.064442 -14.224447
v -10.326712 0.064442 -14.035887
v -10.366786 0.038021 -13.981512
v -10.534854 -0.072789 -13.981512
v -10.574927 -0.099210 -14.035887
v -10.574927 -0.099210 -14.224447
v -10.534854 -0.072789 -14.278822
v -11.175737 1.352178 -15.045256
v -11.215812 1.325757 -15.099629
v -11.215812 1.325757 -14.802320
v -11.175738 1.352178 -14.856692
v -11.423953 1.188525 -14.856692
v -11.383880 1.214947 -14.802320
v -11.383880 1.214947 -15.099629
v -11.423953 1.188525 -15.045256
v -10.326712 0.064442 -15.829145
v -10.366786 0.038021 -15.774775
v -10.366786 0.038021 -16.072083
v -10.326712 0.064442 -16.017710
v -10.574927 -0.099210 -16.017710
v -10.534854 -0.072789 -16.072083
v -10.534854 -0.072789 -15.774773
v -10.574927 -0.099210 -15.829145
v -11.215812 1.325757 -14.953966
v -11.175737 1.352178 -15.008340
v -11.175738 1.352178 -15.196903
v -11.215812 1.325757 -15.251277
v -11.383880 1.214947 -15.251276
v -11.423953 1.188525 -15.196903
v -11.423953 1.188525 -15.008340
v -11.383880 1.214947 -14.953966
v -11.404632 1.104749 -16.208832
v -11.294052 1.082045 -16.208832
v -11.481452 1.366279 -16.208832
v -11.504156 1.255699 -16.208832
v -11.138462 1.184628 -16.208832
v -11.115759 1.295208 -16.208832
v -11.215282 1.446158 -16.208832
v -11.325863 1.468862 -16.208832
v -10.366786 0.038021 -16.633850
v -10.326712 0.064442 -16.579477
v -10.326712 0.064442 -16.390913
v -10.366786 0.038021 -16.336540
v -10.534854 -0.072789 -16.336540
v -10.574927 -0.099210 -16.390913
v -10.574927 -0.099210 -16.579477
v -10.534854 -0.072789 -16.633850
v -11.175737 1.352178 -17.400284
v -11.215812 1.325757 -17.454655
v -11.215812 1.325757 -17.157347
v -11.175738 1.352178 -17.211720
v -11.423953 1.188525 -17.211720
v -11.383880 1.214947 -17.157347
v -11.383880 1.214947 -17.454655
v -11.423953 1.188525 -17.400284
v -10.326712 0.064442 -18.184174
v -10.366786 0.038021 -18.129801
v -10.366786 0.038021 -18.427109
v -10.326712 0.064442 -18.372738
v -10.574927 -0.099210 -18.372738
v -10.534854 -0.072789 -18.427109
v -10.534854 -0.072789 -18.129801
v -10.574927 -0.099210 -18.184174
v -11.215812 1.325757 -17.308994
v -11.175737 1.352178 -17.363365
v -11.175738 1.352178 -17.551931
v -11.215812 1.325757 -17.606304
v -11.383880 1.214947 -17.606304
v -11.423953 1.188525 -17.551929
v -11.423953 1.188525 -17.363365
v -11.383880 1.214947 -17.308994
v -11.294052 1.082045 -0.901153
v -11.404632 1.104749 -0.901152
v -11.481452 1.366279 -0.901152
v -11.504156 1.255699 -0.901153
v -11.138462 1.184628 -0.901152
v -11.115759 1.295208 -0.901153
v -11.325863 1.468862 -0.901153
v -11.215282 1.446158 -0.901152
v -11.294052 1.082045 -0.312395
v -11.504156 1.255699 -0.312395
v -11.115759 1.295208 -0.312395
v -11.325863 1.468862 -0.312395
v -11.404632 1.104749 -0.312395
v -11.481452 1.366279 -0.312395
v -11.138462 1.184628 -0.312395
v -11.215282 1.446158 -0.312395
v -11.325863 1.468862 -17.975101
v -11.115759 1.295208 -17.975101
v -11.504156 1.255699 -17.975101
v -11.294052 1.082045 -17.975101
v -11.404632 1.104749 -17.975101
v -11.481452 1.366279 -17.975101
v -11.138462 1.184628 -17.975101
v -11.215282 1.446158 -17.975101
v -9.913243 -0.451134 -18.654865
v -9.913243 -0.451134 0.367913
v -9.935366 -0.217326 -18.654865
v -9.935366 -0.217326 0.367913
v -10.368318 -0.399614 -9.143476
v -10.680079 -0.044993 -9.143476
v -10.151377 -0.165806 -9.143476
v -10.325458 0.188815 -9.143476
v -9.913243 -0.451134 -9.143476
v -9.935366 -0.217326 -9.143476
v -10.368318 -0.399614 -4.387782
v -10.325458 0.188815 -4.493047
v -9.913243 -0.451134 -4.387782
v -10.680079 -0.044993 -4.493047
v -10.151377 -0.165806 -4.387782
v -9.935366 -0.217326 -4.387782
v -10.680079 -0.044993 -13.793905
v -10.151377 -0.165806 -13.899172
v -9.935366 -0.217326 -13.899172
v -10.368318 -0.399614 -13.899172
v -10.325458 0.188815 -13.793905
v -9.913243 -0.451134 -13.899172
v -10.368318 -0.399614 -2.009934
v -10.680079 -0.044993 -16.119120
v -10.151377 -0.165806 -16.277020
v -10.325458 0.188815 -2.167833
v -9.913243 -0.451134 -2.009934
v -9.935366 -0.217326 -16.277020
v -10.368318 -0.399614 -11.521324
v -10.680079 -0.044993 -6.818262
v -10.151377 -0.165806 -6.765629
v -10.325458 0.188815 -11.468691
v -9.913243 -0.451134 -11.521324
v -9.935366 -0.217326 -6.765629
v -10.368318 -0.399614 -6.765629
v -10.325458 0.188815 -6.818262
v -9.913243 -0.451134 -6.765629
v -10.680079 -0.044993 -2.167833
v -10.151377 -0.165806 -2.009934
v -9.935366 -0.217326 -2.009934
v -10.680079 -0.044993 -11.468691
v -10.151377 -0.165806 -11.521324
v -9.935366 -0.217326 -11.521324
v -10.368318 -0.399614 -16.277020
v -10.325458 0.188815 -16.119120
v -9.913243 -0.451134 -16.277020
vt 0.6896 0.7248
vt 0.6959 0.7385
vt 0.6958 0.7310
vt 0.7033 0.7309
vt 0.2529 0.0164
vt 0.0313 0.0568
vt 0.0098 0.0164
vt 0.6654 0.6812
vt 0.6457 0.7013
vt 0.6457 0.6815
vt 0.6958 0.7310
vt 0.6519 0.7059
vt 0.6654 0.7010
vt 0.6702 0.7057
vt 0.8201 0.3033
vt 0.6666 0.2579
vt 0.8201 0.2579
vt 0.6666 0.3668
vt 0.8202 0.3228
vt 0.6666 0.3228
vt 0.8202 0.2196
vt 0.6666 0.1755
vt 0.8202 0.1755
vt 0.6667 0.1368
vt 0.8202 0.1562
vt 0.8202 0.1368
vt 0.6666 0.3228
vt 0.6666 0.3033
vt 0.8202 0.0914
vt 0.6667 0.0719
vt 0.6667 0.0914
vt 0.7087 0.9645
vt 0.7087 0.8100
vt 0.6242 0.8100
vt 0.7087 0.9645
vt 0.6242 0.9645
vt 0.7087 0.8100
vt 0.3020 0.3668
vt 0.5889 0.3228
vt 0.3020 0.3228
vt 0.4452 0.3033
vt 0.3018 0.2579
vt 0.4452 0.2579
vt 0.3022 0.1368
vt 0.4456 0.1562
vt 0.4456 0.1368
vt 0.5886 0.3033
vt 0.3018 0.3228
vt 0.3018 0.3033
vt 0.5890 0.0914
vt 0.3022 0.0719
vt 0.3022 0.0914
vt 0.0152 0.3668
vt 0.3020 0.3228
vt 0.0152 0.3228
vt 0.3018 0.3033
vt 0.0149 0.3228
vt 0.0149 0.3033
vt 0.0129 0.4706
vt 0.5583 0.3994
vt 0.0129 0.3994
vt 0.3829 0.9885
vt 0.5761 0.5170
vt 0.6338 0.5170
vt 0.0856 0.5170
vt 0.2789 0.9885
vt 0.3365 0.9885
vt 0.5761 0.5170
vt 0.3829 0.9885
vt 0.6338 0.5170
vt 0.5583 0.3994
vt 0.0129 0.4706
vt 0.5583 0.4706
vt 0.0856 0.5170
vt 0.2789 0.9885
vt 0.0279 0.5170
vt 0.0129 0.3994
vt 0.5583 0.4706
vt 0.0129 0.4706
vt 0.0129 0.4706
vt 0.5503 0.4876
vt 0.0129 0.4876
vt 0.3995 0.9885
vt 0.6504 0.5170
vt 0.0209 0.3824
vt 0.3252 0.9885
vt 0.5595 0.5170
vt 0.1022 0.5170
vt 0.0209 0.4876
vt 0.2622 0.9885
vt 0.0113 0.5170
vt 0.0129 0.3994
vt 0.5503 0.3824
vt 0.0129 0.3824
vt 0.5583 0.4706
vt 0.0129 0.3994
vt 0.5583 0.3994
vt 0.8201 0.3033
vt 0.6666 0.2579
vt 0.8201 0.2579
vt 0.6666 0.3668
vt 0.8202 0.3228
vt 0.6666 0.3228
vt 0.8202 0.2196
vt 0.6666 0.1755
vt 0.8202 0.1755
vt 0.6667 0.1368
vt 0.8202 0.1562
vt 0.8202 0.1368
vt 0.6666 0.3228
vt 0.6666 0.3033
vt 0.8202 0.0914
vt 0.6667 0.0719
vt 0.6667 0.0914
vt 0.7087 0.9645
vt 0.7087 0.8100
vt 0.6242 0.8100
vt 0.7087 0.9645
vt 0.6242 0.9645
vt 0.7087 0.8100
vt 0.5886 0.3033
vt 0.0149 0.2579
vt 0.5886 0.2579
vt 0.0152 0.3668
vt 0.5889 0.3228
vt 0.0152 0.3228
vt 0.5889 0.2196
vt 0.0152 0.1755
vt 0.5889 0.1755
vt 0.0153 0.1368
vt 0.5890 0.1562
vt 0.5890 0.1368
vt 0.0149 0.3228
vt 0.0149 0.3033
vt 0.5890 0.0914
vt 0.0153 0.0719
vt 0.0153 0.0914
vt 0.5583 0.4706
vt 0.0129 0.3994
vt 0.0129 0.4706
vt 0.3829 0.9885
vt 0.5761 0.5170
vt 0.6338 0.5170
vt 0.0856 0.5170
vt 0.2789 0.9885
vt 0.3365 0.9885
vt 0.5761 0.5170
vt 0.3829 0.9885
vt 0.6338 0.5170
vt 0.5583 0.4706
vt 0.0129 0.3994
vt 0.0129 0.4706
vt 0.0856 0.5170
vt 0.2789 0.9885
vt 0.0279 0.5170
vt 0.0129 0.3994
vt 0.5583 0.4706
vt 0.0129 0.4706
vt 0.0129 0.4706
vt 0.5503 0.4876
vt 0.0129 0.4876
vt 0.3995 0.9885
vt 0.6504 0.5170
vt 0.5583 0.3994
vt 0.0209 0.3824
vt 0.3252 0.9885
vt 0.5595 0.5170
vt 0.1022 0.5170
vt 0.0209 0.4876
vt 0.2622 0.9885
vt 0.0113 0.5170
vt 0.5503 0.3824
vt 0.0129 0.3824
vt 0.5583 0.3994
vt 0.5583 0.4706
vt 0.8201 0.3033
vt 0.6666 0.2579
vt 0.8201 0.2579
vt 0.6666 0.3668
vt 0.8202 0.3228
vt 0.6666 0.3228
vt 0.8202 0.2196
vt 0.6666 0.1755
vt 0.8202 0.1755
vt 0.6667 0.1368
vt 0.8202 0.1562
vt 0.8202 0.1368
vt 0.6666 0.3228
vt 0.6666 0.3033
vt 0.8202 0.0914
vt 0.6667 0.0719
vt 0.6667 0.0914
vt 0.7087 0.9645
vt 0.7087 0.8100
vt 0.6242 0.8100
vt 0.7087 0.9645
vt 0.6242 0.9645
vt 0.7087 0.8100
vt 0.5886 0.3033
vt 0.0149 0.2579
vt 0.5886 0.2579
vt 0.0152 0.3668
vt 0.5889 0.3228
vt 0.0152 0.3228
vt 0.5889 0.2196
vt 0.0152 0.1755
vt 0.5889 0.1755
vt 0.0153 0.1368
vt 0.5890 0.1562
vt 0.5890 0.1368
vt 0.0149 0.3228
vt 0.0149 0.3033
vt 0.5890 0.0914
vt 0.0153 0.0719
vt 0.0153 0.0914
vt 0.0129 0.4706
vt 0.5583 0.3994
vt 0.0129 0.3994
vt 0.3829 0.9885
vt 0.5761 0.5170
vt 0.6338 0.5170
vt 0.0856 0.5170
vt 0.2789 0.9885
vt 0.3365 0.9885
vt 0.5761 0.5170
vt 0.3829 0.9885
vt 0.6338 0.5170
vt 0.5583 0.4706
vt 0.0129 0.3994
vt 0.0129 0.4706
vt 0.0856 0.5170
vt 0.2789 0.9885
vt 0.0279 0.5170
vt 0.0129 0.3994
vt 0.5583 0.4706
vt 0.0129 0.4706
vt 0.0129 0.4706
vt 0.5503 0.4876
vt 0.0129 0.4876
vt 0.3995 0.9885
vt 0.6504 0.5170
vt 0.0209 0.3824
vt 0.3252 0.9885
vt 0.5595 0.5170
vt 0.1022 0.5170
vt 0.0209 0.4876
vt 0.2622 0.9885
vt 0.0113 0.5170
vt 0.5503 0.3824
vt 0.0129 0.3824
vt 0.5583 0.3994
vt 0.5583 0.4706
vt 0.8201 0.3033
vt 0.6666 0.2579
vt 0.8201 0.2579
vt 0.6666 0.3668
vt 0.8202 0.3228
vt 0.6666 0.3228
vt 0.8202 0.2196
vt 0.6666 0.1755
vt 0.8202 0.1755
vt 0.6667 0.1368
vt 0.8202 0.1562
vt 0.8202 0.1368
vt 0.6666 0.3228
vt 0.6666 0.3033
vt 0.8202 0.0914
vt 0.6667 0.0719
vt 0.6667 0.0914
vt 0.7087 0.9645
vt 0.7087 0.8100
vt 0.6242 0.8100
vt 0.7087 0.9645
vt 0.6242 0.9645
vt 0.7087 0.8100
vt 0.5886 0.3033
vt 0.0149 0.2579
vt 0.5886 0.2579
vt 0.0152 0.3668
vt 0.5889 0.3228
vt 0.0152 0.3228
vt 0.5889 0.2196
vt 0.0152 0.1755
vt 0.5889 0.1755
vt 0.0153 0.1368
vt 0.5890 0.1562
vt 0.5890 0.1368
vt 0.0149 0.3228
vt 0.0149 0.3033
vt 0.5890 0.0914
vt 0.0153 0.0719
vt 0.0153 0.0914
vt 0.5583 0.4706
vt 0.0129 0.3994
vt 0.0129 0.4706
vt 0.3829 0.9885
vt 0.5761 0.5170
vt 0.6338 0.5170
vt 0.0856 0.5170
vt 0.2789 0.9885
vt 0.3365 0.9885
vt 0.5761 0.5170
vt 0.3829 0.9885
vt 0.6338 0.5170
vt 0.5583 0.3994
vt 0.0129 0.4706
vt 0.5583 0.4706
vt 0.0856 0.5170
vt 0.2789 0.9885
vt 0.0279 0.5170
vt 0.0129 0.3994
vt 0.5583 0.4706
vt 0.0129 0.4706
vt 0.0129 0.4706
vt 0.5503 0.4876
vt 0.0129 0.4876
vt 0.3995 0.9885
vt 0.6504 0.5170
vt 0.5583 0.3994
vt 0.0209 0.3824
vt 0.3252 0.9885
vt 0.5595 0.5170
vt 0.1022 0.5170
vt 0.0209 0.4876
vt 0.2622 0.9885
vt 0.0113 0.5170
vt 0.0129 0.3994
vt 0.5503 0.3824
vt 0.0129 0.3824
vt 0.5583 0.3994
vt 0.5583 0.4706
vt 0.8201 0.3033
vt 0.6666 0.2579
vt 0.8201 0.2579
vt 0.6666 0.3668
vt 0.8202 0.3228
vt 0.6666 0.3228
vt 0.8202 0.2196
vt 0.6666 0.1755
vt 0.8202 0.1755
vt 0.6667 0.1368
vt 0.8202 0.1562
vt 0.8202 0.1368
vt 0.6666 0.3228
vt 0.6666 0.3033
vt 0.8202 0.0914
vt 0.6667 0.0719
vt 0.6667 0.0914
vt 0.7087 0.9645
vt 0.7087 0.8100
vt 0.6242 0.8100
vt 0.7087 0.9645
vt 0.6242 0.9645
vt 0.7087 0.8100
vt 0.5886 0.3033
vt 0.0149 0.2579
vt 0.5886 0.2579
vt 0.0152 0.3668
vt 0.5889 0.3228
vt 0.0152 0.3228
vt 0.5889 0.2196
vt 0.0152 0.1755
vt 0.5889 0.1755
vt 0.0153 0.1368
vt 0.5890 0.1562
vt 0.5890 0.1368
vt 0.0149 0.3228
vt 0.0149 0.3033
vt 0.5890 0.0914
vt 0.0153 0.0719
vt 0.0153 0.0914
vt 0.5583 0.4706
vt 0.0129 0.3994
vt 0.0129 0.4706
vt 0.3829 0.9885
vt 0.5761 0.5170
vt 0.6338 0.5170
vt 0.0856 0.5170
vt 0.2789 0.9885
vt 0.3365 0.9885
vt 0.5761 0.5170
vt 0.3829 0.9885
vt 0.6338 0.5170
vt 0.5583 0.4706
vt 0.0129 0.3994
vt 0.0129 0.4706
vt 0.0856 0.5170
vt 0.2789 0.9885
vt 0.0279 0.5170
vt 0.0129 0.3994
vt 0.5583 0.4706
vt 0.0129 0.4706
vt 0.0129 0.4706
vt 0.5503 0.4876
vt 0.0129 0.4876
vt 0.3995 0.9885
vt 0.6504 0.5170
vt 0.5583 0.3994
vt 0.0209 0.3824
vt 0.3252 0.9885
vt 0.5595 0.5170
vt 0.1022 0.5170
vt 0.0209 0.4876
vt 0.2622 0.9885
vt 0.0113 0.5170
vt 0.5503 0.3824
vt 0.0129 0.3824
vt 0.5583 0.3994
vt 0.5583 0.4706
vt 0.8201 0.3033
vt 0.6666 0.2579
vt 0.8201 0.2579
vt 0.6666 0.3668
vt 0.8202 0.3228
vt 0.6666 0.3228
vt 0.8202 0.2196
vt 0.6666 0.1755
vt 0.8202 0.1755
vt 0.6667 0.1368
vt 0.8202 0.1562
vt 0.8202 0.1368
vt 0.6666 0.3228
vt 0.6666 0.3033
vt 0.8202 0.0914
vt 0.6667 0.0719
vt 0.6667 0.0914
vt 0.7087 0.9645
vt 0.7087 0.8100
vt 0.6242 0.8100
vt 0.7087 0.9645
vt 0.6242 0.9645
vt 0.7087 0.8100
vt 0.5886 0.3033
vt 0.0149 0.2579
vt 0.5886 0.2579
vt 0.0152 0.3668
vt 0.5889 0.3228
vt 0.0152 0.3228
vt 0.5889 0.2196
vt 0.0152 0.1755
vt 0.5889 0.1755
vt 0.0153 0.1368
vt 0.5890 0.1562
vt 0.5890 0.1368
vt 0.0149 0.3228
vt 0.0149 0.3033
vt 0.5890 0.0914
vt 0.0153 0.0719
vt 0.0153 0.0914
vt 0.5583 0.4706
vt 0.0129 0.3994
vt 0.0129 0.4706
vt 0.3829 0.9885
vt 0.5761 0.5170
vt 0.6338 0.5170
vt 0.0856 0.5170
vt 0.2789 0.9885
vt 0.3365 0.9885
vt 0.5761 0.5170
vt 0.3829 0.9885
vt 0.6338 0.5170
vt 0.5583 0.4706
vt 0.0129 0.3994
vt 0.0129 0.4706
vt 0.0856 0.5170
vt 0.2789 0.9885
vt 0.0279 0.5170
vt 0.0129 0.3994
vt 0.5583 0.4706
vt 0.0129 0.4706
vt 0.0129 0.4706
vt 0.5503 0.4876
vt 0.0129 0.4876
vt 0.3995 0.9885
vt 0.6504 0.5170
vt 0.5583 0.3994
vt 0.0209 0.3824
vt 0.3252 0.9885
vt 0.5595 0.5170
vt 0.1022 0.5170
vt 0.0209 0.4876
vt 0.2622 0.9885
vt 0.0113 0.5170
vt 0.5503 0.3824
vt 0.0129 0.3824
vt 0.5583 0.3994
vt 0.5583 0.4706
vt 0.8201 0.3033
vt 0.6666 0.2579
vt 0.8201 0.2579
vt 0.6666 0.3668
vt 0.8202 0.3228
vt 0.6666 0.3228
vt 0.8202 0.2196
vt 0.6666 0.1755
vt 0.8202 0.1755
vt 0.6667 0.1368
vt 0.8202 0.1562
vt 0.8202 0.1368
vt 0.6666 0.3228
vt 0.6666 0.3033
vt 0.8202 0.0914
vt 0.6667 0.0719
vt 0.6667 0.0914
vt 0.7087 0.9645
vt 0.7087 0.8100
vt 0.6242 0.8100
vt 0.7087 0.9645
vt 0.6242 0.9645
vt 0.7087 0.8100
vt 0.5886 0.3033
vt 0.0149 0.2579
vt 0.5886 0.2579
vt 0.0152 0.3668
vt 0.5889 0.3228
vt 0.0152 0.3228
vt 0.5889 0.2196
vt 0.0152 0.1755
vt 0.5889 0.1755
vt 0.0153 0.1368
vt 0.5890 0.1562
vt 0.5890 0.1368
vt 0.0149 0.3228
vt 0.0149 0.3033
vt 0.5890 0.0914
vt 0.0153 0.0719
vt 0.0153 0.0914
vt 0.5583 0.4706
vt 0.0129 0.3994
vt 0.0129 0.4706
vt 0.3829 0.9885
vt 0.5761 0.5170
vt 0.6338 0.5170
vt 0.0856 0.5170
vt 0.2789 0.9885
vt 0.3365 0.9885
vt 0.5761 0.5170
vt 0.3829 0.9885
vt 0.6338 0.5170
vt 0.5583 0.4706
vt 0.0129 0.3994
vt 0.0129 0.4706
vt 0.0856 0.5170
vt 0.2789 0.9885
vt 0.0279 0.5170
vt 0.0129 0.3994
vt 0.5583 0.4706
vt 0.0129 0.4706
vt 0.0129 0.4706
vt 0.5503 0.4876
vt 0.0129 0.4876
vt 0.3995 0.9885
vt 0.6504 0.5170
vt 0.5583 0.3994
vt 0.0209 0.3824
vt 0.3252 0.9885
vt 0.5595 0.5170
vt 0.1022 0.5170
vt 0.0209 0.4876
vt 0.2622 0.9885
vt 0.0113 0.5170
vt 0.5503 0.3824
vt 0.0129 0.3824
vt 0.5583 0.3994
vt 0.5583 0.4706
vt 0.0149 0.2579
vt 0.3020 0.2196
vt 0.0152 0.1755
vt 0.3020 0.1755
vt 0.0153 0.1368
vt 0.3022 0.1562
vt 0.3022 0.0914
vt 0.5583 0.4706
vt 0.0129 0.3994
vt 0.0129 0.4706
vt 0.3829 0.9885
vt 0.5761 0.5170
vt 0.6338 0.5170
vt 0.0856 0.5170
vt 0.2789 0.9885
vt 0.3365 0.9885
vt 0.5761 0.5170
vt 0.3829 0.9885
vt 0.6338 0.5170
vt 0.5583 0.3994
vt 0.0129 0.4706
vt 0.5583 0.4706
vt 0.0856 0.5170
vt 0.2789 0.9885
vt 0.0279 0.5170
vt 0.0129 0.3994
vt 0.5583 0.4706
vt 0.0129 0.4706
vt 0.0129 0.4706
vt 0.5503 0.4876
vt 0.0129 0.4876
vt 0.3995 0.9885
vt 0.6504 0.5170
vt 0.5583 0.3994
vt 0.0209 0.3824
vt 0.3252 0.9885
vt 0.5595 0.5170
vt 0.1022 0.5170
vt 0.0209 0.4876
vt 0.2622 0.9885
vt 0.0113 0.5170
vt 0.0129 0.3994
vt 0.5503 0.3824
vt 0.0129 0.3824
vt 0.5583 0.4706
vt 0.0129 0.3994
vt 0.5583 0.3994
vt 0.4456 0.0914
vt 0.3022 0.1368
vt 0.5890 0.1368
vt 0.3018 0.2579
vt 0.5889 0.2196
vt 0.5886 0.2579
vt 0.1588 0.0719
vt 0.1588 0.0914
vt 0.1583 0.3228
vt 0.1583 0.3033
vt 0.5890 0.1562
vt 0.3020 0.1755
vt 0.5889 0.1755
vt 0.1586 0.3668
vt 0.1586 0.3228
vt 0.0153 0.0719
vt 0.0153 0.0914
vt 0.4454 0.2196
vt 0.4454 0.1755
vt 0.1588 0.1368
vt 0.1583 0.2579
vt 0.3020 0.2196
vt 0.3022 0.1562
vt 0.1586 0.1755
vt 0.9754 0.7236
vt 0.9307 0.8696
vt 0.9307 0.6789
vt 0.3022 0.0719
vt 0.3018 0.3228
vt 0.3020 0.3668
vt 0.4454 0.3228
vt 0.7816 0.7236
vt 0.8263 0.8696
vt 0.8263 0.6789
vt 0.6844 0.7061
vt 0.6891 0.7123
vt 0.6891 0.7123
vt 0.6896 0.7248
vt 0.6702 0.6874
vt 0.6702 0.6874
vt 0.6457 0.6815
vt 0.6654 0.6812
vt 0.6708 0.7062
vt 0.6645 0.7001
vt 0.6645 0.7001
vt 0.6770 0.7245
vt 0.6844 0.7197
vt 0.6891 0.7244
vt 0.7446 0.0568
vt 0.9824 0.0164
vt 0.7392 0.0164
vt 0.6645 0.7152
vt 0.6583 0.6939
vt 0.6520 0.6877
vt 0.6520 0.6877
vt 0.6749 0.6937
vt 0.6796 0.6999
vt 0.6796 0.6999
vt 0.6749 0.7104
vt 0.6797 0.7151
vt 0.7392 0.0164
vt 0.5069 0.0568
vt 0.4961 0.0164
vt 0.2691 0.0568
vt 0.4961 0.0164
vt 0.2529 0.0164
vt 0.6896 0.7338
vt 0.6939 0.7291
vt 0.6986 0.7337
vt 0.6833 0.7186
vt 0.6771 0.7124
vt 0.6771 0.7124
vt 0.6939 0.7185
vt 0.6986 0.7247
vt 0.6986 0.7247
vt 0.6833 0.7292
vt 0.7033 0.7309
vt 0.6708 0.7062
vt 0.7034 0.7384
vt 0.0313 0.0568
vt 0.0098 0.0164
vt 0.7446 0.0568
vt 0.6708 0.7199
vt 0.6844 0.7061
vt 0.6582 0.7106
vt 0.5068 0.0568
vt 0.6583 0.6939
vt 0.6749 0.6937
vt 0.6833 0.7186
vt 0.6939 0.7185
vt 0.2691 0.0568
vt 0.8202 0.3668
vt 0.6666 0.2196
vt 0.6667 0.1562
vt 0.8201 0.3228
vt 0.8202 0.0719
vt 0.5879 0.8462
vt 0.5879 0.9283
vt 0.6242 0.9645
vt 0.7450 0.9283
vt 0.7450 0.8462
vt 0.5879 0.8462
vt 0.6242 0.8100
vt 0.7450 0.8462
vt 0.7450 0.9283
vt 0.5879 0.9283
vt 0.5889 0.3668
vt 0.5886 0.3228
vt 0.5890 0.0719
vt 0.5583 0.4706
vt 0.0279 0.5170
vt 0.3252 0.9885
vt 0.3365 0.9885
vt 0.5583 0.3994
vt 0.5583 0.3824
vt 0.3086 0.9885
vt 0.3531 0.9885
vt 0.5583 0.4876
vt 0.8202 0.3668
vt 0.6666 0.2196
vt 0.6667 0.1562
vt 0.8201 0.3228
vt 0.8202 0.0719
vt 0.5879 0.8462
vt 0.5879 0.9283
vt 0.6242 0.9645
vt 0.7450 0.9283
vt 0.7450 0.8462
vt 0.5879 0.8462
vt 0.6242 0.8100
vt 0.7450 0.8462
vt 0.7450 0.9283
vt 0.5879 0.9283
vt 0.5889 0.3668
vt 0.0152 0.2196
vt 0.0153 0.1562
vt 0.5886 0.3228
vt 0.5890 0.0719
vt 0.0279 0.5170
vt 0.3252 0.9885
vt 0.5583 0.3994
vt 0.3365 0.9885
vt 0.5583 0.3994
vt 0.5583 0.3824
vt 0.3086 0.9885
vt 0.3531 0.9885
vt 0.5583 0.4876
vt 0.0129 0.3994
vt 0.8202 0.3668
vt 0.6666 0.2196
vt 0.6667 0.1562
vt 0.8201 0.3228
vt 0.8202 0.0719
vt 0.5879 0.8462
vt 0.5879 0.9283
vt 0.6242 0.9645
vt 0.7450 0.9283
vt 0.7450 0.8462
vt 0.5879 0.8462
vt 0.6242 0.8100
vt 0.7450 0.8462
vt 0.7450 0.9283
vt 0.5879 0.9283
vt 0.5889 0.3668
vt 0.0152 0.2196
vt 0.0153 0.1562
vt 0.5886 0.3228
vt 0.5890 0.0719
vt 0.5583 0.4706
vt 0.0279 0.5170
vt 0.3252 0.9885
vt 0.5583 0.3994
vt 0.3365 0.9885
vt 0.5583 0.3994
vt 0.5583 0.3824
vt 0.3086 0.9885
vt 0.3531 0.9885
vt 0.5583 0.4876
vt 0.0129 0.3994
vt 0.8202 0.3668
vt 0.6666 0.2196
vt 0.6667 0.1562
vt 0.8201 0.3228
vt 0.8202 0.0719
vt 0.5879 0.8462
vt 0.5879 0.9283
vt 0.6242 0.9645
vt 0.7450 0.9283
vt 0.7450 0.8462
vt 0.5879 0.8462
vt 0.6242 0.8100
vt 0.7450 0.8462
vt 0.7450 0.9283
vt 0.5879 0.9283
vt 0.5889 0.3668
vt 0.0152 0.2196
vt 0.0153 0.1562
vt 0.5886 0.3228
vt 0.5890 0.0719
vt 0.0279 0.5170
vt 0.3252 0.9885
vt 0.3365 0.9885
vt 0.5583 0.3994
vt 0.5583 0.3824
vt 0.3086 0.9885
vt 0.3531 0.9885
vt 0.5583 0.4876
vt 0.0129 0.3994
vt 0.8202 0.3668
vt 0.6666 0.2196
vt 0.6667 0.1562
vt 0.8201 0.3228
vt 0.8202 0.0719
vt 0.5879 0.8462
vt 0.5879 0.9283
vt 0.6242 0.9645
vt 0.7450 0.9283
vt 0.7450 0.8462
vt 0.5879 0.8462
vt 0.6242 0.8100
vt 0.7450 0.8462
vt 0.7450 0.9283
vt 0.5879 0.9283
vt 0.5889 0.3668
vt 0.0152 0.2196
vt 0.0153 0.1562
vt 0.5886 0.3228
vt 0.5890 0.0719
vt 0.0279 0.5170
vt 0.3252 0.9885
vt 0.5583 0.3994
vt 0.3365 0.9885
vt 0.5583 0.3994
vt 0.5583 0.3824
vt 0.3086 0.9885
vt 0.3531 0.9885
vt 0.5583 0.4876
vt 0.0129 0.3994
vt 0.8202 0.3668
vt 0.6666 0.2196
vt 0.6667 0.1562
vt 0.8201 0.3228
vt 0.8202 0.0719
vt 0.5879 0.8462
vt 0.5879 0.9283
vt 0.6242 0.9645
vt 0.7450 0.9283
vt 0.7450 0.8462
vt 0.5879 0.8462
vt 0.6242 0.8100
vt 0.7450 0.8462
vt 0.7450 0.9283
vt 0.5879 0.9283
vt 0.5889 0.3668
vt 0.0152 0.2196
vt 0.0153 0.1562
vt 0.5886 0.3228
vt 0.5890 0.0719
vt 0.0279 0.5170
vt 0.3252 0.9885
vt 0.5583 0.3994
vt 0.3365 0.9885
vt 0.5583 0.3994
vt 0.5583 0.3824
vt 0.3086 0.9885
vt 0.3531 0.9885
vt 0.5583 0.4876
vt 0.0129 0.3994
vt 0.8202 0.3668
vt 0.6666 0.2196
vt 0.6667 0.1562
vt 0.8201 0.3228
vt 0.8202 0.0719
vt 0.5879 0.8462
vt 0.5879 0.9283
vt 0.6242 0.9645
vt 0.7450 0.9283
vt 0.7450 0.8462
vt 0.5879 0.8462
vt 0.6242 0.8100
vt 0.7450 0.8462
vt 0.7450 0.9283
vt 0.5879 0.9283
vt 0.5889 0.3668
vt 0.0152 0.2196
vt 0.0153 0.1562
vt 0.5886 0.3228
vt 0.5890 0.0719
vt 0.0279 0.5170
vt 0.3252 0.9885
vt 0.5583 0.3994
vt 0.3365 0.9885
vt 0.5583 0.3994
vt 0.5583 0.3824
vt 0.3086 0.9885
vt 0.3531 0.9885
vt 0.5583 0.4876
vt 0.0129 0.3994
vt 0.0152 0.2196
vt 0.0153 0.1562
vt 0.0279 0.5170
vt 0.3252 0.9885
vt 0.3365 0.9885
vt 0.5583 0.3994
vt 0.5583 0.3824
vt 0.3086 0.9885
vt 0.3531 0.9885
vt 0.5583 0.4876
vt 0.1586 0.2196
vt 0.1588 0.1562
vt 0.7816 0.8249
vt 0.7816 0.7236
vt 0.8263 0.6789
vt 0.9754 0.8249
vt 0.8263 0.8696
vt 0.4456 0.0719
vt 0.4452 0.3228
vt 0.4454 0.3668
vt 0.9754 0.8249
vt 0.9754 0.7236
vt 0.9307 0.6789
vt 0.7816 0.8249
vt 0.9307 0.8696
vt 0.9824 0.0568
vn -0.7510 -0.6603 0.0000
vn -0.2998 0.2782 -0.9125
vn 0.8977 0.4407 0.0000
vn -0.2998 0.2782 0.9125
vn 0.0000 0.0000 -1.0000
vn -0.5504 0.8349 0.0000
vn -0.8349 -0.5504 0.0000
vn 0.8349 0.5504 0.0000
vn -0.2011 -0.9796 0.0000
vn -0.9796 0.2011 0.0000
vn 0.9796 -0.2011 0.0000
vn 0.2011 0.9796 0.0000
vn 0.5504 -0.8349 0.0000
vn 0.0000 0.0000 1.0000
vn -0.2586 0.3922 0.8828
vn 0.2586 -0.3922 0.8828
vn -0.2586 0.3922 -0.8828
vn 0.7732 0.1119 -0.6242
vn 0.4075 0.6665 0.6242
vn -0.7732 -0.1119 0.6242
vn -0.4075 -0.6666 -0.6242
vn 0.7732 0.1119 0.6242
vn 0.4075 0.6666 -0.6242
vn -0.7732 -0.1119 -0.6242
vn -0.4075 -0.6665 0.6242
vn 0.2586 -0.3922 -0.8828
vn 0.4075 0.6666 0.6242
vn -0.4075 -0.6665 -0.6242
vn 0.7732 0.1119 0.6243
vn -0.4075 -0.6666 0.6242
vn 0.8349 0.5505 0.0000
vn 0.4075 0.6665 -0.6242
vn 0.2320 0.9727 0.0000
vn -0.1125 -0.9937 0.0000
vn -0.2605 0.3951 -0.8809
vn -0.2605 0.3951 0.8809
vn -0.8349 -0.5505 0.0000
s off
f 564/1/1 4/2/1 3/3/1
f 4/2/2 7/4/2 3/3/2
f 559/5/3 6/6/3 5/7/3
f 5/8/4 2/9/4 1/10/4
f 7/4/5 521/11/5 3/3/5
f 558/12/6 6/13/6 546/14/6
f 16/15/6 20/16/6 23/17/6
f 12/18/7 14/19/7 9/20/7
f 24/21/8 18/22/8 21/23/8
f 10/24/9 14/25/9 13/26/9
f 16/15/10 12/27/10 11/28/10
f 22/29/11 18/30/11 17/31/11
f 20/16/12 24/21/12 23/17/12
f 22/29/13 10/24/13 13/26/13
f 23/32/5 22/33/5 13/34/5
f 20/35/14 11/36/14 17/37/14
f 500/38/7 30/39/7 498/40/7
f 518/41/6 26/42/6 513/43/6
f 36/44/9 517/45/9 516/46/9
f 32/47/10 500/48/10 499/49/10
f 38/50/11 502/51/11 501/52/11
f 460/53/7 35/54/7 457/55/7
f 34/56/10 460/57/10 459/58/10
f 44/59/15 54/60/15 45/61/15
f 53/62/7 47/63/7 46/64/7
f 57/65/8 67/66/8 66/67/8
f 42/68/8 52/69/8 43/70/8
f 72/71/16 58/72/16 65/73/16
f 64/74/7 70/75/7 61/76/7
f 62/77/17 68/78/17 59/79/17
f 41/80/18 49/81/18 42/82/18
f 43/70/19 51/83/19 44/84/19
f 54/60/20 46/85/20 45/61/20
f 56/86/21 48/87/21 47/63/21
f 66/67/22 58/88/22 57/65/22
f 68/78/23 60/89/23 59/79/23
f 61/76/24 69/90/24 62/91/24
f 63/92/25 71/93/25 64/94/25
f 50/95/26 48/96/26 55/97/26
f 80/98/6 84/99/6 87/100/6
f 76/101/7 78/102/7 73/103/7
f 88/104/8 82/105/8 85/106/8
f 74/107/9 78/108/9 77/109/9
f 80/98/10 76/110/10 75/111/10
f 86/112/11 82/113/11 81/114/11
f 84/99/12 88/104/12 87/100/12
f 86/112/13 74/107/13 77/109/13
f 87/115/5 86/116/5 77/117/5
f 84/118/14 75/119/14 81/120/14
f 96/121/6 100/122/6 103/123/6
f 92/124/7 94/125/7 89/126/7
f 104/127/8 98/128/8 101/129/8
f 90/130/9 94/131/9 93/132/9
f 96/121/10 92/133/10 91/134/10
f 102/135/11 98/136/11 97/137/11
f 100/122/12 104/127/12 103/123/12
f 102/135/13 90/130/13 93/132/13
f 115/138/15 109/139/15 108/140/15
f 117/141/7 111/142/7 110/143/7
f 121/144/8 131/145/8 130/146/8
f 106/147/8 116/148/8 107/149/8
f 129/150/16 127/151/16 122/152/16
f 128/153/7 134/154/7 125/155/7
f 126/156/17 132/157/17 123/158/17
f 105/159/18 113/160/18 106/161/18
f 107/149/27 115/162/27 108/163/27
f 118/164/20 110/165/20 109/139/20
f 120/166/21 112/167/21 111/142/21
f 130/146/22 122/168/22 121/144/22
f 132/157/23 124/169/23 123/158/23
f 125/155/24 133/170/24 126/171/24
f 127/151/25 135/172/25 128/173/25
f 105/159/26 119/174/26 114/175/26
f 144/176/6 148/177/6 151/178/6
f 140/179/7 142/180/7 137/181/7
f 152/182/8 146/183/8 149/184/8
f 138/185/9 142/186/9 141/187/9
f 144/176/10 140/188/10 139/189/10
f 150/190/11 146/191/11 145/192/11
f 148/177/12 152/182/12 151/178/12
f 150/190/13 138/185/13 141/187/13
f 151/193/5 150/194/5 141/195/5
f 148/196/14 139/197/14 145/198/14
f 160/199/6 164/200/6 167/201/6
f 156/202/7 158/203/7 153/204/7
f 168/205/8 162/206/8 165/207/8
f 154/208/9 158/209/9 157/210/9
f 160/199/10 156/211/10 155/212/10
f 166/213/11 162/214/11 161/215/11
f 164/200/12 168/205/12 167/201/12
f 166/213/13 154/208/13 157/210/13
f 172/216/15 182/217/15 173/218/15
f 181/219/7 175/220/7 174/221/7
f 185/222/8 195/223/8 194/224/8
f 170/225/8 180/226/8 171/227/8
f 193/228/16 191/229/16 186/230/16
f 192/231/7 198/232/7 189/233/7
f 190/234/17 196/235/17 187/236/17
f 169/237/18 177/238/18 170/239/18
f 171/227/27 179/240/27 172/241/27
f 182/217/20 174/242/20 173/218/20
f 184/243/21 176/244/21 175/220/21
f 194/224/22 186/245/22 185/222/22
f 196/235/23 188/246/23 187/236/23
f 189/233/24 197/247/24 190/248/24
f 191/229/25 199/249/25 192/250/25
f 169/237/26 183/251/26 178/252/26
f 208/253/6 212/254/6 215/255/6
f 204/256/7 206/257/7 201/258/7
f 216/259/8 210/260/8 213/261/8
f 202/262/9 206/263/9 205/264/9
f 208/253/10 204/265/10 203/266/10
f 214/267/11 210/268/11 209/269/11
f 212/254/12 216/259/12 215/255/12
f 214/267/13 202/262/13 205/264/13
f 215/270/5 214/271/5 205/272/5
f 212/273/14 203/274/14 209/275/14
f 224/276/6 228/277/6 231/278/6
f 220/279/7 222/280/7 217/281/7
f 232/282/8 226/283/8 229/284/8
f 218/285/9 222/286/9 221/287/9
f 224/276/10 220/288/10 219/289/10
f 230/290/11 226/291/11 225/292/11
f 228/277/12 232/282/12 231/278/12
f 230/290/13 218/285/13 221/287/13
f 243/293/15 237/294/15 236/295/15
f 245/296/7 239/297/7 238/298/7
f 249/299/8 259/300/8 258/301/8
f 234/302/8 244/303/8 235/304/8
f 264/305/16 250/306/16 257/307/16
f 256/308/7 262/309/7 253/310/7
f 254/311/17 260/312/17 251/313/17
f 233/314/18 241/315/18 234/316/18
f 235/304/27 243/317/27 236/318/27
f 246/319/20 238/320/20 237/294/20
f 248/321/28 240/322/28 239/297/28
f 258/301/22 250/323/22 249/299/22
f 260/312/23 252/324/23 251/313/23
f 253/310/24 261/325/24 254/326/24
f 255/327/25 263/328/25 256/329/25
f 233/314/26 247/330/26 242/331/26
f 272/332/6 276/333/6 279/334/6
f 268/335/7 270/336/7 265/337/7
f 280/338/8 274/339/8 277/340/8
f 266/341/9 270/342/9 269/343/9
f 272/332/10 268/344/10 267/345/10
f 278/346/11 274/347/11 273/348/11
f 276/333/12 280/338/12 279/334/12
f 278/346/13 266/341/13 269/343/13
f 279/349/5 278/350/5 269/351/5
f 276/352/14 267/353/14 273/354/14
f 288/355/6 292/356/6 295/357/6
f 284/358/7 286/359/7 281/360/7
f 296/361/8 290/362/8 293/363/8
f 282/364/9 286/365/9 285/366/9
f 288/355/10 284/367/10 283/368/10
f 294/369/11 290/370/11 289/371/11
f 292/356/12 296/361/12 295/357/12
f 294/369/13 282/364/13 285/366/13
f 307/372/15 301/373/15 300/374/15
f 309/375/7 303/376/7 302/377/7
f 313/378/8 323/379/8 322/380/8
f 298/381/8 308/382/8 299/383/8
f 321/384/16 319/385/16 314/386/16
f 320/387/7 326/388/7 317/389/7
f 318/390/17 324/391/17 315/392/17
f 297/393/18 305/394/18 298/395/18
f 299/383/27 307/396/27 300/397/27
f 310/398/20 302/399/20 301/373/20
f 312/400/21 304/401/21 303/376/21
f 322/380/29 314/402/29 313/378/29
f 324/391/23 316/403/23 315/392/23
f 317/389/24 325/404/24 318/405/24
f 319/385/30 327/406/30 320/407/30
f 297/393/26 311/408/26 306/409/26
f 336/410/6 340/411/6 343/412/6
f 332/413/7 334/414/7 329/415/7
f 344/416/31 338/417/31 341/418/31
f 330/419/9 334/420/9 333/421/9
f 336/410/10 332/422/10 331/423/10
f 342/424/11 338/425/11 337/426/11
f 340/411/12 344/416/12 343/412/12
f 342/424/13 330/419/13 333/421/13
f 343/427/5 342/428/5 333/429/5
f 340/430/14 331/431/14 337/432/14
f 352/433/6 356/434/6 359/435/6
f 348/436/7 350/437/7 345/438/7
f 360/439/8 354/440/8 357/441/8
f 346/442/9 350/443/9 349/444/9
f 352/433/10 348/445/10 347/446/10
f 358/447/11 354/448/11 353/449/11
f 356/434/12 360/439/12 359/435/12
f 358/447/13 346/442/13 349/444/13
f 371/450/15 365/451/15 364/452/15
f 373/453/7 367/454/7 366/455/7
f 377/456/8 387/457/8 386/458/8
f 362/459/8 372/460/8 363/461/8
f 385/462/16 383/463/16 378/464/16
f 384/465/7 390/466/7 381/467/7
f 382/468/17 388/469/17 379/470/17
f 361/471/18 369/472/18 362/473/18
f 363/461/27 371/474/27 364/475/27
f 374/476/20 366/477/20 365/451/20
f 376/478/21 368/479/21 367/454/21
f 386/458/22 378/480/22 377/456/22
f 388/469/23 380/481/23 379/470/23
f 381/467/24 389/482/24 382/483/24
f 383/463/30 391/484/30 384/485/30
f 361/471/26 375/486/26 370/487/26
f 400/488/6 404/489/6 407/490/6
f 396/491/7 398/492/7 393/493/7
f 408/494/31 402/495/31 405/496/31
f 394/497/9 398/498/9 397/499/9
f 400/488/10 396/500/10 395/501/10
f 406/502/11 402/503/11 401/504/11
f 404/489/12 408/494/12 407/490/12
f 406/502/13 394/497/13 397/499/13
f 407/505/5 406/506/5 397/507/5
f 404/508/14 395/509/14 401/510/14
f 416/511/6 420/512/6 423/513/6
f 412/514/7 414/515/7 409/516/7
f 424/517/8 418/518/8 421/519/8
f 410/520/9 414/521/9 413/522/9
f 416/511/10 412/523/10 411/524/10
f 422/525/11 418/526/11 417/527/11
f 420/512/12 424/517/12 423/513/12
f 422/525/13 410/520/13 413/522/13
f 435/528/15 429/529/15 428/530/15
f 437/531/7 431/532/7 430/533/7
f 441/534/8 451/535/8 450/536/8
f 426/537/8 436/538/8 427/539/8
f 449/540/16 447/541/16 442/542/16
f 448/543/7 454/544/7 445/545/7
f 446/546/17 452/547/17 443/548/17
f 425/549/18 433/550/18 426/551/18
f 427/539/27 435/552/27 428/553/27
f 438/554/20 430/555/20 429/529/20
f 440/556/21 432/557/21 431/532/21
f 450/536/22 442/558/22 441/534/22
f 452/547/32 444/559/32 443/548/32
f 445/545/24 453/560/24 446/561/24
f 447/541/25 455/562/25 448/563/25
f 425/549/26 439/564/26 434/565/26
f 34/56/6 464/566/6 26/42/6
f 25/567/8 462/568/8 27/569/8
f 458/570/9 35/571/9 36/44/9
f 464/566/12 25/567/12 26/42/12
f 28/572/13 458/570/13 36/44/13
f 475/573/15 469/574/15 468/575/15
f 477/576/7 471/577/7 470/578/7
f 481/579/8 491/580/8 490/581/8
f 466/582/8 476/583/8 467/584/8
f 496/585/16 482/586/16 489/587/16
f 488/588/7 494/589/7 485/590/7
f 486/591/17 492/592/17 483/593/17
f 465/594/18 473/595/18 466/596/18
f 467/584/27 475/597/27 468/598/27
f 478/599/20 470/600/20 469/574/20
f 480/601/21 472/602/21 471/577/21
f 490/581/22 482/603/22 481/579/22
f 492/592/32 484/604/32 483/593/32
f 485/590/24 493/605/24 486/606/24
f 487/607/30 495/608/30 488/609/30
f 474/610/26 472/611/26 479/612/26
f 519/613/13 36/44/13 516/46/13
f 38/50/13 497/614/13 29/615/13
f 503/616/12 40/617/12 39/618/12
f 501/52/11 507/619/11 511/620/11
f 499/49/10 506/621/10 510/622/10
f 497/614/9 30/623/9 29/615/9
f 40/617/8 502/624/8 37/625/8
f 506/626/7 498/40/7 509/627/7
f 32/47/6 503/616/6 39/618/6
f 28/572/11 462/628/11 461/629/11
f 26/42/12 520/630/12 513/43/12
f 520/630/8 27/569/8 514/631/8
f 501/52/13 505/632/13 497/614/13
f 508/633/12 504/634/12 503/616/12
f 505/632/9 498/635/9 497/614/9
f 504/634/8 507/636/8 502/624/8
f 499/49/6 508/633/6 503/616/6
f 517/637/5 518/638/5 516/639/5
f 519/613/11 27/640/11 28/572/11
f 518/41/10 33/641/10 34/56/10
f 33/642/7 517/643/7 35/54/7
f 507/644/14 508/645/14 511/646/14
f 527/647/33 563/648/33 562/649/33
f 3/3/34 566/650/34 564/1/34
f 5/8/33 560/651/33 559/652/33
f 5/8/14 522/653/14 524/654/14
f 525/655/34 557/656/34 555/657/34
f 561/658/6 528/659/6 552/660/6
f 552/661/3 527/662/3 562/663/3
f 550/664/1 525/655/1 555/657/1
f 558/12/1 531/665/1 543/666/1
f 531/665/34 547/667/34 543/666/34
f 535/668/33 554/669/33 551/670/33
f 550/664/6 532/671/6 556/672/6
f 551/673/3 532/674/3 535/675/3
f 565/676/3 538/677/3 545/678/3
f 544/679/6 541/680/6 565/681/6
f 540/682/34 553/683/34 549/684/34
f 538/685/33 548/686/33 545/687/33
f 549/684/1 537/688/1 540/682/1
f 525/655/1 561/658/1 549/684/1
f 545/687/33 523/689/33 7/4/33
f 549/684/34 529/690/34 525/655/34
f 4/2/6 565/681/6 8/691/6
f 8/692/3 545/678/3 7/693/3
f 527/662/3 556/694/3 551/673/3
f 526/695/6 556/672/6 528/659/6
f 551/670/33 530/696/33 527/647/33
f 543/666/34 522/653/34 1/10/34
f 2/9/1 543/666/1 1/10/1
f 534/697/1 555/657/1 531/665/1
f 541/698/3 562/663/3 538/677/3
f 537/688/6 552/660/6 541/680/6
f 555/657/34 533/699/34 531/665/34
f 559/652/33 536/700/33 535/668/33
f 564/1/34 542/701/34 540/682/34
f 562/649/33 539/702/33 538/685/33
f 534/697/6 546/14/6 532/671/6
f 535/675/3 546/703/3 559/5/3
f 540/682/1 544/679/1 564/1/1
f 564/1/1 544/679/1 4/2/1
f 4/2/35 8/691/35 7/4/35
f 559/5/3 546/703/3 6/6/3
f 5/8/36 6/13/36 2/9/36
f 7/4/5 523/689/5 521/11/5
f 558/12/6 2/9/6 6/13/6
f 16/15/6 11/28/6 20/16/6
f 12/18/7 15/704/7 14/19/7
f 24/21/8 19/705/8 18/22/8
f 10/24/9 9/706/9 14/25/9
f 16/15/10 15/707/10 12/27/10
f 22/29/11 21/708/11 18/30/11
f 20/16/12 19/705/12 24/21/12
f 22/29/13 17/31/13 10/24/13
f 13/34/5 14/709/5 15/710/5
f 15/710/5 16/711/5 13/34/5
f 23/32/5 24/712/5 21/713/5
f 21/713/5 22/33/5 23/32/5
f 13/34/5 16/711/5 23/32/5
f 9/714/14 10/715/14 11/36/14
f 17/37/14 18/716/14 19/717/14
f 19/717/14 20/35/14 17/37/14
f 11/36/14 12/718/14 9/714/14
f 10/715/14 17/37/14 11/36/14
f 500/38/37 31/719/37 30/39/37
f 518/41/6 34/56/6 26/42/6
f 36/44/9 35/571/9 517/45/9
f 32/47/10 31/720/10 500/48/10
f 38/50/11 37/721/11 502/51/11
f 460/53/37 33/642/37 35/54/37
f 34/56/10 33/641/10 460/57/10
f 44/59/15 51/722/15 54/60/15
f 53/62/7 56/86/7 47/63/7
f 57/65/8 60/723/8 67/66/8
f 42/68/8 49/724/8 52/69/8
f 72/71/16 63/92/16 58/72/16
f 64/74/7 71/725/7 70/75/7
f 62/77/17 69/726/17 68/78/17
f 41/80/18 50/95/18 49/81/18
f 43/70/27 52/69/27 51/83/27
f 54/60/20 53/727/20 46/85/20
f 56/86/28 55/728/28 48/87/28
f 66/67/22 65/729/22 58/88/22
f 68/78/23 67/730/23 60/89/23
f 61/76/24 70/75/24 69/90/24
f 63/92/30 72/71/30 71/93/30
f 50/95/26 41/80/26 48/96/26
f 80/98/6 75/111/6 84/99/6
f 76/101/7 79/731/7 78/102/7
f 88/104/8 83/732/8 82/105/8
f 74/107/9 73/733/9 78/108/9
f 80/98/10 79/734/10 76/110/10
f 86/112/11 85/735/11 82/113/11
f 84/99/12 83/732/12 88/104/12
f 86/112/13 81/114/13 74/107/13
f 77/117/5 78/736/5 79/737/5
f 79/737/5 80/738/5 77/117/5
f 87/115/5 88/739/5 85/740/5
f 85/740/5 86/116/5 87/115/5
f 77/117/5 80/738/5 87/115/5
f 73/741/14 74/742/14 75/119/14
f 81/120/14 82/743/14 83/744/14
f 83/744/14 84/118/14 81/120/14
f 75/119/14 76/745/14 73/741/14
f 74/742/14 81/120/14 75/119/14
f 96/121/6 91/134/6 100/122/6
f 92/124/7 95/746/7 94/125/7
f 104/127/8 99/747/8 98/128/8
f 90/130/9 89/748/9 94/131/9
f 96/121/10 95/749/10 92/133/10
f 102/135/11 101/750/11 98/136/11
f 100/122/12 99/747/12 104/127/12
f 102/135/13 97/137/13 90/130/13
f 115/138/15 118/164/15 109/139/15
f 117/141/7 120/166/7 111/142/7
f 121/144/8 124/751/8 131/145/8
f 106/147/8 113/752/8 116/148/8
f 129/150/16 136/753/16 127/151/16
f 128/153/7 135/754/7 134/154/7
f 126/156/17 133/755/17 132/157/17
f 105/159/18 114/175/18 113/160/18
f 107/149/27 116/148/27 115/162/27
f 118/164/20 117/756/20 110/165/20
f 120/166/21 119/757/21 112/167/21
f 130/146/22 129/758/22 122/168/22
f 132/157/32 131/759/32 124/169/32
f 125/155/24 134/154/24 133/170/24
f 127/151/30 136/753/30 135/172/30
f 105/159/26 112/760/26 119/174/26
f 144/176/6 139/189/6 148/177/6
f 140/179/7 143/761/7 142/180/7
f 152/182/8 147/762/8 146/183/8
f 138/185/9 137/763/9 142/186/9
f 144/176/10 143/764/10 140/188/10
f 150/190/11 149/765/11 146/191/11
f 148/177/12 147/762/12 152/182/12
f 150/190/13 145/192/13 138/185/13
f 141/195/5 142/766/5 143/767/5
f 143/767/5 144/768/5 141/195/5
f 151/193/5 152/769/5 149/770/5
f 149/770/5 150/194/5 151/193/5
f 141/195/5 144/768/5 151/193/5
f 137/771/14 138/772/14 139/197/14
f 145/198/14 146/773/14 147/774/14
f 147/774/14 148/196/14 145/198/14
f 139/197/14 140/775/14 137/771/14
f 138/772/14 145/198/14 139/197/14
f 160/199/6 155/212/6 164/200/6
f 156/202/7 159/776/7 158/203/7
f 168/205/8 163/777/8 162/206/8
f 154/208/9 153/778/9 158/209/9
f 160/199/10 159/779/10 156/211/10
f 166/213/11 165/780/11 162/214/11
f 164/200/12 163/777/12 168/205/12
f 166/213/13 161/215/13 154/208/13
f 172/216/15 179/781/15 182/217/15
f 181/219/7 184/243/7 175/220/7
f 185/222/8 188/782/8 195/223/8
f 170/225/8 177/783/8 180/226/8
f 193/228/16 200/784/16 191/229/16
f 192/231/7 199/785/7 198/232/7
f 190/234/17 197/786/17 196/235/17
f 169/237/18 178/252/18 177/238/18
f 171/227/27 180/226/27 179/240/27
f 182/217/20 181/787/20 174/242/20
f 184/243/21 183/788/21 176/244/21
f 194/224/22 193/789/22 186/245/22
f 196/235/23 195/790/23 188/246/23
f 189/233/24 198/232/24 197/247/24
f 191/229/30 200/784/30 199/249/30
f 169/237/26 176/791/26 183/251/26
f 208/253/6 203/266/6 212/254/6
f 204/256/7 207/792/7 206/257/7
f 216/259/8 211/793/8 210/260/8
f 202/262/9 201/794/9 206/263/9
f 208/253/10 207/795/10 204/265/10
f 214/267/11 213/796/11 210/268/11
f 212/254/12 211/793/12 216/259/12
f 214/267/13 209/269/13 202/262/13
f 205/272/5 206/797/5 207/798/5
f 207/798/5 208/799/5 205/272/5
f 215/270/5 216/800/5 213/801/5
f 213/801/5 214/271/5 215/270/5
f 205/272/5 208/799/5 215/270/5
f 201/802/14 202/803/14 203/274/14
f 209/275/14 210/804/14 211/805/14
f 211/805/14 212/273/14 209/275/14
f 203/274/14 204/806/14 201/802/14
f 202/803/14 209/275/14 203/274/14
f 224/276/6 219/289/6 228/277/6
f 220/279/37 223/807/37 222/280/37
f 232/282/8 227/808/8 226/283/8
f 218/285/9 217/809/9 222/286/9
f 224/276/10 223/810/10 220/288/10
f 230/290/11 229/811/11 226/291/11
f 228/277/12 227/808/12 232/282/12
f 230/290/13 225/292/13 218/285/13
f 243/293/15 246/319/15 237/294/15
f 245/296/7 248/321/7 239/297/7
f 249/299/8 252/812/8 259/300/8
f 234/302/8 241/813/8 244/303/8
f 264/305/16 255/327/16 250/306/16
f 256/308/7 263/814/7 262/309/7
f 254/311/17 261/815/17 260/312/17
f 233/314/18 242/331/18 241/315/18
f 235/304/19 244/303/19 243/317/19
f 246/319/20 245/816/20 238/320/20
f 248/321/21 247/817/21 240/322/21
f 258/301/22 257/818/22 250/323/22
f 260/312/23 259/819/23 252/324/23
f 253/310/24 262/309/24 261/325/24
f 255/327/30 264/305/30 263/328/30
f 233/314/26 240/820/26 247/330/26
f 272/332/6 267/345/6 276/333/6
f 268/335/7 271/821/7 270/336/7
f 280/338/8 275/822/8 274/339/8
f 266/341/9 265/823/9 270/342/9
f 272/332/10 271/824/10 268/344/10
f 278/346/11 277/825/11 274/347/11
f 276/333/12 275/822/12 280/338/12
f 278/346/13 273/348/13 266/341/13
f 269/351/5 270/826/5 271/827/5
f 271/827/5 272/828/5 269/351/5
f 279/349/5 280/829/5 277/830/5
f 277/830/5 278/350/5 279/349/5
f 269/351/5 272/828/5 279/349/5
f 265/831/14 266/832/14 267/353/14
f 273/354/14 274/833/14 275/834/14
f 275/834/14 276/352/14 273/354/14
f 267/353/14 268/835/14 265/831/14
f 266/832/14 273/354/14 267/353/14
f 288/355/6 283/368/6 292/356/6
f 284/358/37 287/836/37 286/359/37
f 296/361/8 291/837/8 290/362/8
f 282/364/9 281/838/9 286/365/9
f 288/355/10 287/839/10 284/367/10
f 294/369/11 293/840/11 290/370/11
f 292/356/12 291/837/12 296/361/12
f 294/369/13 289/371/13 282/364/13
f 307/372/15 310/398/15 301/373/15
f 309/375/7 312/400/7 303/376/7
f 313/378/8 316/841/8 323/379/8
f 298/381/8 305/842/8 308/382/8
f 321/384/16 328/843/16 319/385/16
f 320/387/7 327/844/7 326/388/7
f 318/390/17 325/845/17 324/391/17
f 297/393/18 306/409/18 305/394/18
f 299/383/27 308/382/27 307/396/27
f 310/398/20 309/846/20 302/399/20
f 312/400/28 311/847/28 304/401/28
f 322/380/22 321/848/22 314/402/22
f 324/391/23 323/849/23 316/403/23
f 317/389/24 326/388/24 325/404/24
f 319/385/25 328/843/25 327/406/25
f 297/393/26 304/850/26 311/408/26
f 336/410/6 331/423/6 340/411/6
f 332/413/7 335/851/7 334/414/7
f 344/416/8 339/852/8 338/417/8
f 330/419/9 329/853/9 334/420/9
f 336/410/10 335/854/10 332/422/10
f 342/424/11 341/855/11 338/425/11
f 340/411/12 339/852/12 344/416/12
f 342/424/13 337/426/13 330/419/13
f 333/429/5 334/856/5 335/857/5
f 335/857/5 336/858/5 333/429/5
f 343/427/5 344/859/5 341/860/5
f 341/860/5 342/428/5 343/427/5
f 333/429/5 336/858/5 343/427/5
f 329/861/14 330/862/14 331/431/14
f 337/432/14 338/863/14 339/864/14
f 339/864/14 340/430/14 337/432/14
f 331/431/14 332/865/14 329/861/14
f 330/862/14 337/432/14 331/431/14
f 352/433/6 347/446/6 356/434/6
f 348/436/37 351/866/37 350/437/37
f 360/439/8 355/867/8 354/440/8
f 346/442/9 345/868/9 350/443/9
f 352/433/10 351/869/10 348/445/10
f 358/447/11 357/870/11 354/448/11
f 356/434/12 355/867/12 360/439/12
f 358/447/13 353/449/13 346/442/13
f 371/450/15 374/476/15 365/451/15
f 373/453/7 376/478/7 367/454/7
f 377/456/8 380/871/8 387/457/8
f 362/459/8 369/872/8 372/460/8
f 385/462/16 392/873/16 383/463/16
f 384/465/7 391/874/7 390/466/7
f 382/468/17 389/875/17 388/469/17
f 361/471/18 370/487/18 369/472/18
f 363/461/27 372/460/27 371/474/27
f 374/476/20 373/876/20 366/477/20
f 376/478/21 375/877/21 368/479/21
f 386/458/22 385/878/22 378/480/22
f 388/469/23 387/879/23 380/481/23
f 381/467/24 390/466/24 389/482/24
f 383/463/30 392/873/30 391/484/30
f 361/471/26 368/880/26 375/486/26
f 400/488/6 395/501/6 404/489/6
f 396/491/7 399/881/7 398/492/7
f 408/494/8 403/882/8 402/495/8
f 394/497/9 393/883/9 398/498/9
f 400/488/10 399/884/10 396/500/10
f 406/502/11 405/885/11 402/503/11
f 404/489/12 403/882/12 408/494/12
f 406/502/13 401/504/13 394/497/13
f 397/507/5 398/886/5 399/887/5
f 399/887/5 400/888/5 397/507/5
f 407/505/5 408/889/5 405/890/5
f 405/890/5 406/506/5 407/505/5
f 397/507/5 400/888/5 407/505/5
f 393/891/14 394/892/14 395/509/14
f 401/510/14 402/893/14 403/894/14
f 403/894/14 404/508/14 401/510/14
f 395/509/14 396/895/14 393/891/14
f 394/892/14 401/510/14 395/509/14
f 416/511/6 411/524/6 420/512/6
f 412/514/37 415/896/37 414/515/37
f 424/517/8 419/897/8 418/518/8
f 410/520/9 409/898/9 414/521/9
f 416/511/10 415/899/10 412/523/10
f 422/525/11 421/900/11 418/526/11
f 420/512/12 419/897/12 424/517/12
f 422/525/13 417/527/13 410/520/13
f 435/528/15 438/554/15 429/529/15
f 437/531/7 440/556/7 431/532/7
f 441/534/8 444/901/8 451/535/8
f 426/537/8 433/902/8 436/538/8
f 449/540/16 456/903/16 447/541/16
f 448/543/37 455/904/37 454/544/37
f 446/546/17 453/905/17 452/547/17
f 425/549/18 434/565/18 433/550/18
f 427/539/19 436/538/19 435/552/19
f 438/554/20 437/906/20 430/555/20
f 440/556/28 439/907/28 432/557/28
f 450/536/22 449/908/22 442/558/22
f 452/547/23 451/909/23 444/559/23
f 445/545/24 454/544/24 453/560/24
f 447/541/30 456/903/30 455/562/30
f 425/549/26 432/910/26 439/564/26
f 34/56/6 459/58/6 464/566/6
f 25/567/8 463/911/8 462/568/8
f 458/570/9 457/912/9 35/571/9
f 464/566/12 463/911/12 25/567/12
f 28/572/13 461/629/13 458/570/13
f 475/573/15 478/599/15 469/574/15
f 477/576/37 480/601/37 471/577/37
f 481/579/8 484/913/8 491/580/8
f 466/582/31 473/914/31 476/583/31
f 496/585/16 487/607/16 482/586/16
f 488/588/7 495/915/7 494/589/7
f 486/591/17 493/916/17 492/592/17
f 465/594/18 474/610/18 473/595/18
f 467/584/27 476/583/27 475/597/27
f 478/599/20 477/917/20 470/600/20
f 480/601/28 479/918/28 472/602/28
f 490/581/29 489/919/29 482/603/29
f 492/592/23 491/920/23 484/604/23
f 485/590/24 494/589/24 493/605/24
f 487/607/30 496/585/30 495/608/30
f 474/610/26 465/594/26 472/611/26
f 519/613/13 28/572/13 36/44/13
f 38/50/13 501/52/13 497/614/13
f 503/616/12 504/634/12 40/617/12
f 501/52/11 502/51/11 507/619/11
f 499/49/10 500/48/10 506/621/10
f 497/614/9 498/635/9 30/623/9
f 40/617/8 504/634/8 502/624/8
f 506/626/37 500/38/37 498/40/37
f 32/47/6 499/49/6 503/616/6
f 28/572/11 27/640/11 462/628/11
f 26/42/12 25/567/12 520/630/12
f 520/630/8 25/567/8 27/569/8
f 501/52/13 511/620/13 505/632/13
f 508/633/12 512/921/12 504/634/12
f 505/632/9 509/922/9 498/635/9
f 504/634/8 512/921/8 507/636/8
f 499/49/6 510/622/6 508/633/6
f 520/923/5 514/924/5 519/925/5
f 519/925/5 516/639/5 518/638/5
f 517/637/5 515/926/5 518/638/5
f 518/638/5 513/927/5 519/925/5
f 520/923/5 519/925/5 513/927/5
f 519/613/11 514/928/11 27/640/11
f 518/41/10 515/929/10 33/641/10
f 33/642/37 515/930/37 517/643/37
f 506/931/14 509/932/14 505/933/14
f 505/933/14 511/646/14 508/645/14
f 507/644/14 512/934/14 508/645/14
f 508/645/14 510/935/14 505/933/14
f 506/931/14 505/933/14 510/935/14
f 527/647/33 530/696/33 563/648/33
f 3/3/34 521/11/34 566/650/34
f 5/8/33 524/654/33 560/651/33
f 5/8/14 1/10/14 522/653/14
f 525/655/34 529/690/34 557/656/34
f 561/658/6 526/695/6 528/659/6
f 552/661/3 528/936/3 527/662/3
f 550/664/1 526/695/1 525/655/1
f 558/12/1 534/697/1 531/665/1
f 531/665/34 533/699/34 547/667/34
f 535/668/33 536/700/33 554/669/33
f 550/664/6 534/697/6 532/671/6
f 551/673/3 556/694/3 532/674/3
f 565/676/3 541/698/3 538/677/3
f 544/679/6 537/688/6 541/680/6
f 540/682/34 542/701/34 553/683/34
f 538/685/33 539/702/33 548/686/33
f 549/684/1 561/658/1 537/688/1
f 525/655/1 526/695/1 561/658/1
f 545/687/33 548/686/33 523/689/33
f 549/684/34 553/683/34 529/690/34
f 4/2/6 544/679/6 565/681/6
f 8/692/3 565/676/3 545/678/3
f 527/662/3 528/936/3 556/694/3
f 526/695/6 550/664/6 556/672/6
f 551/670/33 554/669/33 530/696/33
f 543/666/34 547/667/34 522/653/34
f 2/9/1 558/12/1 543/666/1
f 534/697/1 550/664/1 555/657/1
f 541/698/3 552/661/3 562/663/3
f 537/688/6 561/658/6 552/660/6
f 555/657/34 557/656/34 533/699/34
f 559/652/33 560/651/33 536/700/33
f 564/1/34 566/650/34 542/701/34
f 562/649/33 563/648/33 539/702/33
f 534/697/6 558/12/6 546/14/6
f 535/675/3 532/674/3 546/703/3
f 540/682/1 537/688/1 544/679/1
